%!PS-Adobe-3.0 EPSF-3.0
%%Creator: MATLAB, The Mathworks, Inc.
%%Title: /homes/numerik/wunder/program/sources/exp_ln_2nd.eps
%%CreationDate: 12/20/2005  13:35:16
%%DocumentNeededFonts: Helvetica
%%DocumentProcessColors: Cyan Magenta Yellow Black
%%LanguageLevel: 2
%%Pages: 1
%%BoundingBox:   -73   102   687   690
%%EndComments

%%BeginProlog
% MathWorks dictionary
/MathWorks 160 dict begin
% definition operators
/bdef {bind def} bind def
/ldef {load def} bind def
/xdef {exch def} bdef
/xstore {exch store} bdef
% operator abbreviations
/c  /clip ldef
/cc /concat ldef
/cp /closepath ldef
/gr /grestore ldef
/gs /gsave ldef
/mt /moveto ldef
/np /newpath ldef
/cm /currentmatrix ldef
/sm /setmatrix ldef
/rm /rmoveto ldef
/rl /rlineto ldef
/s {show newpath} bdef
/sc {setcmykcolor} bdef
/sr /setrgbcolor ldef
/sg /setgray ldef
/w /setlinewidth ldef
/j /setlinejoin ldef
/cap /setlinecap ldef
/rc {rectclip} bdef
/rf {rectfill} bdef
% page state control
/pgsv () def
/bpage {/pgsv save def} bdef
/epage {pgsv restore} bdef
/bplot /gsave ldef
/eplot {stroke grestore} bdef
% orientation switch
/portraitMode 0 def /landscapeMode 1 def /rotateMode 2 def
% coordinate system mappings
/dpi2point 0 def
% font control
/FontSize 0 def
/FMS {/FontSize xstore findfont [FontSize 0 0 FontSize neg 0 0]
  makefont setfont} bdef
/reencode {exch dup where {pop load} {pop StandardEncoding} ifelse
  exch dup 3 1 roll findfont dup length dict begin
  { 1 index /FID ne {def}{pop pop} ifelse } forall
  /Encoding exch def currentdict end definefont pop} bdef
/isroman {findfont /CharStrings get /Agrave known} bdef
/FMSR {3 1 roll 1 index dup isroman {reencode} {pop pop} ifelse
  exch FMS} bdef
/csm {1 dpi2point div -1 dpi2point div scale neg translate
 dup landscapeMode eq {pop -90 rotate}
  {rotateMode eq {90 rotate} if} ifelse} bdef
% line types: solid, dotted, dashed, dotdash
/SO { [] 0 setdash } bdef
/DO { [.5 dpi2point mul 4 dpi2point mul] 0 setdash } bdef
/DA { [6 dpi2point mul] 0 setdash } bdef
/DD { [.5 dpi2point mul 4 dpi2point mul 6 dpi2point mul 4
  dpi2point mul] 0 setdash } bdef
% macros for lines and objects
/L {lineto stroke} bdef
/MP {3 1 roll moveto 1 sub {rlineto} repeat} bdef
/AP {{rlineto} repeat} bdef
/PDlw -1 def
/W {/PDlw currentlinewidth def setlinewidth} def
/PP {closepath eofill} bdef
/DP {closepath stroke} bdef
/MR {4 -2 roll moveto dup  0 exch rlineto exch 0 rlineto
  neg 0 exch rlineto closepath} bdef
/FR {MR stroke} bdef
/PR {MR fill} bdef
/L1i {{currentfile picstr readhexstring pop} image} bdef
/tMatrix matrix def
/MakeOval {newpath tMatrix currentmatrix pop translate scale
0 0 1 0 360 arc tMatrix setmatrix} bdef
/FO {MakeOval stroke} bdef
/PO {MakeOval fill} bdef
/PD {currentlinewidth 2 div 0 360 arc fill
   PDlw -1 eq not {PDlw w /PDlw -1 def} if} def
/FA {newpath tMatrix currentmatrix pop translate scale
  0 0 1 5 -2 roll arc tMatrix setmatrix stroke} bdef
/PA {newpath tMatrix currentmatrix pop	translate 0 0 moveto scale
  0 0 1 5 -2 roll arc closepath tMatrix setmatrix fill} bdef
/FAn {newpath tMatrix currentmatrix pop translate scale
  0 0 1 5 -2 roll arcn tMatrix setmatrix stroke} bdef
/PAn {newpath tMatrix currentmatrix pop translate 0 0 moveto scale
  0 0 1 5 -2 roll arcn closepath tMatrix setmatrix fill} bdef
/vradius 0 def /hradius 0 def /lry 0 def
/lrx 0 def /uly 0 def /ulx 0 def /rad 0 def
/MRR {/vradius xdef /hradius xdef /lry xdef /lrx xdef /uly xdef
  /ulx xdef newpath tMatrix currentmatrix pop ulx hradius add uly
  vradius add translate hradius vradius scale 0 0 1 180 270 arc 
  tMatrix setmatrix lrx hradius sub uly vradius add translate
  hradius vradius scale 0 0 1 270 360 arc tMatrix setmatrix
  lrx hradius sub lry vradius sub translate hradius vradius scale
  0 0 1 0 90 arc tMatrix setmatrix ulx hradius add lry vradius sub
  translate hradius vradius scale 0 0 1 90 180 arc tMatrix setmatrix
  closepath} bdef
/FRR {MRR stroke } bdef
/PRR {MRR fill } bdef
/MlrRR {/lry xdef /lrx xdef /uly xdef /ulx xdef /rad lry uly sub 2 div def
  newpath tMatrix currentmatrix pop ulx rad add uly rad add translate
  rad rad scale 0 0 1 90 270 arc tMatrix setmatrix lrx rad sub lry rad
  sub translate rad rad scale 0 0 1 270 90 arc tMatrix setmatrix
  closepath} bdef
/FlrRR {MlrRR stroke } bdef
/PlrRR {MlrRR fill } bdef
/MtbRR {/lry xdef /lrx xdef /uly xdef /ulx xdef /rad lrx ulx sub 2 div def
  newpath tMatrix currentmatrix pop ulx rad add uly rad add translate
  rad rad scale 0 0 1 180 360 arc tMatrix setmatrix lrx rad sub lry rad
  sub translate rad rad scale 0 0 1 0 180 arc tMatrix setmatrix
  closepath} bdef
/FtbRR {MtbRR stroke } bdef
/PtbRR {MtbRR fill } bdef
/stri 6 array def /dtri 6 array def
/smat 6 array def /dmat 6 array def
/tmat1 6 array def /tmat2 6 array def /dif 3 array def
/asub {/ind2 exch def /ind1 exch def dup dup
  ind1 get exch ind2 get sub exch } bdef
/tri_to_matrix {
  2 0 asub 3 1 asub 4 0 asub 5 1 asub
  dup 0 get exch 1 get 7 -1 roll astore } bdef
/compute_transform {
  dmat dtri tri_to_matrix tmat1 invertmatrix 
  smat stri tri_to_matrix tmat2 concatmatrix } bdef
/ds {stri astore pop} bdef
/dt {dtri astore pop} bdef
/db {2 copy /cols xdef /rows xdef mul dup 3 mul string
  currentfile 
  3 index 0 eq {/ASCIIHexDecode filter}
  {/ASCII85Decode filter 3 index 2 eq {/RunLengthDecode filter} if }
  ifelse exch readstring pop
  dup 0 3 index getinterval /rbmap xdef
  dup 2 index dup getinterval /gbmap xdef
  1 index dup 2 mul exch getinterval /bbmap xdef pop pop}bdef
/it {gs np dtri aload pop moveto lineto lineto cp c
  cols rows 8 compute_transform 
  rbmap gbmap bbmap true 3 colorimage gr}bdef
/il {newpath moveto lineto stroke}bdef
currentdict end def
%%EndProlog

%%BeginSetup
MathWorks begin

0 cap

end
%%EndSetup

%%Page: 1 1
%%BeginPageSetup
%%PageBoundingBox:   -73   102   687   690
MathWorks begin
bpage
%%EndPageSetup

%%BeginObject: obj1
bplot

/dpi2point 12 def
portraitMode -0876 8280 csm

    0     0  9130  7047 rc
86 dict begin %Colortable dictionary
/c0 { 0.000000 0.000000 0.000000 sr} bdef
/c1 { 1.000000 1.000000 1.000000 sr} bdef
/c2 { 0.900000 0.000000 0.000000 sr} bdef
/c3 { 0.000000 0.820000 0.000000 sr} bdef
/c4 { 0.000000 0.000000 0.800000 sr} bdef
/c5 { 0.910000 0.820000 0.320000 sr} bdef
/c6 { 1.000000 0.260000 0.820000 sr} bdef
/c7 { 0.000000 0.820000 0.820000 sr} bdef
c0
1 j
1 sg
   0    0 9131 7048 rf
6 w
0 2404 3055 0 0 -2404 1187 2933 4 MP
PP
-3055 0 0 2404 3055 0 0 -2404 1187 2933 5 MP stroke
4 w
DO
SO
6 w
0 sg
1187 2933 mt 4242 2933 L
1187  529 mt 4242  529 L
1187 2933 mt 1187  529 L
4242 2933 mt 4242  529 L
1187 2933 mt 4242 2933 L
1187 2933 mt 1187  529 L
1187 2933 mt 1187 2902 L
1187  529 mt 1187  559 L
%%IncludeResource: font Helvetica
/Helvetica /ISOLatin1Encoding 120 FMSR

1084 3078 mt 
(-1) s
1950 2933 mt 1950 2902 L
1950  529 mt 1950  559 L
1797 3078 mt 
(-0.5) s
2714 2933 mt 2714 2902 L
2714  529 mt 2714  559 L
2681 3078 mt 
(0) s
3478 2933 mt 3478 2902 L
3478  529 mt 3478  559 L
3395 3078 mt 
(0.5) s
4241 2933 mt 4241 2902 L
4241  529 mt 4241  559 L
4208 3078 mt 
(1) s
1187 2764 mt 1217 2764 L
4242 2764 mt 4211 2764 L
1016 2808 mt 
(-5) s
1187 2404 mt 1217 2404 L
4242 2404 mt 4211 2404 L
1016 2448 mt 
(-4) s
1187 2044 mt 1217 2044 L
4242 2044 mt 4211 2044 L
1016 2088 mt 
(-3) s
1187 1684 mt 1217 1684 L
4242 1684 mt 4211 1684 L
1016 1728 mt 
(-2) s
1187 1324 mt 1217 1324 L
4242 1324 mt 4211 1324 L
1016 1368 mt 
(-1) s
1187  964 mt 1217  964 L
4242  964 mt 4211  964 L
1086 1008 mt 
(0) s
1187  605 mt 1217  605 L
4242  605 mt 4211  605 L
1086  649 mt 
(1) s
1187 2933 mt 4242 2933 L
1187  529 mt 4242  529 L
1187 2933 mt 1187  529 L
4242 2933 mt 4242  529 L
gs 1187 529 3056 2405 rc
/c8 { 1.000000 0.000000 0.000000 sr} bdef
c8
2 1 2 1 1 1 2 1 1 1 2 1 1 1 2 1 
1 1 2 1 1 1 2 1 1 1 2 1 1 1 2 1 
1 1 2 1 2 1 1 1 2 1 1 1 2 1 1 1 
2 1 1 1 2 1 1 1 2 1 1 1 2 1 1 1 
2 1 1 1 2 1 1 1 2 1 2 1 1 1 2 1 
1 1 2 1 1 1 2 1 1 1 2 1 1 1 2 1 
1 1 2 1 1 1 2 1 1 1 2 1 2 1 1 0 
2 1 1 1 2 1 1 1 2 1 1 1 2 1 1 1 
2 1 1 1 2 1 1 1 2 1 1 1 2 1 1 1 
2 1 2 1 1 1 2 1 1 1 2 1 1 1 2 1 
1 1 2 1 1 1 2 1 1 1 2 1 1 1 2 1 
1 1 2 1 2 1 1 1 2 1 1 1 2 1 1 1 
2 1 1 1 2 1 1 1 2 1 1 1 2 1 1 1 
2 1 1 1 2 1 1 1 2 1 2 1 1 1 2 1 
1 1 2 1 1 1 2 1 1 1 2 1 1 1 2 1 
1 1 2 1 1 1 2 1 1 1 2 1 1 1 2 1 
2 1 1 1 2 1 1 1 2 1 1 1 2 1 1 1 
2 1 1 1 2 1 1 1 2 1 1 1 2 1 1 1 
2 1 2 1 1 1 2 1 1 1 2 1 1 1 2 1 
1 1 2 1 1 1 2 1 1 1 2 1 1 2 2 1 
1 1 2 1 1 1 2 1 2 1 1 1 2 1 1 1 
2 1 1 1 2 1 1 1 2 1 1 1 2 1 1 1 
2 1 1 1 2 1 1 1 2 1 2 1 1 1 2 1 
1 1 2 1 1 1 2 1 1 1 2 1 1 1 2 1 
1 1 2 1 1 1 2 1 1 1 2 1 1 1 2 2 
2 1 1 1 2 1 1 1 2 1 1 1 2 1 1 1 
2 1 1 1 2 1 1 1 2 1 1 1 2 1 1 1 
2 1 1 1 2 1 2 1 1 1 2 1 1 1 2 1 
1 2 2 1 1 1 2 1 1 1 2 1 1 1 2 1 
1 1 2 1 1 1 2 1 2 1 1 1 2 1 1 1 
2 1 1 1 2 1 1 2 2 1 1 1 2 1 1 1 
2 1 1 1 2 1 1 1 2 1 1 1 2 1 2 1 
1 1 2 1 1 1 2 1 1 2 2 1 1 1 2 1 
1 1 2 1 1 1 2 1 1 1 2 1 1 1 2 1 
2 1 1 1 2 2 1 1 2 1 1 1 2 1 1 1 
2 1 1 1 2 1 1 1 2 1 1 1 2 2 1 1 
2 1 1 1 2 1 2 1 1 1 2 1 1 1 2 1 
1 1 2 1 1 2 3785 2627 300 MP stroke
2 1 1 1 2 1 1 1 2 1 1 1 2 1 1 1 
2 1 1 1 2 2 2 1 1 1 2 1 1 1 2 1 
1 1 2 1 1 1 2 2 1 1 2 1 1 1 2 1 
1 1 2 1 1 1 2 1 2 1 1 2 2 1 1 1 
2 1 1 1 2 1 1 1 2 1 1 2 2 1 1 1 
2 1 1 1 2 1 1 1 2 1 1 2 2 1 2 1 
1 1 2 1 1 1 2 1 1 1 2 2 1 1 2 1 
1 1 2 1 1 1 2 1 1 1 2 2 1 1 2 1 
2 1 1 1 2 1 1 1 2 2 1 1 2 1 1 1 
2 1 1 1 2 1 1 2 2 1 1 1 2 1 1 1 
2 1 1 2 2 1 2 1 1 1 2 1 1 1 2 2 
1 1 2 1 1 1 2 1 1 1 2 1 1 2 2 1 
1 1 2 1 1 1 2 2 1 1 2 1 2 1 1 1 
2 1 1 2 2 1 1 1 2 1 1 1 2 1 1 2 
2 1 1 1 2 1 1 1 2 2 1 1 2 1 2 1 
1 1 2 2 1 1 2 1 1 1 2 1 1 2 2 1 
1 1 2 1 1 1 2 2 1 1 2 1 1 1 2 1 
1 2 2 1 2 1 1 1 2 1 1 2 2 1 1 1 
2 1 1 2 2 1 1 1 2 1 1 1 2 2 1 1 
2 1 1 1 2 2 2 1 1 1 2 1 1 1 2 2 
1 1 2 1 1 1 2 2 1 1 2 1 1 1 2 2 
1 1 2 1 1 1 2 2 1 1 2 1 2 1 1 2 
2 1 1 1 2 1 1 2 2 1 1 1 2 1 1 2 
2 1 1 1 2 2 1 1 2 1 1 1 2 2 2 1 
1 1 2 1 1 2 2 1 1 1 2 2 1 1 2 1 
1 1 2 2 1 1 2 1 1 2 2 1 1 1 2 1 
1 2 2 1 2 1 1 2 2 1 1 1 2 2 1 1 
2 1 1 1 2 2 1 1 2 1 1 2 2 1 1 1 
2 2 1 1 2 1 1 2 2 1 2 1 1 2 2 1 
1 1 2 2 1 1 2 1 1 2 2 1 1 1 2 2 
1 1 2 1 1 2 2 1 1 1 2 2 2 1 1 1 
2 2 1 1 2 1 1 2 2 1 1 2 2 1 1 1 
2 2 1 1 2 1 1 2 2 1 1 2 2 1 1 1 
2 2 2 1 1 1 2 2 1 1 2 2 1 1 2 1 
1 2 2 1 1 2 2 1 1 1 2 2 1 1 2 2 
1 1 2 1 2 2 1 1 2 2 1 1 2 1 1 2 
2 1 1 2 2 1 1 2 2 1 1 1 2 2 1 1 
2 2 1 1 2 2 3328 2257 300 MP stroke
1 1 2 1 2 2 1 1 2 2 1 1 2 2 1 1 
2 2 1 1 2 1 1 2 2 1 1 2 2 1 1 2 
2 1 1 2 2 1 1 2 2 1 2 2 1 1 2 2 
1 1 2 2 1 1 2 2 1 1 2 2 1 1 2 2 
1 1 2 2 1 1 2 2 1 1 2 2 2 1 1 2 
2 1 1 2 2 1 1 2 2 1 1 2 2 1 1 2 
2 1 1 2 2 1 1 2 2 2 1 1 2 2 1 1 
2 2 2 1 1 2 2 1 1 2 2 1 1 2 2 2 
1 1 2 2 1 1 2 2 1 2 2 1 1 2 2 1 
1 2 2 1 2 2 1 2 2 1 1 2 2 1 1 2 
2 2 1 1 2 2 1 1 2 2 1 2 2 1 1 2 
2 2 1 1 2 2 1 2 2 1 2 2 1 1 2 2 
1 2 2 1 1 2 2 2 1 1 2 2 1 2 2 1 
1 2 2 2 1 1 2 2 1 2 2 1 1 2 2 2 
2 1 1 2 2 2 1 2 2 1 1 2 2 2 1 1 
2 2 1 2 2 2 1 1 2 2 1 2 2 1 1 2 
2 2 2 2 1 1 2 2 1 2 2 2 1 1 2 2 
1 2 2 2 1 2 2 1 1 2 2 2 1 2 2 1 
1 2 2 2 1 2 2 2 2 1 1 2 2 2 1 2 
2 2 1 1 2 2 1 2 2 2 1 2 2 2 1 1 
2 2 1 2 2 2 1 2 2 2 2 2 1 1 2 2 
1 2 2 2 1 2 2 2 1 2 2 2 1 1 2 2 
1 2 2 2 1 2 2 2 1 2 2 2 1 2 2 2 
2 2 1 2 2 1 1 2 2 2 1 2 2 2 1 2 
2 2 1 2 2 2 1 2 2 2 1 2 2 2 1 2 
2 2 1 2 2 2 2 2 1 2 2 2 1 2 2 2 
1 2 2 2 1 2 2 2 1 2 2 2 1 3 2 2 
1 2 2 2 1 2 2 2 2 2 1 2 2 2 1 2 
2 2 1 3 2 2 1 2 2 2 1 2 2 2 1 2 
2 2 1 3 2 2 1 2 2 2 1 2 2 3 2 2 
1 2 2 2 1 2 2 3 1 2 2 2 1 2 2 2 
1 3 2 2 1 2 2 2 1 3 2 2 1 2 2 3 
2 2 1 2 2 2 1 3 2 2 1 2 2 3 1 2 
2 2 1 3 2 2 1 2 2 3 1 2 2 3 1 2 
2 2 1 3 2 2 2 3 1 2 2 2 1 3 2 2 
1 3 2 2 1 3 2 2 1 3 2 2 1 3 2 2 
1 3 2 2 1 3 2 2 2 3 1 3 2 2 1 3 
2 2 1 3 2 2 2871 1698 300 MP stroke
1 3 2 3 1 2 2 3 1 3 2 2 1 3 2 3 
1 2 2 3 1 3 2 3 2 2 1 3 2 3 1 3 
2 2 1 3 2 3 1 3 2 3 1 2 2 3 1 3 
2 3 1 3 2 3 1 3 2 3 1 3 2 3 2 3 
1 3 2 3 1 3 2 3 1 3 2 3 1 3 2 3 
1 3 2 3 1 3 2 3 1 3 2 4 1 3 2 3 
2 3 1 4 2 3 1 3 2 3 1 4 2 3 1 4 
2 3 1 3 2 4 1 3 2 4 1 3 2 4 1 3 
2 4 1 4 2 3 2 4 1 4 2 3 1 4 2 4 
1 4 2 4 1 3 2 4 1 4 2 4 1 4 2 5 
1 4 2 4 1 4 2 4 2 5 1 4 2 5 1 4 
2 5 1 4 2 5 1 5 2 5 1 5 2 5 1 6 
2 5 1 6 2 5 1 7 2 6 1 7 2 9 2 8 
1 7 2 7 1 6 2 6 1 5 2 6 1 5 2 5 
1 5 2 5 1 5 2 4 1 5 2 5 1 4 2 4 
1 5 2 4 2 4 1 4 2 5 1 4 2 4 1 4 
2 3 1 4 2 4 1 4 2 4 1 3 2 4 1 4 
2 3 1 4 2 3 2 4 1 3 2 4 1 3 2 4 
1 3 2 3 1 4 2 3 1 3 2 3 1 4 2 3 
1 3 2 3 1 3 2 3 1 3 2 3 2 3 1 3 
2 3 1 3 2 3 1 3 2 3 1 3 2 3 1 3 
2 3 1 2 2 3 1 3 2 3 1 2 2 3 2 3 
1 3 2 2 1 3 2 3 1 2 2 3 1 2 2 3 
1 3 2 2 1 3 2 2 1 3 2 2 1 3 2 2 
1 3 2 2 2 3 1 2 2 2 1 3 2 2 1 3 
2 2 1 2 2 3 1 2 2 2 1 3 2 2 1 2 
2 2 1 3 2 2 1 2 2 2 2 3 1 2 2 2 
1 2 2 2 1 3 2 2 1 2 2 2 1 2 2 2 
1 2 2 2 1 2 2 2 1 3 2 2 2 2 1 2 
2 2 1 2 2 2 1 2 2 2 1 2 2 2 1 2 
2 2 1 1 2 2 1 2 2 2 1 2 2 2 1 2 
2 2 2 2 1 2 2 1 1 2 2 2 1 2 2 2 
1 2 2 1 1 2 2 2 1 2 2 1 1 2 2 2 
1 2 2 2 2 1 1 2 2 2 1 1 2 2 1 2 
2 2 1 1 2 2 1 2 2 1 1 2 2 2 1 1 
2 2 1 1 2 2 1 2 2 1 2 2 1 1 2 2 
1 2 2 1 1 2 2 1 1 2 2 1 1 2 2 1 
1 2 2 2 1 1 2415 796 300 MP stroke
2 2 1 1 2 2 1 1 2 1 2 2 1 1 2 2 
1 1 2 2 1 1 2 2 1 1 2 2 1 1 2 1 
1 2 2 1 1 2 2 1 1 1 2 2 2 1 1 1 
2 2 1 1 2 2 1 1 2 1 1 2 2 1 1 1 
2 2 1 1 2 1 1 1 2 2 1 1 2 1 1 2 
2 1 2 1 1 1 2 2 1 1 2 1 1 1 2 2 
1 1 2 1 1 1 2 2 1 1 2 1 1 1 2 1 
1 2 2 1 2 1 1 1 2 1 1 1 2 2 1 1 
2 1 1 1 2 1 1 1 2 1 1 2 2 1 1 1 
2 1 1 1 2 1 1 1 2 1 2 1 1 1 2 2 
1 1 2 1 1 1 2 1 1 1 2 1 1 1 2 1 
1 1 2 1 1 1 2 1 1 1 2 1 2 1 1 1 
2 1 1 1 2 1 1 1 2 1 1 1 2 1 1 1 
2 1 1 1 2 1 1 1 2 1 1 1 2 1 1 1 
2 1 2 1 1 0 2 1 1 1 2 1 1 1 2 1 
1 1 2 1 1 1 2 1 1 0 2 1 1 1 2 1 
1 1 2 1 1 1 2 1 2 0 1 1 2 1 1 1 
2 1 1 1 2 0 1 1 2 1 1 1 2 1 1 1 
2 0 1 1 2 1 1 1 2 0 2 1 1 1 2 1 
1 1 2 0 1 1 2 1 1 1 2 0 1 1 2 1 
1 1 2 0 1 1 2 1 1 1 2 0 1 1 2 1 
2 1 1 0 2 1 1 1 2 0 1 1 2 1 1 0 
2 1 1 1 2 0 1 1 2 1 1 0 2 1 1 1 
2 0 2 1 1 1 2 0 1 1 2 1 1 0 2 1 
1 1 2 0 1 1 2 1 1 0 2 1 1 0 2 1 
1 1 2 0 1 1 2 0 2 1 1 1 2 0 1 1 
2 0 1 1 2 0 1 1 2 1 1 0 2 1 1 0 
2 1 1 0 2 1 1 0 2 1 1 1 2 0 2 1 
1 0 2 1 1 0 2 1 1 0 2 1 1 0 2 1 
1 0 2 1 1 0 2 1 1 0 2 1 1 0 2 1 
2 0 1 1 2 0 1 1 2 0 1 1 2 0 1 0 
2 1 1 0 2 1 1 0 2 1 1 0 2 1 1 0 
2 1 1 0 2 0 2 1 1 0 2 1 1 0 2 0 
1 1 2 0 1 1 2 0 1 0 2 1 1 0 2 1 
1 0 2 0 1 1 2 0 2 1 1 0 2 0 1 1 
2 0 1 0 2 1 1 0 2 0 1 1 2 0 1 1 
2 0 1 0 2 1 1 0 2 0 1 1 2 0 2 0 
1 1 2 0 1 0 1958 549 300 MP stroke
2 0 1 1 2 0 1 0 2 1 1 0 2 0 1 1 
2 0 1 0 2 0 1 1 2 0 1 0 2 1 2 0 
1 0 2 0 1 1 2 0 1 0 2 0 1 1 2 0 
1 0 2 0 1 1 2 0 1 0 2 0 1 1 2 0 
2 0 1 0 2 1 1 0 2 0 1 0 2 0 1 1 
2 0 1 0 2 0 1 1 2 0 1 0 2 0 1 0 
2 1 1 0 2 0 2 0 1 0 2 0 1 1 2 0 
1 0 2 0 1 0 2 0 1 1 2 0 1 0 2 0 
1 0 2 0 1 1 2 0 2 0 1 0 2 0 1 0 
2 0 1 1 2 0 1 0 2 0 1 0 2 0 1 0 
2 0 1 1 2 0 1 0 2 0 1 0 2 0 2 0 
1 0 2 0 1 0 2 1 1 0 2 0 1 0 2 0 
1 0 2 0 1 0 2 0 1 0 2 0 1 0 2 1 
1 0 2 0 2 0 1 0 2 0 1 0 2 0 1 0 
2 0 1 0 2 0 1 0 2 0 1 0 2 0 1 0 
2 0 1 0 2 0 2 0 1 0 2 0 1 0 2 0 
1 0 2 0 1 0 2 0 1 0 2 0 1 0 2 0 
1 0 2 0 1 0 2 0 1 0 2 0 2 0 1 0 
2 0 1 0 2 0 1 0 2 0 1 0 2 0 1 0 
2 0 1 0 2 0 1 0 2 0 1 0 2 0 2 0 
1 0 2 0 1 0 2 0 1 0 2 -1 1 0 2 0 
1 0 2 0 1 0 2 0 1 0 2 0 1 0 2 0 
1 0 2 0 2 0 1 -1 2 0 1 0 2 0 1 0 
2 0 1 0 2 0 1 0 2 0 1 -1 2 0 1 0 
2 0 1 0 2 0 2 0 1 0 2 -1 1 0 2 0 
1 0 2 0 1 0 2 0 1 0 2 -1 1 0 2 0 
1 0 2 0 1 0 2 0 1 -1 2 0 2 0 1 0 
2 0 1 0 2 -1 1 0 2 0 1 0 2 0 1 0 
2 -1 1 0 2 0 1 0 2 0 1 0 2 -1 1 0 
2 0 2 0 1 0 2 -1 1 0 2 0 1 0 2 0 
1 -1 2 0 1 0 2 0 1 0 2 -1 1 0 2 0 
1 0 2 0 2 -1 1 0 2 0 1 0 2 -1 1 0 
2 0 1 0 2 -1 1 0 2 0 1 0 2 0 1 -1 
2 0 1 0 2 0 1 -1 2 0 2 0 1 0 2 -1 
1 0 2 0 1 0 2 -1 1 0 2 0 1 -1 2 0 
1 0 2 0 1 -1 2 0 1 0 2 0 2 -1 1 0 
2 0 1 -1 2 0 1 0 2 0 1 -1 2 0 1 0 
2 -1 1 0 2 0 1501 554 300 MP stroke
1 0 2 -1 1 0 2 0 1 -1 2 0 2 0 1 -1 
2 0 1 0 2 -1 1 0 2 0 1 -1 2 0 1 0 
2 -1 1 0 2 0 1 -1 2 0 1 0 2 -1 1 0 
2 0 2 -1 1 0 2 0 1 -1 2 0 1 0 2 -1 
1 0 2 0 1 -1 2 0 1 0 2 -1 1 0 2 0 
1 -1 2 0 2 -1 1 0 2 0 1 -1 2 0 1 0 
2 -1 1 0 2 -1 1 0 2 0 1 -1 2 0 1 0 
2 -1 1 0 2 -1 1 0 2 0 2 -1 1 0 2 -1 
1 0 2 0 1 -1 2 0 1 -1 2 0 1 0 2 -1 
1 0 2 -1 1 0 2 0 1 -1 2 0 2 -1 1 0 
2 -1 1 0 2 0 1 -1 2 0 1 -1 2 0 1 -1 
2 0 1 0 2 -1 1 0 2 -1 1 0 2 -1 1 0 
2 0 2 -1 1 0 2 -1 1 0 2 -1 1 0 2 -1 
1 0 2 -1 1 0 2 0 1 -1 2 0 1 -1 2 0 
1 -1 2 0 1 -1 2 0 2 -1 1 0 2 -1 1 0 
2 -1 1 0 2 -1 1 0 2 -1 1 0 2 0 1 -1 
2 0 1 -1 2 0 1 -1 2 0 2 -1 1 0 2 -1 
1 0 2 -1 1 0 2 -1 1 0 2 -1 1 0 2 -1 
1 0 2 -1 1 0 2 -1 1 -1 2 0 1 -1 2 0 
2 -1 1 0 2 -1 1 0 2 -1 1 0 2 -1 1 0 
2 -1 1 0 2 -1 1 0 2 -1 1 0 2 -1 1 -1 
2 0 2 -1 1 0 2 -1 1 0 2 -1 1 0 2 -1 
1 0 2 -1 1 -1 2 0 1 -1 2 0 1 -1 2 0 
1 -1 2 0 1 -1 2 -1 2 0 1 -1 2 0 1 -1 
2 0 1 -1 2 -1 1 0 2 -1 1 0 2 -1 1 0 
2 -1 1 -1 2 0 1 -1 2 0 1 -1 1187 647 207 MP stroke
/c9 { 0.000000 0.000000 1.000000 sr} bdef
c9
2 0 2 1 1 1 2 1 1 1 2 1 1 1 2 1 
1 1 2 1 1 1 2 1 1 1 2 1 1 1 2 1 
1 1 2 1 2 1 1 1 2 1 1 1 2 1 1 1 
2 1 1 1 2 1 1 1 2 1 1 1 2 1 1 1 
2 1 1 1 2 1 1 1 2 1 2 1 1 1 2 1 
1 1 2 1 1 1 2 1 1 1 2 1 1 1 2 1 
1 1 2 1 1 1 2 1 1 1 2 1 2 1 1 0 
2 1 1 1 2 1 1 1 2 1 1 1 2 1 1 1 
2 1 1 1 2 1 1 1 2 1 1 1 2 1 1 1 
2 1 2 1 1 1 2 1 1 1 2 1 1 1 2 1 
1 1 2 1 1 1 2 1 1 1 2 1 1 1 2 1 
1 1 2 1 2 1 1 1 2 1 1 1 2 1 1 1 
2 1 1 1 2 1 1 1 2 1 1 1 2 1 1 1 
2 1 1 1 2 1 1 1 2 1 2 1 1 1 2 1 
1 1 2 1 1 1 2 1 1 1 2 1 1 1 2 1 
1 1 2 1 1 1 2 1 1 1 2 1 1 1 2 1 
2 1 1 1 2 1 1 1 2 1 1 1 2 1 1 1 
2 1 1 1 2 1 1 1 2 1 1 1 2 1 1 1 
2 1 2 1 1 1 2 1 1 1 2 1 1 1 2 1 
1 1 2 1 1 1 2 1 1 1 2 1 1 2 2 1 
1 1 2 1 1 1 2 1 2 1 1 1 2 1 1 1 
2 1 1 1 2 1 1 1 2 1 1 1 2 1 1 1 
2 1 1 1 2 1 1 1 2 1 2 1 1 1 2 1 
1 1 2 1 1 1 2 1 1 1 2 1 1 1 2 1 
1 1 2 1 1 1 2 1 1 1 2 1 1 1 2 2 
2 1 1 1 2 1 1 1 2 1 1 1 2 1 1 1 
2 1 1 1 2 1 1 1 2 1 1 1 2 1 1 1 
2 1 1 1 2 1 2 1 1 1 2 1 1 1 2 1 
1 2 2 1 1 1 2 1 1 1 2 1 1 1 2 1 
1 1 2 1 1 1 2 1 2 1 1 1 2 1 1 1 
2 1 1 1 2 1 1 2 2 1 1 1 2 1 1 1 
2 1 1 1 2 1 1 1 2 1 1 1 2 1 2 1 
1 1 2 1 1 1 2 1 1 2 2 1 1 1 2 1 
1 1 2 1 1 1 2 1 1 1 2 1 1 1 2 1 
2 1 1 1 2 2 1 1 2 1 1 1 2 1 1 1 
2 1 1 1 2 1 1 1 2 1 1 1 2 2 1 1 
2 1 1 1 2 1 2 1 1 1 2 1 1 1 2 1 
1 1 2 1 1 2 3785 2627 300 MP stroke
2 1 1 1 2 1 1 1 2 1 1 1 2 1 1 1 
2 1 1 1 2 2 2 1 1 1 2 1 1 1 2 1 
1 1 2 1 1 1 2 2 1 1 2 1 1 1 2 1 
1 1 2 1 1 1 2 1 2 1 1 2 2 1 1 1 
2 1 1 1 2 1 1 1 2 1 1 2 2 1 1 1 
2 1 1 1 2 1 1 1 2 1 1 2 2 1 2 1 
1 1 2 1 1 1 2 1 1 1 2 2 1 1 2 1 
1 1 2 1 1 1 2 1 1 1 2 2 1 1 2 1 
2 1 1 1 2 1 1 1 2 2 1 1 2 1 1 1 
2 1 1 1 2 1 1 2 2 1 1 1 2 1 1 1 
2 1 1 2 2 1 2 1 1 1 2 1 1 1 2 2 
1 1 2 1 1 1 2 1 1 1 2 1 1 2 2 1 
1 1 2 1 1 1 2 2 1 1 2 1 2 1 1 1 
2 1 1 2 2 1 1 1 2 1 1 1 2 1 1 2 
2 1 1 1 2 1 1 1 2 2 1 1 2 1 2 1 
1 1 2 2 1 1 2 1 1 1 2 1 1 2 2 1 
1 1 2 1 1 1 2 2 1 1 2 1 1 1 2 1 
1 2 2 1 2 1 1 1 2 1 1 2 2 1 1 1 
2 1 1 2 2 1 1 1 2 1 1 1 2 2 1 1 
2 1 1 1 2 2 2 1 1 1 2 1 1 1 2 2 
1 1 2 1 1 1 2 2 1 1 2 1 1 1 2 2 
1 1 2 1 1 1 2 2 1 1 2 1 2 1 1 2 
2 1 1 1 2 1 1 2 2 1 1 1 2 1 1 2 
2 1 1 1 2 2 1 1 2 1 1 1 2 2 2 1 
1 1 2 1 1 2 2 1 1 1 2 2 1 1 2 1 
1 1 2 2 1 1 2 1 1 2 2 1 1 1 2 1 
1 2 2 1 2 1 1 2 2 1 1 1 2 2 1 1 
2 1 1 1 2 2 1 1 2 1 1 2 2 1 1 1 
2 2 1 1 2 1 1 2 2 1 2 1 1 2 2 1 
1 1 2 2 1 1 2 1 1 2 2 1 1 1 2 2 
1 1 2 1 1 2 2 1 1 1 2 2 2 1 1 1 
2 2 1 1 2 1 1 2 2 1 1 2 2 1 1 1 
2 2 1 1 2 1 1 2 2 1 1 2 2 1 1 1 
2 2 2 1 1 1 2 2 1 1 2 2 1 1 2 1 
1 2 2 1 1 2 2 1 1 1 2 2 1 1 2 2 
1 1 2 1 2 2 1 1 2 2 1 1 2 1 1 2 
2 1 1 2 2 1 1 2 2 1 1 1 2 2 1 1 
2 2 1 1 2 2 3328 2257 300 MP stroke
1 1 2 1 2 2 1 1 2 2 1 1 2 2 1 1 
2 2 1 1 2 1 1 2 2 1 1 2 2 1 1 2 
2 1 1 2 2 1 1 2 2 1 2 2 1 1 2 2 
1 1 2 2 1 1 2 2 1 1 2 2 1 1 2 2 
1 1 2 2 1 1 2 2 1 1 2 2 2 1 1 2 
2 1 1 2 2 1 1 2 2 1 1 2 2 1 1 2 
2 1 1 2 2 1 1 2 2 2 1 1 2 2 1 1 
2 2 2 1 1 2 2 1 1 2 2 1 1 2 2 2 
1 1 2 2 1 1 2 2 1 2 2 1 1 2 2 1 
1 2 2 1 2 2 1 2 2 1 1 2 2 1 1 2 
2 2 1 1 2 2 1 1 2 2 1 2 2 1 1 2 
2 2 1 1 2 2 1 2 2 1 2 2 1 1 2 2 
1 2 2 1 1 2 2 2 1 1 2 2 1 2 2 1 
1 2 2 2 1 1 2 2 1 2 2 1 1 2 2 2 
2 1 1 2 2 2 1 2 2 1 1 2 2 2 1 1 
2 2 1 2 2 2 1 1 2 2 1 2 2 1 1 2 
2 2 2 2 1 1 2 2 1 2 2 2 1 1 2 2 
1 2 2 2 1 2 2 1 1 2 2 2 1 2 2 1 
1 2 2 2 1 2 2 2 2 1 1 2 2 2 1 2 
2 2 1 1 2 2 1 2 2 2 1 2 2 2 1 1 
2 2 1 2 2 2 1 2 2 2 2 2 1 1 2 2 
1 2 2 2 1 2 2 2 1 2 2 2 1 1 2 2 
1 2 2 2 1 2 2 2 1 2 2 2 1 2 2 2 
2 2 1 2 2 1 1 2 2 2 1 2 2 2 1 2 
2 2 1 2 2 2 1 2 2 2 1 2 2 2 1 2 
2 2 1 2 2 2 2 2 1 2 2 2 1 2 2 2 
1 2 2 2 1 2 2 2 1 2 2 2 1 3 2 2 
1 2 2 2 1 2 2 2 2 2 1 2 2 2 1 2 
2 2 1 3 2 2 1 2 2 2 1 2 2 2 1 2 
2 2 1 3 2 2 1 2 2 2 1 2 2 3 2 2 
1 2 2 2 1 2 2 3 1 2 2 2 1 2 2 2 
1 3 2 2 1 2 2 2 1 3 2 2 1 2 2 3 
2 2 1 2 2 2 1 3 2 2 1 2 2 3 1 2 
2 2 1 3 2 2 1 2 2 3 1 2 2 3 1 2 
2 2 1 3 2 2 2 3 1 2 2 2 1 3 2 2 
1 3 2 2 1 3 2 2 1 3 2 2 1 3 2 2 
1 3 2 2 1 3 2 2 2 3 1 3 2 2 1 3 
2 2 1 3 2 2 2871 1698 300 MP stroke
1 3 2 3 1 2 2 3 1 3 2 2 1 3 2 3 
1 2 2 3 1 3 2 3 2 2 1 3 2 3 1 3 
2 2 1 3 2 3 1 3 2 3 1 2 2 3 1 3 
2 3 1 3 2 3 1 3 2 3 1 3 2 3 2 3 
1 3 2 3 1 3 2 3 1 3 2 3 1 3 2 3 
1 3 2 3 1 3 2 3 1 3 2 4 1 3 2 3 
2 3 1 4 2 3 1 3 2 3 1 4 2 3 1 4 
2 3 1 3 2 4 1 3 2 4 1 3 2 4 1 3 
2 4 1 4 2 3 2 4 1 4 2 3 1 4 2 4 
1 4 2 4 1 3 2 4 1 4 2 4 1 4 2 5 
1 4 2 4 1 4 2 4 2 5 1 4 2 5 1 4 
2 5 1 4 2 5 1 5 2 5 1 5 2 5 1 6 
2 5 1 6 2 4 1 9 2 6 1 4 2 11 2 8 
1 7 2 7 1 6 2 6 1 5 2 6 1 5 2 5 
1 5 2 5 1 5 2 4 1 5 2 5 1 4 2 4 
1 5 2 4 2 4 1 4 2 5 1 4 2 4 1 4 
2 3 1 4 2 4 1 4 2 4 1 3 2 4 1 4 
2 3 1 4 2 3 2 4 1 3 2 4 1 3 2 4 
1 3 2 3 1 4 2 3 1 3 2 3 1 4 2 3 
1 3 2 3 1 3 2 3 1 3 2 3 2 3 1 3 
2 3 1 3 2 3 1 3 2 3 1 3 2 3 1 3 
2 3 1 2 2 3 1 3 2 3 1 2 2 3 2 3 
1 3 2 2 1 3 2 3 1 2 2 3 1 2 2 3 
1 3 2 2 1 3 2 2 1 3 2 2 1 3 2 2 
1 3 2 2 2 3 1 2 2 2 1 3 2 2 1 3 
2 2 1 2 2 3 1 2 2 2 1 3 2 2 1 2 
2 2 1 3 2 2 1 2 2 2 2 3 1 2 2 2 
1 2 2 2 1 3 2 2 1 2 2 2 1 2 2 2 
1 2 2 2 1 2 2 2 1 3 2 2 2 2 1 2 
2 2 1 2 2 2 1 2 2 2 1 2 2 2 1 2 
2 2 1 1 2 2 1 2 2 2 1 2 2 2 1 2 
2 2 2 2 1 2 2 1 1 2 2 2 1 2 2 2 
1 2 2 1 1 2 2 2 1 2 2 1 1 2 2 2 
1 2 2 2 2 1 1 2 2 2 1 1 2 2 1 2 
2 2 1 1 2 2 1 2 2 1 1 2 2 2 1 1 
2 2 1 1 2 2 1 2 2 1 2 2 1 1 2 2 
1 2 2 1 1 2 2 1 1 2 2 1 1 2 2 1 
1 2 2 2 1 1 2415 796 300 MP stroke
2 2 1 1 2 2 1 1 2 1 2 2 1 1 2 2 
1 1 2 2 1 1 2 2 1 1 2 2 1 1 2 1 
1 2 2 1 1 2 2 1 1 1 2 2 2 1 1 1 
2 2 1 1 2 2 1 1 2 1 1 2 2 1 1 1 
2 2 1 1 2 1 1 1 2 2 1 1 2 1 1 2 
2 1 2 1 1 1 2 2 1 1 2 1 1 1 2 2 
1 1 2 1 1 1 2 2 1 1 2 1 1 1 2 1 
1 2 2 1 2 1 1 1 2 1 1 1 2 2 1 1 
2 1 1 1 2 1 1 1 2 1 1 2 2 1 1 1 
2 1 1 1 2 1 1 1 2 1 2 1 1 1 2 2 
1 1 2 1 1 1 2 1 1 1 2 1 1 1 2 1 
1 1 2 1 1 1 2 1 1 1 2 1 2 1 1 1 
2 1 1 1 2 1 1 1 2 1 1 1 2 1 1 1 
2 1 1 1 2 1 1 1 2 1 1 1 2 1 1 1 
2 1 2 1 1 0 2 1 1 1 2 1 1 1 2 1 
1 1 2 1 1 1 2 1 1 0 2 1 1 1 2 1 
1 1 2 1 1 1 2 1 2 0 1 1 2 1 1 1 
2 1 1 1 2 0 1 1 2 1 1 1 2 1 1 1 
2 0 1 1 2 1 1 1 2 0 2 1 1 1 2 1 
1 1 2 0 1 1 2 1 1 1 2 0 1 1 2 1 
1 1 2 0 1 1 2 1 1 1 2 0 1 1 2 1 
2 1 1 0 2 1 1 1 2 0 1 1 2 1 1 0 
2 1 1 1 2 0 1 1 2 1 1 0 2 1 1 1 
2 0 2 1 1 1 2 0 1 1 2 1 1 0 2 1 
1 1 2 0 1 1 2 1 1 0 2 1 1 0 2 1 
1 1 2 0 1 1 2 0 2 1 1 1 2 0 1 1 
2 0 1 1 2 0 1 1 2 1 1 0 2 1 1 0 
2 1 1 0 2 1 1 0 2 1 1 1 2 0 2 1 
1 0 2 1 1 0 2 1 1 0 2 1 1 0 2 1 
1 0 2 1 1 0 2 1 1 0 2 1 1 0 2 1 
2 0 1 1 2 0 1 1 2 0 1 1 2 0 1 0 
2 1 1 0 2 1 1 0 2 1 1 0 2 1 1 0 
2 1 1 0 2 0 2 1 1 0 2 1 1 0 2 0 
1 1 2 0 1 1 2 0 1 0 2 1 1 0 2 1 
1 0 2 0 1 1 2 0 2 1 1 0 2 0 1 1 
2 0 1 0 2 1 1 0 2 0 1 1 2 0 1 1 
2 0 1 0 2 1 1 0 2 0 1 1 2 0 2 0 
1 1 2 0 1 0 1958 549 300 MP stroke
2 0 1 1 2 0 1 0 2 1 1 0 2 0 1 1 
2 0 1 0 2 0 1 1 2 0 1 0 2 1 2 0 
1 0 2 0 1 1 2 0 1 0 2 0 1 1 2 0 
1 0 2 0 1 1 2 0 1 0 2 0 1 1 2 0 
2 0 1 0 2 1 1 0 2 0 1 0 2 0 1 1 
2 0 1 0 2 0 1 1 2 0 1 0 2 0 1 0 
2 1 1 0 2 0 2 0 1 0 2 0 1 1 2 0 
1 0 2 0 1 0 2 0 1 1 2 0 1 0 2 0 
1 0 2 0 1 1 2 0 2 0 1 0 2 0 1 0 
2 0 1 1 2 0 1 0 2 0 1 0 2 0 1 0 
2 0 1 1 2 0 1 0 2 0 1 0 2 0 2 0 
1 0 2 0 1 0 2 1 1 0 2 0 1 0 2 0 
1 0 2 0 1 0 2 0 1 0 2 0 1 0 2 1 
1 0 2 0 2 0 1 0 2 0 1 0 2 0 1 0 
2 0 1 0 2 0 1 0 2 0 1 0 2 0 1 0 
2 0 1 0 2 0 2 0 1 0 2 0 1 0 2 0 
1 0 2 0 1 0 2 0 1 0 2 0 1 0 2 0 
1 0 2 0 1 0 2 0 1 0 2 0 2 0 1 0 
2 0 1 0 2 0 1 0 2 0 1 0 2 0 1 0 
2 0 1 0 2 0 1 0 2 0 1 0 2 0 2 0 
1 0 2 0 1 0 2 0 1 0 2 -1 1 0 2 0 
1 0 2 0 1 0 2 0 1 0 2 0 1 0 2 0 
1 0 2 0 2 0 1 -1 2 0 1 0 2 0 1 0 
2 0 1 0 2 0 1 0 2 0 1 -1 2 0 1 0 
2 0 1 0 2 0 2 0 1 0 2 -1 1 0 2 0 
1 0 2 0 1 0 2 0 1 0 2 -1 1 0 2 0 
1 0 2 0 1 0 2 0 1 -1 2 0 2 0 1 0 
2 0 1 0 2 -1 1 0 2 0 1 0 2 0 1 0 
2 -1 1 0 2 0 1 0 2 0 1 0 2 -1 1 0 
2 0 2 0 1 0 2 -1 1 0 2 0 1 0 2 0 
1 -1 2 0 1 0 2 0 1 0 2 -1 1 0 2 0 
1 0 2 0 2 -1 1 0 2 0 1 0 2 -1 1 0 
2 0 1 0 2 -1 1 0 2 0 1 0 2 0 1 -1 
2 0 1 0 2 0 1 -1 2 0 2 0 1 0 2 -1 
1 0 2 0 1 0 2 -1 1 0 2 0 1 -1 2 0 
1 0 2 0 1 -1 2 0 1 0 2 0 2 -1 1 0 
2 0 1 -1 2 0 1 0 2 0 1 -1 2 0 1 0 
2 -1 1 0 2 0 1501 554 300 MP stroke
1 0 2 -1 1 0 2 0 1 -1 2 0 2 0 1 -1 
2 0 1 0 2 -1 1 0 2 0 1 -1 2 0 1 0 
2 -1 1 0 2 0 1 -1 2 0 1 0 2 -1 1 0 
2 0 2 -1 1 0 2 0 1 -1 2 0 1 0 2 -1 
1 0 2 0 1 -1 2 0 1 0 2 -1 1 0 2 0 
1 -1 2 0 2 -1 1 0 2 0 1 -1 2 0 1 0 
2 -1 1 0 2 -1 1 0 2 0 1 -1 2 0 1 0 
2 -1 1 0 2 -1 1 0 2 0 2 -1 1 0 2 -1 
1 0 2 0 1 -1 2 0 1 -1 2 0 1 0 2 -1 
1 0 2 -1 1 0 2 0 1 -1 2 0 2 -1 1 0 
2 -1 1 0 2 0 1 -1 2 0 1 -1 2 0 1 -1 
2 0 1 0 2 -1 1 0 2 -1 1 0 2 -1 1 0 
2 0 2 -1 1 0 2 -1 1 0 2 -1 1 0 2 -1 
1 0 2 -1 1 0 2 0 1 -1 2 0 1 -1 2 0 
1 -1 2 0 1 -1 2 0 2 -1 1 0 2 -1 1 0 
2 -1 1 0 2 -1 1 0 2 -1 1 0 2 0 1 -1 
2 0 1 -1 2 0 1 -1 2 0 2 -1 1 0 2 -1 
1 0 2 -1 1 0 2 -1 1 0 2 -1 1 0 2 -1 
1 0 2 -1 1 0 2 -1 1 -1 2 0 1 -1 2 0 
2 -1 1 0 2 -1 1 0 2 -1 1 0 2 -1 1 0 
2 -1 1 0 2 -1 1 0 2 -1 1 0 2 -1 1 -1 
2 0 2 -1 1 0 2 -1 1 0 2 -1 1 0 2 -1 
1 0 2 -1 1 -1 2 0 1 -1 2 0 1 -1 2 0 
1 -1 2 0 1 -1 2 -1 2 0 1 -1 2 0 1 -1 
2 0 1 -1 2 -1 1 0 2 -1 1 0 2 -1 1 0 
2 -1 1 -1 2 0 1 -1 2 -1 1 0 1187 647 207 MP stroke
gr

c9
0 sg
2696 3221 mt 
(t) s
 778 1678 mt 
(x) s
%%IncludeResource: font Helvetica
/Helvetica /ISOLatin1Encoding 96 FMSR

 838 1738 mt 
(1) s
1 sg
0 2404 3056 0 0 -2404 5207 2933 4 MP
PP
-3056 0 0 2404 3056 0 0 -2404 5207 2933 5 MP stroke
4 w
DO
SO
6 w
0 sg
5207 2933 mt 8263 2933 L
5207  529 mt 8263  529 L
5207 2933 mt 5207  529 L
8263 2933 mt 8263  529 L
5207 2933 mt 8263 2933 L
5207 2933 mt 5207  529 L
5207 2933 mt 5207 2902 L
5207  529 mt 5207  559 L
%%IncludeResource: font Helvetica
/Helvetica /ISOLatin1Encoding 120 FMSR

5104 3078 mt 
(-1) s
5970 2933 mt 5970 2902 L
5970  529 mt 5970  559 L
5817 3078 mt 
(-0.5) s
6734 2933 mt 6734 2902 L
6734  529 mt 6734  559 L
6701 3078 mt 
(0) s
7498 2933 mt 7498 2902 L
7498  529 mt 7498  559 L
7415 3078 mt 
(0.5) s
8262 2933 mt 8262 2902 L
8262  529 mt 8262  559 L
8229 3078 mt 
(1) s
5207 2870 mt 5237 2870 L
8263 2870 mt 8232 2870 L
5036 2914 mt 
(-1) s
5207 2635 mt 5237 2635 L
8263 2635 mt 8232 2635 L
5106 2679 mt 
(0) s
5207 2399 mt 5237 2399 L
8263 2399 mt 8232 2399 L
5106 2443 mt 
(1) s
5207 2163 mt 5237 2163 L
8263 2163 mt 8232 2163 L
5106 2207 mt 
(2) s
5207 1928 mt 5237 1928 L
8263 1928 mt 8232 1928 L
5106 1972 mt 
(3) s
5207 1692 mt 5237 1692 L
8263 1692 mt 8232 1692 L
5106 1736 mt 
(4) s
5207 1456 mt 5237 1456 L
8263 1456 mt 8232 1456 L
5106 1500 mt 
(5) s
5207 1221 mt 5237 1221 L
8263 1221 mt 8232 1221 L
5106 1265 mt 
(6) s
5207  985 mt 5237  985 L
8263  985 mt 8232  985 L
5106 1029 mt 
(7) s
5207  749 mt 5237  749 L
8263  749 mt 8232  749 L
5106  793 mt 
(8) s
5207 2933 mt 8263 2933 L
5207  529 mt 8263  529 L
5207 2933 mt 5207  529 L
8263 2933 mt 8263  529 L
gs 5207 529 3057 2405 rc
c8
2 -1 2 -2 1 -2 2 -1 1 -2 2 -2 1 -1 2 -2 
1 -2 2 -1 1 -2 2 -2 1 -1 2 -2 1 -2 2 -1 
1 -2 2 -2 2 -1 1 -2 2 -2 1 -2 2 -1 1 -2 
2 -2 1 -1 2 -2 1 -2 2 -1 1 -2 2 -2 1 -1 
2 -2 1 -1 2 -2 2 -2 1 -1 2 -2 1 -2 2 -1 
1 -2 2 -2 1 -1 2 -2 1 -2 2 -1 1 -2 2 -2 
1 -1 2 -2 1 -2 2 -1 1 -2 2 -1 2 -2 1 -2 
2 -1 1 -2 2 -2 1 -1 2 -2 1 -2 2 -1 1 -2 
2 -1 1 -2 2 -2 1 -1 2 -2 1 -2 2 -1 2 -2 
1 -1 2 -2 1 -2 2 -1 1 -2 2 -2 1 -1 2 -2 
1 -1 2 -2 1 -2 2 -1 1 -2 2 -1 1 -2 2 -2 
1 -1 2 -2 2 -1 1 -2 2 -2 1 -1 2 -2 1 -1 
2 -2 1 -2 2 -1 1 -2 2 -1 1 -2 2 -2 1 -1 
2 -2 1 -1 2 -2 2 -2 1 -1 2 -2 1 -1 2 -2 
1 -2 2 -1 1 -2 2 -1 1 -2 2 -1 1 -2 2 -2 
1 -1 2 -2 1 -1 2 -2 1 -2 2 -1 2 -2 1 -1 
2 -2 1 -1 2 -2 1 -2 2 -1 1 -2 2 -1 1 -2 
2 -1 1 -2 2 -2 1 -1 2 -2 1 -1 2 -2 2 -1 
1 -2 2 -1 1 -2 2 -2 1 -1 2 -2 1 -1 2 -2 
1 -1 2 -2 1 -1 2 -2 1 -2 2 -1 1 -2 2 -1 
2 -2 1 -1 2 -2 1 -1 2 -2 1 -1 2 -2 1 -2 
2 -1 1 -2 2 -1 1 -2 2 -1 1 -2 2 -1 1 -2 
2 -1 1 -2 2 -1 2 -2 1 -1 2 -2 1 -2 2 -1 
1 -2 2 -1 1 -2 2 -1 1 -2 2 -1 1 -2 2 -1 
1 -2 2 -1 1 -2 2 -1 2 -2 1 -1 2 -2 1 -1 
2 -2 1 -1 2 -2 1 -1 2 -2 1 -1 2 -2 1 -2 
2 -1 1 -2 2 -1 1 -2 2 -1 1 -2 2 -1 2 -2 
1 -1 2 -2 1 -1 2 -2 1 -1 2 -2 1 -1 2 -2 
1 -1 2 -2 1 -1 2 -2 1 -1 2 -2 1 -1 2 -2 
2 -1 1 -2 2 -1 1 -2 2 -1 1 -2 2 -1 1 -1 
2 -2 1 -1 2 -2 1 -1 2 -2 1 -1 2 -2 1 -1 
2 -2 1 -1 2 -2 2 -1 1 -2 2 -1 1 -2 2 -1 
1 -2 2 -1 1 -2 2 -1 1 -2 2 -1 1 -2 2 -1 
1 -2 2 -1 1 -1 2 -2 2 -1 1 -2 2 -1 1 -2 
2 -1 1 -2 2 -1 1 -2 2 -1 1 -2 2 -1 1 -2 
2 -1 1 -1 2 -2 1 -1 2 -2 2 -1 1 -2 2 -1 
1 -2 2 -1 1 -2 2 -1 1 -2 2 -1 1 -1 2 -2 
1 -1 2 -2 1 -1 7806 995 300 MP stroke
2 -2 1 -1 2 -2 1 -1 2 -2 2 -1 1 -1 2 -2 
1 -1 2 -2 1 -1 2 -2 1 -1 2 -2 1 -1 2 -1 
1 -2 2 -1 1 -2 2 -1 1 -2 2 -1 2 -2 1 -1 
2 -1 1 -2 2 -1 1 -2 2 -1 1 -2 2 -1 1 -2 
2 -1 1 -1 2 -2 1 -1 2 -2 1 -1 2 -2 1 -1 
2 -1 2 -2 1 -1 2 -2 1 -1 2 -2 1 -1 2 -1 
1 -2 2 -1 1 -2 2 -1 1 -2 2 -1 1 -1 2 -2 
1 -1 2 -2 2 -1 1 -2 2 -1 1 -1 2 -2 1 -1 
2 -2 1 -1 2 -2 1 -1 2 -1 1 -2 2 -1 1 -2 
2 -1 1 -2 2 -1 1 -1 2 -2 2 -1 1 -2 2 -1 
1 -1 2 -2 1 -1 2 -2 1 -1 2 -2 1 -1 2 -1 
1 -2 2 -1 1 -2 2 -1 1 -1 2 -2 2 -1 1 -2 
2 -1 1 -2 2 -1 1 -1 2 -2 1 -1 2 -2 1 -1 
2 -1 1 -2 2 -1 1 -2 2 -1 1 -1 2 -2 2 -1 
1 -2 2 -1 1 -1 2 -2 1 -1 2 -2 1 -1 2 -2 
1 -1 2 -1 1 -2 2 -1 1 -2 2 -1 1 -1 2 -2 
1 -1 2 -2 2 -1 1 -1 2 -2 1 -1 2 -2 1 -1 
2 -1 1 -2 2 -1 1 -2 2 -1 1 -1 2 -2 1 -1 
2 -2 1 -1 2 -1 2 -2 1 -1 2 -2 1 -1 2 -1 
1 -2 2 -1 1 -2 2 -1 1 -1 2 -2 1 -1 2 -2 
1 -1 2 -1 1 -2 2 -1 1 -2 2 -1 2 -1 1 -2 
2 -1 1 -2 2 -1 1 -1 2 -2 1 -1 2 -2 1 -1 
2 -1 1 -2 2 -1 1 -2 2 -1 1 -1 2 -2 2 -1 
1 -2 2 -1 1 -1 2 -2 1 -1 2 -2 1 -1 2 -1 
1 -2 2 -1 1 -1 2 -2 1 -1 2 -2 1 -1 2 -1 
1 -2 2 -1 2 -2 1 -1 2 -1 1 -2 2 -1 1 -2 
2 -1 1 -1 2 -2 1 -1 2 -2 1 -1 2 -1 1 -2 
2 -1 1 -2 2 -1 2 -1 1 -2 2 -1 1 -2 2 -1 
1 -1 2 -2 1 -1 2 -2 1 -1 2 -1 1 -2 2 -1 
1 -2 2 -1 1 -1 2 -2 2 -1 1 -2 2 -1 1 -1 
2 -2 1 -1 2 -1 1 -2 2 -1 1 -2 2 -1 1 -1 
2 -2 1 -1 2 -2 1 -1 2 -1 1 -2 2 -1 2 -2 
1 -1 2 -1 1 -2 2 -1 1 -2 2 -1 1 -1 2 -2 
1 -1 2 -2 1 -1 2 -2 1 -1 2 -1 1 -2 2 -1 
2 -2 1 -1 2 -1 1 -2 2 -1 1 -2 2 -1 1 -1 
2 -2 1 -1 2 -2 1 -1 2 -1 1 -2 2 -1 1 -2 
2 -1 1 -1 2 -2 2 -1 1 -2 2 -1 1 -1 2 -2 
1 -1 2 -2 1 -1 7349 1417 300 MP stroke
2 -2 1 -1 2 -1 1 -2 2 -1 1 -2 2 -1 1 -1 
2 -2 2 -1 1 -2 2 -1 1 -2 2 -1 1 -1 2 -2 
1 -1 2 -2 1 -1 2 -1 1 -2 2 -1 1 -2 2 -1 
1 -2 2 -1 1 -1 2 -2 2 -1 1 -2 2 -1 1 -2 
2 -1 1 -1 2 -2 1 -1 2 -2 1 -1 2 -2 1 -1 
2 -1 1 -2 2 -1 1 -2 2 -1 2 -2 1 -1 2 -2 
1 -1 2 -1 1 -2 2 -1 1 -2 2 -1 1 -2 2 -1 
1 -1 2 -2 1 -1 2 -2 1 -1 2 -2 2 -1 1 -2 
2 -1 1 -2 2 -1 1 -1 2 -2 1 -1 2 -2 1 -1 
2 -2 1 -1 2 -2 1 -1 2 -2 1 -1 2 -1 1 -2 
2 -1 2 -2 1 -1 2 -2 1 -1 2 -2 1 -1 2 -2 
1 -1 2 -2 1 -1 2 -2 1 -1 2 -1 1 -2 2 -1 
1 -2 2 -1 2 -2 1 -1 2 -2 1 -1 2 -2 1 -1 
2 -2 1 -1 2 -2 1 -1 2 -2 1 -1 2 -2 1 -1 
2 -2 1 -1 2 -2 1 -1 2 -2 2 -1 1 -2 2 -1 
1 -2 2 -1 1 -2 2 -1 1 -2 2 -1 1 -2 2 -1 
1 -2 2 -1 1 -2 2 -1 1 -2 2 -1 2 -2 1 -1 
2 -2 1 -1 2 -2 1 -1 2 -2 1 -2 2 -1 1 -2 
2 -1 1 -2 2 -1 1 -2 2 -1 1 -2 2 -1 1 -2 
2 -1 2 -2 1 -2 2 -1 1 -2 2 -1 1 -2 2 -1 
1 -2 2 -1 1 -2 2 -2 1 -1 2 -2 1 -1 2 -2 
1 -1 2 -2 2 -2 1 -1 2 -2 1 -1 2 -2 1 -2 
2 -1 1 -2 2 -1 1 -2 2 -1 1 -2 2 -2 1 -1 
2 -2 1 -1 2 -2 2 -2 1 -1 2 -2 1 -2 2 -1 
1 -2 2 -1 1 -2 2 -2 1 -1 2 -2 1 -2 2 -1 
1 -2 2 -1 1 -2 2 -2 1 -1 2 -2 2 -2 1 -1 
2 -2 1 -2 2 -1 1 -2 2 -2 1 -1 2 -2 1 -2 
2 -1 1 -2 2 -2 1 -1 2 -2 1 -2 2 -1 2 -2 
1 -2 2 -1 1 -2 2 -2 1 -2 2 -1 1 -2 2 -2 
1 -1 2 -2 1 -2 2 -2 1 -1 2 -2 1 -2 2 -2 
1 -1 2 -2 2 -2 1 -2 2 -1 1 -2 2 -2 1 -2 
2 -1 1 -2 2 -2 1 -2 2 -1 1 -2 2 -2 1 -2 
2 -2 1 -1 2 -2 2 -2 1 -2 2 -2 1 -1 2 -2 
1 -2 2 -2 1 -2 2 -2 1 -1 2 -2 1 -2 2 -2 
1 -2 2 -2 1 -2 2 -1 1 -2 2 -2 2 -2 1 -2 
2 -2 1 -2 2 -2 1 -2 2 -2 1 -1 2 -2 1 -2 
2 -2 1 -2 2 -2 1 -2 2 -2 1 -2 2 -2 2 -2 
1 -2 2 -2 1 -2 6892 1893 300 MP stroke
2 -2 1 -2 2 -2 1 -2 2 -2 1 -2 2 -2 1 -2 
2 -2 1 -2 2 -2 1 -2 2 -2 2 -2 1 -2 2 -2 
1 -2 2 -3 1 -2 2 -2 1 -2 2 -2 1 -2 2 -2 
1 -2 2 -3 1 -2 2 -2 1 -2 2 -2 1 -2 2 -3 
2 -2 1 -2 2 -2 1 -3 2 -2 1 -2 2 -2 1 -3 
2 -2 1 -2 2 -3 1 -2 2 -2 1 -2 2 -3 1 -2 
2 -3 2 -2 1 -2 2 -3 1 -2 2 -3 1 -2 2 -3 
1 -2 2 -3 1 -2 2 -3 1 -2 2 -3 1 -2 2 -3 
1 -2 2 -3 1 -3 2 -2 2 -3 1 -3 2 -2 1 -3 
2 -3 1 -3 2 -2 1 -3 2 -3 1 -3 2 -3 1 -3 
2 -3 1 -3 2 -3 1 -3 2 -3 2 -3 1 -3 2 -3 
1 -4 2 -3 1 -3 2 -4 1 -3 2 -4 1 -3 2 -4 
1 -4 2 -4 1 -4 2 -4 1 -5 2 -4 1 -6 2 -6 
2 -5 1 -4 2 -5 1 -4 2 -4 1 -3 2 -4 1 -4 
2 -3 1 -4 2 -3 1 -3 2 -3 1 -4 2 -3 1 -3 
2 -3 2 -3 1 -3 2 -3 1 -3 2 -3 1 -3 2 -2 
1 -3 2 -3 1 -3 2 -2 1 -3 2 -3 1 -2 2 -3 
1 -3 2 -2 2 -3 1 -2 2 -3 1 -2 2 -3 1 -2 
2 -3 1 -2 2 -2 1 -3 2 -2 1 -2 2 -3 1 -2 
2 -2 1 -3 2 -2 1 -2 2 -2 2 -3 1 -2 2 -2 
1 -2 2 -2 1 -3 2 -2 1 -2 2 -2 1 -2 2 -2 
1 -2 2 -2 1 -2 2 -2 1 -2 2 -2 2 -2 1 -2 
2 -2 1 -2 2 -2 1 -2 2 -2 1 -2 2 -2 1 -2 
2 -2 1 -2 2 -2 1 -2 2 -2 1 -1 2 -2 1 -2 
2 -2 2 -2 1 -2 2 -2 1 -1 2 -2 1 -2 2 -2 
1 -1 2 -2 1 -2 2 -2 1 -1 2 -2 1 -2 2 -2 
1 -1 2 -2 2 -2 1 -1 2 -2 1 -2 2 -1 1 -2 
2 -2 1 -1 2 -2 1 -2 2 -1 1 -2 2 -2 1 -1 
2 -2 1 -1 2 -2 1 -2 2 -1 2 -2 1 -1 2 -2 
1 -1 2 -2 1 -1 2 -2 1 -1 2 -2 1 -2 2 -1 
1 -2 2 -1 1 -2 2 -1 1 -1 2 -2 2 -1 1 -2 
2 -1 1 -2 2 -1 1 -2 2 -1 1 -2 2 -1 1 -1 
2 -2 1 -1 2 -2 1 -1 2 -1 1 -2 2 -1 2 -2 
1 -1 2 -1 1 -2 2 -1 1 -1 2 -2 1 -1 2 -1 
1 -2 2 -1 1 -1 2 -2 1 -1 2 -1 1 -2 2 -1 
1 -1 2 -2 2 -1 1 -1 2 -1 1 -2 2 -1 1 -1 
2 -2 1 -1 2 -1 1 -1 2 -2 1 -1 2 -1 1 -1 
2 -1 1 -2 2 -1 6435 2554 300 MP stroke
2 -1 1 -1 2 -2 1 -1 2 -1 1 -1 2 -1 1 -2 
2 -1 1 -1 2 -1 1 -1 2 -1 1 -2 2 -1 1 -1 
2 -1 1 -1 2 -1 2 -2 1 -1 2 -1 1 -1 2 -1 
1 -1 2 -1 1 -1 2 -2 1 -1 2 -1 1 -1 2 -1 
1 -1 2 -1 1 -1 2 -1 2 -1 1 -2 2 -1 1 -1 
2 -1 1 -1 2 -1 1 -1 2 -1 1 -1 2 -1 1 -1 
2 -1 1 -1 2 -1 1 -1 2 -1 1 -1 2 -1 2 -1 
1 -1 2 -1 1 -2 2 -1 1 -1 2 -1 1 -1 2 -1 
1 -1 2 -1 1 0 2 -1 1 -1 2 -1 1 -1 2 -1 
2 -1 1 -1 2 -1 1 -1 2 -1 1 -1 2 -1 1 -1 
2 -1 1 -1 2 -1 1 -1 2 -1 1 -1 2 -1 1 -1 
2 -1 2 0 1 -1 2 -1 1 -1 2 -1 1 -1 2 -1 
1 -1 2 -1 1 -1 2 -1 1 0 2 -1 1 -1 2 -1 
1 -1 2 -1 1 -1 2 -1 2 0 1 -1 2 -1 1 -1 
2 -1 1 -1 2 -1 1 -1 2 0 1 -1 2 -1 1 -1 
2 -1 1 -1 2 0 1 -1 2 -1 2 -1 1 -1 2 -1 
1 0 2 -1 1 -1 2 -1 1 -1 2 0 1 -1 2 -1 
1 -1 2 -1 1 -1 2 0 1 -1 2 -1 1 -1 2 0 
2 -1 1 -1 2 -1 1 -1 2 0 1 -1 2 -1 1 -1 
2 0 1 -1 2 -1 1 -1 2 -1 1 0 2 -1 1 -1 
2 -1 2 0 1 -1 2 -1 1 -1 2 0 1 -1 2 -1 
1 0 2 -1 1 -1 2 -1 1 0 2 -1 1 -1 2 -1 
1 0 2 -1 1 -1 2 0 2 -1 1 -1 2 -1 1 0 
2 -1 1 -1 2 0 1 -1 2 -1 1 0 2 -1 1 -1 
2 -1 1 0 2 -1 1 -1 2 0 2 -1 1 -1 2 0 
1 -1 2 -1 1 0 2 -1 1 -1 2 0 1 -1 2 -1 
1 0 2 -1 1 -1 2 0 1 -1 2 -1 2 0 1 -1 
2 0 1 -1 2 -1 1 0 2 -1 1 -1 2 0 1 -1 
2 -1 1 0 2 -1 1 0 2 -1 1 -1 2 0 1 -1 
2 0 2 -1 1 -1 2 0 1 -1 2 -1 1 0 2 -1 
1 0 2 -1 1 -1 2 0 1 -1 2 0 1 -1 2 0 
1 -1 2 -1 2 0 1 -1 2 0 1 -1 2 -1 1 0 
2 -1 1 0 2 -1 1 0 2 -1 1 -1 2 0 1 -1 
2 0 1 -1 2 0 1 -1 2 -1 2 0 1 -1 2 0 
1 -1 2 0 1 -1 2 0 1 -1 2 0 1 -1 2 -1 
1 0 2 -1 1 0 2 -1 1 0 2 -1 2 0 1 -1 
2 0 1 -1 2 0 1 -1 2 0 1 -1 2 0 1 -1 
2 -1 1 0 2 -1 5978 2795 300 MP stroke
1 0 2 -1 1 0 2 -1 1 0 2 -1 2 0 1 -1 
2 0 1 -1 2 0 1 -1 2 0 1 -1 2 0 1 -1 
2 0 1 -1 2 0 1 0 2 -1 1 0 2 -1 2 0 
1 -1 2 0 1 -1 2 0 1 -1 2 0 1 -1 2 0 
1 -1 2 0 1 -1 2 0 1 -1 2 0 1 0 2 -1 
2 0 1 -1 2 0 1 -1 2 0 1 -1 2 0 1 -1 
2 0 1 0 2 -1 1 0 2 -1 1 0 2 -1 1 0 
2 -1 1 0 2 0 2 -1 1 0 2 -1 1 0 2 -1 
1 0 2 0 1 -1 2 0 1 -1 2 0 1 -1 2 0 
1 0 2 -1 1 0 2 -1 2 0 1 0 2 -1 1 0 
2 -1 1 0 2 -1 1 0 2 0 1 -1 2 0 1 -1 
2 0 1 0 2 -1 1 0 2 -1 1 0 2 0 2 -1 
1 0 2 -1 1 0 2 0 1 -1 2 0 1 0 2 -1 
1 0 2 -1 1 0 2 0 1 -1 2 0 1 -1 2 0 
2 0 1 -1 2 0 1 0 2 -1 1 0 2 -1 1 0 
2 0 1 -1 2 0 1 0 2 -1 1 0 2 0 1 -1 
2 0 1 -1 2 0 2 0 1 -1 2 0 1 0 2 -1 
1 0 2 0 1 -1 2 0 1 0 2 -1 1 0 2 0 
1 -1 2 0 1 0 2 -1 2 0 1 -1 2 0 1 0 
2 -1 1 0 2 0 1 -1 2 0 1 0 2 -1 1 0 
2 0 1 -1 2 0 1 0 2 0 2 -1 1 0 2 0 
1 -1 2 0 1 0 2 -1 1 0 2 0 1 -1 2 0 
1 0 2 -1 1 0 2 0 1 -1 2 0 1 0 2 -1 
2 0 1 0 2 0 1 -1 2 0 1 0 2 -1 1 0 
2 0 1 -1 2 0 1 0 2 0 1 -1 2 0 1 0 
2 -1 2 0 1 0 2 -1 1 0 2 0 1 0 2 -1 
1 0 2 0 1 -1 2 0 1 0 2 0 1 -1 2 0 
1 0 2 -1 1 0 2 0 2 0 1 -1 2 0 1 0 
2 0 1 -1 2 0 1 0 2 -1 1 0 2 0 1 0 
2 -1 1 0 2 0 1 0 2 -1 2 0 1 0 2 0 
1 -1 2 0 1 0 2 -1 1 0 2 0 1 0 2 -1 
1 0 2 0 1 0 2 -1 1 0 2 0 1 0 2 -1 
2 0 1 0 2 0 1 -1 2 0 1 0 2 0 1 -1 
2 0 1 0 2 0 1 -1 2 0 1 0 2 0 1 -1 
2 0 2 0 1 0 2 0 1 -1 2 0 1 0 2 0 
1 -1 2 0 1 0 2 0 1 -1 2 0 1 0 2 0 
1 0 2 -1 2 0 1 0 2 0 1 -1 2 0 1 0 
2 0 1 -1 2 0 5521 2899 300 MP stroke
1 0 2 0 1 0 2 -1 1 0 2 0 1 0 2 0 
1 -1 2 0 2 0 1 0 2 -1 1 0 2 0 1 0 
2 0 1 -1 2 0 1 0 2 0 1 0 2 -1 1 0 
2 0 1 0 2 0 2 -1 1 0 2 0 1 0 2 -1 
1 0 2 0 1 0 2 0 1 -1 2 0 1 0 2 0 
1 0 2 0 1 -1 2 0 1 0 2 0 2 0 1 -1 
2 0 1 0 2 0 1 0 2 -1 1 0 2 0 1 0 
2 0 1 -1 2 0 1 0 2 0 1 0 2 0 2 -1 
1 0 2 0 1 0 2 0 1 -1 2 0 1 0 2 0 
1 0 2 0 1 -1 2 0 1 0 2 0 1 0 2 -1 
1 0 2 0 2 0 1 0 2 0 1 -1 2 0 1 0 
2 0 1 0 2 0 1 -1 2 0 1 0 2 0 1 0 
2 0 1 -1 2 0 2 0 1 0 2 0 1 0 2 -1 
1 0 2 0 1 0 2 0 1 0 2 0 1 -1 2 0 
1 0 2 0 1 0 2 0 2 -1 1 0 2 0 1 0 
2 0 1 0 2 -1 1 0 2 0 1 0 2 0 1 0 
2 0 1 -1 2 0 1 0 2 0 1 0 2 0 2 0 
1 -1 2 0 1 0 2 0 1 0 2 0 1 0 2 -1 
1 0 2 0 1 0 2 0 1 0 2 0 1 -1 2 0 
2 0 1 0 2 0 1 0 2 0 1 -1 2 0 1 0 
2 0 1 0 2 0 1 0 2 0 1 -1 2 0 1 0 
2 0 1 0 2 0 2 0 1 0 2 -1 1 0 2 0 
1 0 2 0 1 0 2 0 1 -1 2 0 1 0 2 0 
1 0 2 0 1 0 2 0 2 0 1 -1 2 0 1 0 
2 0 1 0 2 0 1 0 2 0 1 -1 2 0 1 0 
2 0 1 0 2 0 1 0 2 0 1 -1 5207 2933 207 MP stroke
c9
2 -1 2 -2 1 -2 2 -1 1 -2 2 -2 1 -1 2 -2 
1 -2 2 -1 1 -2 2 -2 1 -1 2 -2 1 -2 2 -1 
1 -2 2 -2 2 -1 1 -2 2 -2 1 -2 2 -1 1 -2 
2 -2 1 -1 2 -2 1 -2 2 -1 1 -2 2 -2 1 -1 
2 -2 1 -1 2 -2 2 -2 1 -1 2 -2 1 -2 2 -1 
1 -2 2 -2 1 -1 2 -2 1 -2 2 -1 1 -2 2 -2 
1 -1 2 -2 1 -2 2 -1 1 -2 2 -1 2 -2 1 -2 
2 -1 1 -2 2 -2 1 -1 2 -2 1 -2 2 -1 1 -2 
2 -1 1 -2 2 -2 1 -1 2 -2 1 -2 2 -1 2 -2 
1 -1 2 -2 1 -2 2 -1 1 -2 2 -2 1 -1 2 -2 
1 -1 2 -2 1 -2 2 -1 1 -2 2 -1 1 -2 2 -2 
1 -1 2 -2 2 -1 1 -2 2 -2 1 -1 2 -2 1 -1 
2 -2 1 -2 2 -1 1 -2 2 -1 1 -2 2 -2 1 -1 
2 -2 1 -1 2 -2 2 -2 1 -1 2 -2 1 -1 2 -2 
1 -2 2 -1 1 -2 2 -1 1 -2 2 -1 1 -2 2 -2 
1 -1 2 -2 1 -1 2 -2 1 -2 2 -1 2 -2 1 -1 
2 -2 1 -1 2 -2 1 -2 2 -1 1 -2 2 -1 1 -2 
2 -1 1 -2 2 -2 1 -1 2 -2 1 -1 2 -2 2 -1 
1 -2 2 -1 1 -2 2 -2 1 -1 2 -2 1 -1 2 -2 
1 -1 2 -2 1 -1 2 -2 1 -2 2 -1 1 -2 2 -1 
2 -2 1 -1 2 -2 1 -1 2 -2 1 -1 2 -2 1 -2 
2 -1 1 -2 2 -1 1 -2 2 -1 1 -2 2 -1 1 -2 
2 -1 1 -2 2 -1 2 -2 1 -1 2 -2 1 -2 2 -1 
1 -2 2 -1 1 -2 2 -1 1 -2 2 -1 1 -2 2 -1 
1 -2 2 -1 1 -2 2 -1 2 -2 1 -1 2 -2 1 -1 
2 -2 1 -1 2 -2 1 -1 2 -2 1 -1 2 -2 1 -2 
2 -1 1 -2 2 -1 1 -2 2 -1 1 -2 2 -1 2 -2 
1 -1 2 -2 1 -1 2 -2 1 -1 2 -2 1 -1 2 -2 
1 -1 2 -2 1 -1 2 -2 1 -1 2 -2 1 -1 2 -2 
2 -1 1 -2 2 -1 1 -2 2 -1 1 -2 2 -1 1 -1 
2 -2 1 -1 2 -2 1 -1 2 -2 1 -1 2 -2 1 -1 
2 -2 1 -1 2 -2 2 -1 1 -2 2 -1 1 -2 2 -1 
1 -2 2 -1 1 -2 2 -1 1 -2 2 -1 1 -2 2 -1 
1 -2 2 -1 1 -1 2 -2 2 -1 1 -2 2 -1 1 -2 
2 -1 1 -2 2 -1 1 -2 2 -1 1 -2 2 -1 1 -2 
2 -1 1 -1 2 -2 1 -1 2 -2 2 -1 1 -2 2 -1 
1 -2 2 -1 1 -2 2 -1 1 -2 2 -1 1 -1 2 -2 
1 -1 2 -2 1 -1 7806 995 300 MP stroke
2 -2 1 -1 2 -2 1 -1 2 -2 2 -1 1 -1 2 -2 
1 -1 2 -2 1 -1 2 -2 1 -1 2 -2 1 -1 2 -1 
1 -2 2 -1 1 -2 2 -1 1 -2 2 -1 2 -2 1 -1 
2 -1 1 -2 2 -1 1 -2 2 -1 1 -2 2 -1 1 -2 
2 -1 1 -1 2 -2 1 -1 2 -2 1 -1 2 -2 1 -1 
2 -1 2 -2 1 -1 2 -2 1 -1 2 -2 1 -1 2 -1 
1 -2 2 -1 1 -2 2 -1 1 -2 2 -1 1 -1 2 -2 
1 -1 2 -2 2 -1 1 -2 2 -1 1 -1 2 -2 1 -1 
2 -2 1 -1 2 -2 1 -1 2 -1 1 -2 2 -1 1 -2 
2 -1 1 -2 2 -1 1 -1 2 -2 2 -1 1 -2 2 -1 
1 -1 2 -2 1 -1 2 -2 1 -1 2 -2 1 -1 2 -1 
1 -2 2 -1 1 -2 2 -1 1 -1 2 -2 2 -1 1 -2 
2 -1 1 -2 2 -1 1 -1 2 -2 1 -1 2 -2 1 -1 
2 -1 1 -2 2 -1 1 -2 2 -1 1 -1 2 -2 2 -1 
1 -2 2 -1 1 -1 2 -2 1 -1 2 -2 1 -1 2 -2 
1 -1 2 -1 1 -2 2 -1 1 -2 2 -1 1 -1 2 -2 
1 -1 2 -2 2 -1 1 -1 2 -2 1 -1 2 -2 1 -1 
2 -1 1 -2 2 -1 1 -2 2 -1 1 -1 2 -2 1 -1 
2 -2 1 -1 2 -1 2 -2 1 -1 2 -2 1 -1 2 -1 
1 -2 2 -1 1 -2 2 -1 1 -1 2 -2 1 -1 2 -2 
1 -1 2 -1 1 -2 2 -1 1 -2 2 -1 2 -1 1 -2 
2 -1 1 -2 2 -1 1 -1 2 -2 1 -1 2 -2 1 -1 
2 -1 1 -2 2 -1 1 -2 2 -1 1 -1 2 -2 2 -1 
1 -2 2 -1 1 -1 2 -2 1 -1 2 -2 1 -1 2 -1 
1 -2 2 -1 1 -1 2 -2 1 -1 2 -2 1 -1 2 -1 
1 -2 2 -1 2 -2 1 -1 2 -1 1 -2 2 -1 1 -2 
2 -1 1 -1 2 -2 1 -1 2 -2 1 -1 2 -1 1 -2 
2 -1 1 -2 2 -1 2 -1 1 -2 2 -1 1 -2 2 -1 
1 -1 2 -2 1 -1 2 -2 1 -1 2 -1 1 -2 2 -1 
1 -2 2 -1 1 -1 2 -2 2 -1 1 -2 2 -1 1 -1 
2 -2 1 -1 2 -1 1 -2 2 -1 1 -2 2 -1 1 -1 
2 -2 1 -1 2 -2 1 -1 2 -1 1 -2 2 -1 2 -2 
1 -1 2 -1 1 -2 2 -1 1 -2 2 -1 1 -1 2 -2 
1 -1 2 -2 1 -1 2 -2 1 -1 2 -1 1 -2 2 -1 
2 -2 1 -1 2 -1 1 -2 2 -1 1 -2 2 -1 1 -1 
2 -2 1 -1 2 -2 1 -1 2 -1 1 -2 2 -1 1 -2 
2 -1 1 -1 2 -2 2 -1 1 -2 2 -1 1 -1 2 -2 
1 -1 2 -2 1 -1 7349 1417 300 MP stroke
2 -2 1 -1 2 -1 1 -2 2 -1 1 -2 2 -1 1 -1 
2 -2 2 -1 1 -2 2 -1 1 -2 2 -1 1 -1 2 -2 
1 -1 2 -2 1 -1 2 -1 1 -2 2 -1 1 -2 2 -1 
1 -2 2 -1 1 -1 2 -2 2 -1 1 -2 2 -1 1 -2 
2 -1 1 -1 2 -2 1 -1 2 -2 1 -1 2 -2 1 -1 
2 -1 1 -2 2 -1 1 -2 2 -1 2 -2 1 -1 2 -2 
1 -1 2 -1 1 -2 2 -1 1 -2 2 -1 1 -2 2 -1 
1 -1 2 -2 1 -1 2 -2 1 -1 2 -2 2 -1 1 -2 
2 -1 1 -2 2 -1 1 -1 2 -2 1 -1 2 -2 1 -1 
2 -2 1 -1 2 -2 1 -1 2 -2 1 -1 2 -1 1 -2 
2 -1 2 -2 1 -1 2 -2 1 -1 2 -2 1 -1 2 -2 
1 -1 2 -2 1 -1 2 -2 1 -1 2 -1 1 -2 2 -1 
1 -2 2 -1 2 -2 1 -1 2 -2 1 -1 2 -2 1 -1 
2 -2 1 -1 2 -2 1 -1 2 -2 1 -1 2 -2 1 -1 
2 -2 1 -1 2 -2 1 -1 2 -2 2 -1 1 -2 2 -1 
1 -2 2 -1 1 -2 2 -1 1 -2 2 -1 1 -2 2 -1 
1 -2 2 -1 1 -2 2 -1 1 -2 2 -1 2 -2 1 -1 
2 -2 1 -1 2 -2 1 -1 2 -2 1 -2 2 -1 1 -2 
2 -1 1 -2 2 -1 1 -2 2 -1 1 -2 2 -1 1 -2 
2 -1 2 -2 1 -2 2 -1 1 -2 2 -1 1 -2 2 -1 
1 -2 2 -1 1 -2 2 -2 1 -1 2 -2 1 -1 2 -2 
1 -1 2 -2 2 -2 1 -1 2 -2 1 -1 2 -2 1 -2 
2 -1 1 -2 2 -1 1 -2 2 -1 1 -2 2 -2 1 -1 
2 -2 1 -1 2 -2 2 -2 1 -1 2 -2 1 -2 2 -1 
1 -2 2 -1 1 -2 2 -2 1 -1 2 -2 1 -2 2 -1 
1 -2 2 -1 1 -2 2 -2 1 -1 2 -2 2 -2 1 -1 
2 -2 1 -2 2 -1 1 -2 2 -2 1 -1 2 -2 1 -2 
2 -1 1 -2 2 -2 1 -1 2 -2 1 -2 2 -1 2 -2 
1 -2 2 -1 1 -2 2 -2 1 -2 2 -1 1 -2 2 -2 
1 -1 2 -2 1 -2 2 -2 1 -1 2 -2 1 -2 2 -2 
1 -1 2 -2 2 -2 1 -2 2 -1 1 -2 2 -2 1 -2 
2 -1 1 -2 2 -2 1 -2 2 -1 1 -2 2 -2 1 -2 
2 -2 1 -1 2 -2 2 -2 1 -2 2 -2 1 -1 2 -2 
1 -2 2 -2 1 -2 2 -2 1 -1 2 -2 1 -2 2 -2 
1 -2 2 -2 1 -2 2 -1 1 -2 2 -2 2 -2 1 -2 
2 -2 1 -2 2 -2 1 -2 2 -2 1 -1 2 -2 1 -2 
2 -2 1 -2 2 -2 1 -2 2 -2 1 -2 2 -2 2 -2 
1 -2 2 -2 1 -2 6892 1893 300 MP stroke
2 -2 1 -2 2 -2 1 -2 2 -2 1 -2 2 -2 1 -2 
2 -2 1 -2 2 -2 1 -2 2 -2 2 -2 1 -2 2 -2 
1 -2 2 -3 1 -2 2 -2 1 -2 2 -2 1 -2 2 -2 
1 -2 2 -3 1 -2 2 -2 1 -2 2 -2 1 -2 2 -3 
2 -2 1 -2 2 -2 1 -3 2 -2 1 -2 2 -2 1 -3 
2 -2 1 -2 2 -3 1 -2 2 -2 1 -2 2 -3 1 -2 
2 -3 2 -2 1 -2 2 -3 1 -2 2 -3 1 -2 2 -3 
1 -2 2 -3 1 -2 2 -3 1 -2 2 -3 1 -2 2 -3 
1 -2 2 -3 1 -3 2 -2 2 -3 1 -3 2 -2 1 -3 
2 -3 1 -3 2 -2 1 -3 2 -3 1 -3 2 -3 1 -3 
2 -3 1 -3 2 -3 1 -3 2 -3 2 -3 1 -3 2 -3 
1 -4 2 -3 1 -3 2 -4 1 -3 2 -4 1 -3 2 -4 
1 -4 2 -4 1 -3 2 -6 1 -4 2 -3 1 -8 2 -5 
2 -5 1 -4 2 -5 1 -4 2 -4 1 -3 2 -4 1 -4 
2 -3 1 -4 2 -3 1 -3 2 -3 1 -4 2 -3 1 -3 
2 -3 2 -3 1 -3 2 -3 1 -3 2 -3 1 -3 2 -2 
1 -3 2 -3 1 -3 2 -2 1 -3 2 -3 1 -2 2 -3 
1 -3 2 -2 2 -3 1 -2 2 -3 1 -2 2 -3 1 -2 
2 -3 1 -2 2 -2 1 -3 2 -2 1 -2 2 -3 1 -2 
2 -2 1 -3 2 -2 1 -2 2 -2 2 -3 1 -2 2 -2 
1 -2 2 -2 1 -3 2 -2 1 -2 2 -2 1 -2 2 -2 
1 -2 2 -2 1 -2 2 -2 1 -2 2 -2 2 -2 1 -2 
2 -2 1 -2 2 -2 1 -2 2 -2 1 -2 2 -2 1 -2 
2 -2 1 -2 2 -2 1 -2 2 -2 1 -1 2 -2 1 -2 
2 -2 2 -2 1 -2 2 -2 1 -1 2 -2 1 -2 2 -2 
1 -1 2 -2 1 -2 2 -2 1 -1 2 -2 1 -2 2 -2 
1 -1 2 -2 2 -2 1 -1 2 -2 1 -2 2 -1 1 -2 
2 -2 1 -1 2 -2 1 -2 2 -1 1 -2 2 -2 1 -1 
2 -2 1 -1 2 -2 1 -2 2 -1 2 -2 1 -1 2 -2 
1 -1 2 -2 1 -1 2 -2 1 -1 2 -2 1 -2 2 -1 
1 -2 2 -1 1 -2 2 -1 1 -1 2 -2 2 -1 1 -2 
2 -1 1 -2 2 -1 1 -2 2 -1 1 -2 2 -1 1 -1 
2 -2 1 -1 2 -2 1 -1 2 -1 1 -2 2 -1 2 -2 
1 -1 2 -1 1 -2 2 -1 1 -1 2 -2 1 -1 2 -1 
1 -2 2 -1 1 -1 2 -2 1 -1 2 -1 1 -2 2 -1 
1 -1 2 -2 2 -1 1 -1 2 -1 1 -2 2 -1 1 -1 
2 -2 1 -1 2 -1 1 -1 2 -2 1 -1 2 -1 1 -1 
2 -1 1 -2 2 -1 6435 2554 300 MP stroke
2 -1 1 -1 2 -2 1 -1 2 -1 1 -1 2 -1 1 -2 
2 -1 1 -1 2 -1 1 -1 2 -1 1 -2 2 -1 1 -1 
2 -1 1 -1 2 -1 2 -2 1 -1 2 -1 1 -1 2 -1 
1 -1 2 -1 1 -1 2 -2 1 -1 2 -1 1 -1 2 -1 
1 -1 2 -1 1 -1 2 -1 2 -1 1 -2 2 -1 1 -1 
2 -1 1 -1 2 -1 1 -1 2 -1 1 -1 2 -1 1 -1 
2 -1 1 -1 2 -1 1 -1 2 -1 1 -1 2 -1 2 -1 
1 -1 2 -1 1 -2 2 -1 1 -1 2 -1 1 -1 2 -1 
1 -1 2 -1 1 0 2 -1 1 -1 2 -1 1 -1 2 -1 
2 -1 1 -1 2 -1 1 -1 2 -1 1 -1 2 -1 1 -1 
2 -1 1 -1 2 -1 1 -1 2 -1 1 -1 2 -1 1 -1 
2 -1 2 0 1 -1 2 -1 1 -1 2 -1 1 -1 2 -1 
1 -1 2 -1 1 -1 2 -1 1 0 2 -1 1 -1 2 -1 
1 -1 2 -1 1 -1 2 -1 2 0 1 -1 2 -1 1 -1 
2 -1 1 -1 2 -1 1 -1 2 0 1 -1 2 -1 1 -1 
2 -1 1 -1 2 0 1 -1 2 -1 2 -1 1 -1 2 -1 
1 0 2 -1 1 -1 2 -1 1 -1 2 0 1 -1 2 -1 
1 -1 2 -1 1 -1 2 0 1 -1 2 -1 1 -1 2 0 
2 -1 1 -1 2 -1 1 -1 2 0 1 -1 2 -1 1 -1 
2 0 1 -1 2 -1 1 -1 2 -1 1 0 2 -1 1 -1 
2 -1 2 0 1 -1 2 -1 1 -1 2 0 1 -1 2 -1 
1 0 2 -1 1 -1 2 -1 1 0 2 -1 1 -1 2 -1 
1 0 2 -1 1 -1 2 0 2 -1 1 -1 2 -1 1 0 
2 -1 1 -1 2 0 1 -1 2 -1 1 0 2 -1 1 -1 
2 -1 1 0 2 -1 1 -1 2 0 2 -1 1 -1 2 0 
1 -1 2 -1 1 0 2 -1 1 -1 2 0 1 -1 2 -1 
1 0 2 -1 1 -1 2 0 1 -1 2 -1 2 0 1 -1 
2 0 1 -1 2 -1 1 0 2 -1 1 -1 2 0 1 -1 
2 -1 1 0 2 -1 1 0 2 -1 1 -1 2 0 1 -1 
2 0 2 -1 1 -1 2 0 1 -1 2 -1 1 0 2 -1 
1 0 2 -1 1 -1 2 0 1 -1 2 0 1 -1 2 0 
1 -1 2 -1 2 0 1 -1 2 0 1 -1 2 -1 1 0 
2 -1 1 0 2 -1 1 0 2 -1 1 -1 2 0 1 -1 
2 0 1 -1 2 0 1 -1 2 -1 2 0 1 -1 2 0 
1 -1 2 0 1 -1 2 0 1 -1 2 0 1 -1 2 -1 
1 0 2 -1 1 0 2 -1 1 0 2 -1 2 0 1 -1 
2 0 1 -1 2 0 1 -1 2 0 1 -1 2 0 1 -1 
2 -1 1 0 2 -1 5978 2795 300 MP stroke
1 0 2 -1 1 0 2 -1 1 0 2 -1 2 0 1 -1 
2 0 1 -1 2 0 1 -1 2 0 1 -1 2 0 1 -1 
2 0 1 -1 2 0 1 0 2 -1 1 0 2 -1 2 0 
1 -1 2 0 1 -1 2 0 1 -1 2 0 1 -1 2 0 
1 -1 2 0 1 -1 2 0 1 -1 2 0 1 0 2 -1 
2 0 1 -1 2 0 1 -1 2 0 1 -1 2 0 1 -1 
2 0 1 0 2 -1 1 0 2 -1 1 0 2 -1 1 0 
2 -1 1 0 2 0 2 -1 1 0 2 -1 1 0 2 -1 
1 0 2 0 1 -1 2 0 1 -1 2 0 1 -1 2 0 
1 0 2 -1 1 0 2 -1 2 0 1 0 2 -1 1 0 
2 -1 1 0 2 -1 1 0 2 0 1 -1 2 0 1 -1 
2 0 1 0 2 -1 1 0 2 -1 1 0 2 0 2 -1 
1 0 2 -1 1 0 2 0 1 -1 2 0 1 0 2 -1 
1 0 2 -1 1 0 2 0 1 -1 2 0 1 -1 2 0 
2 0 1 -1 2 0 1 0 2 -1 1 0 2 -1 1 0 
2 0 1 -1 2 0 1 0 2 -1 1 0 2 0 1 -1 
2 0 1 -1 2 0 2 0 1 -1 2 0 1 0 2 -1 
1 0 2 0 1 -1 2 0 1 0 2 -1 1 0 2 0 
1 -1 2 0 1 0 2 -1 2 0 1 -1 2 0 1 0 
2 -1 1 0 2 0 1 -1 2 0 1 0 2 -1 1 0 
2 0 1 -1 2 0 1 0 2 0 2 -1 1 0 2 0 
1 -1 2 0 1 0 2 -1 1 0 2 0 1 -1 2 0 
1 0 2 -1 1 0 2 0 1 -1 2 0 1 0 2 -1 
2 0 1 0 2 0 1 -1 2 0 1 0 2 -1 1 0 
2 0 1 -1 2 0 1 0 2 0 1 -1 2 0 1 0 
2 -1 2 0 1 0 2 -1 1 0 2 0 1 0 2 -1 
1 0 2 0 1 -1 2 0 1 0 2 0 1 -1 2 0 
1 0 2 -1 1 0 2 0 2 0 1 -1 2 0 1 0 
2 0 1 -1 2 0 1 0 2 -1 1 0 2 0 1 0 
2 -1 1 0 2 0 1 0 2 -1 2 0 1 0 2 0 
1 -1 2 0 1 0 2 -1 1 0 2 0 1 0 2 -1 
1 0 2 0 1 0 2 -1 1 0 2 0 1 0 2 -1 
2 0 1 0 2 0 1 -1 2 0 1 0 2 0 1 -1 
2 0 1 0 2 0 1 -1 2 0 1 0 2 0 1 -1 
2 0 2 0 1 0 2 0 1 -1 2 0 1 0 2 0 
1 -1 2 0 1 0 2 0 1 -1 2 0 1 0 2 0 
1 0 2 -1 2 0 1 0 2 0 1 -1 2 0 1 0 
2 0 1 -1 2 0 5521 2899 300 MP stroke
1 0 2 0 1 0 2 -1 1 0 2 0 1 0 2 0 
1 -1 2 0 2 0 1 0 2 -1 1 0 2 0 1 0 
2 0 1 -1 2 0 1 0 2 0 1 0 2 -1 1 0 
2 0 1 0 2 0 2 -1 1 0 2 0 1 0 2 -1 
1 0 2 0 1 0 2 0 1 -1 2 0 1 0 2 0 
1 0 2 0 1 -1 2 0 1 0 2 0 2 0 1 -1 
2 0 1 0 2 0 1 0 2 -1 1 0 2 0 1 0 
2 0 1 -1 2 0 1 0 2 0 1 0 2 0 2 -1 
1 0 2 0 1 0 2 0 1 -1 2 0 1 0 2 0 
1 0 2 0 1 -1 2 0 1 0 2 0 1 0 2 -1 
1 0 2 0 2 0 1 0 2 0 1 -1 2 0 1 0 
2 0 1 0 2 0 1 -1 2 0 1 0 2 0 1 0 
2 0 1 -1 2 0 2 0 1 0 2 0 1 0 2 -1 
1 0 2 0 1 0 2 0 1 0 2 0 1 -1 2 0 
1 0 2 0 1 0 2 0 2 -1 1 0 2 0 1 0 
2 0 1 0 2 -1 1 0 2 0 1 0 2 0 1 0 
2 0 1 -1 2 0 1 0 2 0 1 0 2 0 2 0 
1 -1 2 0 1 0 2 0 1 0 2 0 1 0 2 -1 
1 0 2 0 1 0 2 0 1 0 2 0 1 -1 2 0 
2 0 1 0 2 0 1 0 2 0 1 -1 2 0 1 0 
2 0 1 0 2 0 1 0 2 0 1 -1 2 0 1 0 
2 0 1 0 2 0 2 0 1 0 2 -1 1 0 2 0 
1 0 2 0 1 0 2 0 1 -1 2 0 1 0 2 0 
1 0 2 0 1 0 2 0 2 0 1 -1 2 0 1 0 
2 0 1 0 2 0 1 0 2 0 1 -1 2 0 1 0 
2 0 1 0 2 0 1 0 2 0 1 -1 5207 2933 207 MP stroke
gr

c9
0 sg
6717 3221 mt 
(t) s
4821 1667 mt 
(x) s
%%IncludeResource: font Helvetica
/Helvetica /ISOLatin1Encoding 96 FMSR

4881 1727 mt 
(2) s
1 sg
0 2404 3055 0 0 -2404 1187 6272 4 MP
PP
-3055 0 0 2404 3055 0 0 -2404 1187 6272 5 MP stroke
4 w
DO
SO
6 w
0 sg
1187 6272 mt 4242 6272 L
1187 3868 mt 4242 3868 L
1187 6272 mt 1187 3868 L
4242 6272 mt 4242 3868 L
1187 6272 mt 4242 6272 L
1187 6272 mt 1187 3868 L
1187 6272 mt 1187 6241 L
1187 3868 mt 1187 3898 L
%%IncludeResource: font Helvetica
/Helvetica /ISOLatin1Encoding 120 FMSR

1084 6417 mt 
(-1) s
1950 6272 mt 1950 6241 L
1950 3868 mt 1950 3898 L
1797 6417 mt 
(-0.5) s
2714 6272 mt 2714 6241 L
2714 3868 mt 2714 3898 L
2681 6417 mt 
(0) s
3478 6272 mt 3478 6241 L
3478 3868 mt 3478 3898 L
3395 6417 mt 
(0.5) s
4241 6272 mt 4241 6241 L
4241 3868 mt 4241 3898 L
4208 6417 mt 
(1) s
1187 6272 mt 1187 6272 L
1187 6272 mt 1187 6272 L
1187 6272 mt 1187 6272 L
1187 6272 mt 1187 6272 L
1187 6272 mt 1187 6272 L
1187 6272 mt 1187 6272 L
1187 6272 mt 1187 6272 L
1187 6272 mt 1187 6272 L
1187 6272 mt 1187 6272 L
1187 6272 mt 1187 6272 L
1187 6272 mt 1187 6272 L
1187 6272 mt 1187 6272 L
1187 6272 mt 1187 6272 L
1187 6272 mt 1187 6272 L
1187 6272 mt 1187 6272 L
1187 6272 mt 1187 6272 L
1187 6272 mt 1187 6272 L
1187 6272 mt 1187 6272 L
1187 5937 mt 1217 5937 L
4242 5937 mt 4211 5937 L
 884 5981 mt 
(10) s
%%IncludeResource: font Helvetica
/Helvetica /ISOLatin1Encoding 80 FMSR

1017 5907 mt 
(-10) s
1187 6272 mt 1187 6272 L
1187 6272 mt 1187 6272 L
1187 6272 mt 1187 6272 L
1187 6272 mt 1187 6272 L
1187 6272 mt 1187 6272 L
1187 6272 mt 1187 6272 L
1187 6272 mt 1187 6272 L
1187 6272 mt 1187 6272 L
1187 6272 mt 1187 6272 L
1187 6272 mt 1187 6272 L
1187 6272 mt 1187 6272 L
1187 6272 mt 1187 6272 L
1187 6272 mt 1187 6272 L
1187 6272 mt 1187 6272 L
1187 6272 mt 1187 6272 L
1187 6272 mt 1187 6272 L
1187 6272 mt 1187 6272 L
1187 6272 mt 1187 6272 L
1187 5403 mt 1217 5403 L
4242 5403 mt 4211 5403 L
%%IncludeResource: font Helvetica
/Helvetica /ISOLatin1Encoding 120 FMSR

 884 5447 mt 
(10) s
%%IncludeResource: font Helvetica
/Helvetica /ISOLatin1Encoding 80 FMSR

1017 5373 mt 
(-8) s
1187 6272 mt 1187 6272 L
1187 6272 mt 1187 6272 L
1187 6272 mt 1187 6272 L
1187 6272 mt 1187 6272 L
1187 6272 mt 1187 6272 L
1187 6272 mt 1187 6272 L
1187 6272 mt 1187 6272 L
1187 6272 mt 1187 6272 L
1187 6272 mt 1187 6272 L
1187 6272 mt 1187 6272 L
1187 6272 mt 1187 6272 L
1187 6272 mt 1187 6272 L
1187 6272 mt 1187 6272 L
1187 6272 mt 1187 6272 L
1187 6272 mt 1187 6272 L
1187 6272 mt 1187 6272 L
1187 6272 mt 1187 6272 L
1187 6272 mt 1187 6272 L
1187 4869 mt 1217 4869 L
4242 4869 mt 4211 4869 L
%%IncludeResource: font Helvetica
/Helvetica /ISOLatin1Encoding 120 FMSR

 884 4913 mt 
(10) s
%%IncludeResource: font Helvetica
/Helvetica /ISOLatin1Encoding 80 FMSR

1017 4839 mt 
(-6) s
1187 6272 mt 1187 6272 L
1187 6272 mt 1187 6272 L
1187 6272 mt 1187 6272 L
1187 6272 mt 1187 6272 L
1187 6272 mt 1187 6272 L
1187 6272 mt 1187 6272 L
1187 6272 mt 1187 6272 L
1187 6272 mt 1187 6272 L
1187 6272 mt 1187 6272 L
1187 6272 mt 1187 6272 L
1187 6272 mt 1187 6272 L
1187 6272 mt 1187 6272 L
1187 6272 mt 1187 6272 L
1187 6272 mt 1187 6272 L
1187 6272 mt 1187 6272 L
1187 6272 mt 1187 6272 L
1187 6272 mt 1187 6272 L
1187 6272 mt 1187 6272 L
1187 4335 mt 1217 4335 L
4242 4335 mt 4211 4335 L
%%IncludeResource: font Helvetica
/Helvetica /ISOLatin1Encoding 120 FMSR

 884 4379 mt 
(10) s
%%IncludeResource: font Helvetica
/Helvetica /ISOLatin1Encoding 80 FMSR

1017 4305 mt 
(-4) s
1187 6272 mt 1187 6272 L
1187 6272 mt 1187 6272 L
1187 6272 mt 1187 6272 L
1187 6272 mt 1187 6272 L
1187 6272 mt 1187 6272 L
1187 6272 mt 1187 6272 L
1187 6272 mt 1187 6272 L
1187 6272 mt 1187 6272 L
1187 6272 mt 1187 6272 L
1187 6272 mt 1187 6272 L
1187 6272 mt 1187 6272 L
1187 6272 mt 1187 6272 L
1187 6272 mt 1187 6272 L
1187 6272 mt 1187 6272 L
1187 6272 mt 1187 6272 L
1187 6272 mt 1187 6272 L
1187 6272 mt 1187 6272 L
1187 6272 mt 1187 6272 L
1187 6272 mt 4242 6272 L
1187 3868 mt 4242 3868 L
1187 6272 mt 1187 3868 L
4242 6272 mt 4242 3868 L
gs 1187 3868 3056 2405 rc
DA
c9
2 -48 2 132 1 -27 2 21 1 -111 2 -162 1 12 2 -34 
1 93 2 127 1 -63 2 62 1 -37 2 -5 1 -391 2 383 
1 -108 2 238 2 -79 1 124 2 -80 1 -46 2 -250 1 284 
2 -47 1 60 2 -74 1 34 2 -121 1 15 2 60 1 -99 
2 131 1 -14 2 86 1 -65 2 11 2 -92 1 9 2 68 
1 80 2 -17 1 -117 2 -10 1 36 2 35 1 11 2 -201 
1 115 2 -172 1 166 2 17 1 -84 2 111 2 144 1 -25 
2 -159 1 297 2 -207 1 157 2 -194 1 61 2 -93 1 -44 
2 47 1 40 2 77 1 -113 2 -55 1 -269 2 453 1 -43 
2 6 2 -94 1 -201 2 380 1 -80 2 54 1 -146 2 -227 
1 126 2 149 1 102 2 37 1 -20 2 -26 1 73 2 -144 
1 45 2 -81 2 126 1 -73 2 -33 1 -210 2 130 1 139 
2 -19 1 -74 2 -480 1 327 2 -345 1 385 2 124 1 -119 
2 -116 1 -19 2 262 1 -78 2 18 2 98 1 36 2 45 
1 -92 2 66 1 -69 2 -9 1 -126 2 149 1 -22 2 76 
1 -124 2 -296 1 302 2 -27 1 104 2 -10 1 -54 2 -186 
2 135 1 -50 2 -230 1 219 2 -48 1 45 2 103 1 -29 
2 -340 1 276 2 -343 1 344 2 103 1 -9 2 3 1 -91 
2 -113 2 90 1 -287 2 160 1 237 2 -9 1 -1 2 -82 
1 123 2 43 1 -10 2 8 1 12 2 -21 1 -8 2 -66 
1 63 2 -7 1 57 2 -44 2 17 1 -79 2 -291 1 247 
2 -105 1 6 2 -40 1 163 2 -131 1 72 2 151 1 -95 
2 -90 1 -99 2 216 1 -16 2 -86 2 -62 1 -83 2 -104 
1 167 2 -21 1 162 2 -244 1 255 2 -17 1 -81 2 133 
1 2 2 -56 1 -18 2 -88 1 89 2 28 1 -118 2 61 
2 -39 1 -22 2 11 1 -128 2 124 1 49 2 75 1 61 
2 24 1 3 2 -23 1 -82 2 52 1 43 2 44 1 -81 
2 13 1 -34 2 -75 2 -290 1 -211 2 475 1 35 2 -48 
1 -458 2 510 1 29 2 -36 1 -34 2 1 1 163 2 25 
1 -47 2 -144 1 -157 2 228 2 46 1 10 2 -44 1 -94 
2 70 1 78 2 91 1 -29 2 -53 1 -156 2 -7 1 114 
2 16 1 -40 2 -110 1 -38 2 -9 1 49 2 56 2 -51 
1 -97 2 161 1 61 2 19 1 -2 2 -143 1 78 2 92 
1 90 2 0 1 22 2 -26 1 -48 2 -61 1 -95 2 81 
2 11 1 125 2 -52 1 23 2 -88 1 -276 2 238 1 28 
2 -20 1 -18 2 27 1 -310 2 371 1 73 2 -22 1 -13 
2 -29 1 -15 2 -40 2 -84 1 18 2 -62 1 -11 2 38 
1 33 2 21 1 74 3785 5258 300 MP stroke
2 -42 1 -266 2 257 1 0 2 -34 1 -39 2 7 1 41 
2 4 1 -30 2 -36 2 28 1 85 2 70 1 -10 2 -58 
1 -86 2 52 1 27 2 -27 1 63 2 13 1 63 2 -19 
1 -32 2 -48 1 -86 2 -466 2 417 1 -302 2 416 1 9 
2 -6 1 -37 2 15 1 -43 2 10 1 8 2 58 1 19 
2 36 1 -3 2 -75 1 -80 2 -89 1 35 2 144 2 59 
1 -57 2 -159 1 184 2 32 1 -13 2 -43 1 -130 2 -23 
1 48 2 -299 1 203 2 -108 1 118 2 -79 1 136 2 -126 
2 22 1 116 2 65 1 29 2 -192 1 189 2 41 1 -88 
2 -187 1 23 2 179 1 91 2 28 1 -8 2 -63 1 -74 
2 -35 1 -13 2 -202 2 203 1 6 2 -124 1 113 2 122 
1 -6 2 -89 1 -238 2 238 1 129 2 48 1 15 2 -49 
1 -352 2 329 1 7 2 -85 1 -96 2 112 2 83 1 21 
2 -13 1 -4 2 -16 1 -30 2 -159 1 0 2 37 1 -63 
2 -267 1 268 2 -342 1 500 2 86 1 -5 2 -46 2 -35 
1 -80 2 -125 1 -160 2 321 1 23 2 -80 1 -51 2 140 
1 63 2 9 1 12 2 46 1 2 2 -50 1 -612 2 583 
1 59 2 6 2 -6 1 -41 2 -98 1 -127 2 -29 1 110 
2 -172 1 272 2 58 1 -23 2 -29 1 15 2 7 1 -106 
2 -184 1 189 2 91 2 33 1 -14 2 -70 1 -64 2 -95 
1 -21 2 41 1 9 2 156 1 18 2 -19 1 -22 2 19 
1 20 2 -5 1 -12 2 7 1 -1 2 -59 2 11 1 23 
2 -48 1 -177 2 191 1 126 2 22 1 -56 2 -273 1 159 
2 105 1 61 2 6 1 -71 2 -290 1 261 2 46 2 10 
1 -53 2 -184 1 -32 2 104 1 36 2 6 1 -23 2 -559 
1 641 2 75 1 16 2 -29 1 -63 2 -65 1 29 2 83 
1 52 2 21 2 -31 1 -126 2 -82 1 -33 2 11 1 60 
2 -174 1 179 2 2 1 0 2 172 1 65 2 22 1 -7 
2 -21 1 -48 2 -93 1 -191 2 -23 2 107 1 39 2 64 
1 37 2 -10 1 -3 2 21 1 1 2 -48 1 -102 2 -191 
1 -20 2 191 1 99 2 54 1 31 2 0 2 -18 1 -57 
2 -32 1 53 2 29 1 -35 2 -115 1 -80 2 25 1 -132 
2 27 1 204 2 93 1 16 2 -63 1 -153 2 123 1 -37 
2 33 2 42 1 -97 2 92 1 101 2 16 1 -29 2 -51 
1 -37 2 14 1 40 2 38 1 -3 2 -6 1 13 2 7 
1 -30 2 -74 2 -128 1 -28 2 123 1 89 2 43 1 27 
2 26 1 14 2 -6 1 -14 2 -10 1 -25 2 -35 1 -17 
2 22 1 22 2 3 3328 5243 300 MP stroke
1 -7 2 5 2 18 1 -11 2 -76 1 -131 2 20 1 51 
2 -22 1 -44 2 79 1 73 2 13 1 -30 2 -98 1 -220 
2 217 1 -2 2 -215 1 158 2 37 2 13 1 46 2 51 
1 54 2 49 1 29 2 5 1 -13 2 -20 1 -12 2 5 
1 24 2 18 1 -4 2 -25 1 -33 2 -2 2 23 1 27 
2 14 1 -7 2 -34 1 -46 2 -55 1 -109 2 -241 1 170 
2 166 1 47 2 7 1 -16 2 -33 1 0 2 49 1 45 
2 24 2 14 1 10 2 12 1 6 2 -9 1 -32 2 -45 
1 -50 2 -25 1 -18 2 14 1 49 2 15 1 -34 2 -43 
1 15 2 31 2 25 1 11 2 -7 1 -26 2 -35 1 8 
2 19 1 8 2 -10 1 -41 2 -93 1 -70 2 -100 1 107 
2 63 1 -196 2 266 1 52 2 30 2 8 1 -20 2 -32 
1 -7 2 49 1 24 2 -21 1 -45 2 -5 1 36 2 8 
1 -29 2 -71 1 -208 2 90 1 151 2 54 1 14 2 -15 
2 -39 1 -11 2 -1 1 -24 2 -112 1 -65 2 -455 1 602 
2 87 1 50 2 21 1 6 2 -20 1 -48 2 -47 1 -35 
2 -86 2 -200 1 81 2 199 1 94 2 1 1 -73 2 -233 
1 215 2 69 1 -33 2 -196 1 229 2 29 1 -12 2 18 
1 34 2 28 1 13 2 -8 2 -24 1 -33 2 -38 1 0 
2 44 1 33 2 -29 1 -180 2 110 1 44 2 -32 1 -129 
2 5 1 95 2 -31 1 -106 2 47 2 142 1 55 2 21 
1 11 2 5 1 5 2 13 1 -1 2 -21 1 -51 2 -58 
1 1 2 58 1 28 2 -8 1 -22 2 -23 1 -62 2 -51 
2 50 1 77 2 29 1 -14 2 -36 1 0 2 17 1 10 
2 -17 1 -22 2 -14 1 25 2 19 1 3 2 -3 1 19 
2 9 1 1 2 1 2 3 1 -23 2 -29 1 -6 2 17 
1 -6 2 -22 1 -56 2 -58 1 -80 2 30 1 34 2 50 
1 47 2 69 1 50 2 27 2 -7 1 -37 2 -87 1 -46 
2 52 1 55 2 6 1 -21 2 -56 1 -46 2 -21 1 84 
2 63 1 35 2 -3 1 -17 2 -34 1 -23 2 -17 2 15 
1 8 2 20 1 13 2 19 1 11 2 21 1 0 2 -8 
1 -28 2 -12 1 -10 2 -14 1 -81 2 -144 1 -83 2 144 
2 115 1 49 2 -3 1 4 2 -36 1 -101 2 -74 1 -360 
2 464 1 119 2 27 1 -18 2 -120 1 -99 2 161 1 -1 
2 -26 1 -190 2 7 2 161 1 -4 2 0 1 -176 2 -53 
1 167 2 -78 1 37 2 -63 1 110 2 92 1 -39 2 6 
1 -76 2 66 1 36 2 68 2 -10 1 -15 2 -61 1 56 
2 2 1 33 2 -2 2871 5287 300 MP stroke
1 35 2 -15 1 -3 2 -50 1 21 2 -30 1 17 2 -47 
1 42 2 -86 1 -50 2 0 2 -103 1 112 2 179 1 30 
2 36 1 -22 2 0 1 -51 2 20 1 -43 2 -4 1 -230 
2 -27 1 111 2 123 1 -1 2 67 1 -65 2 42 2 -111 
1 90 2 -102 1 131 2 -66 1 59 2 -363 1 248 2 -12 
1 3 2 61 1 -211 2 228 1 -46 2 -60 1 126 2 -81 
2 -10 1 132 2 -260 1 239 2 -31 1 -66 2 160 1 -234 
2 260 1 -309 2 281 1 -101 2 128 1 -216 2 231 1 -75 
2 39 1 8 2 32 2 -50 1 80 2 -41 1 50 2 -26 
1 56 2 -26 1 34 2 11 1 11 2 15 1 19 2 11 
1 20 2 16 1 21 2 15 2 25 1 25 2 2 1 59 
2 30 1 -383 2 541 1 -104 2 150 1 -124 2 9 1 136 
2 480 1 141 2 73 1 -33 2 6 1 60 2 -153 2 -259 
1 -124 2 -90 1 -70 2 -58 1 -50 2 -43 1 -38 2 -35 
1 -31 2 -30 1 -26 2 -24 1 -24 2 -22 1 -17 2 -27 
1 -8 2 -24 2 -16 1 -18 2 -1 1 -45 2 24 1 -48 
2 14 1 -32 2 8 1 -36 2 12 1 -22 2 -9 1 -7 
2 -22 1 19 2 -60 2 42 1 -32 2 -22 1 32 2 -67 
1 55 2 -65 1 25 2 10 1 -78 2 68 1 -14 2 -159 
1 206 2 -378 1 367 2 -268 1 207 2 -56 2 55 1 -248 
2 310 1 -130 2 115 1 -185 2 179 1 -159 2 115 1 -251 
2 238 1 -189 2 178 1 -130 2 -4 1 98 2 -153 2 236 
1 -15 2 72 1 -42 2 23 1 -95 2 5 1 -180 2 -35 
1 239 2 -57 1 28 2 -355 1 227 2 -265 1 323 2 -273 
1 164 2 29 2 62 1 -32 2 90 1 -313 2 -329 1 629 
2 -159 1 -105 2 200 1 -41 2 -3 1 92 2 -275 1 -55 
2 330 1 2 2 60 1 -38 2 2 2 -452 1 223 2 151 
1 -366 2 -37 1 427 2 -23 1 17 2 -135 1 72 2 74 
1 -160 2 52 1 -41 2 164 1 -39 2 -145 2 216 1 35 
2 13 1 -80 2 -257 1 260 2 -39 1 -30 2 -259 1 113 
2 209 1 -15 2 -26 1 -374 2 280 1 132 2 -28 1 -21 
2 -105 2 39 1 -40 2 18 1 11 2 217 1 31 2 -37 
1 -511 2 455 1 20 2 -186 1 56 2 87 1 -21 2 -51 
1 0 2 118 2 46 1 -12 2 -23 1 -54 2 -3 1 -13 
2 29 1 7 2 28 1 -2 2 6 1 -10 2 -4 1 -19 
2 46 1 30 2 8 1 -42 2 -72 2 -256 1 256 2 68 
1 -18 2 -134 1 76 2 20 1 -96 2 -82 1 -196 2 320 
1 83 2 13 1 3 2415 5387 300 MP stroke
2 -52 1 -305 2 321 1 47 2 -3 2 -54 1 -58 2 -113 
1 -337 2 430 1 75 2 50 1 3 2 -7 1 -26 2 -15 
1 -25 2 -25 1 -791 2 826 1 86 2 20 2 -15 1 -67 
2 -153 1 75 2 88 1 29 2 -23 1 -82 2 7 1 122 
2 24 1 -35 2 -35 1 0 2 -13 1 -186 2 118 1 20 
2 -222 2 268 1 69 2 20 1 -6 2 -35 1 -47 2 -86 
1 -187 2 86 1 61 2 49 1 -70 2 -32 1 97 2 -187 
1 176 2 65 2 0 1 11 2 -1 1 -13 2 -22 1 7 
2 5 1 31 2 35 1 18 2 -28 1 -92 2 -108 1 86 
2 -206 1 316 2 66 1 25 2 -17 2 -83 1 -59 2 139 
1 26 2 -27 1 -61 2 -50 1 49 2 63 1 36 2 -8 
1 -52 2 -125 1 -88 2 125 1 -12 2 -198 2 162 1 23 
2 -44 1 -249 2 132 1 28 2 -110 1 92 2 183 1 100 
2 54 1 11 2 -26 1 -64 2 -90 1 -95 2 28 1 68 
2 38 2 -7 1 -49 2 -65 1 99 2 96 1 45 2 0 
1 -27 2 -37 1 -39 2 -64 1 -75 2 18 1 76 2 34 
1 -10 2 -107 1 -50 2 75 2 -74 1 -151 2 99 1 -15 
2 -37 1 239 2 121 1 42 2 -10 1 -60 2 -154 1 4 
2 66 1 9 2 17 1 24 2 1 2 5 1 -4 2 -33 
1 -41 2 31 1 65 2 43 1 13 2 -10 1 -16 2 -7 
1 -6 2 -3 1 5 2 4 1 -26 2 -54 1 -79 2 -87 
2 3 1 123 2 78 1 47 2 15 1 2 2 -9 1 -21 
2 -73 1 -143 2 199 1 48 2 13 1 -13 2 -36 1 -86 
2 -75 2 88 1 95 2 34 1 -14 2 -67 1 -264 2 217 
1 40 2 -5 1 7 2 19 1 -10 2 -63 1 -138 2 205 
1 39 2 -27 1 -77 2 -149 2 -540 1 503 2 68 1 -117 
2 190 1 17 2 3 1 25 2 10 1 -52 2 -388 1 333 
2 3 1 -95 2 215 1 70 2 17 1 -44 2 -334 2 325 
1 6 2 -91 1 -101 2 115 1 99 2 30 1 -24 2 -91 
1 -470 2 371 1 53 2 69 1 48 2 15 1 -8 2 -5 
2 -22 1 -67 2 -121 1 1 2 33 1 -78 2 34 1 125 
2 26 1 -16 2 -39 1 -97 2 -339 1 249 2 203 1 74 
2 16 1 -9 2 -1 2 10 1 22 2 27 1 10 2 -18 
1 -51 2 -81 1 -191 2 140 1 115 2 56 1 -22 2 -277 
1 254 2 44 1 -30 2 -105 2 -216 1 219 2 48 1 5 
2 -31 1 17 2 56 1 32 2 -42 1 -125 2 204 1 44 
2 -6 1 -72 2 -488 1 450 2 49 1 1 2 -73 2 -81 
1 115 2 -86 1 -32 1958 5494 300 MP stroke
2 101 1 40 2 16 1 -10 2 -39 1 -65 2 -95 1 -144 
2 39 1 91 2 64 1 31 2 31 1 37 2 -43 2 -87 
1 152 2 16 1 -34 2 -28 1 25 2 32 1 15 2 -23 
1 -10 2 18 1 26 2 -10 1 -21 2 -44 1 -7 2 7 
2 60 1 39 2 5 1 -40 2 -179 1 93 2 83 1 11 
2 -1 1 -24 2 -20 1 -60 2 -93 1 -8 2 66 1 -2 
2 -19 1 -103 2 26 2 50 1 -357 2 361 1 10 2 -23 
1 3 2 -8 1 -129 2 262 1 76 2 -4 1 -173 2 124 
1 47 2 -20 1 -47 2 -9 2 16 1 23 2 -16 1 -56 
2 -142 1 42 2 115 1 42 2 -23 1 -130 2 -103 1 53 
2 -202 1 331 2 70 1 6 2 -50 1 -64 2 -308 2 327 
1 64 2 29 1 17 2 -13 1 -29 2 16 1 54 2 29 
1 -12 2 -65 1 -149 2 209 1 51 2 -18 1 -93 2 -361 
1 325 2 34 2 -12 1 -191 2 146 1 26 2 -55 1 53 
2 28 1 81 2 7 1 9 2 -36 1 -107 2 -70 1 131 
2 -33 1 -327 2 310 2 15 1 9 2 53 1 55 2 -5 
1 -63 2 -306 1 192 2 -75 1 79 2 80 1 7 2 -88 
1 -126 2 166 1 91 2 6 1 18 2 -80 2 -140 1 161 
2 46 1 -38 2 -104 1 -78 2 133 1 70 2 37 1 -29 
2 -12 1 -44 2 -101 1 -385 2 240 1 224 2 56 2 -18 
1 -127 2 -98 1 34 2 -102 1 197 2 -11 1 -267 2 335 
1 40 2 23 1 -47 2 -71 1 -182 2 -10 1 43 2 217 
1 54 2 6 2 -97 1 -113 2 8 1 108 2 91 1 22 
2 -32 1 -129 2 12 1 76 2 79 1 -18 2 -9 1 -24 
2 23 1 10 2 6 2 -11 1 -31 2 -208 1 183 2 42 
1 51 2 -15 1 -10 2 -100 1 -302 2 152 1 98 2 98 
1 8 2 -32 1 7 2 34 1 82 2 -50 2 -58 1 -452 
2 397 1 22 2 -94 1 28 2 187 1 17 2 4 1 -87 
2 -442 1 389 2 33 1 38 2 -17 1 -9 2 -102 1 -271 
2 36 2 240 1 80 2 -114 1 93 2 39 1 -198 2 152 
1 58 2 -49 1 -40 2 -189 1 210 2 50 1 15 2 11 
1 -101 2 -103 2 -159 1 87 2 125 1 101 2 46 1 62 
2 29 1 25 2 -27 1 -20 2 -39 1 -41 2 -272 1 267 
2 65 1 -9 2 -12 1 -74 2 -289 2 244 1 19 2 -18 
1 52 2 108 1 -20 2 -32 1 -138 2 -231 1 282 2 12 
1 59 2 -2 1 -34 2 -16 1 -143 2 -101 2 162 1 142 
2 62 1 12 2 -29 1 -14 2 -9 1 3 2 -17 1 -20 
2 -38 1 -58 2 -72 1501 5545 300 MP stroke
1 138 2 11 1 -611 2 707 1 -49 2 35 2 -65 1 -16 
2 97 1 -21 2 50 1 -56 2 -59 1 -116 2 161 1 17 
2 -64 1 -214 2 125 1 29 2 140 1 14 2 -50 1 -144 
2 -82 2 109 1 154 2 -57 1 76 2 -35 1 -6 2 -1 
1 -28 2 -10 1 -12 2 -174 1 93 2 110 1 -36 2 24 
1 37 2 -53 2 -93 1 -16 2 130 1 51 2 -54 1 3 
2 -207 1 172 2 -53 1 -9 2 -55 1 70 2 129 1 -31 
2 29 1 -68 2 -202 1 169 2 -3 2 -1 1 -73 2 79 
1 54 2 -29 1 -7 2 -65 1 61 2 11 1 -39 2 -164 
1 157 2 64 1 26 2 -19 1 -48 2 -41 2 -107 1 -16 
2 176 1 26 2 24 1 -11 2 -59 1 -48 2 -165 1 236 
2 -7 1 -14 2 -34 1 -24 2 35 1 -48 2 -168 1 299 
2 -37 2 28 1 -38 2 -33 1 61 2 45 1 -19 2 -46 
1 -159 2 194 1 -128 2 197 1 -27 2 52 1 -35 2 -153 
1 43 2 -13 1 -268 2 456 2 -130 1 106 2 -114 1 3 
2 -37 1 -5 2 -80 1 60 2 -163 1 92 2 106 1 -42 
2 -383 1 230 2 305 1 -97 2 75 2 -29 1 -36 2 -94 
1 -162 2 141 1 -28 2 8 1 18 2 -76 1 82 2 126 
1 32 2 -64 1 -115 2 168 1 2 2 -19 1 165 2 -158 
2 118 1 -124 2 -1 1 -69 2 -9 1 -101 2 -114 1 -258 
2 539 1 -18 2 65 1 -45 2 -115 1 16 2 26 1 34 
2 -69 2 15 1 -46 2 56 1 1 2 31 1 -51 2 91 
1 -43 2 34 1 -117 2 -38 1 3 2 46 1 34 2 -74 
1 -24 2 379 1 -75 2 -60 2 -235 1 387 2 -41 1 -29 
2 -59 1 -331 2 844 1 0 2 0 1 -1 2 2 1 -4 
2 8 1 -28 2 74 1 -64 2 618 1188 4169 206 MP stroke
gr

c9
DA
0 sg
%%IncludeResource: font Helvetica
/Helvetica /ISOLatin1Encoding 120 FMSR

2696 6560 mt 
(t) s
 441 5023 mt 
(error x) s
%%IncludeResource: font Helvetica
/Helvetica /ISOLatin1Encoding 96 FMSR

 787 5083 mt 
(1) s
SO
1 sg
0 2405 3056 0 0 -2405 5207 6272 4 MP
PP
-3056 0 0 2405 3056 0 0 -2405 5207 6272 5 MP stroke
4 w
DO
SO
6 w
0 sg
5207 6272 mt 8263 6272 L
5207 3867 mt 8263 3867 L
5207 6272 mt 5207 3867 L
8263 6272 mt 8263 3867 L
5207 6272 mt 8263 6272 L
5207 6272 mt 5207 3867 L
5207 6272 mt 5207 6241 L
5207 3868 mt 5207 3898 L
%%IncludeResource: font Helvetica
/Helvetica /ISOLatin1Encoding 120 FMSR

5104 6417 mt 
(-1) s
5970 6272 mt 5970 6241 L
5970 3868 mt 5970 3898 L
5817 6417 mt 
(-0.5) s
6734 6272 mt 6734 6241 L
6734 3868 mt 6734 3898 L
6701 6417 mt 
(0) s
7498 6272 mt 7498 6241 L
7498 3868 mt 7498 3898 L
7415 6417 mt 
(0.5) s
8262 6272 mt 8262 6241 L
8262 3868 mt 8262 3898 L
8229 6417 mt 
(1) s
5207 6272 mt 5207 6272 L
5207 6272 mt 5207 6272 L
5207 6272 mt 5207 6272 L
5207 6272 mt 5207 6272 L
5207 6272 mt 5207 6272 L
5207 6272 mt 5207 6272 L
5207 6272 mt 5207 6272 L
5207 6272 mt 5207 6272 L
5207 6272 mt 5207 6272 L
5207 6272 mt 5207 6272 L
5207 6272 mt 5207 6272 L
5207 6272 mt 5207 6272 L
5207 6272 mt 5207 6272 L
5207 6272 mt 5207 6272 L
5207 6272 mt 5207 6272 L
5207 6272 mt 5207 6272 L
5207 6272 mt 5207 6272 L
5207 6272 mt 5207 6272 L
5207 5937 mt 5237 5937 L
8263 5937 mt 8232 5937 L
4904 5981 mt 
(10) s
%%IncludeResource: font Helvetica
/Helvetica /ISOLatin1Encoding 80 FMSR

5037 5907 mt 
(-10) s
5207 6272 mt 5207 6272 L
5207 6272 mt 5207 6272 L
5207 6272 mt 5207 6272 L
5207 6272 mt 5207 6272 L
5207 6272 mt 5207 6272 L
5207 6272 mt 5207 6272 L
5207 6272 mt 5207 6272 L
5207 6272 mt 5207 6272 L
5207 6272 mt 5207 6272 L
5207 6272 mt 5207 6272 L
5207 6272 mt 5207 6272 L
5207 6272 mt 5207 6272 L
5207 6272 mt 5207 6272 L
5207 6272 mt 5207 6272 L
5207 6272 mt 5207 6272 L
5207 6272 mt 5207 6272 L
5207 6272 mt 5207 6272 L
5207 6272 mt 5207 6272 L
5207 5403 mt 5237 5403 L
8263 5403 mt 8232 5403 L
%%IncludeResource: font Helvetica
/Helvetica /ISOLatin1Encoding 120 FMSR

4904 5447 mt 
(10) s
%%IncludeResource: font Helvetica
/Helvetica /ISOLatin1Encoding 80 FMSR

5037 5373 mt 
(-8) s
5207 6272 mt 5207 6272 L
5207 6272 mt 5207 6272 L
5207 6272 mt 5207 6272 L
5207 6272 mt 5207 6272 L
5207 6272 mt 5207 6272 L
5207 6272 mt 5207 6272 L
5207 6272 mt 5207 6272 L
5207 6272 mt 5207 6272 L
5207 6272 mt 5207 6272 L
5207 6272 mt 5207 6272 L
5207 6272 mt 5207 6272 L
5207 6272 mt 5207 6272 L
5207 6272 mt 5207 6272 L
5207 6272 mt 5207 6272 L
5207 6272 mt 5207 6272 L
5207 6272 mt 5207 6272 L
5207 6272 mt 5207 6272 L
5207 6272 mt 5207 6272 L
5207 4869 mt 5237 4869 L
8263 4869 mt 8232 4869 L
%%IncludeResource: font Helvetica
/Helvetica /ISOLatin1Encoding 120 FMSR

4904 4913 mt 
(10) s
%%IncludeResource: font Helvetica
/Helvetica /ISOLatin1Encoding 80 FMSR

5037 4839 mt 
(-6) s
5207 6272 mt 5207 6272 L
5207 6272 mt 5207 6272 L
5207 6272 mt 5207 6272 L
5207 6272 mt 5207 6272 L
5207 6272 mt 5207 6272 L
5207 6272 mt 5207 6272 L
5207 6272 mt 5207 6272 L
5207 6272 mt 5207 6272 L
5207 6272 mt 5207 6272 L
5207 6272 mt 5207 6272 L
5207 6272 mt 5207 6272 L
5207 6272 mt 5207 6272 L
5207 6272 mt 5207 6272 L
5207 6272 mt 5207 6272 L
5207 6272 mt 5207 6272 L
5207 6272 mt 5207 6272 L
5207 6272 mt 5207 6272 L
5207 6272 mt 5207 6272 L
5207 4335 mt 5237 4335 L
8263 4335 mt 8232 4335 L
%%IncludeResource: font Helvetica
/Helvetica /ISOLatin1Encoding 120 FMSR

4904 4379 mt 
(10) s
%%IncludeResource: font Helvetica
/Helvetica /ISOLatin1Encoding 80 FMSR

5037 4305 mt 
(-4) s
5207 6272 mt 5207 6272 L
5207 6272 mt 5207 6272 L
5207 6272 mt 5207 6272 L
5207 6272 mt 5207 6272 L
5207 6272 mt 5207 6272 L
5207 6272 mt 5207 6272 L
5207 6272 mt 5207 6272 L
5207 6272 mt 5207 6272 L
5207 6272 mt 5207 6272 L
5207 6272 mt 5207 6272 L
5207 6272 mt 5207 6272 L
5207 6272 mt 5207 6272 L
5207 6272 mt 5207 6272 L
5207 6272 mt 5207 6272 L
5207 6272 mt 5207 6272 L
5207 6272 mt 5207 6272 L
5207 6272 mt 5207 6272 L
5207 6272 mt 5207 6272 L
5207 6272 mt 8263 6272 L
5207 3867 mt 8263 3867 L
5207 6272 mt 5207 3867 L
8263 6272 mt 8263 3867 L
gs 5207 3868 3057 2405 rc
DA
c9
1 -153 2 -259 2 -124 1 -90 2 -70 1 -58 2 -50 1 -43 
2 -38 1 -35 2 -31 1 -30 2 -26 1 -24 2 -24 1 -22 
2 -17 1 -27 2 -8 2 -24 1 -16 2 -18 1 -1 2 -45 
1 24 2 -48 1 14 2 -32 1 8 2 -36 1 12 2 -22 
1 -9 2 -7 1 -22 2 19 2 -60 1 42 2 -32 1 -22 
2 32 1 -67 2 55 1 -65 2 25 1 10 2 -78 1 68 
2 -14 1 -159 2 206 1 -378 2 367 1 -268 2 207 2 -56 
1 55 2 -248 1 310 2 -130 1 115 2 -185 1 179 2 -159 
1 115 2 -251 1 238 2 -189 1 178 2 -130 1 -4 2 98 
2 -153 1 236 2 -15 1 72 2 -42 1 23 2 -95 1 5 
2 -180 1 -35 2 239 1 -57 2 28 1 -355 2 227 1 -265 
2 323 1 -273 2 164 2 29 1 62 2 -32 1 90 2 -313 
1 -329 2 629 1 -159 2 -105 1 200 2 -41 1 -3 2 92 
1 -275 2 -55 1 330 2 2 2 60 1 -38 2 2 1 -452 
2 223 1 151 2 -366 1 -37 2 427 1 -23 2 17 1 -135 
2 72 1 74 2 -160 1 52 2 -41 1 164 2 -39 2 -145 
1 216 2 35 1 13 2 -80 1 -257 2 260 1 -39 2 -30 
1 -259 2 113 1 209 2 -15 1 -26 2 -374 1 280 2 132 
2 -28 1 -21 2 -105 1 39 2 -40 1 18 2 11 1 217 
2 31 1 -37 2 -511 1 455 2 20 1 -186 2 56 1 87 
2 -21 2 -51 1 0 2 118 1 46 2 -12 1 -23 2 -54 
1 -3 2 -13 1 29 2 7 1 28 2 -2 1 6 2 -10 
1 -4 2 -19 1 46 2 30 2 8 1 -42 2 -72 1 -256 
2 256 1 68 2 -18 1 -134 2 76 1 20 2 -96 1 -82 
2 -196 1 320 2 83 1 13 2 3 2 -52 1 -305 2 321 
1 47 2 -3 1 -54 2 -58 1 -113 2 -337 1 430 2 75 
1 50 2 3 1 -7 2 -26 1 -15 2 -25 1 -25 2 -791 
2 826 1 86 2 20 1 -15 2 -67 1 -153 2 75 1 88 
2 29 1 -23 2 -82 1 7 2 122 1 24 2 -35 1 -35 
2 0 2 -13 1 -186 2 118 1 20 2 -222 1 268 2 69 
1 20 2 -6 1 -35 2 -47 1 -86 2 -187 1 86 2 61 
1 49 2 -70 1 -32 2 97 2 -187 1 176 2 65 1 0 
2 11 1 -1 2 -13 1 -22 2 7 1 5 2 31 1 35 
2 18 1 -28 2 -92 1 -108 2 86 2 -206 1 316 2 66 
1 25 2 -17 1 -83 2 -59 1 139 2 26 1 -27 2 -61 
1 -50 2 49 1 63 2 36 1 -8 2 -52 2 -125 1 -88 
2 125 1 -12 2 -198 1 162 2 23 1 -44 2 -249 1 132 
2 28 1 -110 2 92 6279 5625 300 MP stroke
1 183 2 100 1 54 2 11 1 -26 2 -64 2 -90 1 -95 
2 28 1 68 2 38 1 -7 2 -49 1 -65 2 99 1 96 
2 45 1 0 2 -27 1 -37 2 -39 1 -64 2 -75 2 18 
1 76 2 34 1 -10 2 -107 1 -50 2 75 1 -74 2 -151 
1 99 2 -15 1 -37 2 239 1 121 2 42 1 -10 2 -60 
1 -154 2 4 2 66 1 9 2 17 1 24 2 1 1 5 
2 -4 1 -33 2 -41 1 31 2 65 1 43 2 13 1 -10 
2 -16 1 -7 2 -6 2 -3 1 5 2 4 1 -26 2 -54 
1 -79 2 -87 1 3 2 123 1 78 2 47 1 15 2 2 
1 -9 2 -21 1 -73 2 -143 1 199 2 48 2 13 1 -13 
2 -36 1 -86 2 -75 1 88 2 95 1 34 2 -14 1 -67 
2 -264 1 217 2 40 1 -5 2 7 1 19 2 -10 2 -63 
1 -138 2 205 1 39 2 -27 1 -77 2 -149 1 -540 2 503 
1 68 2 -117 1 190 2 17 1 3 2 25 1 10 2 -52 
2 -388 1 333 2 3 1 -95 2 215 1 70 2 17 1 -44 
2 -334 1 325 2 6 1 -91 2 -101 1 115 2 99 1 30 
2 -24 1 -91 2 -470 2 371 1 53 2 69 1 48 2 15 
1 -8 2 -5 1 -22 2 -67 1 -121 2 1 1 33 2 -78 
1 34 2 125 1 26 2 -16 2 -39 1 -97 2 -339 1 249 
2 203 1 74 2 16 1 -9 2 -1 1 10 2 22 1 27 
2 10 1 -18 2 -51 1 -81 2 -191 1 140 2 115 2 56 
1 -22 2 -277 1 254 2 44 1 -30 2 -105 1 -216 2 219 
1 48 2 5 1 -31 2 17 1 56 2 32 1 -42 2 -125 
2 204 1 44 2 -6 1 -72 2 -488 1 450 2 49 1 1 
2 -73 1 -81 2 115 1 -86 2 -32 1 101 2 40 1 16 
2 -10 1 -39 2 -65 2 -95 1 -144 2 39 1 91 2 64 
1 31 2 31 1 37 2 -43 1 -87 2 152 1 16 2 -34 
1 -28 2 25 1 32 2 15 2 -23 1 -10 2 18 1 26 
2 -10 1 -21 2 -44 1 -7 2 7 1 60 2 39 1 5 
2 -40 1 -179 2 93 1 83 2 11 2 -1 1 -24 2 -20 
1 -60 2 -93 1 -8 2 66 1 -2 2 -19 1 -103 2 26 
1 50 2 -357 1 361 2 10 1 -23 2 3 1 -8 2 -129 
2 262 1 76 2 -4 1 -173 2 124 1 47 2 -20 1 -47 
2 -9 1 16 2 23 1 -16 2 -56 1 -142 2 42 1 115 
2 42 2 -23 1 -130 2 -103 1 53 2 -202 1 331 2 70 
1 6 2 -50 1 -64 2 -308 1 327 2 64 1 29 2 17 
1 -13 2 -29 1 16 2 54 2 29 1 -12 2 -65 1 -149 
2 209 1 51 2 -18 5822 5302 300 MP stroke
1 -93 2 -361 1 325 2 34 1 -12 2 -191 1 146 2 26 
1 -55 2 53 2 28 1 81 2 7 1 9 2 -36 1 -107 
2 -70 1 131 2 -33 1 -327 2 310 1 15 2 9 1 53 
2 55 1 -5 2 -63 1 -306 2 192 2 -75 1 79 2 80 
1 7 2 -88 1 -126 2 166 1 91 2 6 1 18 2 -80 
1 -140 2 161 1 46 2 -38 1 -104 2 -78 2 133 1 70 
2 37 1 -29 2 -12 1 -44 2 -101 1 -385 2 240 1 224 
2 56 1 -18 2 -127 1 -98 2 34 1 -102 2 197 2 -11 
1 -267 2 335 1 40 2 23 1 -47 2 -71 1 -182 2 -10 
1 43 2 217 1 54 2 6 1 -97 2 -113 1 8 2 108 
1 91 2 22 2 -32 1 -129 2 12 1 76 2 79 1 -18 
2 -9 1 -24 2 23 1 10 2 6 1 -11 2 -31 1 -208 
2 183 1 42 2 51 2 -15 1 -10 2 -100 1 -302 2 152 
1 98 2 98 1 8 2 -32 1 7 2 34 1 82 2 -50 
1 -58 2 -452 1 397 2 22 1 -94 2 28 2 187 1 17 
2 4 1 -87 2 -442 1 389 2 33 1 38 2 -17 1 -9 
2 -102 1 -271 2 36 1 240 2 80 1 -114 2 93 2 39 
1 -198 2 152 1 58 2 -49 1 -40 2 -189 1 210 2 50 
1 15 2 11 1 -101 2 -103 1 -159 2 87 1 125 2 101 
1 46 2 62 2 29 1 25 2 -27 1 -20 2 -39 1 -41 
2 -272 1 267 2 65 1 -9 2 -12 1 -74 2 -289 1 244 
2 19 1 -18 2 52 2 108 1 -20 2 -32 1 -138 2 -231 
1 282 2 12 1 59 2 -2 1 -34 2 -16 1 -143 2 -101 
1 162 2 142 1 62 2 12 2 -29 1 -14 2 -9 1 3 
2 -17 1 -20 2 -38 1 -58 2 -72 1 138 2 11 1 -611 
2 707 1 -49 2 35 1 -65 2 -16 1 97 2 -21 2 50 
1 -56 2 -59 1 -116 2 161 1 17 2 -64 1 -214 2 125 
1 29 2 140 1 14 2 -50 1 -144 2 -82 1 109 2 154 
2 -57 1 76 2 -35 1 -6 2 -1 1 -28 2 -10 1 -12 
2 -174 1 93 2 110 1 -36 2 24 1 37 2 -53 1 -93 
2 -16 1 130 2 51 2 -54 1 3 2 -207 1 172 2 -53 
1 -9 2 -55 1 70 2 129 1 -31 2 29 1 -68 2 -202 
1 169 2 -3 1 -1 2 -73 2 79 1 54 2 -29 1 -7 
2 -65 1 61 2 11 1 -39 2 -164 1 157 2 64 1 26 
2 -19 1 -48 2 -41 1 -107 2 -16 1 176 2 26 2 24 
1 -11 2 -59 1 -48 2 -165 1 236 2 -7 1 -14 2 -34 
1 -24 2 35 1 -48 2 -168 1 299 2 -37 1 28 2 -38 
2 -33 1 61 2 45 5365 5328 300 MP stroke
1 -19 2 -46 1 -159 2 194 1 -128 2 197 1 -27 2 52 
1 -35 2 -153 1 43 2 -13 1 -268 2 456 2 -130 1 106 
2 -114 1 3 2 -37 1 -5 2 -80 1 60 2 -163 1 92 
2 106 1 -42 2 -383 1 230 2 305 1 -97 2 75 1 -29 
2 -36 2 -94 1 -162 2 141 1 -28 2 8 1 18 2 -75 
1 81 2 126 1 32 2 -64 1 -115 2 168 1 2 2 -19 
1 165 2 -158 2 118 1 -124 2 -1 1 -69 2 -9 1 -101 
2 -114 1 -258 2 539 1 -18 2 65 1 -45 2 -115 1 16 
2 26 1 34 2 -69 1 15 2 -46 2 56 1 1 2 31 
1 -51 2 91 1 -43 2 34 1 -117 2 -38 1 3 2 46 
1 34 2 -74 1 -24 2 379 1 -75 2 -60 2 -235 1 387 
2 -41 1 -29 2 -59 1 -331 2 844 1 0 2 0 1 -1 
2 2 1 -4 2 8 1 -28 2 74 1 -64 2 618 5208 4169 104 MP stroke
2 -48 2 132 1 -27 2 21 1 -111 2 -162 1 12 2 -34 
1 93 2 127 1 -63 2 62 1 -37 2 -5 1 -391 2 383 
1 -108 2 238 2 -79 1 124 2 -80 1 -46 2 -250 1 284 
2 -47 1 60 2 -74 1 34 2 -121 1 15 2 60 1 -99 
2 131 1 -14 2 86 2 -65 1 11 2 -92 1 9 2 68 
1 80 2 -17 1 -117 2 -10 1 36 2 35 1 11 2 -201 
1 115 2 -172 1 166 2 17 1 -84 2 111 2 144 1 -25 
2 -159 1 297 2 -207 1 157 2 -194 1 61 2 -93 1 -44 
2 47 1 40 2 77 1 -113 2 -55 1 -269 2 453 2 -43 
1 6 2 -94 1 -201 2 380 1 -80 2 54 1 -146 2 -227 
1 126 2 149 1 102 2 37 1 -20 2 -26 1 73 2 -144 
1 45 2 -81 2 126 1 -73 2 -33 1 -210 2 130 1 139 
2 -19 1 -74 2 -480 1 327 2 -345 1 385 2 124 1 -119 
2 -116 1 -19 2 262 2 -78 1 18 2 98 1 36 2 45 
1 -92 2 66 1 -69 2 -9 1 -126 2 149 1 -22 2 76 
1 -124 2 -296 1 302 2 -27 1 104 2 -10 2 -54 1 -186 
2 135 1 -50 2 -230 1 219 2 -48 1 45 2 103 1 -29 
2 -340 1 276 2 -343 1 344 2 103 1 -9 2 3 2 -91 
1 -113 2 90 1 -287 2 160 1 237 2 -9 1 -1 2 -82 
1 123 2 43 1 -10 2 8 1 12 2 -21 1 -8 2 -66 
2 63 1 -7 2 57 1 -44 2 17 1 -79 2 -291 1 247 
2 -105 1 6 2 -40 1 163 2 -131 1 72 2 151 1 -95 
2 -90 1 -99 2 216 2 -16 1 -86 2 -62 1 -83 2 -104 
1 167 2 -21 1 162 2 -244 1 255 2 -17 1 -81 2 133 
1 2 2 -56 1 -18 2 -88 2 89 1 28 2 -118 1 61 
2 -39 1 -22 2 11 1 -128 2 124 1 49 2 75 1 61 
2 24 1 3 2 -23 1 -82 2 52 1 43 2 44 2 -81 
1 13 2 -34 1 -75 2 -290 1 -211 2 475 1 35 2 -48 
1 -458 2 510 1 29 2 -36 1 -34 2 1 1 163 2 25 
2 -47 1 -144 2 -157 1 228 2 46 1 10 2 -44 1 -94 
2 70 1 78 2 91 1 -29 2 -53 1 -156 2 -7 1 114 
2 16 1 -40 2 -110 2 -38 1 -9 2 49 1 56 2 -51 
1 -97 2 161 1 61 2 19 1 -2 2 -143 1 78 2 92 
1 90 2 0 1 22 2 -26 2 -48 1 -61 2 -95 1 81 
2 11 1 125 2 -52 1 23 2 -88 1 -276 2 238 1 28 
2 -20 1 -18 2 27 1 -310 2 371 2 73 1 -22 2 -13 
1 -29 2 -15 1 -40 2 -84 1 18 2 -62 1 -11 2 38 
1 33 2 21 1 74 7806 5258 300 MP stroke
2 -42 1 -266 2 257 1 0 2 -34 2 -39 1 7 2 41 
1 4 2 -30 1 -36 2 28 1 85 2 70 1 -10 2 -58 
1 -86 2 52 1 27 2 -27 1 63 2 13 2 63 1 -19 
2 -32 1 -48 2 -86 1 -466 2 417 1 -302 2 416 1 9 
2 -6 1 -37 2 15 1 -43 2 10 1 8 2 58 1 19 
2 36 2 -3 1 -75 2 -80 1 -89 2 35 1 144 2 59 
1 -57 2 -159 1 184 2 32 1 -13 2 -43 1 -130 2 -23 
1 48 2 -299 2 203 1 -108 2 118 1 -79 2 136 1 -126 
2 22 1 116 2 65 1 29 2 -192 1 189 2 41 1 -88 
2 -187 1 23 2 179 1 91 2 28 2 -8 1 -63 2 -74 
1 -35 2 -13 1 -202 2 203 1 6 2 -124 1 113 2 123 
1 -7 2 -89 1 -238 2 238 1 129 2 48 2 15 1 -49 
2 -352 1 329 2 7 1 -85 2 -96 1 112 2 83 1 21 
2 -13 1 -4 2 -16 1 -30 2 -159 1 0 2 37 2 -63 
1 -267 2 268 1 -342 2 500 1 86 2 -5 1 -46 2 -35 
1 -80 2 -125 1 -160 2 321 1 23 2 -80 1 -51 2 140 
1 63 2 9 2 12 1 46 2 2 1 -50 2 -612 1 583 
2 59 1 6 2 -6 1 -41 2 -98 1 -127 2 -29 1 110 
2 -172 1 272 2 58 2 -23 1 -29 2 15 1 7 2 -106 
1 -184 2 189 1 91 2 33 1 -14 2 -70 1 -64 2 -95 
1 -21 2 41 1 9 2 156 1 18 2 -19 2 -22 1 19 
2 20 1 -5 2 -12 1 7 2 -1 1 -59 2 11 1 23 
2 -48 1 -177 2 191 1 126 2 22 1 -56 2 -273 2 159 
1 105 2 61 1 6 2 -71 1 -290 2 261 1 46 2 10 
1 -53 2 -184 1 -32 2 104 1 36 2 6 1 -23 2 -559 
1 641 2 75 2 16 1 -29 2 -63 1 -65 2 29 1 83 
2 52 1 21 2 -31 1 -126 2 -82 1 -33 2 11 1 60 
2 -174 1 179 2 2 2 0 1 172 2 65 1 22 2 -7 
1 -21 2 -48 1 -93 2 -191 1 -23 2 107 1 39 2 64 
1 37 2 -10 1 -3 2 21 2 1 1 -48 2 -102 1 -191 
2 -20 1 191 2 99 1 54 2 31 1 0 2 -18 1 -57 
2 -32 1 53 2 29 1 -35 2 -115 1 -80 2 25 2 -132 
1 27 2 204 1 93 2 16 1 -63 2 -153 1 123 2 -37 
1 33 2 42 1 -97 2 92 1 101 2 16 1 -29 2 -51 
2 -37 1 14 2 40 1 38 2 -3 1 -6 2 13 1 7 
2 -30 1 -74 2 -128 1 -28 2 123 1 89 2 43 1 27 
2 26 1 14 2 -6 2 -14 1 -10 2 -25 1 -35 2 -17 
1 22 2 22 1 3 7349 5243 300 MP stroke
2 -7 1 5 2 18 1 -11 2 -76 1 -131 2 20 1 51 
2 -22 2 -44 1 79 2 73 1 13 2 -30 1 -98 2 -220 
1 217 2 -2 1 -215 2 158 1 37 2 13 1 46 2 51 
1 54 2 49 1 29 2 5 2 -13 1 -20 2 -12 1 5 
2 24 1 18 2 -4 1 -25 2 -33 1 -2 2 23 1 27 
2 14 1 -7 2 -34 1 -46 2 -55 2 -109 1 -241 2 170 
1 166 2 47 1 7 2 -16 1 -33 2 0 1 49 2 45 
1 24 2 14 1 10 2 12 1 6 2 -9 2 -32 1 -45 
2 -50 1 -25 2 -18 1 14 2 49 1 15 2 -34 1 -43 
2 15 1 31 2 25 1 11 2 -7 1 -26 2 -35 1 8 
2 19 2 8 1 -10 2 -41 1 -93 2 -70 1 -100 2 107 
1 63 2 -196 1 266 2 52 1 30 2 8 1 -20 2 -32 
1 -7 2 49 2 24 1 -21 2 -45 1 -5 2 36 1 8 
2 -29 1 -71 2 -208 1 90 2 151 1 54 2 14 1 -15 
2 -39 1 -11 2 -1 1 -24 2 -112 2 -65 1 -455 2 602 
1 87 2 50 1 21 2 6 1 -20 2 -48 1 -47 2 -35 
1 -86 2 -200 1 81 2 199 1 94 2 1 2 -73 1 -233 
2 215 1 69 2 -33 1 -196 2 229 1 29 2 -12 1 18 
2 34 1 28 2 13 1 -8 2 -24 1 -33 2 -38 1 0 
2 44 2 33 1 -29 2 -180 1 110 2 44 1 -32 2 -129 
1 5 2 95 1 -31 2 -106 1 47 2 142 1 55 2 21 
1 11 2 5 2 5 1 13 2 -1 1 -21 2 -51 1 -58 
2 1 1 58 2 28 1 -8 2 -22 1 -23 2 -62 1 -51 
2 50 1 77 2 29 2 -14 1 -36 2 0 1 17 2 10 
1 -17 2 -22 1 -14 2 25 1 19 2 3 1 -3 2 19 
1 9 2 1 1 1 2 3 1 -23 2 -29 2 -6 1 17 
2 -6 1 -22 2 -56 1 -58 2 -80 1 30 2 34 1 50 
2 47 1 69 2 50 1 27 2 -7 1 -37 2 -87 2 -46 
1 52 2 55 1 6 2 -21 1 -56 2 -46 1 -21 2 84 
1 63 2 35 1 -3 2 -17 1 -34 2 -23 1 -17 2 15 
1 8 2 20 2 13 1 19 2 11 1 21 2 0 1 -8 
2 -28 1 -12 2 -10 1 -14 2 -81 1 -144 2 -83 1 144 
2 115 1 49 2 -3 2 4 1 -36 2 -101 1 -74 2 -360 
1 464 2 119 1 27 2 -18 1 -120 2 -99 1 161 2 -1 
1 -26 2 -190 1 7 2 161 1 -4 2 0 2 -176 1 -53 
2 167 1 -78 2 37 1 -63 2 110 1 92 2 -39 1 6 
2 -76 1 66 2 36 1 68 2 -10 1 -15 2 -61 2 56 
1 2 2 33 1 -2 6892 5287 300 MP stroke
2 35 1 -15 2 -3 1 -50 2 21 1 -30 2 17 1 -47 
2 42 1 -86 2 -50 1 0 2 -103 2 112 1 179 2 30 
1 36 2 -22 1 0 2 -51 1 20 2 -43 1 -4 2 -230 
1 -27 2 111 1 123 2 -1 1 67 2 -65 1 42 2 -111 
2 90 1 -102 2 131 1 -66 2 59 1 -363 2 248 1 -12 
2 3 1 61 2 -211 1 228 2 -45 1 -61 2 126 1 -81 
2 -10 2 132 1 -260 2 239 1 -31 2 -66 1 160 2 -234 
1 260 2 -309 1 281 2 -101 1 128 2 -216 1 231 2 -75 
1 39 2 9 1 31 2 -50 2 80 1 -41 2 50 1 -26 
2 56 1 -26 2 34 1 11 2 11 1 15 2 19 1 11 
2 20 1 16 2 21 1 15 2 25 2 25 1 2 2 59 
1 30 2 -383 1 541 2 -104 1 150 2 -124 1 9 2 136 
1 480 2 141 1 73 2 -33 1 6 2 60 6736 3868 103 MP stroke
gr

c9
DA
0 sg
%%IncludeResource: font Helvetica
/Helvetica /ISOLatin1Encoding 120 FMSR

6717 6560 mt 
(t) s
4541 5081 mt 
(error x) s
%%IncludeResource: font Helvetica
/Helvetica /ISOLatin1Encoding 96 FMSR

4887 5141 mt 
(2) s
SO

end %%Color Dict

eplot
%%EndObject

epage
end

showpage

%%Trailer
%%EOF
