%!PS-Adobe-3.0 EPSF-3.0
%%Creator: MATLAB, The Mathworks, Inc.
%%Title: /homes/numerik/wunder/program/sources/ln_x2_bdf_const.eps
%%CreationDate: 12/19/2005  09:23:22
%%DocumentNeededFonts: Helvetica
%%DocumentProcessColors: Cyan Magenta Yellow Black
%%LanguageLevel: 2
%%Pages: 1
%%BoundingBox:    36   193   574   597
%%EndComments

%%BeginProlog
% MathWorks dictionary
/MathWorks 160 dict begin
% definition operators
/bdef {bind def} bind def
/ldef {load def} bind def
/xdef {exch def} bdef
/xstore {exch store} bdef
% operator abbreviations
/c  /clip ldef
/cc /concat ldef
/cp /closepath ldef
/gr /grestore ldef
/gs /gsave ldef
/mt /moveto ldef
/np /newpath ldef
/cm /currentmatrix ldef
/sm /setmatrix ldef
/rm /rmoveto ldef
/rl /rlineto ldef
/s {show newpath} bdef
/sc {setcmykcolor} bdef
/sr /setrgbcolor ldef
/sg /setgray ldef
/w /setlinewidth ldef
/j /setlinejoin ldef
/cap /setlinecap ldef
/rc {rectclip} bdef
/rf {rectfill} bdef
% page state control
/pgsv () def
/bpage {/pgsv save def} bdef
/epage {pgsv restore} bdef
/bplot /gsave ldef
/eplot {stroke grestore} bdef
% orientation switch
/portraitMode 0 def /landscapeMode 1 def /rotateMode 2 def
% coordinate system mappings
/dpi2point 0 def
% font control
/FontSize 0 def
/FMS {/FontSize xstore findfont [FontSize 0 0 FontSize neg 0 0]
  makefont setfont} bdef
/reencode {exch dup where {pop load} {pop StandardEncoding} ifelse
  exch dup 3 1 roll findfont dup length dict begin
  { 1 index /FID ne {def}{pop pop} ifelse } forall
  /Encoding exch def currentdict end definefont pop} bdef
/isroman {findfont /CharStrings get /Agrave known} bdef
/FMSR {3 1 roll 1 index dup isroman {reencode} {pop pop} ifelse
  exch FMS} bdef
/csm {1 dpi2point div -1 dpi2point div scale neg translate
 dup landscapeMode eq {pop -90 rotate}
  {rotateMode eq {90 rotate} if} ifelse} bdef
% line types: solid, dotted, dashed, dotdash
/SO { [] 0 setdash } bdef
/DO { [.5 dpi2point mul 4 dpi2point mul] 0 setdash } bdef
/DA { [6 dpi2point mul] 0 setdash } bdef
/DD { [.5 dpi2point mul 4 dpi2point mul 6 dpi2point mul 4
  dpi2point mul] 0 setdash } bdef
% macros for lines and objects
/L {lineto stroke} bdef
/MP {3 1 roll moveto 1 sub {rlineto} repeat} bdef
/AP {{rlineto} repeat} bdef
/PDlw -1 def
/W {/PDlw currentlinewidth def setlinewidth} def
/PP {closepath eofill} bdef
/DP {closepath stroke} bdef
/MR {4 -2 roll moveto dup  0 exch rlineto exch 0 rlineto
  neg 0 exch rlineto closepath} bdef
/FR {MR stroke} bdef
/PR {MR fill} bdef
/L1i {{currentfile picstr readhexstring pop} image} bdef
/tMatrix matrix def
/MakeOval {newpath tMatrix currentmatrix pop translate scale
0 0 1 0 360 arc tMatrix setmatrix} bdef
/FO {MakeOval stroke} bdef
/PO {MakeOval fill} bdef
/PD {currentlinewidth 2 div 0 360 arc fill
   PDlw -1 eq not {PDlw w /PDlw -1 def} if} def
/FA {newpath tMatrix currentmatrix pop translate scale
  0 0 1 5 -2 roll arc tMatrix setmatrix stroke} bdef
/PA {newpath tMatrix currentmatrix pop	translate 0 0 moveto scale
  0 0 1 5 -2 roll arc closepath tMatrix setmatrix fill} bdef
/FAn {newpath tMatrix currentmatrix pop translate scale
  0 0 1 5 -2 roll arcn tMatrix setmatrix stroke} bdef
/PAn {newpath tMatrix currentmatrix pop translate 0 0 moveto scale
  0 0 1 5 -2 roll arcn closepath tMatrix setmatrix fill} bdef
/vradius 0 def /hradius 0 def /lry 0 def
/lrx 0 def /uly 0 def /ulx 0 def /rad 0 def
/MRR {/vradius xdef /hradius xdef /lry xdef /lrx xdef /uly xdef
  /ulx xdef newpath tMatrix currentmatrix pop ulx hradius add uly
  vradius add translate hradius vradius scale 0 0 1 180 270 arc 
  tMatrix setmatrix lrx hradius sub uly vradius add translate
  hradius vradius scale 0 0 1 270 360 arc tMatrix setmatrix
  lrx hradius sub lry vradius sub translate hradius vradius scale
  0 0 1 0 90 arc tMatrix setmatrix ulx hradius add lry vradius sub
  translate hradius vradius scale 0 0 1 90 180 arc tMatrix setmatrix
  closepath} bdef
/FRR {MRR stroke } bdef
/PRR {MRR fill } bdef
/MlrRR {/lry xdef /lrx xdef /uly xdef /ulx xdef /rad lry uly sub 2 div def
  newpath tMatrix currentmatrix pop ulx rad add uly rad add translate
  rad rad scale 0 0 1 90 270 arc tMatrix setmatrix lrx rad sub lry rad
  sub translate rad rad scale 0 0 1 270 90 arc tMatrix setmatrix
  closepath} bdef
/FlrRR {MlrRR stroke } bdef
/PlrRR {MlrRR fill } bdef
/MtbRR {/lry xdef /lrx xdef /uly xdef /ulx xdef /rad lrx ulx sub 2 div def
  newpath tMatrix currentmatrix pop ulx rad add uly rad add translate
  rad rad scale 0 0 1 180 360 arc tMatrix setmatrix lrx rad sub lry rad
  sub translate rad rad scale 0 0 1 0 180 arc tMatrix setmatrix
  closepath} bdef
/FtbRR {MtbRR stroke } bdef
/PtbRR {MtbRR fill } bdef
/stri 6 array def /dtri 6 array def
/smat 6 array def /dmat 6 array def
/tmat1 6 array def /tmat2 6 array def /dif 3 array def
/asub {/ind2 exch def /ind1 exch def dup dup
  ind1 get exch ind2 get sub exch } bdef
/tri_to_matrix {
  2 0 asub 3 1 asub 4 0 asub 5 1 asub
  dup 0 get exch 1 get 7 -1 roll astore } bdef
/compute_transform {
  dmat dtri tri_to_matrix tmat1 invertmatrix 
  smat stri tri_to_matrix tmat2 concatmatrix } bdef
/ds {stri astore pop} bdef
/dt {dtri astore pop} bdef
/db {2 copy /cols xdef /rows xdef mul dup 3 mul string
  currentfile 
  3 index 0 eq {/ASCIIHexDecode filter}
  {/ASCII85Decode filter 3 index 2 eq {/RunLengthDecode filter} if }
  ifelse exch readstring pop
  dup 0 3 index getinterval /rbmap xdef
  dup 2 index dup getinterval /gbmap xdef
  1 index dup 2 mul exch getinterval /bbmap xdef pop pop}bdef
/it {gs np dtri aload pop moveto lineto lineto cp c
  cols rows 8 compute_transform 
  rbmap gbmap bbmap true 3 colorimage gr}bdef
/il {newpath moveto lineto stroke}bdef
currentdict end def
%%EndProlog

%%BeginSetup
MathWorks begin

0 cap

end
%%EndSetup

%%Page: 1 1
%%BeginPageSetup
%%PageBoundingBox:    36   193   574   597
MathWorks begin
bpage
%%EndPageSetup

%%BeginObject: obj1
bplot

/dpi2point 12 def
portraitMode 0432 7164 csm

    0     0  6456  4845 rc
85 dict begin %Colortable dictionary
/c0 { 0.000000 0.000000 0.000000 sr} bdef
/c1 { 1.000000 1.000000 1.000000 sr} bdef
/c2 { 0.900000 0.000000 0.000000 sr} bdef
/c3 { 0.000000 0.820000 0.000000 sr} bdef
/c4 { 0.000000 0.000000 0.800000 sr} bdef
/c5 { 0.910000 0.820000 0.320000 sr} bdef
/c6 { 1.000000 0.260000 0.820000 sr} bdef
/c7 { 0.000000 0.820000 0.820000 sr} bdef
c0
1 j
1 sg
   0    0 6457 4846 rf
6 w
0 1654 5004 0 0 -1654 839 2016 4 MP
PP
-5004 0 0 1654 5004 0 0 -1654 839 2016 5 MP stroke
4 w
DO
SO
6 w
0 sg
 839 2016 mt 5843 2016 L
 839  362 mt 5843  362 L
 839 2016 mt  839  362 L
5843 2016 mt 5843  362 L
 839 2016 mt 5843 2016 L
 839 2016 mt  839  362 L
 839 2016 mt  839 1965 L
 839  363 mt  839  413 L
%%IncludeResource: font Helvetica
/Helvetica /ISOLatin1Encoding 120 FMSR

 736 2161 mt 
(-1) s
1339 2016 mt 1339 1965 L
1339  363 mt 1339  413 L
1186 2161 mt 
(-0.8) s
1839 2016 mt 1839 1965 L
1839  363 mt 1839  413 L
1686 2161 mt 
(-0.6) s
2340 2016 mt 2340 1965 L
2340  363 mt 2340  413 L
2187 2161 mt 
(-0.4) s
2840 2016 mt 2840 1965 L
2840  363 mt 2840  413 L
2687 2161 mt 
(-0.2) s
3340 2016 mt 3340 1965 L
3340  363 mt 3340  413 L
3307 2161 mt 
(0) s
3841 2016 mt 3841 1965 L
3841  363 mt 3841  413 L
3758 2161 mt 
(0.2) s
4341 2016 mt 4341 1965 L
4341  363 mt 4341  413 L
4258 2161 mt 
(0.4) s
4842 2016 mt 4842 1965 L
4842  363 mt 4842  413 L
4759 2161 mt 
(0.6) s
5342 2016 mt 5342 1965 L
5342  363 mt 5342  413 L
5259 2161 mt 
(0.8) s
5842 2016 mt 5842 1965 L
5842  363 mt 5842  413 L
5809 2161 mt 
(1) s
 839 1811 mt  889 1811 L
5843 1811 mt 5792 1811 L
 738 1855 mt 
(0) s
 839 1487 mt  889 1487 L
5843 1487 mt 5792 1487 L
 738 1531 mt 
(2) s
 839 1162 mt  889 1162 L
5843 1162 mt 5792 1162 L
 738 1206 mt 
(4) s
 839  838 mt  889  838 L
5843  838 mt 5792  838 L
 738  882 mt 
(6) s
 839  514 mt  889  514 L
5843  514 mt 5792  514 L
 738  558 mt 
(8) s
 839 2016 mt 5843 2016 L
 839  362 mt 5843  362 L
 839 2016 mt  839  362 L
5843 2016 mt 5843  362 L
gs 839 363 5005 1654 rc
/c8 { 1.000000 0.000000 0.000000 sr} bdef
c8
3 -1 3 -1 2 -1 3 -1 2 -1 3 -1 2 -2 3 -1 
2 -1 3 -1 2 -1 3 -1 2 -2 3 -1 2 -1 3 -1 
2 -1 3 -1 2 -1 3 -2 2 -1 3 -1 2 -1 3 -1 
2 -1 3 -2 2 -1 3 -1 2 -1 3 -1 2 -1 3 -1 
2 -2 3 -1 2 -1 3 -1 2 -1 3 -1 2 -1 3 -2 
2 -1 3 -1 2 -1 3 -1 2 -1 3 -1 2 -1 3 -2 
2 -1 3 -1 2 -1 3 -1 2 -1 3 -1 2 -1 3 -2 
2 -1 3 -1 2 -1 3 -1 2 -1 3 -1 2 -1 3 -2 
2 -1 3 -1 2 -1 3 -1 2 -1 3 -1 2 -1 3 -2 
2 -1 3 -1 2 -1 3 -1 2 -1 3 -1 2 -1 3 -1 
2 -2 3 -1 2 -1 3 -1 2 -1 3 -1 2 -1 3 -1 
2 -1 3 -2 2 -1 3 -1 2 -1 3 -1 2 -1 3 -1 
2 -1 3 -1 2 -1 3 -2 2 -1 3 -1 2 -1 3 -1 
2 -1 3 -1 2 -1 3 -1 2 -1 3 -1 2 -2 3 -1 
2 -1 3 -1 2 -1 3 -1 2 -1 3 -1 2 -1 3 -1 
2 -1 3 -2 2 -1 3 -1 2 -1 3 -1 2 -1 3 -1 
2 -1 3 -1 2 -1 3 -1 2 -1 3 -2 2 -1 3 -1 
2 -1 3 -1 2 -1 3 -1 2 -1 3 -1 2 -1 3 -1 
2 -1 3 -1 2 -1 3 -2 2 -1 3 -1 2 -1 3 -1 
2 -1 3 -1 2 -1 3 -1 2 -1 3 -1 2 -1 3 -1 
2 -1 3 -1 2 -2 3 -1 2 -1 3 -1 2 -1 3 -1 
2 -1 3 -1 2 -1 3 -1 2 -1 3 -1 2 -1 3 -1 
2 -1 3 -1 2 -1 3 -2 2 -1 3 -1 2 -1 3 -1 
2 -1 3 -1 2 -1 3 -1 2 -1 3 -1 2 -1 3 -1 
2 -1 3 -1 2 -1 3 -1 2 -1 3 -1 2 -1 3 -1 
2 -2 3 -1 2 -1 3 -1 2 -1 3 -1 2 -1 3 -1 
2 -1 3 -1 2 -1 3 -1 2 -1 3 -1 2 -1 3 -1 
2 -1 3 -1 2 -1 3 -1 2 -1 3 -1 2 -1 3 -1 
2 -1 3 -1 2 -1 3 -1 2 -1 3 -2 2 -1 3 -1 
2 -1 3 -1 2 -1 3 -1 2 -1 3 -1 2 -1 3 -1 
2 -1 3 -1 2 -1 3 -1 2 -1 3 -1 2 -1 3 -1 
2 -1 3 -1 3 -1 2 -1 3 -1 2 -1 3 -1 2 -1 
3 -1 2 -1 3 -1 2 -1 3 -1 2 -1 3 -1 2 -1 
3 -1 2 -1 3 -1 2 -1 3 -1 2 -1 3 -1 2 -1 
3 -1 2 -1 3 -1 2 -1 3 -1 2 -1 3 -1 2 -1 
3 -1 2 -1 3 -1 2 -1 3 -1 2 -1 3 -1 2 -1 
3 -1 2 -1 3 -1 2 -1 3 -1 2 -1 3 -1 2 -1 
3 -1 2 -1 3 -1 5094 683 300 MP stroke
2 -1 3 -1 2 -1 3 -1 2 -1 3 -1 2 -1 3 -1 
2 -1 3 -1 2 -1 3 -1 2 -1 3 -1 2 -1 3 -1 
2 -1 3 -1 2 -1 3 -1 2 -1 3 -1 2 -1 3 -1 
2 -1 3 -1 2 -1 3 -1 2 -1 3 -1 2 -1 3 -1 
2 -1 3 -1 2 -1 3 -1 2 -1 3 -1 2 -1 3 -1 
2 -1 3 -1 2 -1 3 -1 2 -1 3 -1 2 -1 3 -1 
2 -1 3 -1 2 -1 3 -1 2 -1 3 -1 2 -1 3 -1 
2 -1 3 -1 2 -1 3 -1 2 -1 3 -1 2 -1 3 -1 
2 -1 3 -1 2 -1 3 -1 2 -1 3 -1 2 -1 3 -1 
2 -1 3 -1 2 0 3 -1 2 -1 3 -1 2 -1 3 -1 
2 -1 3 -1 2 -1 3 -1 2 -1 3 -1 2 -1 3 -1 
2 -1 3 -1 2 -1 3 -1 2 -1 3 -1 2 -1 3 -1 
2 -1 3 -1 2 -1 3 -1 2 -1 3 -1 2 -1 3 -1 
2 -1 3 -1 2 -1 3 -1 2 -1 3 -1 2 0 3 -1 
2 -1 3 -1 2 -1 3 -1 2 -1 3 -1 2 -1 3 -1 
2 -1 3 -1 2 -1 3 -1 2 -1 3 -1 2 -1 3 -1 
2 -1 3 -1 2 -1 3 -1 2 -1 3 -1 2 -1 3 -1 
2 -1 3 -1 2 -1 3 -1 2 0 3 -1 2 -1 3 -1 
2 -1 3 -1 2 -1 3 -1 2 -1 3 -1 2 -1 3 -1 
2 -1 3 -1 2 -1 3 -1 2 -1 3 -1 2 -1 3 -1 
2 -1 3 -1 2 -1 3 -1 2 -1 3 -1 2 0 3 -1 
2 -1 3 -1 2 -1 3 -1 2 -1 3 -1 2 -1 3 -1 
2 -1 3 -1 2 -1 3 -1 2 -1 3 -1 2 -1 3 -1 
2 -1 3 -1 2 -1 3 -1 2 -1 3 -1 2 -1 3 0 
2 -1 3 -1 2 -1 3 -1 2 -1 3 -1 2 -1 3 -1 
2 -1 3 -1 3 -1 2 -1 3 -1 2 -1 3 -1 2 -1 
3 -1 2 -1 3 -1 2 -1 3 -1 2 -1 3 -1 2 -1 
3 0 2 -1 3 -1 2 -1 3 -1 2 -1 3 -1 2 -1 
3 -1 2 -1 3 -1 2 -1 3 -1 2 -1 3 -1 2 -1 
3 -1 2 -1 3 -1 2 -1 3 -1 2 -1 3 -1 2 -1 
3 -1 2 0 3 -1 2 -1 3 -1 2 -1 3 -1 2 -1 
3 -1 2 -1 3 -1 2 -1 3 -1 2 -1 3 -1 2 -1 
3 -1 2 -1 3 -1 2 -1 3 -1 2 -1 3 -1 2 -1 
3 -1 2 -1 3 -1 2 -1 3 0 2 -1 3 -1 2 -1 
3 -1 2 -1 3 -1 2 -1 3 -1 2 -1 3 -1 2 -1 
3 -1 2 -1 3 -1 2 -1 3 -1 2 -1 3 -1 2 -1 
3 -1 2 -1 3 -1 2 -1 3 -1 2 -1 3 -1 2 -1 
3 -1 2 -1 3 -1 4346 974 300 MP stroke
2 -1 3 0 2 -1 3 -1 2 -1 3 -1 2 -1 3 -1 
2 -1 3 -1 2 -1 3 -1 2 -1 3 -1 2 -1 3 -1 
2 -1 3 -1 2 -1 3 -1 2 -1 3 -1 2 -1 3 -1 
2 -1 3 -1 2 -1 3 -1 2 -1 3 -1 2 -1 3 -1 
2 -1 3 -1 2 -1 3 -1 2 -1 3 -1 2 -1 3 -1 
2 -1 3 -1 2 -1 3 -1 2 -1 3 -1 2 -1 3 -1 
2 -1 3 -1 2 -1 3 -1 2 0 3 -1 2 -1 3 -1 
2 -1 3 -1 2 -1 3 -1 2 -1 3 -1 2 -1 3 -1 
2 -1 3 -1 2 -1 3 -1 2 -1 3 -1 2 -1 3 -1 
2 -1 3 -1 2 -1 3 -1 2 -1 3 -1 2 -1 3 -1 
2 -1 3 -1 2 -1 3 -1 2 -1 3 -1 2 -1 3 -1 
2 -2 3 -1 2 -1 3 -1 2 -1 3 -1 2 -1 3 -1 
2 -1 3 -1 2 -1 3 -1 2 -1 3 -1 2 -1 3 -1 
2 -1 3 -1 2 -1 3 -1 2 -1 3 -1 2 -1 3 -1 
2 -1 3 -1 2 -1 3 -1 2 -1 3 -1 2 -1 3 -1 
2 -1 3 -1 2 -1 3 -1 2 -1 3 -1 2 -1 3 -1 
2 -2 3 -1 2 -1 3 -1 2 -1 3 -1 2 -1 3 -1 
2 -1 3 -1 2 -1 3 -1 2 -1 3 -1 2 -1 3 -1 
2 -1 3 -1 2 -1 3 -1 2 -2 3 -1 2 -1 3 -1 
3 -1 2 -1 3 -1 2 -1 3 -1 2 -1 3 -1 2 -1 
3 -1 2 -1 3 -1 2 -2 3 -1 2 -1 3 -1 2 -1 
3 -1 2 -1 3 -1 2 -1 3 -1 2 -1 3 -1 2 -2 
3 -1 2 -1 3 -1 2 -1 3 -1 2 -1 3 -1 2 -1 
3 -1 2 -2 3 -1 2 -1 3 -1 2 -1 3 -1 2 -1 
3 -1 2 -1 3 -2 2 -1 3 -1 2 -1 3 -1 2 -1 
3 -1 2 -1 3 -2 2 -1 3 -1 2 -1 3 -1 2 -1 
3 -1 2 -1 3 -2 2 -1 3 -1 2 -1 3 -1 2 -1 
3 -1 2 -2 3 -1 2 -1 3 -1 2 -1 3 -1 2 -2 
3 -1 2 -1 3 -1 2 -1 3 -1 2 -2 3 -1 2 -1 
3 -1 2 -1 3 -2 2 -1 3 -1 2 -1 3 -1 2 -1 
3 -2 2 -1 3 -1 2 -1 3 -2 2 -1 3 -1 2 -1 
3 -1 2 -2 3 -1 2 -1 3 -1 2 -1 3 -2 2 -1 
3 -1 2 -1 3 -2 2 -1 3 -1 2 -1 3 -2 2 -1 
3 -1 2 -1 3 -2 2 -1 3 -1 2 -1 3 -2 2 -1 
3 -1 2 -2 3 -1 2 -1 3 -1 2 -2 3 -1 2 -1 
3 -2 2 -1 3 -1 2 -2 3 -1 2 -1 3 -1 2 -2 
3 -1 2 -1 3 -2 2 -1 3 -1 2 -2 3 -1 2 -2 
3 -1 2 -1 3 -2 3598 1301 300 MP stroke
2 -1 3 -1 2 -2 3 -1 2 -1 3 -2 2 -1 3 -2 
2 -1 3 -1 2 -2 3 -1 2 -2 3 -1 2 -2 3 -1 
2 -1 3 -2 2 -1 3 -2 2 -1 3 -2 2 -1 3 -2 
2 -1 3 -2 2 -1 3 -2 2 -1 3 -2 2 -1 3 -2 
2 -1 3 -2 2 -1 3 -2 2 -1 3 -2 2 -1 3 -2 
2 -1 3 -2 2 -2 3 -1 2 -2 3 -1 2 -2 3 -2 
2 -1 3 -2 2 -2 3 -1 2 -2 3 -2 2 -1 3 -2 
2 -2 3 -1 2 -2 3 -2 2 -2 3 -1 2 -2 3 -2 
2 -2 3 -1 2 -2 3 -2 2 -2 3 -2 2 -2 3 -2 
2 -1 3 -2 2 -2 3 -2 2 -2 3 -2 2 -2 3 -2 
2 -2 3 -2 2 -2 3 -2 2 -3 3 -2 2 -2 3 -2 
2 -2 3 -3 2 -2 3 -2 2 -3 3 -2 2 -3 3 -2 
2 -3 3 -2 2 -3 3 -3 2 -3 3 -4 2 -4 3 -4 
3 -3 2 -3 3 -3 2 -3 3 -2 2 -3 3 -2 2 -3 
3 -2 2 -3 3 -2 2 -2 3 -3 2 -2 3 -2 2 -2 
3 -2 2 -2 3 -2 2 -2 3 -2 2 -2 3 -2 2 -2 
3 -2 2 -2 3 -2 2 -2 3 -2 2 -1 3 -2 2 -2 
3 -2 2 -2 3 -1 2 -2 3 -2 2 -2 3 -1 2 -2 
3 -2 2 -1 3 -2 2 -2 3 -1 2 -2 3 -1 2 -2 
3 -2 2 -1 3 -2 2 -1 3 -2 2 -1 3 -2 2 -1 
3 -2 2 -1 3 -2 2 -1 3 -2 2 -1 3 -2 2 -1 
3 -1 2 -2 3 -1 2 -2 3 -1 2 -1 3 -2 2 -1 
3 -2 2 -1 3 -1 2 -2 3 -1 2 -1 3 -2 2 -1 
3 -1 2 -2 3 -1 2 -1 3 -2 2 -1 3 -1 2 -1 
3 -2 2 -1 3 -1 2 -1 3 -2 2 -1 3 -1 2 -1 
3 -2 2 -1 3 -1 2 -1 3 -1 2 -2 3 -1 2 -1 
3 -1 2 -1 3 -1 2 -2 3 -1 2 -1 3 -1 2 -1 
3 -1 2 -1 3 -2 2 -1 3 -1 2 -1 3 -1 2 -1 
3 -1 2 -1 3 -1 2 -2 3 -1 2 -1 3 -1 2 -1 
3 -1 2 -1 3 -1 2 -1 3 -1 2 -1 3 -1 2 -1 
3 -1 2 -1 3 -1 2 -1 3 -1 2 -1 3 -1 2 -1 
3 -1 2 -1 3 -1 2 -1 3 -1 2 -1 3 -1 2 -1 
3 -1 2 -1 3 -1 2 -1 3 -1 2 -1 3 -1 2 -1 
3 -1 2 -1 3 -1 2 -1 3 -1 2 -1 3 -1 2 0 
3 -1 2 -1 3 -1 2 -1 3 -1 2 -1 3 -1 2 -1 
3 -1 2 -1 3 0 2 -1 3 -1 2 -1 3 -1 2 -1 
3 -1 2 -1 3 0 2 -1 3 -1 2 -1 3 -1 2 -1 
3 -1 2 0 3 -1 2850 1755 300 MP stroke
2 -1 3 -1 2 -1 3 -1 2 0 3 -1 2 -1 3 -1 
2 -1 3 0 2 -1 3 -1 2 -1 3 -1 2 0 3 -1 
2 -1 3 -1 2 -1 3 0 2 -1 3 -1 2 -1 3 -1 
2 0 3 -1 2 -1 3 -1 2 0 3 -1 2 -1 3 -1 
2 0 3 -1 2 -1 3 -1 2 0 3 -1 2 -1 3 -1 
2 0 3 -1 2 -1 3 -1 2 0 3 -1 2 -1 3 0 
2 -1 3 -1 2 -1 3 0 2 -1 3 -1 3 0 2 -1 
3 -1 2 -1 3 0 2 -1 3 -1 2 0 3 -1 2 -1 
3 0 2 -1 3 -1 2 0 3 -1 2 -1 3 0 2 -1 
3 -1 2 0 3 -1 2 -1 3 0 2 -1 3 -1 2 0 
3 -1 2 -1 3 0 2 -1 3 -1 2 0 3 -1 2 -1 
3 0 2 -1 3 0 2 -1 3 -1 2 0 3 -1 2 -1 
3 0 2 -1 3 0 2 -1 3 -1 2 0 3 -1 2 -1 
3 0 2 -1 3 0 2 -1 3 -1 2 0 3 -1 2 0 
3 -1 2 -1 3 0 2 -1 3 0 2 -1 3 0 2 -1 
3 -1 2 0 3 -1 2 0 3 -1 2 -1 3 0 2 -1 
3 0 2 -1 3 0 2 -1 3 0 2 -1 3 -1 2 0 
3 -1 2 0 3 -1 2 0 3 -1 2 0 3 -1 2 -1 
3 0 2 -1 3 0 2 -1 3 0 2 -1 3 0 2 -1 
3 0 2 -1 3 0 2 -1 3 0 2 -1 3 0 2 -1 
3 -1 2 0 3 -1 2 0 3 -1 2 0 3 -1 2 0 
3 -1 2 0 3 -1 2 0 3 -1 2 0 3 -1 2 0 
3 -1 2 0 3 -1 2 0 3 -1 2 0 3 -1 2 0 
3 0 2 -1 3 0 2 -1 3 0 2 -1 3 0 2 -1 
3 0 2 -1 3 0 2 -1 3 0 2 -1 3 0 2 -1 
3 0 2 0 3 -1 2 0 3 -1 2 0 3 -1 2 0 
3 -1 2 0 3 -1 2 0 3 0 2 -1 3 0 2 -1 
3 0 2 -1 3 0 2 -1 3 0 2 0 3 -1 2 0 
3 -1 2 0 3 -1 2 0 3 0 2 -1 3 0 2 -1 
3 0 2 -1 3 0 2 0 3 -1 2 0 3 -1 2 0 
3 0 2 -1 3 0 2 -1 3 0 2 -1 3 0 2 0 
3 -1 2 0 3 -1 2 0 3 0 2 -1 3 0 2 -1 
3 0 2 0 3 -1 2 0 3 -1 2 0 3 0 2 -1 
3 0 2 0 3 -1 2 0 3 -1 2 0 3 0 2 -1 
3 0 2 -1 3 0 2 0 3 -1 2 0 3 0 2 -1 
3 0 2 -1 3 0 2 0 3 -1 2 0 3 0 2 -1 
3 0 2 0 3 -1 2 0 3 -1 2 0 3 0 2 -1 
3 0 2 0 3 -1 2102 1921 300 MP stroke
2 0 3 0 2 -1 3 0 2 0 3 -1 3 0 2 0 
3 -1 2 0 3 0 2 -1 3 0 2 0 3 -1 2 0 
3 0 2 -1 3 0 2 0 3 -1 2 0 3 0 2 -1 
3 0 2 0 3 -1 2 0 3 0 2 -1 3 0 2 0 
3 -1 2 0 3 0 2 -1 3 0 2 0 3 -1 2 0 
3 0 2 -1 3 0 2 0 3 -1 2 0 3 0 2 0 
3 -1 2 0 3 0 2 -1 3 0 2 0 3 -1 2 0 
3 0 2 -1 3 0 2 0 3 0 2 -1 3 0 2 0 
3 -1 2 0 3 0 2 0 3 -1 2 0 3 0 2 -1 
3 0 2 0 3 -1 2 0 3 0 2 0 3 -1 2 0 
3 0 2 0 3 -1 2 0 3 0 2 -1 3 0 2 0 
3 0 2 -1 3 0 2 0 3 -1 2 0 3 0 2 0 
3 -1 2 0 3 0 2 0 3 -1 2 0 3 0 2 0 
3 -1 2 0 3 0 2 -1 3 0 2 0 3 0 2 -1 
3 0 2 0 3 0 2 -1 3 0 2 0 3 0 2 -1 
3 0 2 0 3 0 2 -1 3 0 2 0 3 0 2 -1 
3 0 2 0 3 0 2 -1 3 0 2 0 3 0 2 -1 
3 0 2 0 3 0 2 -1 3 0 2 0 3 0 2 -1 
3 0 2 0 3 0 2 0 3 -1 2 0 3 0 2 0 
3 -1 2 0 3 0 2 0 3 -1 2 0 3 0 2 0 
3 0 2 -1 3 0 2 0 3 0 2 -1 3 0 2 0 
3 0 2 0 3 -1 2 0 3 0 2 0 3 -1 2 0 
3 0 2 0 3 0 2 -1 3 0 2 0 3 0 2 0 
3 -1 2 0 3 0 2 0 3 -1 2 0 3 0 2 0 
3 0 2 -1 3 0 2 0 3 0 2 0 3 -1 2 0 
3 0 2 0 3 0 2 -1 3 0 2 0 3 0 2 0 
3 -1 2 0 3 0 2 0 3 0 2 -1 3 0 2 0 
3 0 2 0 3 -1 2 0 3 0 2 0 3 0 2 -1 
3 0 2 0 3 0 2 0 3 0 2 -1 3 0 2 0 
3 0 2 0 3 -1 2 0 3 0 2 0 3 0 2 0 
3 -1 2 0 3 0 2 0 3 0 2 -1 3 0 2 0 
3 0 2 0 3 0 2 -1 3 0 2 0 3 0 3 0 
2 0 3 -1 2 0 3 0 2 0 3 0 2 -1 3 0 
2 0 3 0 2 0 3 0 2 -1 3 0 2 0 3 0 
2 0 3 0 2 -1 3 0 2 0 3 0 2 0 3 0 
2 0 3 -1 2 0 3 0 2 0 3 0 2 0 3 -1 
2 0 3 0 2 0 3 0 2 0 3 -1 2 0 3 0 
2 0 3 0 2 0 1354 1992 300 MP stroke
3 0 2 -1 3 0 2 0 3 0 2 0 3 0 2 0 
3 -1 2 0 3 0 2 0 3 0 2 0 3 -1 2 0 
3 0 2 0 3 0 2 0 3 0 2 -1 3 0 2 0 
3 0 2 0 3 0 2 0 3 -1 2 0 3 0 2 0 
3 0 2 0 3 0 2 0 3 -1 2 0 3 0 2 0 
3 0 2 0 3 0 2 -1 3 0 2 0 3 0 2 0 
3 0 2 0 3 0 2 -1 3 0 2 0 3 0 2 0 
3 0 2 0 3 -1 2 0 3 0 2 0 3 0 2 0 
3 0 2 0 3 -1 2 0 3 0 2 0 3 0 2 0 
3 0 2 0 3 -1 2 0 3 0 2 0 3 0 2 0 
3 0 2 0 3 0 2 -1 3 0 2 0 3 0 2 0 
3 0 2 0 3 0 2 -1 3 0 2 0 3 0 2 0 
3 0 2 0 3 0 2 0 3 -1 2 0 3 0 2 0 
3 0 2 0 3 0 2 0 3 0 2 -1 3 0 2 0 
3 0 2 0 3 0 2 0 3 0 2 0 3 -1 2 0 
3 0 2 0 3 0 2 0 3 0 2 0 3 0 2 0 
3 -1 2 0 3 0 2 0 3 0 2 0 3 0 2 0 
3 0 2 0 3 -1 2 0 3 0 2 0 3 0 2 0 
3 0 2 0 3 0 2 0 3 -1 2 0 3 0 2 0 
3 0 2 0 3 0 2 0 3 0 2 0 3 0 2 -1 
3 0 2 0 3 0 2 0 3 0 2 0 3 0 2 0 
3 0 2 0 3 -1 2 0 3 0 2 0 3 0 2 0 
3 0 2 0 3 0 2 0 3 0 2 -1 3 0 2 0 
3 0 2 0 3 0 2 0 3 0 2 0 3 0 2 0 
3 0 2 -1 3 0 2 0 3 0 2 0 3 0 2 0 
3 0 2 0 3 0 2 0 3 0 2 -1 839 2016 207 MP stroke
/c9 { 0.000000 0.000000 1.000000 sr} bdef
c9
2 -1 3 -1 2 -1 3 -1 2 -1 3 -1 2 -2 3 -1 
2 -1 3 -1 2 -1 3 -1 2 -2 3 -1 2 -1 3 -1 
2 -1 3 -1 2 -1 3 -2 2 -1 3 -1 2 -1 3 -1 
2 -1 3 -2 2 -1 3 -1 2 -1 3 -1 2 -1 3 -1 
2 -2 3 -1 2 -1 3 -1 2 -1 3 -1 2 -1 3 -2 
2 -1 3 -1 2 -1 3 -1 2 -1 3 -1 2 -1 3 -2 
2 -1 3 -1 2 -1 3 -1 2 -1 3 -1 2 -1 3 -2 
2 -1 3 -1 2 -1 3 -1 2 -1 3 -1 2 -1 3 -2 
2 -1 3 -1 2 -1 3 -1 2 -1 3 -1 2 -1 3 -2 
2 -1 3 -1 2 -1 3 -1 2 -1 3 -1 2 -1 3 -1 
2 -2 3 -1 2 -1 3 -1 2 -1 3 -1 2 -1 3 -1 
2 -1 3 -2 2 -1 3 -1 2 -1 3 -1 2 -1 3 -1 
2 -1 3 -1 2 -1 3 -2 2 -1 3 -1 2 -1 3 -1 
2 -1 3 -1 2 -1 3 -1 2 -1 3 -1 2 -2 3 -1 
2 -1 3 -1 2 -1 3 -1 2 -1 3 -1 2 -1 3 -1 
2 -1 3 -2 2 -1 3 -1 2 -1 3 -1 2 -1 3 -1 
2 -1 3 -1 2 -1 3 -1 2 -1 3 -2 2 -1 3 -1 
2 -1 3 -1 2 -1 3 -1 2 -1 3 -1 2 -1 3 -1 
2 -1 3 -1 2 -1 3 -2 2 -1 3 -1 2 -1 3 -1 
2 -1 3 -1 2 -1 3 -1 2 -1 3 -1 2 -1 3 -1 
2 -1 3 -1 2 -2 3 -1 2 -1 3 -1 2 -1 3 -1 
2 -1 3 -1 2 -1 3 -1 2 -1 3 -1 2 -1 3 -1 
2 -1 3 -1 2 -1 3 -2 2 -1 3 -1 2 -1 3 -1 
2 -1 3 -1 2 -1 3 -1 2 -1 3 -1 2 -1 3 -1 
2 -1 3 -1 2 -1 3 -1 2 -1 3 -1 2 -1 3 -1 
2 -2 3 -1 2 -1 3 -1 2 -1 3 -1 2 -1 3 -1 
2 -1 3 -1 2 -1 3 -1 2 -1 3 -1 2 -1 3 -1 
2 -1 3 -1 2 -1 3 -1 2 -1 3 -1 2 -1 3 -1 
2 -1 3 -1 2 -1 3 -1 2 -1 3 -2 2 -1 3 -1 
2 -1 3 -1 2 -1 3 -1 2 -1 3 -1 2 -1 3 -1 
2 -1 3 -1 2 -1 3 -1 2 -1 3 -1 2 -1 3 -1 
2 -1 3 -1 3 -1 2 -1 3 -1 2 -1 3 -1 2 -1 
3 -1 2 -1 3 -1 2 -1 3 -1 2 -1 3 -1 2 -1 
3 -1 2 -1 3 -1 2 -1 3 -1 2 -1 3 -1 2 -1 
3 -1 2 -1 3 -1 2 -1 3 -1 2 -1 3 -1 2 -1 
3 -1 2 -1 3 -1 2 -1 3 -1 2 -1 3 -1 2 -1 
3 -1 2 -1 3 -1 2 -1 3 -1 2 -1 3 -1 2 -1 
3 -1 2 -1 3 -1 5094 683 300 MP stroke
2 -1 3 -1 2 -1 3 -1 2 -1 3 -1 2 -1 3 -1 
2 -1 3 -1 2 -1 3 -1 2 -1 3 -1 2 -1 3 -1 
2 -1 3 -1 2 -1 3 -1 2 -1 3 -1 2 -1 3 -1 
2 -1 3 -1 2 -1 3 -1 2 -1 3 -1 2 -1 3 -1 
2 -1 3 -1 2 -1 3 -1 2 -1 3 -1 2 -1 3 -1 
2 -1 3 -1 2 -1 3 -1 2 -1 3 -1 2 -1 3 -1 
2 -1 3 -1 2 -1 3 -1 2 -1 3 -1 2 -1 3 -1 
2 -1 3 -1 2 -1 3 -1 2 -1 3 -1 2 -1 3 -1 
2 -1 3 -1 2 -1 3 -1 2 -1 3 -1 2 -1 3 -1 
2 -1 3 -1 2 0 3 -1 2 -1 3 -1 2 -1 3 -1 
2 -1 3 -1 2 -1 3 -1 2 -1 3 -1 2 -1 3 -1 
2 -1 3 -1 2 -1 3 -1 2 -1 3 -1 2 -1 3 -1 
2 -1 3 -1 2 -1 3 -1 2 -1 3 -1 2 -1 3 -1 
2 -1 3 -1 2 -1 3 -1 2 -1 3 -1 2 0 3 -1 
2 -1 3 -1 2 -1 3 -1 2 -1 3 -1 2 -1 3 -1 
2 -1 3 -1 2 -1 3 -1 2 -1 3 -1 2 -1 3 -1 
2 -1 3 -1 2 -1 3 -1 2 -1 3 -1 2 -1 3 -1 
2 -1 3 -1 2 -1 3 -1 2 0 3 -1 2 -1 3 -1 
2 -1 3 -1 2 -1 3 -1 2 -1 3 -1 2 -1 3 -1 
2 -1 3 -1 2 -1 3 -1 2 -1 3 -1 2 -1 3 -1 
2 -1 3 -1 2 -1 3 -1 2 -1 3 -1 2 0 3 -1 
2 -1 3 -1 2 -1 3 -1 2 -1 3 -1 2 -1 3 -1 
2 -1 3 -1 2 -1 3 -1 2 -1 3 -1 2 -1 3 -1 
2 -1 3 -1 2 -1 3 -1 2 -1 3 -1 2 -1 3 0 
2 -1 3 -1 2 -1 3 -1 2 -1 3 -1 2 -1 3 -1 
2 -1 3 -1 3 -1 2 -1 3 -1 2 -1 3 -1 2 -1 
3 -1 2 -1 3 -1 2 -1 3 -1 2 -1 3 -1 2 -1 
3 0 2 -1 3 -1 2 -1 3 -1 2 -1 3 -1 2 -1 
3 -1 2 -1 3 -1 2 -1 3 -1 2 -1 3 -1 2 -1 
3 -1 2 -1 3 -1 2 -1 3 -1 2 -1 3 -1 2 -1 
3 -1 2 0 3 -1 2 -1 3 -1 2 -1 3 -1 2 -1 
3 -1 2 -1 3 -1 2 -1 3 -1 2 -1 3 -1 2 -1 
3 -1 2 -1 3 -1 2 -1 3 -1 2 -1 3 -1 2 -1 
3 -1 2 -1 3 -1 2 -1 3 0 2 -1 3 -1 2 -1 
3 -1 2 -1 3 -1 2 -1 3 -1 2 -1 3 -1 2 -1 
3 -1 2 -1 3 -1 2 -1 3 -1 2 -1 3 -1 2 -1 
3 -1 2 -1 3 -1 2 -1 3 -1 2 -1 3 -1 2 -1 
3 -1 2 -1 3 -1 4346 974 300 MP stroke
2 -1 3 0 2 -1 3 -1 2 -1 3 -1 2 -1 3 -1 
2 -1 3 -1 2 -1 3 -1 2 -1 3 -1 2 -1 3 -1 
2 -1 3 -1 2 -1 3 -1 2 -1 3 -1 2 -1 3 -1 
2 -1 3 -1 2 -1 3 -1 2 -1 3 -1 2 -1 3 -1 
2 -1 3 -1 2 -1 3 -1 2 -1 3 -1 2 -1 3 -1 
2 -1 3 -1 2 -1 3 -1 2 -1 3 -1 2 -1 3 -1 
2 -1 3 -1 2 -1 3 -1 2 0 3 -1 2 -1 3 -1 
2 -1 3 -1 2 -1 3 -1 2 -1 3 -1 2 -1 3 -1 
2 -1 3 -1 2 -1 3 -1 2 -1 3 -1 2 -1 3 -1 
2 -1 3 -1 2 -1 3 -1 2 -1 3 -1 2 -1 3 -1 
2 -1 3 -1 2 -1 3 -1 2 -1 3 -1 2 -1 3 -1 
2 -2 3 -1 2 -1 3 -1 2 -1 3 -1 2 -1 3 -1 
2 -1 3 -1 2 -1 3 -1 2 -1 3 -1 2 -1 3 -1 
2 -1 3 -1 2 -1 3 -1 2 -1 3 -1 2 -1 3 -1 
2 -1 3 -1 2 -1 3 -1 2 -1 3 -1 2 -1 3 -1 
2 -1 3 -1 2 -1 3 -1 2 -1 3 -1 2 -1 3 -1 
2 -2 3 -1 2 -1 3 -1 2 -1 3 -1 2 -1 3 -1 
2 -1 3 -1 2 -1 3 -1 2 -1 3 -1 2 -1 3 -1 
2 -1 3 -1 2 -1 3 -1 2 -2 3 -1 2 -1 3 -1 
3 -1 2 -1 3 -1 2 -1 3 -1 2 -1 3 -1 2 -1 
3 -1 2 -1 3 -1 2 -2 3 -1 2 -1 3 -1 2 -1 
3 -1 2 -1 3 -1 2 -1 3 -1 2 -1 3 -1 2 -2 
3 -1 2 -1 3 -1 2 -1 3 -1 2 -1 3 -1 2 -1 
3 -1 2 -2 3 -1 2 -1 3 -1 2 -1 3 -1 2 -1 
3 -1 2 -1 3 -2 2 -1 3 -1 2 -1 3 -1 2 -1 
3 -1 2 -1 3 -2 2 -1 3 -1 2 -1 3 -1 2 -1 
3 -1 2 -1 3 -2 2 -1 3 -1 2 -1 3 -1 2 -1 
3 -1 2 -2 3 -1 2 -1 3 -1 2 -1 3 -1 2 -2 
3 -1 2 -1 3 -1 2 -1 3 -1 2 -2 3 -1 2 -1 
3 -1 2 -1 3 -2 2 -1 3 -1 2 -1 3 -1 2 -1 
3 -2 2 -1 3 -1 2 -1 3 -2 2 -1 3 -1 2 -1 
3 -1 2 -2 3 -1 2 -1 3 -1 2 -1 3 -2 2 -1 
3 -1 2 -1 3 -2 2 -1 3 -1 2 -1 3 -2 2 -1 
3 -1 2 -1 3 -2 2 -1 3 -1 2 -1 3 -2 2 -1 
3 -1 2 -2 3 -1 2 -1 3 -1 2 -2 3 -1 2 -1 
3 -2 2 -1 3 -1 2 -2 3 -1 2 -1 3 -1 2 -2 
3 -1 2 -1 3 -2 2 -1 3 -1 2 -2 3 -1 2 -2 
3 -1 2 -1 3 -2 3598 1301 300 MP stroke
2 -1 3 -1 2 -2 3 -1 2 -1 3 -2 2 -1 3 -2 
2 -1 3 -1 2 -2 3 -1 2 -2 3 -1 2 -2 3 -1 
2 -1 3 -2 2 -1 3 -2 2 -1 3 -2 2 -1 3 -2 
2 -1 3 -2 2 -1 3 -2 2 -1 3 -2 2 -1 3 -2 
2 -1 3 -2 2 -1 3 -2 2 -1 3 -2 2 -1 3 -2 
2 -1 3 -2 2 -2 3 -1 2 -2 3 -1 2 -2 3 -2 
2 -1 3 -2 2 -2 3 -1 2 -2 3 -2 2 -1 3 -2 
2 -2 3 -1 2 -2 3 -2 2 -2 3 -1 2 -2 3 -2 
2 -2 3 -1 2 -2 3 -2 2 -2 3 -2 2 -2 3 -2 
2 -1 3 -2 2 -2 3 -2 2 -2 3 -2 2 -2 3 -2 
2 -2 3 -2 2 -2 3 -2 2 -3 3 -2 2 -2 3 -2 
2 -2 3 -3 2 -2 3 -2 2 -3 3 -2 2 -2 3 -3 
2 -3 3 -2 2 -3 3 -3 2 -3 3 -3 2 -5 3 -4 
3 -3 2 -3 3 -3 2 -3 3 -2 2 -3 3 -3 2 -2 
3 -2 2 -3 3 -2 2 -2 3 -3 2 -2 3 -2 2 -2 
3 -2 2 -2 3 -2 2 -2 3 -2 2 -2 3 -2 2 -2 
3 -2 2 -2 3 -2 2 -2 3 -2 2 -1 3 -2 2 -2 
3 -2 2 -2 3 -1 2 -2 3 -2 2 -2 3 -1 2 -2 
3 -2 2 -1 3 -2 2 -2 3 -1 2 -2 3 -1 2 -2 
3 -2 2 -1 3 -2 2 -1 3 -2 2 -1 3 -2 2 -1 
3 -2 2 -1 3 -2 2 -1 3 -2 2 -1 3 -2 2 -1 
3 -1 2 -2 3 -1 2 -2 3 -1 2 -1 3 -2 2 -1 
3 -2 2 -1 3 -1 2 -2 3 -1 2 -1 3 -2 2 -1 
3 -1 2 -2 3 -1 2 -1 3 -2 2 -1 3 -1 2 -1 
3 -2 2 -1 3 -1 2 -1 3 -2 2 -1 3 -1 2 -1 
3 -2 2 -1 3 -1 2 -1 3 -1 2 -2 3 -1 2 -1 
3 -1 2 -1 3 -1 2 -2 3 -1 2 -1 3 -1 2 -1 
3 -1 2 -1 3 -2 2 -1 3 -1 2 -1 3 -1 2 -1 
3 -1 2 -1 3 -1 2 -2 3 -1 2 -1 3 -1 2 -1 
3 -1 2 -1 3 -1 2 -1 3 -1 2 -1 3 -1 2 -1 
3 -1 2 -1 3 -1 2 -1 3 -1 2 -1 3 -1 2 -1 
3 -1 2 -1 3 -1 2 -1 3 -1 2 -1 3 -1 2 -1 
3 -1 2 -1 3 -1 2 -1 3 -1 2 -1 3 -1 2 -1 
3 -1 2 -1 3 -1 2 -1 3 -1 2 -1 3 -1 2 0 
3 -1 2 -1 3 -1 2 -1 3 -1 2 -1 3 -1 2 -1 
3 -1 2 -1 3 0 2 -1 3 -1 2 -1 3 -1 2 -1 
3 -1 2 -1 3 0 2 -1 3 -1 2 -1 3 -1 2 -1 
3 -1 2 0 3 -1 2850 1755 300 MP stroke
2 -1 3 -1 2 -1 3 -1 2 0 3 -1 2 -1 3 -1 
2 -1 3 0 2 -1 3 -1 2 -1 3 -1 2 0 3 -1 
2 -1 3 -1 2 -1 3 0 2 -1 3 -1 2 -1 3 -1 
2 0 3 -1 2 -1 3 -1 2 0 3 -1 2 -1 3 -1 
2 0 3 -1 2 -1 3 -1 2 0 3 -1 2 -1 3 -1 
2 0 3 -1 2 -1 3 -1 2 0 3 -1 2 -1 3 0 
2 -1 3 -1 2 -1 3 0 2 -1 3 -1 3 0 2 -1 
3 -1 2 -1 3 0 2 -1 3 -1 2 0 3 -1 2 -1 
3 0 2 -1 3 -1 2 0 3 -1 2 -1 3 0 2 -1 
3 -1 2 0 3 -1 2 -1 3 0 2 -1 3 -1 2 0 
3 -1 2 -1 3 0 2 -1 3 -1 2 0 3 -1 2 -1 
3 0 2 -1 3 0 2 -1 3 -1 2 0 3 -1 2 -1 
3 0 2 -1 3 0 2 -1 3 -1 2 0 3 -1 2 -1 
3 0 2 -1 3 0 2 -1 3 -1 2 0 3 -1 2 0 
3 -1 2 -1 3 0 2 -1 3 0 2 -1 3 0 2 -1 
3 -1 2 0 3 -1 2 0 3 -1 2 -1 3 0 2 -1 
3 0 2 -1 3 0 2 -1 3 0 2 -1 3 -1 2 0 
3 -1 2 0 3 -1 2 0 3 -1 2 0 3 -1 2 -1 
3 0 2 -1 3 0 2 -1 3 0 2 -1 3 0 2 -1 
3 0 2 -1 3 0 2 -1 3 0 2 -1 3 0 2 -1 
3 -1 2 0 3 -1 2 0 3 -1 2 0 3 -1 2 0 
3 -1 2 0 3 -1 2 0 3 -1 2 0 3 -1 2 0 
3 -1 2 0 3 -1 2 0 3 -1 2 0 3 -1 2 0 
3 0 2 -1 3 0 2 -1 3 0 2 -1 3 0 2 -1 
3 0 2 -1 3 0 2 -1 3 0 2 -1 3 0 2 -1 
3 0 2 0 3 -1 2 0 3 -1 2 0 3 -1 2 0 
3 -1 2 0 3 -1 2 0 3 0 2 -1 3 0 2 -1 
3 0 2 -1 3 0 2 -1 3 0 2 0 3 -1 2 0 
3 -1 2 0 3 -1 2 0 3 0 2 -1 3 0 2 -1 
3 0 2 -1 3 0 2 0 3 -1 2 0 3 -1 2 0 
3 0 2 -1 3 0 2 -1 3 0 2 -1 3 0 2 0 
3 -1 2 0 3 -1 2 0 3 0 2 -1 3 0 2 -1 
3 0 2 0 3 -1 2 0 3 -1 2 0 3 0 2 -1 
3 0 2 0 3 -1 2 0 3 -1 2 0 3 0 2 -1 
3 0 2 -1 3 0 2 0 3 -1 2 0 3 0 2 -1 
3 0 2 -1 3 0 2 0 3 -1 2 0 3 0 2 -1 
3 0 2 0 3 -1 2 0 3 -1 2 0 3 0 2 -1 
3 0 2 0 3 -1 2102 1921 300 MP stroke
2 0 3 0 2 -1 3 0 2 0 3 -1 3 0 2 0 
3 -1 2 0 3 0 2 -1 3 0 2 0 3 -1 2 0 
3 0 2 -1 3 0 2 0 3 -1 2 0 3 0 2 -1 
3 0 2 0 3 -1 2 0 3 0 2 -1 3 0 2 0 
3 -1 2 0 3 0 2 -1 3 0 2 0 3 -1 2 0 
3 0 2 -1 3 0 2 0 3 -1 2 0 3 0 2 0 
3 -1 2 0 3 0 2 -1 3 0 2 0 3 -1 2 0 
3 0 2 -1 3 0 2 0 3 0 2 -1 3 0 2 0 
3 -1 2 0 3 0 2 0 3 -1 2 0 3 0 2 -1 
3 0 2 0 3 -1 2 0 3 0 2 0 3 -1 2 0 
3 0 2 0 3 -1 2 0 3 0 2 -1 3 0 2 0 
3 0 2 -1 3 0 2 0 3 -1 2 0 3 0 2 0 
3 -1 2 0 3 0 2 0 3 -1 2 0 3 0 2 0 
3 -1 2 0 3 0 2 -1 3 0 2 0 3 0 2 -1 
3 0 2 0 3 0 2 -1 3 0 2 0 3 0 2 -1 
3 0 2 0 3 0 2 -1 3 0 2 0 3 0 2 -1 
3 0 2 0 3 0 2 -1 3 0 2 0 3 0 2 -1 
3 0 2 0 3 0 2 -1 3 0 2 0 3 0 2 -1 
3 0 2 0 3 0 2 0 3 -1 2 0 3 0 2 0 
3 -1 2 0 3 0 2 0 3 -1 2 0 3 0 2 0 
3 0 2 -1 3 0 2 0 3 0 2 -1 3 0 2 0 
3 0 2 0 3 -1 2 0 3 0 2 0 3 -1 2 0 
3 0 2 0 3 0 2 -1 3 0 2 0 3 0 2 0 
3 -1 2 0 3 0 2 0 3 -1 2 0 3 0 2 0 
3 0 2 -1 3 0 2 0 3 0 2 0 3 -1 2 0 
3 0 2 0 3 0 2 -1 3 0 2 0 3 0 2 0 
3 -1 2 0 3 0 2 0 3 0 2 -1 3 0 2 0 
3 0 2 0 3 -1 2 0 3 0 2 0 3 0 2 -1 
3 0 2 0 3 0 2 0 3 0 2 -1 3 0 2 0 
3 0 2 0 3 -1 2 0 3 0 2 0 3 0 2 0 
3 -1 2 0 3 0 2 0 3 0 2 -1 3 0 2 0 
3 0 2 0 3 0 2 -1 3 0 2 0 3 0 3 0 
2 0 3 -1 2 0 3 0 2 0 3 0 2 -1 3 0 
2 0 3 0 2 0 3 0 2 -1 3 0 2 0 3 0 
2 0 3 0 2 -1 3 0 2 0 3 0 2 0 3 0 
2 0 3 -1 2 0 3 0 2 0 3 0 2 0 3 -1 
2 0 3 0 2 0 3 0 2 0 3 -1 2 0 3 0 
2 0 3 0 2 0 1354 1992 300 MP stroke
3 0 2 -1 3 0 2 0 3 0 2 0 3 0 2 0 
3 -1 2 0 3 0 2 0 3 0 2 0 3 -1 2 0 
3 0 2 0 3 0 2 0 3 0 2 -1 3 0 2 0 
3 0 2 0 3 0 2 0 3 -1 2 0 3 0 2 0 
3 0 2 0 3 0 2 0 3 -1 2 0 3 0 2 0 
3 0 2 0 3 0 2 -1 3 0 2 0 3 0 2 0 
3 0 2 0 3 -1 2 0 3 0 2 0 3 0 2 0 
3 0 2 0 3 -1 2 0 3 0 2 0 3 0 2 0 
3 0 2 0 3 -1 2 0 3 0 2 0 3 0 2 0 
3 0 2 0 3 -1 2 0 3 0 2 0 3 0 2 0 
3 0 2 0 3 0 2 -1 3 0 2 0 3 0 2 0 
3 0 2 0 3 0 2 -1 3 0 2 0 3 0 2 0 
3 0 2 0 3 0 2 0 3 -1 2 0 3 0 2 0 
3 0 2 0 3 0 2 0 3 0 2 -1 3 0 2 0 
3 0 2 0 3 0 2 0 3 0 2 0 3 -1 2 0 
3 0 2 0 3 0 2 0 3 0 2 0 3 0 2 0 
3 -1 2 0 3 0 2 0 3 0 2 0 3 0 2 0 
3 0 2 0 3 -1 2 0 3 0 2 0 3 0 2 0 
3 0 2 0 3 0 2 0 3 -1 2 0 3 0 2 0 
3 0 2 0 3 0 2 0 3 0 2 0 3 0 2 -1 
3 0 2 0 3 0 2 0 3 0 2 0 3 0 2 0 
3 0 2 0 3 -1 2 0 3 0 2 0 3 0 2 0 
3 0 2 0 3 0 2 0 3 0 2 -1 3 0 2 0 
3 0 2 0 3 0 2 0 3 0 2 0 3 0 2 0 
3 0 2 -1 3 0 2 0 3 0 2 0 3 0 2 0 
3 0 2 0 3 0 2 0 3 0 2 -1 839 2016 207 MP stroke
gr

c9
0 sg
3323 2304 mt 
(t) s
 656 1220 mt  -90 rotate
(x) s
90 rotate
1 sg
0 1653 5004 0 0 -1653 839 4312 4 MP
PP
-5004 0 0 1653 5004 0 0 -1653 839 4312 5 MP stroke
4 w
DO
SO
6 w
0 sg
 839 4312 mt 5843 4312 L
 839 2659 mt 5843 2659 L
 839 4312 mt  839 2659 L
5843 4312 mt 5843 2659 L
 839 4312 mt 5843 4312 L
 839 4312 mt  839 2659 L
 839 4312 mt  839 4261 L
 839 2659 mt  839 2709 L
 736 4457 mt 
(-1) s
1339 4312 mt 1339 4261 L
1339 2659 mt 1339 2709 L
1186 4457 mt 
(-0.8) s
1839 4312 mt 1839 4261 L
1839 2659 mt 1839 2709 L
1686 4457 mt 
(-0.6) s
2340 4312 mt 2340 4261 L
2340 2659 mt 2340 2709 L
2187 4457 mt 
(-0.4) s
2840 4312 mt 2840 4261 L
2840 2659 mt 2840 2709 L
2687 4457 mt 
(-0.2) s
3340 4312 mt 3340 4261 L
3340 2659 mt 3340 2709 L
3307 4457 mt 
(0) s
3841 4312 mt 3841 4261 L
3841 2659 mt 3841 2709 L
3758 4457 mt 
(0.2) s
4341 4312 mt 4341 4261 L
4341 2659 mt 4341 2709 L
4258 4457 mt 
(0.4) s
4842 4312 mt 4842 4261 L
4842 2659 mt 4842 2709 L
4759 4457 mt 
(0.6) s
5342 4312 mt 5342 4261 L
5342 2659 mt 5342 2709 L
5259 4457 mt 
(0.8) s
5842 4312 mt 5842 4261 L
5842 2659 mt 5842 2709 L
5809 4457 mt 
(1) s
 839 4312 mt  839 4312 L
 839 4312 mt  839 4312 L
 839 4312 mt  839 4312 L
 839 4312 mt  839 4312 L
 839 4312 mt  839 4312 L
 839 4312 mt  839 4312 L
 839 4312 mt  839 4312 L
 839 4312 mt  839 4312 L
 839 4312 mt  839 4312 L
 839 4312 mt  839 4312 L
 839 4312 mt  839 4312 L
 839 4312 mt  839 4312 L
 839 4312 mt  839 4312 L
 839 4312 mt  839 4312 L
 839 4312 mt  839 4312 L
 839 4312 mt  839 4312 L
 839 4312 mt  839 4312 L
 839 4312 mt  839 4312 L
 839 4043 mt  889 4043 L
5843 4043 mt 5792 4043 L
 580 4087 mt 
(10) s
%%IncludeResource: font Helvetica
/Helvetica /ISOLatin1Encoding 80 FMSR

 713 4013 mt 
(-6) s
 839 4312 mt  839 4312 L
 839 4312 mt  839 4312 L
 839 4312 mt  839 4312 L
 839 4312 mt  839 4312 L
 839 4312 mt  839 4312 L
 839 4312 mt  839 4312 L
 839 4312 mt  839 4312 L
 839 4312 mt  839 4312 L
 839 4312 mt  839 4312 L
 839 4312 mt  839 4312 L
 839 4312 mt  839 4312 L
 839 4312 mt  839 4312 L
 839 4312 mt  839 4312 L
 839 4312 mt  839 4312 L
 839 4312 mt  839 4312 L
 839 4312 mt  839 4312 L
 839 4312 mt  839 4312 L
 839 4312 mt  839 4312 L
 839 3314 mt  889 3314 L
5843 3314 mt 5792 3314 L
%%IncludeResource: font Helvetica
/Helvetica /ISOLatin1Encoding 120 FMSR

 580 3358 mt 
(10) s
%%IncludeResource: font Helvetica
/Helvetica /ISOLatin1Encoding 80 FMSR

 713 3284 mt 
(-4) s
 839 4312 mt  839 4312 L
 839 4312 mt  839 4312 L
 839 4312 mt  839 4312 L
 839 4312 mt  839 4312 L
 839 4312 mt  839 4312 L
 839 4312 mt  839 4312 L
 839 4312 mt  839 4312 L
 839 4312 mt  839 4312 L
 839 4312 mt  839 4312 L
 839 4312 mt  839 4312 L
 839 4312 mt  839 4312 L
 839 4312 mt  839 4312 L
 839 4312 mt  839 4312 L
 839 4312 mt  839 4312 L
 839 4312 mt  839 4312 L
 839 4312 mt  839 4312 L
 839 4312 mt  839 4312 L
 839 4312 mt  839 4312 L
 839 4312 mt 5843 4312 L
 839 2659 mt 5843 2659 L
 839 4312 mt  839 2659 L
5843 4312 mt 5843 2659 L
gs 839 2659 5005 1654 rc
DA
c9
3 -6 3 30 2 -22 3 3 2 20 3 -4 2 -5 3 7 
2 13 3 -17 2 23 3 -14 2 12 3 1 2 2 3 -3 
2 13 3 -1 2 -7 3 11 2 2 3 3 2 4 3 -13 
2 19 3 -1 2 -2 3 1 2 9 3 -1 2 -5 3 12 
2 -4 3 7 2 -2 3 -2 2 14 3 -14 2 15 3 -3 
2 -2 3 9 2 -5 3 6 2 3 3 -4 2 8 3 -5 
2 8 3 -2 2 4 3 -4 2 10 3 -3 2 3 3 -3 
2 7 3 1 2 -3 3 7 2 -1 3 1 2 1 3 4 
2 -1 3 3 2 0 3 0 2 9 3 -7 2 4 3 0 
2 2 3 5 2 -5 3 6 2 1 3 2 2 -3 3 5 
2 0 3 3 2 0 3 -1 2 3 3 3 2 -3 3 3 
2 5 3 -4 2 6 3 -4 2 5 3 0 2 -1 3 6 
2 -4 3 3 2 4 3 -5 2 6 3 1 2 -2 3 6 
2 -5 3 7 2 -4 3 4 2 1 3 0 2 1 3 1 
2 0 3 5 2 -2 3 1 2 3 3 -2 2 5 3 -4 
2 5 3 0 2 -1 3 3 2 0 3 2 2 1 3 -2 
2 5 3 0 2 -1 3 1 2 4 3 -1 2 1 3 0 
2 1 3 3 2 -1 3 0 2 4 3 -2 2 3 3 0 
2 0 3 3 2 -1 3 2 2 0 3 1 2 1 3 1 
2 1 3 0 2 3 3 -3 2 4 3 0 2 2 3 -1 
2 2 3 1 2 0 3 0 2 3 3 -1 2 2 3 0 
2 1 3 1 2 1 3 0 2 1 3 2 2 0 3 0 
2 1 3 2 2 0 3 0 2 1 3 1 2 1 3 -1 
2 4 3 0 2 -1 3 1 2 2 3 0 2 1 3 -1 
2 3 3 0 2 1 3 -1 2 3 3 -1 2 1 3 2 
2 0 3 1 2 0 3 2 2 0 3 2 2 -2 3 1 
2 3 3 -1 2 1 3 1 2 0 3 2 2 -2 3 4 
2 -2 3 3 2 -1 3 0 2 3 3 -1 2 1 3 2 
2 -1 3 2 2 -1 3 2 2 0 3 2 2 -1 3 1 
2 1 3 1 2 -1 3 2 2 1 3 0 2 0 3 2 
2 0 3 1 2 1 3 -1 2 2 3 1 2 -2 3 4 
2 -2 3 3 3 -1 2 0 3 3 2 -1 3 1 2 0 
3 2 2 0 3 0 2 1 3 1 2 -1 3 2 2 -1 
3 3 2 0 3 -1 2 1 3 3 2 -2 3 2 2 -1 
3 2 2 0 3 2 2 -2 3 3 2 -1 3 1 2 1 
3 0 2 2 3 -1 2 1 3 1 2 1 3 -1 2 2 
3 0 2 1 3 0 2 1 3 1 2 0 3 1 2 0 
3 1 2 1 3 -1 5094 3978 300 MP stroke
2 2 3 0 2 1 3 0 2 1 3 0 2 1 3 0 
2 1 3 0 2 1 3 0 2 1 3 1 2 0 3 1 
2 0 3 1 2 1 3 0 2 0 3 2 2 0 3 0 
2 1 3 0 2 1 3 0 2 1 3 1 2 0 3 1 
2 0 3 0 2 1 3 1 2 0 3 1 2 0 3 1 
2 0 3 1 2 1 3 -1 2 2 3 0 2 1 3 0 
2 1 3 1 2 -1 3 1 2 1 3 0 2 1 3 0 
2 1 3 0 2 1 3 1 2 -1 3 2 2 0 3 0 
2 1 3 0 2 2 3 -1 2 1 3 0 2 2 3 -1 
2 1 3 1 2 0 3 1 2 0 3 1 2 0 3 1 
2 0 3 1 2 0 3 0 2 1 3 1 2 1 3 -1 
2 1 3 1 2 0 3 1 2 0 3 1 2 1 3 -1 
2 1 3 2 2 -1 3 1 2 0 3 1 2 0 3 1 
2 0 3 1 2 1 3 0 2 0 3 1 2 1 3 0 
2 0 3 1 2 1 3 0 2 0 3 1 2 1 3 0 
2 1 3 0 2 1 3 0 2 0 3 1 2 1 3 0 
2 1 3 0 2 1 3 0 2 1 3 0 2 0 3 1 
2 0 3 1 2 0 3 1 2 0 3 1 2 0 3 1 
2 0 3 1 2 0 3 1 2 0 3 1 2 0 3 1 
2 0 3 1 2 1 3 -1 2 2 3 -1 2 2 3 0 
2 0 3 1 2 0 3 1 2 1 3 0 2 0 3 1 
2 0 3 1 2 0 3 1 2 0 3 1 2 0 3 1 
2 0 3 1 2 0 3 1 2 0 3 1 2 0 3 1 
2 0 3 1 2 1 3 0 2 0 3 1 2 0 3 1 
2 0 3 1 2 0 3 1 2 0 3 1 2 0 3 0 
2 2 3 -1 3 1 2 1 3 0 2 1 3 0 2 0 
3 1 2 0 3 1 2 1 3 0 2 0 3 1 2 0 
3 1 2 0 3 1 2 0 3 1 2 0 3 1 2 0 
3 1 2 0 3 1 2 0 3 1 2 0 3 1 2 0 
3 1 2 0 3 1 2 0 3 1 2 0 3 1 2 0 
3 1 2 1 3 0 2 1 3 0 2 1 3 1 2 -1 
3 2 2 -1 3 2 2 -1 3 2 2 -1 3 2 2 0 
3 0 2 1 3 0 2 1 3 0 2 1 3 0 2 1 
3 0 2 1 3 1 2 0 3 1 2 0 3 1 2 0 
3 1 2 0 3 1 2 0 3 1 2 0 3 1 2 0 
3 1 2 0 3 1 2 0 3 1 2 0 3 1 2 0 
3 1 2 0 3 1 2 0 3 1 2 0 3 1 2 1 
3 0 2 0 3 2 4346 3823 300 MP stroke
2 -1 3 1 2 1 3 0 2 1 3 1 2 0 3 1 
2 0 3 1 2 0 3 1 2 0 3 1 2 0 3 1 
2 0 3 1 2 0 3 1 2 0 3 1 2 1 3 0 
2 1 3 0 2 1 3 0 2 1 3 0 2 1 3 0 
2 1 3 1 2 0 3 1 2 0 3 1 2 0 3 1 
2 0 3 1 2 1 3 0 2 1 3 1 2 0 3 1 
2 0 3 1 2 0 3 1 2 0 3 1 2 0 3 1 
2 1 3 0 2 1 3 1 2 0 3 1 2 0 3 1 
2 0 3 1 2 1 3 0 2 1 3 0 2 1 3 1 
2 0 3 1 2 0 3 1 2 1 3 0 2 1 3 1 
2 0 3 1 2 0 3 1 2 0 3 1 2 0 3 1 
2 1 3 1 2 0 3 1 2 0 3 1 2 0 3 1 
2 1 3 1 2 0 3 1 2 0 3 1 2 1 3 0 
2 1 3 1 2 0 3 1 2 0 3 1 2 1 3 0 
2 1 3 1 2 0 3 1 2 1 3 0 2 1 3 1 
2 0 3 1 2 1 3 0 2 1 3 1 2 0 3 1 
2 1 3 0 2 1 3 1 2 0 3 1 2 1 3 1 
2 0 3 1 2 1 3 0 2 1 3 1 2 0 3 1 
2 1 3 1 2 0 3 1 2 1 3 1 2 0 3 1 
3 1 2 1 3 0 2 1 3 0 2 1 3 1 2 1 
3 1 2 0 3 1 2 1 3 1 2 0 3 1 2 1 
3 1 2 1 3 0 2 1 3 1 2 1 3 0 2 1 
3 1 2 1 3 1 2 0 3 1 2 1 3 1 2 1 
3 0 2 1 3 1 2 1 3 1 2 1 3 0 2 1 
3 1 2 1 3 1 2 1 3 0 2 1 3 1 2 1 
3 1 2 1 3 1 2 1 3 0 2 1 3 1 2 1 
3 1 2 1 3 1 2 1 3 1 2 1 3 1 2 1 
3 0 2 1 3 1 2 1 3 1 2 1 3 1 2 1 
3 1 2 1 3 1 2 1 3 1 2 1 3 1 2 1 
3 1 2 1 3 1 2 1 3 1 2 1 3 1 2 1 
3 1 2 2 3 1 2 1 3 1 2 1 3 1 2 1 
3 1 2 1 3 1 2 2 3 1 2 1 3 1 2 1 
3 1 2 1 3 2 2 1 3 1 2 1 3 1 2 2 
3 1 2 1 3 1 2 2 3 1 2 1 3 1 2 2 
3 1 2 1 3 2 2 1 3 1 2 2 3 1 2 1 
3 2 2 1 3 2 2 1 3 1 2 2 3 1 2 2 
3 1 2 2 3 1 2 2 3 1 2 2 3 1 2 2 
3 1 2 2 3 2 3598 3578 300 MP stroke
2 1 3 2 2 2 3 1 2 2 3 2 2 1 3 2 
2 2 3 2 2 1 3 2 2 2 3 2 2 2 3 2 
2 2 3 1 2 2 3 2 2 2 3 2 2 3 3 2 
2 2 3 2 2 2 3 2 2 2 3 3 2 2 3 2 
2 2 3 3 2 2 3 3 2 2 3 3 2 2 3 3 
2 2 3 3 2 3 3 3 2 2 3 3 2 3 3 3 
2 3 3 3 2 3 3 3 2 4 3 3 2 3 3 4 
2 3 3 4 2 4 3 3 2 4 3 4 2 4 3 4 
2 4 3 5 2 4 3 5 2 5 3 5 2 5 3 5 
2 5 3 6 2 5 3 6 2 7 3 6 2 7 3 7 
2 7 3 8 2 8 3 8 2 9 3 10 2 10 3 11 
2 11 3 13 2 13 3 15 2 16 3 18 2 20 3 23 
2 27 3 31 2 33 3 48 2 247 3 78 2 -92 3 -169 
3 -72 2 -49 3 -37 2 -30 3 -25 2 -22 3 -19 2 -17 
3 -15 2 -14 3 -13 2 -12 3 -11 2 -11 3 -9 2 -9 
3 -9 2 -8 3 -8 2 -7 3 -7 2 -7 3 -7 2 -6 
3 -6 2 -5 3 -6 2 -5 3 -6 2 -5 3 -4 2 -5 
3 -5 2 -4 3 -4 2 -5 3 -4 2 -4 3 -4 2 -3 
3 -4 2 -4 3 -3 2 -4 3 -3 2 -3 3 -4 2 -3 
3 -3 2 -3 3 -3 2 -3 3 -3 2 -3 3 -2 2 -3 
3 -3 2 -2 3 -3 2 -2 3 -3 2 -2 3 -3 2 -2 
3 -2 2 -3 3 -2 2 -2 3 -3 2 -2 3 -2 2 -2 
3 -2 2 -2 3 -2 2 -2 3 -2 2 -2 3 -2 2 -2 
3 -2 2 -2 3 -1 2 -2 3 -2 2 -2 3 -2 2 -1 
3 -2 2 -2 3 -1 2 -2 3 -2 2 -1 3 -2 2 -1 
3 -2 2 -2 3 -1 2 -2 3 -1 2 -2 3 -1 2 -2 
3 -1 2 -2 3 -1 2 -1 3 -2 2 -1 3 -1 2 -2 
3 -1 2 -2 3 -1 2 -1 3 -1 2 -2 3 -1 2 -1 
3 -2 2 -1 3 -1 2 -1 3 -1 2 -2 3 -1 2 -1 
3 -1 2 -1 3 -2 2 -1 3 -1 2 -1 3 -1 2 -1 
3 -1 2 -1 3 -2 2 -1 3 -1 2 -1 3 -1 2 -1 
3 -1 2 -1 3 -1 2 -1 3 -1 2 -1 3 -1 2 -1 
3 -1 2 -1 3 -1 2 -1 3 -1 2 -1 3 -1 2 -1 
3 -1 2 -1 3 0 2 -1 3 -1 2 -1 3 -1 2 -1 
3 -1 2 -1 3 -1 2 -1 3 0 2 -1 3 -1 2 -1 
3 -1 2 -1 3 -1 2 0 3 -1 2 -1 3 -1 2 -1 
3 -1 2 0 3 -1 2 -1 3 -1 2 -1 3 0 2 -1 
3 -1 2 -1 3 -1 2850 3668 300 MP stroke
2 0 3 -1 2 -1 3 0 2 -1 3 -1 2 -1 3 -1 
2 0 3 -1 2 -1 3 -1 2 0 3 -1 2 -1 3 0 
2 -1 3 -1 2 0 3 -1 2 -1 3 -1 2 0 3 -1 
2 -1 3 0 2 -1 3 -1 2 0 3 -1 2 -1 3 0 
2 -1 3 -1 2 0 3 -1 2 -1 3 0 2 -1 3 -1 
2 0 3 -1 2 0 3 -1 2 -1 3 0 2 -1 3 0 
2 -1 3 -1 2 0 3 -1 2 -1 3 0 3 -1 2 0 
3 -1 2 -1 3 0 2 -1 3 0 2 -1 3 -1 2 0 
3 -1 2 0 3 -1 2 0 3 -1 2 -1 3 0 2 -1 
3 0 2 -1 3 0 2 -1 3 0 2 -1 3 -1 2 0 
3 -1 2 0 3 -1 2 0 3 -1 2 0 3 -1 2 0 
3 -1 2 0 3 -1 2 -1 3 0 2 -1 3 0 2 -1 
3 0 2 -1 3 0 2 -1 3 0 2 -1 3 0 2 -1 
3 0 2 -1 3 0 2 -1 3 0 2 -1 3 0 2 -1 
3 0 2 -1 3 0 2 0 3 -1 2 0 3 -1 2 0 
3 -1 2 0 3 -1 2 0 3 -1 2 0 3 -1 2 0 
3 -1 2 0 3 -1 2 0 3 0 2 -1 3 0 2 -1 
3 0 2 -1 3 0 2 -1 3 0 2 0 3 -1 2 0 
3 -1 2 0 3 -1 2 0 3 -1 2 0 3 0 2 -1 
3 0 2 -1 3 0 2 -1 3 0 2 0 3 -1 2 0 
3 -1 2 0 3 -1 2 0 3 0 2 -1 3 0 2 -1 
3 0 2 0 3 -1 2 0 3 -1 2 0 3 0 2 -1 
3 0 2 -1 3 0 2 -1 3 0 2 0 3 -1 2 0 
3 0 2 -1 3 0 2 -1 3 0 2 -1 3 0 2 0 
3 -1 2 0 3 0 2 -1 3 0 2 -1 3 0 2 0 
3 -1 2 0 3 0 2 -1 3 0 2 -1 3 0 2 0 
3 -1 2 0 3 0 2 -1 3 0 2 0 3 -1 2 0 
3 -1 2 0 3 0 2 -1 3 0 2 0 3 -1 2 0 
3 -1 2 0 3 0 2 -1 3 0 2 0 3 -1 2 0 
3 0 2 -1 3 0 2 0 3 -1 2 0 3 0 2 -1 
3 0 2 0 3 -1 2 0 3 0 2 -1 3 0 2 -1 
3 0 2 0 3 0 2 -1 3 0 2 -1 3 0 2 0 
3 0 2 -1 3 0 2 0 3 -1 2 0 3 0 2 -1 
3 0 2 -1 3 0 2 0 3 0 2 -1 3 0 2 0 
3 -1 2 0 3 0 2 -1 3 0 2 0 3 -1 2 0 
3 0 2 -1 3 0 2 0 3 -1 2 0 3 0 2 0 
3 -1 2 0 3 0 2 -1 3 0 2 0 3 -1 2 0 
3 0 2 -1 3 0 2102 3807 300 MP stroke
2 0 3 -1 2 0 3 0 2 0 3 -1 3 0 2 0 
3 -1 2 0 3 0 2 0 3 -1 2 0 3 0 2 -1 
3 0 2 0 3 0 2 -1 3 0 2 0 3 -1 2 0 
3 0 2 -1 3 0 2 0 3 0 2 -1 3 0 2 0 
3 -1 2 0 3 0 2 0 3 -1 2 0 3 0 2 -1 
3 0 2 0 3 0 2 -1 3 0 2 0 3 -1 2 0 
3 0 2 0 3 -1 2 0 3 0 2 0 3 -1 2 0 
3 0 2 -1 3 0 2 0 3 0 2 -1 3 0 2 0 
3 -1 2 0 3 0 2 0 3 -1 2 0 3 0 2 0 
3 -1 2 0 3 0 2 0 3 -1 2 0 3 0 2 0 
3 -1 2 0 3 0 2 -1 3 0 2 0 3 0 2 -1 
3 0 2 0 3 0 2 -1 3 0 2 0 3 0 2 0 
3 -1 2 0 3 0 2 -1 3 0 2 0 3 0 2 -1 
3 0 2 0 3 0 2 -1 3 0 2 0 3 0 2 -1 
3 0 2 0 3 0 2 -1 3 0 2 0 3 0 2 -1 
3 0 2 0 3 0 2 -1 3 0 2 0 3 0 2 -1 
3 0 2 0 3 0 2 -1 3 0 2 0 3 0 2 -1 
3 0 2 0 3 0 2 0 3 -1 2 0 3 0 2 -1 
3 0 2 0 3 0 2 0 3 -1 2 0 3 0 2 -1 
3 0 2 0 3 0 2 0 3 -1 2 0 3 0 2 0 
3 0 2 -1 3 0 2 0 3 0 2 -1 3 0 2 0 
3 0 2 -1 3 0 2 0 3 0 2 0 3 -1 2 0 
3 0 2 0 3 -1 2 0 3 0 2 0 3 -1 2 0 
3 0 2 0 3 0 2 -1 3 0 2 0 3 0 2 -1 
3 0 2 0 3 0 2 0 3 -1 2 0 3 0 2 0 
3 0 2 -1 3 0 2 0 3 -1 2 0 3 0 2 0 
3 0 2 -1 3 0 2 0 3 0 2 0 3 -1 2 0 
3 0 2 0 3 -1 2 0 3 0 2 0 3 0 2 -1 
3 0 2 0 3 0 2 0 3 -1 2 0 3 0 2 0 
3 -1 2 0 3 0 2 0 3 0 2 0 3 -1 2 0 
3 0 2 0 3 -1 2 0 3 0 2 0 3 0 2 -1 
3 0 2 0 3 0 2 -1 3 0 2 0 3 0 3 0 
2 0 3 -1 2 0 3 0 2 0 3 -1 2 0 3 0 
2 0 3 0 2 -1 3 1 2 -1 3 0 2 0 3 -1 
2 0 3 0 2 0 3 0 2 -1 3 0 2 0 3 0 
2 0 3 -1 2 0 3 0 2 0 3 0 2 -1 3 0 
2 0 3 0 2 0 3 -1 2 1 3 -1 2 0 3 0 
2 0 3 -1 2 0 1354 3879 300 MP stroke
3 0 2 0 3 0 2 -1 3 0 2 0 3 0 2 0 
3 -1 2 0 3 0 2 0 3 0 2 0 3 -1 2 0 
3 0 2 0 3 0 2 -1 3 0 2 0 3 0 2 0 
3 -1 2 0 3 0 2 0 3 0 2 0 3 -1 2 0 
3 0 2 0 3 0 2 -1 3 0 2 0 3 0 2 0 
3 -1 2 0 3 0 2 0 3 0 2 0 3 -1 2 0 
3 0 2 0 3 0 2 -1 3 0 2 0 3 0 2 0 
3 -1 2 0 3 0 2 0 3 0 2 0 3 -1 2 0 
3 0 2 0 3 0 2 -1 3 0 2 0 3 0 2 0 
3 0 2 -1 3 0 2 0 3 0 2 0 3 -1 2 0 
3 0 2 0 3 0 2 -1 3 0 2 0 3 0 2 0 
3 0 2 0 3 -1 2 0 3 0 2 0 3 0 2 -1 
3 0 2 0 3 0 2 0 3 0 2 -1 3 0 2 0 
3 0 2 0 3 -1 2 0 3 0 2 0 3 0 2 0 
3 0 2 -1 3 0 2 0 3 0 2 0 3 0 2 -1 
3 0 2 0 3 0 2 0 3 -1 2 0 3 0 2 0 
3 0 2 -1 3 1 2 -1 3 0 2 0 3 0 2 0 
3 -1 2 0 3 0 2 0 3 0 2 0 3 -1 2 0 
3 0 2 0 3 0 2 0 3 -1 2 0 3 0 2 0 
3 0 2 0 3 -1 2 0 3 0 2 0 3 0 2 0 
3 -1 2 0 3 0 2 0 3 0 2 0 3 0 2 -1 
3 0 2 0 3 0 2 0 3 -1 2 0 3 0 2 0 
3 0 2 -1 3 1 2 -1 3 0 2 0 3 0 2 0 
3 0 2 -1 3 0 2 0 3 0 2 0 3 0 2 -1 
3 0 2 0 3 0 2 0 3 0 2 0 3 0 2 89 
3 181 2 117 3 -26 2 -89 3 982 841 2659 206 MP stroke
gr

c9
DA
0 sg
%%IncludeResource: font Helvetica
/Helvetica /ISOLatin1Encoding 120 FMSR

3323 4600 mt 
(t) s
 498 3516 mt  -90 rotate
(x) s
90 rotate
SO

end %%Color Dict

eplot
%%EndObject

epage
end

showpage

%%Trailer
%%EOF
