%!PS-Adobe-3.0 EPSF-3.0
%%Creator: MATLAB, The Mathworks, Inc.
%%Title: /homes/numerik/wunder/program/bdf_var.eps
%%CreationDate: 07/07/2005  13:08:16
%%DocumentNeededFonts: Helvetica
%%DocumentProcessColors: Cyan Magenta Yellow Black
%%LanguageLevel: 2
%%Pages: 1
%%BoundingBox:   -43   195   656   595
%%EndComments

%%BeginProlog
% MathWorks dictionary
/MathWorks 160 dict begin
% definition operators
/bdef {bind def} bind def
/ldef {load def} bind def
/xdef {exch def} bdef
/xstore {exch store} bdef
% operator abbreviations
/c  /clip ldef
/cc /concat ldef
/cp /closepath ldef
/gr /grestore ldef
/gs /gsave ldef
/mt /moveto ldef
/np /newpath ldef
/cm /currentmatrix ldef
/sm /setmatrix ldef
/rm /rmoveto ldef
/rl /rlineto ldef
/s {show newpath} bdef
/sc {setcmykcolor} bdef
/sr /setrgbcolor ldef
/sg /setgray ldef
/w /setlinewidth ldef
/j /setlinejoin ldef
/cap /setlinecap ldef
/rc {rectclip} bdef
/rf {rectfill} bdef
% page state control
/pgsv () def
/bpage {/pgsv save def} bdef
/epage {pgsv restore} bdef
/bplot /gsave ldef
/eplot {stroke grestore} bdef
% orientation switch
/portraitMode 0 def /landscapeMode 1 def /rotateMode 2 def
% coordinate system mappings
/dpi2point 0 def
% font control
/FontSize 0 def
/FMS {/FontSize xstore findfont [FontSize 0 0 FontSize neg 0 0]
  makefont setfont} bdef
/reencode {exch dup where {pop load} {pop StandardEncoding} ifelse
  exch dup 3 1 roll findfont dup length dict begin
  { 1 index /FID ne {def}{pop pop} ifelse } forall
  /Encoding exch def currentdict end definefont pop} bdef
/isroman {findfont /CharStrings get /Agrave known} bdef
/FMSR {3 1 roll 1 index dup isroman {reencode} {pop pop} ifelse
  exch FMS} bdef
/csm {1 dpi2point div -1 dpi2point div scale neg translate
 dup landscapeMode eq {pop -90 rotate}
  {rotateMode eq {90 rotate} if} ifelse} bdef
% line types: solid, dotted, dashed, dotdash
/SO { [] 0 setdash } bdef
/DO { [.5 dpi2point mul 4 dpi2point mul] 0 setdash } bdef
/DA { [6 dpi2point mul] 0 setdash } bdef
/DD { [.5 dpi2point mul 4 dpi2point mul 6 dpi2point mul 4
  dpi2point mul] 0 setdash } bdef
% macros for lines and objects
/L {lineto stroke} bdef
/MP {3 1 roll moveto 1 sub {rlineto} repeat} bdef
/AP {{rlineto} repeat} bdef
/PDlw -1 def
/W {/PDlw currentlinewidth def setlinewidth} def
/PP {closepath eofill} bdef
/DP {closepath stroke} bdef
/MR {4 -2 roll moveto dup  0 exch rlineto exch 0 rlineto
  neg 0 exch rlineto closepath} bdef
/FR {MR stroke} bdef
/PR {MR fill} bdef
/L1i {{currentfile picstr readhexstring pop} image} bdef
/tMatrix matrix def
/MakeOval {newpath tMatrix currentmatrix pop translate scale
0 0 1 0 360 arc tMatrix setmatrix} bdef
/FO {MakeOval stroke} bdef
/PO {MakeOval fill} bdef
/PD {currentlinewidth 2 div 0 360 arc fill
   PDlw -1 eq not {PDlw w /PDlw -1 def} if} def
/FA {newpath tMatrix currentmatrix pop translate scale
  0 0 1 5 -2 roll arc tMatrix setmatrix stroke} bdef
/PA {newpath tMatrix currentmatrix pop	translate 0 0 moveto scale
  0 0 1 5 -2 roll arc closepath tMatrix setmatrix fill} bdef
/FAn {newpath tMatrix currentmatrix pop translate scale
  0 0 1 5 -2 roll arcn tMatrix setmatrix stroke} bdef
/PAn {newpath tMatrix currentmatrix pop translate 0 0 moveto scale
  0 0 1 5 -2 roll arcn closepath tMatrix setmatrix fill} bdef
/vradius 0 def /hradius 0 def /lry 0 def
/lrx 0 def /uly 0 def /ulx 0 def /rad 0 def
/MRR {/vradius xdef /hradius xdef /lry xdef /lrx xdef /uly xdef
  /ulx xdef newpath tMatrix currentmatrix pop ulx hradius add uly
  vradius add translate hradius vradius scale 0 0 1 180 270 arc 
  tMatrix setmatrix lrx hradius sub uly vradius add translate
  hradius vradius scale 0 0 1 270 360 arc tMatrix setmatrix
  lrx hradius sub lry vradius sub translate hradius vradius scale
  0 0 1 0 90 arc tMatrix setmatrix ulx hradius add lry vradius sub
  translate hradius vradius scale 0 0 1 90 180 arc tMatrix setmatrix
  closepath} bdef
/FRR {MRR stroke } bdef
/PRR {MRR fill } bdef
/MlrRR {/lry xdef /lrx xdef /uly xdef /ulx xdef /rad lry uly sub 2 div def
  newpath tMatrix currentmatrix pop ulx rad add uly rad add translate
  rad rad scale 0 0 1 90 270 arc tMatrix setmatrix lrx rad sub lry rad
  sub translate rad rad scale 0 0 1 270 90 arc tMatrix setmatrix
  closepath} bdef
/FlrRR {MlrRR stroke } bdef
/PlrRR {MlrRR fill } bdef
/MtbRR {/lry xdef /lrx xdef /uly xdef /ulx xdef /rad lrx ulx sub 2 div def
  newpath tMatrix currentmatrix pop ulx rad add uly rad add translate
  rad rad scale 0 0 1 180 360 arc tMatrix setmatrix lrx rad sub lry rad
  sub translate rad rad scale 0 0 1 0 180 arc tMatrix setmatrix
  closepath} bdef
/FtbRR {MtbRR stroke } bdef
/PtbRR {MtbRR fill } bdef
/stri 6 array def /dtri 6 array def
/smat 6 array def /dmat 6 array def
/tmat1 6 array def /tmat2 6 array def /dif 3 array def
/asub {/ind2 exch def /ind1 exch def dup dup
  ind1 get exch ind2 get sub exch } bdef
/tri_to_matrix {
  2 0 asub 3 1 asub 4 0 asub 5 1 asub
  dup 0 get exch 1 get 7 -1 roll astore } bdef
/compute_transform {
  dmat dtri tri_to_matrix tmat1 invertmatrix 
  smat stri tri_to_matrix tmat2 concatmatrix } bdef
/ds {stri astore pop} bdef
/dt {dtri astore pop} bdef
/db {2 copy /cols xdef /rows xdef mul dup 3 mul string
  currentfile 
  3 index 0 eq {/ASCIIHexDecode filter}
  {/ASCII85Decode filter 3 index 2 eq {/RunLengthDecode filter} if }
  ifelse exch readstring pop
  dup 0 3 index getinterval /rbmap xdef
  dup 2 index dup getinterval /gbmap xdef
  1 index dup 2 mul exch getinterval /bbmap xdef pop pop}bdef
/it {gs np dtri aload pop moveto lineto lineto cp c
  cols rows 8 compute_transform 
  rbmap gbmap bbmap true 3 colorimage gr}bdef
/il {newpath moveto lineto stroke}bdef
currentdict end def
%%EndProlog

%%BeginSetup
MathWorks begin

0 cap

end
%%EndSetup

%%Page: 1 1
%%BeginPageSetup
%%PageBoundingBox:   -43   195   656   595
MathWorks begin
bpage
%%EndPageSetup

%%BeginObject: obj1
bplot

/dpi2point 12 def
portraitMode -0516 7140 csm

    0     0  8392  4799 rc
86 dict begin %Colortable dictionary
/c0 { 0.000000 0.000000 0.000000 sr} bdef
/c1 { 1.000000 1.000000 1.000000 sr} bdef
/c2 { 0.900000 0.000000 0.000000 sr} bdef
/c3 { 0.000000 0.820000 0.000000 sr} bdef
/c4 { 0.000000 0.000000 0.800000 sr} bdef
/c5 { 0.910000 0.820000 0.320000 sr} bdef
/c6 { 1.000000 0.260000 0.820000 sr} bdef
/c7 { 0.000000 0.820000 0.820000 sr} bdef
c0
1 j
1 sg
   0    0 8393 4800 rf
6 w
0 1637 1393 0 0 -1637 1489 1997 4 MP
PP
-1393 0 0 1637 1393 0 0 -1637 1489 1997 5 MP stroke
4 w
DO
SO
6 w
0 sg
1489 1997 mt 2882 1997 L
1489  360 mt 2882  360 L
1489 1997 mt 1489  360 L
2882 1997 mt 2882  360 L
1489 1997 mt 2882 1997 L
1489 1997 mt 1489  360 L
1489 1997 mt 1489 1980 L
1489  360 mt 1489  376 L
%%IncludeResource: font Helvetica
/Helvetica /ISOLatin1Encoding 120 FMSR

1456 2142 mt 
(0) s
2032 1997 mt 2032 1980 L
2032  360 mt 2032  376 L
1916 2142 mt 
(0.01) s
2575 1997 mt 2575 1980 L
2575  360 mt 2575  376 L
2459 2142 mt 
(0.02) s
1489 1997 mt 1505 1997 L
2882 1997 mt 2865 1997 L
1388 2041 mt 
(0) s
1489 1677 mt 1505 1677 L
2882 1677 mt 2865 1677 L
1154 1721 mt 
(0.005) s
1489 1358 mt 1505 1358 L
2882 1358 mt 2865 1358 L
1221 1402 mt 
(0.01) s
1489 1039 mt 1505 1039 L
2882 1039 mt 2865 1039 L
1154 1083 mt 
(0.015) s
1489  720 mt 1505  720 L
2882  720 mt 2865  720 L
1221  764 mt 
(0.02) s
1489  401 mt 1505  401 L
2882  401 mt 2865  401 L
1154  445 mt 
(0.025) s
1489 1997 mt 2882 1997 L
1489  360 mt 2882  360 L
1489 1997 mt 1489  360 L
2882 1997 mt 2882  360 L
gs 1489 360 1394 1638 rc
DA
/c8 { 0.000000 0.000000 1.000000 sr} bdef
c8
696 -816 347 -409 174 -204 87 -102 43 -51 22 -26 11 -13 5 -6 
3 -3 1 -2 2 -1 1 -2 1 -2 1489 1997 14 MP stroke
SO
696 -816 347 -409 174 -204 87 -102 43 -51 22 -26 11 -13 5 -6 
3 -3 1 -2 2 -1 1 -2 1 -2 1489 1997 14 MP stroke
gr

c8
0 sg
2167 2285 mt 
(t) s
1072 1209 mt  -90 rotate
(x) s
90 rotate
1 sg
0 1637 1393 0 0 -1637 3845 1997 4 MP
PP
-1393 0 0 1637 1393 0 0 -1637 3845 1997 5 MP stroke
4 w
DO
SO
6 w
0 sg
3845 1997 mt 5238 1997 L
3845  360 mt 5238  360 L
3845 1997 mt 3845  360 L
5238 1997 mt 5238  360 L
3845 1997 mt 5238 1997 L
3845 1997 mt 3845  360 L
3845 1997 mt 3845 1980 L
3845  360 mt 3845  376 L
3812 2142 mt 
(0) s
4388 1997 mt 4388 1980 L
4388  360 mt 4388  376 L
4272 2142 mt 
(0.01) s
4931 1997 mt 4931 1980 L
4931  360 mt 4931  376 L
4815 2142 mt 
(0.02) s
3845 1853 mt 3861 1853 L
5238 1853 mt 5221 1853 L
3444 1897 mt 
(0.9997) s
3845 1604 mt 3861 1604 L
5238 1604 mt 5221 1604 L
3444 1648 mt 
(0.9997) s
3845 1355 mt 3861 1355 L
5238 1355 mt 5221 1355 L
3444 1399 mt 
(0.9998) s
3845 1106 mt 3861 1106 L
5238 1106 mt 5221 1106 L
3444 1150 mt 
(0.9998) s
3845  857 mt 3861  857 L
5238  857 mt 5221  857 L
3444  901 mt 
(0.9999) s
3845  608 mt 3861  608 L
5238  608 mt 5221  608 L
3444  652 mt 
(0.9999) s
3845  360 mt 3861  360 L
5238  360 mt 5221  360 L
3744  404 mt 
(1) s
3845 1997 mt 5238 1997 L
3845  360 mt 5238  360 L
3845 1997 mt 3845  360 L
5238 1997 mt 5238  360 L
gs 3845 360 1394 1638 rc
DA
c8
696 1226 347 307 174 77 87 20 43 5 22 1 11 0 5 0 
3 0 1 0 2 0 1 0 1 0 3845 360 14 MP stroke
SO
696 1227 347 307 174 77 87 20 43 5 22 1 11 0 5 0 
3 0 1 0 2 0 1 0 1 0 3845 360 14 MP stroke
gr

c8
0 sg
4523 2285 mt 
(t) s
3362 1209 mt  -90 rotate
(y) s
90 rotate
1 sg
0 1637 1393 0 0 -1637 6202 1997 4 MP
PP
-1393 0 0 1637 1393 0 0 -1637 6202 1997 5 MP stroke
4 w
DO
SO
6 w
0 sg
6202 1997 mt 7595 1997 L
6202  360 mt 7595  360 L
6202 1997 mt 6202  360 L
7595 1997 mt 7595  360 L
6202 1997 mt 7595 1997 L
6202 1997 mt 6202  360 L
6202 1997 mt 6202 1980 L
6202  360 mt 6202  376 L
6169 2142 mt 
(0) s
6745 1997 mt 6745 1980 L
6745  360 mt 6745  376 L
6629 2142 mt 
(0.01) s
7288 1997 mt 7288 1980 L
7288  360 mt 7288  376 L
7172 2142 mt 
(0.02) s
6202 1700 mt 6218 1700 L
7595 1700 mt 7578 1700 L
5931 1744 mt 
(-0.2) s
6202 1403 mt 6218 1403 L
7595 1403 mt 7578 1403 L
5864 1447 mt 
(-0.15) s
6202 1106 mt 6218 1106 L
7595 1106 mt 7578 1106 L
5931 1150 mt 
(-0.1) s
6202  809 mt 6218  809 L
7595  809 mt 7578  809 L
5864  853 mt 
(-0.05) s
6202  512 mt 6218  512 L
7595  512 mt 7578  512 L
6101  556 mt 
(0) s
6202 1997 mt 7595 1997 L
6202  360 mt 7595  360 L
6202 1997 mt 6202  360 L
7595 1997 mt 7595  360 L
gs 6202 360 1394 1638 rc
DA
c8
696 -76 347 -38 174 -19 87 -9 43 -5 22 -2 11 -2 5 0 
3 0 1 -1 2 0 1 0 1 0 6202 512 14 MP stroke
SO
696 -76 347 -38 174 -19 87 -10 43 -4 22 -3 11 -1 5 0 
3 742 1 -1 2 0 1 -1485 1 1485 6202 512 14 MP stroke
gr

c8
0 sg
6880 2285 mt 
(t) s
%%IncludeResource: font Symbol
/Symbol /ISOLatin1Encoding 120 FMSR

5774 1212 mt  -90 rotate
(l) s
90 rotate
1 sg
0 1637 1393 0 0 -1637 1489 4271 4 MP
PP
-1393 0 0 1637 1393 0 0 -1637 1489 4271 5 MP stroke
4 w
DO
SO
6 w
0 sg
1489 4271 mt 2882 4271 L
1489 2634 mt 2882 2634 L
1489 4271 mt 1489 2634 L
2882 4271 mt 2882 2634 L
1489 4271 mt 2882 4271 L
1489 4271 mt 1489 2634 L
1489 4271 mt 1489 4254 L
1489 2634 mt 1489 2650 L
%%IncludeResource: font Helvetica
/Helvetica /ISOLatin1Encoding 120 FMSR

1456 4416 mt 
(0) s
2032 4271 mt 2032 4254 L
2032 2634 mt 2032 2650 L
1916 4416 mt 
(0.01) s
2575 4271 mt 2575 4254 L
2575 2634 mt 2575 2650 L
2459 4416 mt 
(0.02) s
1489 4271 mt 1489 4271 L
1489 4271 mt 1489 4271 L
1489 4271 mt 1489 4271 L
1489 4271 mt 1489 4271 L
1489 4271 mt 1489 4271 L
1489 4271 mt 1489 4271 L
1489 4271 mt 1489 4271 L
1489 4271 mt 1489 4271 L
1489 4271 mt 1489 4271 L
1489 4271 mt 1489 4271 L
1489 4271 mt 1489 4271 L
1489 4271 mt 1489 4271 L
1489 4271 mt 1489 4271 L
1489 4271 mt 1489 4271 L
1489 4271 mt 1489 4271 L
1489 4271 mt 1489 4271 L
1489 4271 mt 1489 4271 L
1489 4271 mt 1489 4271 L
1489 3455 mt 1505 3455 L
2882 3455 mt 2865 3455 L
1186 3499 mt 
(10) s
%%IncludeResource: font Helvetica
/Helvetica /ISOLatin1Encoding 80 FMSR

1319 3425 mt 
(-10) s
1489 4271 mt 1489 4271 L
1489 4271 mt 1489 4271 L
1489 4271 mt 1489 4271 L
1489 4271 mt 1489 4271 L
1489 4271 mt 1489 4271 L
1489 4271 mt 1489 4271 L
1489 4271 mt 1489 4271 L
1489 4271 mt 1489 4271 L
1489 4271 mt 1489 4271 L
1489 4271 mt 1489 4271 L
1489 4271 mt 1489 4271 L
1489 4271 mt 1489 4271 L
1489 4271 mt 1489 4271 L
1489 4271 mt 1489 4271 L
1489 4271 mt 1489 4271 L
1489 4271 mt 1489 4271 L
1489 4271 mt 1489 4271 L
1489 4271 mt 1489 4271 L
1489 4271 mt 2882 4271 L
1489 2634 mt 2882 2634 L
1489 4271 mt 1489 2634 L
2882 4271 mt 2882 2634 L
gs 1489 2634 1394 1638 rc
DA
c8
696 -173 347 -172 174 -173 87 -171 43 -171 22 -167 11 -154 5 -121 
3 -79 1 -50 2 -72 1 -134 1490 4271 13 MP stroke
SO
696 -173 347 -172 174 -173 87 -171 43 -171 22 -167 11 -154 5 -121 
3 -79 1 -50 2 -72 1 -133 1490 4270 13 MP stroke
gr

c8
0 sg
%%IncludeResource: font Helvetica
/Helvetica /ISOLatin1Encoding 120 FMSR

2167 4559 mt 
(t) s
1104 3624 mt  -90 rotate
(error x) s
90 rotate
1 sg
0 1637 1393 0 0 -1637 3845 4271 4 MP
PP
-1393 0 0 1637 1393 0 0 -1637 3845 4271 5 MP stroke
4 w
DO
SO
6 w
0 sg
3845 4271 mt 5238 4271 L
3845 2634 mt 5238 2634 L
3845 4271 mt 3845 2634 L
5238 4271 mt 5238 2634 L
3845 4271 mt 5238 4271 L
3845 4271 mt 3845 2634 L
3845 4271 mt 3845 4254 L
3845 2634 mt 3845 2650 L
3812 4416 mt 
(0) s
4388 4271 mt 4388 4254 L
4388 2634 mt 4388 2650 L
4272 4416 mt 
(0.01) s
4931 4271 mt 4931 4254 L
4931 2634 mt 4931 2650 L
4815 4416 mt 
(0.02) s
3845 4271 mt 3845 4271 L
3845 4271 mt 3845 4271 L
3845 4271 mt 3845 4271 L
3845 4271 mt 3845 4271 L
3845 4271 mt 3845 4271 L
3845 4271 mt 3845 4271 L
3845 4271 mt 3845 4271 L
3845 4271 mt 3845 4271 L
3845 4271 mt 3845 4271 L
3845 4271 mt 3845 4271 L
3845 4271 mt 3845 4271 L
3845 4271 mt 3845 4271 L
3845 4271 mt 3845 4271 L
3845 4271 mt 3845 4271 L
3845 4271 mt 3845 4271 L
3845 4271 mt 3845 4271 L
3845 4271 mt 3845 4271 L
3845 4271 mt 3845 4271 L
3845 4176 mt 3861 4176 L
5238 4176 mt 5221 4176 L
3542 4220 mt 
(10) s
%%IncludeResource: font Helvetica
/Helvetica /ISOLatin1Encoding 80 FMSR

3675 4146 mt 
(-15) s
3845 4271 mt 3845 4271 L
3845 4271 mt 3845 4271 L
3845 4271 mt 3845 4271 L
3845 4271 mt 3845 4271 L
3845 4271 mt 3845 4271 L
3845 4271 mt 3845 4271 L
3845 4271 mt 3845 4271 L
3845 4271 mt 3845 4271 L
3845 4271 mt 3845 4271 L
3845 4271 mt 3845 4271 L
3845 4271 mt 3845 4271 L
3845 4271 mt 3845 4271 L
3845 4271 mt 3845 4271 L
3845 4271 mt 3845 4271 L
3845 4271 mt 3845 4271 L
3845 4271 mt 3845 4271 L
3845 4271 mt 3845 4271 L
3845 4271 mt 3845 4271 L
3845 3190 mt 3861 3190 L
5238 3190 mt 5221 3190 L
%%IncludeResource: font Helvetica
/Helvetica /ISOLatin1Encoding 120 FMSR

3542 3234 mt 
(10) s
%%IncludeResource: font Helvetica
/Helvetica /ISOLatin1Encoding 80 FMSR

3675 3160 mt 
(-10) s
3845 4271 mt 3845 4271 L
3845 4271 mt 3845 4271 L
3845 4271 mt 3845 4271 L
3845 4271 mt 3845 4271 L
3845 4271 mt 3845 4271 L
3845 4271 mt 3845 4271 L
3845 4271 mt 3845 4271 L
3845 4271 mt 3845 4271 L
3845 4271 mt 3845 4271 L
3845 4271 mt 3845 4271 L
3845 4271 mt 3845 4271 L
3845 4271 mt 3845 4271 L
3845 4271 mt 3845 4271 L
3845 4271 mt 3845 4271 L
3845 4271 mt 3845 4271 L
3845 4271 mt 3845 4271 L
3845 4271 mt 3845 4271 L
3845 4271 mt 3845 4271 L
3845 4271 mt 5238 4271 L
3845 2634 mt 5238 2634 L
3845 4271 mt 3845 2634 L
5238 4271 mt 5238 2634 L
gs 3845 2634 1394 1638 rc
DA
c8
696 -238 347 -238 174 -237 87 -236 43 -235 22 -228 11 -225 3858 4271 8 MP stroke
SO
696 -238 347 -238 174 -218 87 -236 43 -235 22 -244 11 -209 3858 4271 8 MP stroke
gr

c8
0 sg
%%IncludeResource: font Helvetica
/Helvetica /ISOLatin1Encoding 120 FMSR

4523 4559 mt 
(t) s
3460 3624 mt  -90 rotate
(error y) s
90 rotate
1 sg
0 1637 1393 0 0 -1637 6202 4271 4 MP
PP
-1393 0 0 1637 1393 0 0 -1637 6202 4271 5 MP stroke
4 w
DO
SO
6 w
0 sg
6202 4271 mt 7595 4271 L
6202 2634 mt 7595 2634 L
6202 4271 mt 6202 2634 L
7595 4271 mt 7595 2634 L
6202 4271 mt 7595 4271 L
6202 4271 mt 6202 2634 L
6202 4271 mt 6202 4254 L
6202 2634 mt 6202 2650 L
6169 4416 mt 
(0) s
6745 4271 mt 6745 4254 L
6745 2634 mt 6745 2650 L
6629 4416 mt 
(0.01) s
7288 4271 mt 7288 4254 L
7288 2634 mt 7288 2650 L
7172 4416 mt 
(0.02) s
6202 4271 mt 6202 4271 L
6202 4271 mt 6202 4271 L
6202 4271 mt 6202 4271 L
6202 4271 mt 6202 4271 L
6202 4271 mt 6202 4271 L
6202 4271 mt 6202 4271 L
6202 4271 mt 6202 4271 L
6202 4271 mt 6202 4271 L
6202 4271 mt 6202 4271 L
6202 4271 mt 6202 4271 L
6202 4271 mt 6202 4271 L
6202 4271 mt 6202 4271 L
6202 4271 mt 6202 4271 L
6202 4271 mt 6202 4271 L
6202 4271 mt 6202 4271 L
6202 4271 mt 6202 4271 L
6202 4271 mt 6202 4271 L
6202 4271 mt 6202 4271 L
6202 4271 mt 6218 4271 L
7595 4271 mt 7578 4271 L
5899 4315 mt 
(10) s
%%IncludeResource: font Helvetica
/Helvetica /ISOLatin1Encoding 80 FMSR

6032 4241 mt 
(-10) s
6202 4271 mt 6202 4271 L
6202 4271 mt 6202 4271 L
6202 4271 mt 6202 4271 L
6202 4271 mt 6202 4271 L
6202 4271 mt 6202 4271 L
6202 4271 mt 6202 4271 L
6202 4271 mt 6202 4271 L
6202 4271 mt 6202 4271 L
6202 4271 mt 6202 4271 L
6202 4271 mt 6202 4271 L
6202 4271 mt 6202 4271 L
6202 4271 mt 6202 4271 L
6202 4271 mt 6202 4271 L
6202 4271 mt 6202 4271 L
6202 4271 mt 6202 4271 L
6202 4271 mt 6202 4271 L
6202 4271 mt 6202 4271 L
6202 4271 mt 6202 4271 L
6202 3452 mt 6218 3452 L
7595 3452 mt 7578 3452 L
%%IncludeResource: font Helvetica
/Helvetica /ISOLatin1Encoding 120 FMSR

5899 3496 mt 
(10) s
%%IncludeResource: font Helvetica
/Helvetica /ISOLatin1Encoding 80 FMSR

6032 3422 mt 
(-5) s
6202 4271 mt 6202 4271 L
6202 4271 mt 6202 4271 L
6202 4271 mt 6202 4271 L
6202 4271 mt 6202 4271 L
6202 4271 mt 6202 4271 L
6202 4271 mt 6202 4271 L
6202 4271 mt 6202 4271 L
6202 4271 mt 6202 4271 L
6202 4271 mt 6202 4271 L
6202 4271 mt 6202 4271 L
6202 4271 mt 6202 4271 L
6202 4271 mt 6202 4271 L
6202 4271 mt 6202 4271 L
6202 4271 mt 6202 4271 L
6202 4271 mt 6202 4271 L
6202 4271 mt 6202 4271 L
6202 4271 mt 6202 4271 L
6202 4271 mt 6202 4271 L
6202 2634 mt 6218 2634 L
7595 2634 mt 7578 2634 L
%%IncludeResource: font Helvetica
/Helvetica /ISOLatin1Encoding 120 FMSR

5899 2678 mt 
(10) s
%%IncludeResource: font Helvetica
/Helvetica /ISOLatin1Encoding 80 FMSR

6032 2604 mt 
(0) s
6202 4271 mt 6202 4271 L
6202 4271 mt 6202 4271 L
6202 4271 mt 6202 4271 L
6202 4271 mt 6202 4271 L
6202 4271 mt 6202 4271 L
6202 4271 mt 6202 4271 L
6202 4271 mt 6202 4271 L
6202 4271 mt 6202 4271 L
6202 4271 mt 6202 4271 L
6202 4271 mt 6202 4271 L
6202 4271 mt 6202 4271 L
6202 4271 mt 6202 4271 L
6202 4271 mt 6202 4271 L
6202 4271 mt 6202 4271 L
6202 4271 mt 6202 4271 L
6202 4271 mt 6202 4271 L
6202 4271 mt 6202 4271 L
6202 4271 mt 6202 4271 L
6202 4271 mt 7595 4271 L
6202 2634 mt 7595 2634 L
6202 4271 mt 6202 2634 L
7595 4271 mt 7595 2634 L
gs 6202 2634 1394 1638 rc
DA
c8
696 -92 347 -96 174 -98 87 -100 43 -102 22 -117 11 -93 5 160 
3 47 1 0 2 2 1 -4 6203 3840 13 MP stroke
SO
696 0 347 0 174 0 87 0 43 0 22 0 11 0 5 0 
3 -1057 1 0 2 3 1 1103 6203 2732 13 MP stroke
gr

c8
0 sg
%%IncludeResource: font Helvetica
/Helvetica /ISOLatin1Encoding 120 FMSR

6880 4559 mt 
(t) s
5809 3627 mt  -90 rotate
(error ) s
90 rotate
%%IncludeResource: font Symbol
/Symbol /ISOLatin1Encoding 120 FMSR

5809 3341 mt  -90 rotate
(l) s
90 rotate
1 sg
0 400 1230 0 0 -400 7127 383 4 MP
PP
-1230 0 0 400 1230 0 0 -400 7127 383 5 MP stroke
4 w
DO
SO
6 w
0 sg
7127  383 mt 8357  383 L
7127  -17 mt 8357  -17 L
7127  383 mt 7127  -17 L
8357  383 mt 8357  -17 L
7127  383 mt 8357  383 L
7127  383 mt 7127  -17 L
7127  383 mt 8357  383 L
7127  -17 mt 8357  -17 L
7127  383 mt 7127  -17 L
8357  383 mt 8357  -17 L
%%IncludeResource: font Helvetica
/Helvetica /ISOLatin1Encoding 120 FMSR

7595  136 mt 
(second order) s
gs 7127 0 1231 384 rc
DA
c8
360 0 7198 93 2 MP stroke
SO
gr

c8
0 sg
7595  315 mt 
(first order) s
gs 7127 0 1231 384 rc
c8
360 0 7198 272 2 MP stroke
gr

c8

end %%Color Dict

eplot
%%EndObject

epage
end

showpage

%%Trailer
%%EOF
