%!PS-Adobe-3.0 EPSF-3.0
%%Creator: MATLAB, The Mathworks, Inc.
%%Title: /homes/numerik/wunder/program/sources/circuit_2all.eps
%%CreationDate: 08/18/2005  14:22:23
%%DocumentNeededFonts: Helvetica
%%DocumentProcessColors: Cyan Magenta Yellow Black
%%LanguageLevel: 2
%%Pages: 1
%%BoundingBox:   -18   188   631   603
%%EndComments

%%BeginProlog
% MathWorks dictionary
/MathWorks 160 dict begin
% definition operators
/bdef {bind def} bind def
/ldef {load def} bind def
/xdef {exch def} bdef
/xstore {exch store} bdef
% operator abbreviations
/c  /clip ldef
/cc /concat ldef
/cp /closepath ldef
/gr /grestore ldef
/gs /gsave ldef
/mt /moveto ldef
/np /newpath ldef
/cm /currentmatrix ldef
/sm /setmatrix ldef
/rm /rmoveto ldef
/rl /rlineto ldef
/s {show newpath} bdef
/sc {setcmykcolor} bdef
/sr /setrgbcolor ldef
/sg /setgray ldef
/w /setlinewidth ldef
/j /setlinejoin ldef
/cap /setlinecap ldef
/rc {rectclip} bdef
/rf {rectfill} bdef
% page state control
/pgsv () def
/bpage {/pgsv save def} bdef
/epage {pgsv restore} bdef
/bplot /gsave ldef
/eplot {stroke grestore} bdef
% orientation switch
/portraitMode 0 def /landscapeMode 1 def /rotateMode 2 def
% coordinate system mappings
/dpi2point 0 def
% font control
/FontSize 0 def
/FMS {/FontSize xstore findfont [FontSize 0 0 FontSize neg 0 0]
  makefont setfont} bdef
/reencode {exch dup where {pop load} {pop StandardEncoding} ifelse
  exch dup 3 1 roll findfont dup length dict begin
  { 1 index /FID ne {def}{pop pop} ifelse } forall
  /Encoding exch def currentdict end definefont pop} bdef
/isroman {findfont /CharStrings get /Agrave known} bdef
/FMSR {3 1 roll 1 index dup isroman {reencode} {pop pop} ifelse
  exch FMS} bdef
/csm {1 dpi2point div -1 dpi2point div scale neg translate
 dup landscapeMode eq {pop -90 rotate}
  {rotateMode eq {90 rotate} if} ifelse} bdef
% line types: solid, dotted, dashed, dotdash
/SO { [] 0 setdash } bdef
/DO { [.5 dpi2point mul 4 dpi2point mul] 0 setdash } bdef
/DA { [6 dpi2point mul] 0 setdash } bdef
/DD { [.5 dpi2point mul 4 dpi2point mul 6 dpi2point mul 4
  dpi2point mul] 0 setdash } bdef
% macros for lines and objects
/L {lineto stroke} bdef
/MP {3 1 roll moveto 1 sub {rlineto} repeat} bdef
/AP {{rlineto} repeat} bdef
/PDlw -1 def
/W {/PDlw currentlinewidth def setlinewidth} def
/PP {closepath eofill} bdef
/DP {closepath stroke} bdef
/MR {4 -2 roll moveto dup  0 exch rlineto exch 0 rlineto
  neg 0 exch rlineto closepath} bdef
/FR {MR stroke} bdef
/PR {MR fill} bdef
/L1i {{currentfile picstr readhexstring pop} image} bdef
/tMatrix matrix def
/MakeOval {newpath tMatrix currentmatrix pop translate scale
0 0 1 0 360 arc tMatrix setmatrix} bdef
/FO {MakeOval stroke} bdef
/PO {MakeOval fill} bdef
/PD {currentlinewidth 2 div 0 360 arc fill
   PDlw -1 eq not {PDlw w /PDlw -1 def} if} def
/FA {newpath tMatrix currentmatrix pop translate scale
  0 0 1 5 -2 roll arc tMatrix setmatrix stroke} bdef
/PA {newpath tMatrix currentmatrix pop	translate 0 0 moveto scale
  0 0 1 5 -2 roll arc closepath tMatrix setmatrix fill} bdef
/FAn {newpath tMatrix currentmatrix pop translate scale
  0 0 1 5 -2 roll arcn tMatrix setmatrix stroke} bdef
/PAn {newpath tMatrix currentmatrix pop translate 0 0 moveto scale
  0 0 1 5 -2 roll arcn closepath tMatrix setmatrix fill} bdef
/vradius 0 def /hradius 0 def /lry 0 def
/lrx 0 def /uly 0 def /ulx 0 def /rad 0 def
/MRR {/vradius xdef /hradius xdef /lry xdef /lrx xdef /uly xdef
  /ulx xdef newpath tMatrix currentmatrix pop ulx hradius add uly
  vradius add translate hradius vradius scale 0 0 1 180 270 arc 
  tMatrix setmatrix lrx hradius sub uly vradius add translate
  hradius vradius scale 0 0 1 270 360 arc tMatrix setmatrix
  lrx hradius sub lry vradius sub translate hradius vradius scale
  0 0 1 0 90 arc tMatrix setmatrix ulx hradius add lry vradius sub
  translate hradius vradius scale 0 0 1 90 180 arc tMatrix setmatrix
  closepath} bdef
/FRR {MRR stroke } bdef
/PRR {MRR fill } bdef
/MlrRR {/lry xdef /lrx xdef /uly xdef /ulx xdef /rad lry uly sub 2 div def
  newpath tMatrix currentmatrix pop ulx rad add uly rad add translate
  rad rad scale 0 0 1 90 270 arc tMatrix setmatrix lrx rad sub lry rad
  sub translate rad rad scale 0 0 1 270 90 arc tMatrix setmatrix
  closepath} bdef
/FlrRR {MlrRR stroke } bdef
/PlrRR {MlrRR fill } bdef
/MtbRR {/lry xdef /lrx xdef /uly xdef /ulx xdef /rad lrx ulx sub 2 div def
  newpath tMatrix currentmatrix pop ulx rad add uly rad add translate
  rad rad scale 0 0 1 180 360 arc tMatrix setmatrix lrx rad sub lry rad
  sub translate rad rad scale 0 0 1 0 180 arc tMatrix setmatrix
  closepath} bdef
/FtbRR {MtbRR stroke } bdef
/PtbRR {MtbRR fill } bdef
/stri 6 array def /dtri 6 array def
/smat 6 array def /dmat 6 array def
/tmat1 6 array def /tmat2 6 array def /dif 3 array def
/asub {/ind2 exch def /ind1 exch def dup dup
  ind1 get exch ind2 get sub exch } bdef
/tri_to_matrix {
  2 0 asub 3 1 asub 4 0 asub 5 1 asub
  dup 0 get exch 1 get 7 -1 roll astore } bdef
/compute_transform {
  dmat dtri tri_to_matrix tmat1 invertmatrix 
  smat stri tri_to_matrix tmat2 concatmatrix } bdef
/ds {stri astore pop} bdef
/dt {dtri astore pop} bdef
/db {2 copy /cols xdef /rows xdef mul dup 3 mul string
  currentfile 
  3 index 0 eq {/ASCIIHexDecode filter}
  {/ASCII85Decode filter 3 index 2 eq {/RunLengthDecode filter} if }
  ifelse exch readstring pop
  dup 0 3 index getinterval /rbmap xdef
  dup 2 index dup getinterval /gbmap xdef
  1 index dup 2 mul exch getinterval /bbmap xdef pop pop}bdef
/it {gs np dtri aload pop moveto lineto lineto cp c
  cols rows 8 compute_transform 
  rbmap gbmap bbmap true 3 colorimage gr}bdef
/il {newpath moveto lineto stroke}bdef
currentdict end def
%%EndProlog

%%BeginSetup
MathWorks begin

0 cap

end
%%EndSetup

%%Page: 1 1
%%BeginPageSetup
%%PageBoundingBox:   -18   188   631   603
MathWorks begin
bpage
%%EndPageSetup

%%BeginObject: obj1
bplot

/dpi2point 12 def
portraitMode -0216 7236 csm

    0     0  7793  4971 rc
86 dict begin %Colortable dictionary
/c0 { 0.000000 0.000000 0.000000 sr} bdef
/c1 { 1.000000 1.000000 1.000000 sr} bdef
/c2 { 0.900000 0.000000 0.000000 sr} bdef
/c3 { 0.000000 0.820000 0.000000 sr} bdef
/c4 { 0.000000 0.000000 0.800000 sr} bdef
/c5 { 0.910000 0.820000 0.320000 sr} bdef
/c6 { 1.000000 0.260000 0.820000 sr} bdef
/c7 { 0.000000 0.820000 0.820000 sr} bdef
c0
1 j
1 sg
   0    0 7794 4972 rf
6 w
0 1697 1548 0 0 -1697 1128 2069 4 MP
PP
-1548 0 0 1697 1548 0 0 -1697 1128 2069 5 MP stroke
4 w
DO
SO
6 w
0 sg
1128 2069 mt 2676 2069 L
1128  372 mt 2676  372 L
1128 2069 mt 1128  372 L
2676 2069 mt 2676  372 L
1128 2069 mt 2676 2069 L
1128 2069 mt 1128  372 L
1128 2069 mt 1128 2052 L
1128  373 mt 1128  389 L
%%IncludeResource: font Helvetica
/Helvetica /ISOLatin1Encoding 120 FMSR

1095 2214 mt 
(0) s
1570 2069 mt 1570 2052 L
1570  373 mt 1570  389 L
1537 2214 mt 
(2) s
2012 2069 mt 2012 2052 L
2012  373 mt 2012  389 L
1979 2214 mt 
(4) s
2454 2069 mt 2454 2052 L
2454  373 mt 2454  389 L
2421 2214 mt 
(6) s
1128 1933 mt 1144 1933 L
2676 1933 mt 2659 1933 L
 860 1977 mt 
(0.01) s
1128 1646 mt 1144 1646 L
2676 1646 mt 2659 1646 L
 860 1690 mt 
(0.02) s
1128 1360 mt 1144 1360 L
2676 1360 mt 2659 1360 L
 860 1404 mt 
(0.03) s
1128 1073 mt 1144 1073 L
2676 1073 mt 2659 1073 L
 860 1117 mt 
(0.04) s
1128  787 mt 1144  787 L
2676  787 mt 2659  787 L
 860  831 mt 
(0.05) s
1128  500 mt 1144  500 L
2676  500 mt 2659  500 L
 860  544 mt 
(0.06) s
1128 2069 mt 2676 2069 L
1128  372 mt 2676  372 L
1128 2069 mt 1128  372 L
2676 2069 mt 2676  372 L
gs 1128 373 1549 1697 rc
/c8 { 1.000000 0.000000 0.000000 sr} bdef
c8
2 1 2 0 2 1 3 0 2 1 2 0 2 1 2 0 
3 1 2 0 2 1 2 1 2 0 3 1 2 0 2 1 
2 0 3 1 2 1 2 0 2 1 2 0 3 1 2 0 
2 1 2 1 2 0 3 1 2 0 2 1 2 1 2 0 
3 1 2 0 2 1 2 1 3 0 2 1 2 0 2 1 
2 1 3 0 2 1 2 1 2 0 2 1 3 0 2 1 
2 1 2 0 2 1 3 1 2 0 2 1 2 1 3 0 
2 1 2 1 2 0 2 1 3 0 2 1 2 1 2 0 
2 1 3 1 2 1 2 0 2 1 3 1 2 0 2 1 
2 1 2 0 3 1 2 1 2 0 2 1 2 1 3 1 
2 0 2 1 2 1 2 0 3 1 2 1 2 1 2 0 
3 1 2 1 2 1 2 0 2 1 3 1 2 0 2 1 
2 1 2 1 3 1 2 0 2 1 2 1 2 1 3 0 
2 1 2 1 2 1 3 0 2 1 2 1 2 1 2 1 
3 0 2 1 2 1 2 1 2 1 3 0 2 1 2 1 
2 1 3 1 2 1 2 0 2 1 2 1 3 1 2 1 
2 1 2 0 2 1 3 1 2 1 2 1 2 1 2 1 
3 0 2 1 2 1 2 1 3 1 2 1 2 1 2 1 
2 0 3 1 2 1 2 1 2 1 2 1 3 1 2 1 
2 1 2 1 2 1 3 1 2 0 2 1 2 1 3 1 
2 1 2 1 2 1 2 1 3 1 2 1 2 1 2 1 
2 1 3 1 2 1 2 1 2 1 2 1 3 1 2 1 
2 1 2 1 3 1 2 1 2 1 2 1 2 1 3 1 
2 1 2 1 2 1 2 1 3 1 2 1 2 1 2 1 
3 1 2 1 2 1 2 2 2 1 3 1 2 1 2 1 
2 1 2 1 3 1 2 1 2 1 2 1 2 2 3 1 
2 1 2 1 2 1 3 1 2 1 2 1 2 2 2 1 
3 1 2 1 2 1 2 1 2 2 3 1 2 1 2 1 
2 1 2 1 3 2 2 1 2 1 2 1 3 1 2 2 
2 1 2 1 2 1 3 2 2 1 2 1 2 1 2 2 
3 1 2 1 2 1 2 2 3 1 2 1 2 1 2 2 
2 1 3 1 2 2 2 1 2 1 2 2 3 1 2 1 
2 2 2 1 2 1 3 2 2 1 2 1 2 2 3 1 
2 1 2 2 2 1 2 1 3 2 2 1 2 2 2 1 
2 1 3 2 2 1 2 2 2 1 2 2 3 1 2 1 
2 2 2 1 3 2 2 1 2 2 2 1 2 2 3 1 
2 2 2 1 2 2 2 1 3 2 2 1 2 2 2 1 
3 2 2 1 2 2 2012 1783 300 MP stroke
2 1 2 2 3 1 2 2 2 2 2 1 2 2 3 1 
2 2 2 1 2 2 2 2 3 1 2 2 2 2 2 1 
3 2 2 1 2 2 2 2 2 1 3 2 2 2 2 1 
2 2 2 2 3 2 2 1 2 2 2 2 2 1 3 2 
2 2 2 2 2 1 3 2 2 2 2 2 2 1 2 2 
3 2 2 2 2 1 2 2 2 2 3 2 2 2 2 2 
2 1 2 2 3 2 2 2 2 2 2 2 3 2 2 1 
2 2 2 2 2 2 3 2 2 2 2 2 2 2 2 2 
3 2 2 2 2 2 2 1 3 2 2 2 2 2 2 2 
2 2 3 2 2 2 2 2 2 2 2 2 3 3 2 2 
2 2 2 2 2 2 3 2 2 2 2 2 2 2 3 2 
2 2 2 2 2 3 2 2 3 2 2 2 2 2 2 2 
2 2 3 3 2 2 2 2 2 2 2 2 3 3 2 2 
2 2 2 2 3 3 2 2 2 2 2 2 2 3 3 2 
2 2 2 3 2 2 2 2 3 3 2 2 2 2 2 3 
3 2 2 2 2 3 2 2 2 3 3 2 2 2 2 3 
2 2 2 3 3 2 2 3 2 2 2 3 2 2 3 3 
2 2 2 3 2 2 3 3 2 2 2 3 2 2 2 3 
3 2 2 3 2 3 2 2 2 3 3 2 2 3 2 3 
2 2 2 3 3 3 2 2 2 3 2 3 3 2 2 3 
2 3 2 3 2 2 3 3 2 3 2 3 2 2 2 3 
3 3 2 3 2 3 2 3 3 2 2 3 2 3 2 3 
2 3 3 3 2 3 2 3 2 2 2 3 3 3 2 3 
2 3 2 3 2 3 3 3 2 3 2 3 2 3 3 3 
2 3 2 3 2 4 2 3 3 3 2 3 2 3 2 3 
2 3 3 3 2 4 2 3 2 3 2 3 3 3 2 4 
2 3 2 3 3 3 2 4 2 3 2 3 2 3 3 4 
2 3 2 3 2 4 2 3 3 3 2 4 2 3 2 4 
2 3 3 3 2 4 2 3 2 4 3 3 2 4 2 3 
2 4 2 3 3 4 2 3 2 4 2 4 2 3 3 4 
2 3 2 4 2 4 3 3 2 4 2 4 2 3 2 4 
3 4 2 4 2 3 2 4 2 4 3 4 2 4 2 3 
2 4 2 4 3 4 2 4 2 4 2 4 3 3 2 4 
2 4 2 4 2 4 3 4 2 4 2 4 2 4 2 4 
3 4 2 4 2 4 2 5 2 4 3 4 2 4 2 4 
2 4 3 4 2 5 2 4 2 4 2 4 3 5 2 4 
2 4 2 4 2 5 3 4 2 4 2 5 2 4 3 5 
2 4 2 4 2 5 1351 962 300 MP stroke
2 4 3 5 2 4 2 5 2 4 2 5 3 4 2 5 
2 5 2 4 2 5 3 5 2 4 2 5 2 5 3 4 
2 5 2 5 2 4 2 5 3 5 2 5 2 5 2 4 
2 5 3 5 2 5 2 5 2 5 2 5 3 5 2 5 
2 5 2 5 3 5 2 5 2 5 2 5 2 5 3 5 
2 5 2 6 2 5 2 5 3 5 2 5 2 6 2 5 
3 5 2 6 2 5 2 5 2 6 3 5 2 5 2 6 
2 5 2 6 3 5 2 6 2 5 2 6 2 5 3 6 
2 5 2 6 2 6 3 5 2 6 2 6 2 5 2 6 
3 6 2 6 2 5 2 6 2 6 3 6 2 6 2 6 
2 6 2 6 3 6 2 6 2 6 2 6 3 6 2 6 
2 6 2 6 2 6 3 6 2 6 2 7 2 6 2 6 
3 6 2 7 2 6 2 6 2 7 1128 421 102 MP stroke
/c9 { 0.000000 0.000000 1.000000 sr} bdef
c9
2 -48 1128 421 2 MP stroke
3 0 2 1 2 0 2 1 3 0 2 1 2 0 2 1 
2 0 3 1 2 0 2 1 2 0 2 1 3 1 2 0 
2 1 2 0 3 1 2 0 2 1 2 1 2 0 3 1 
2 0 2 1 2 1 2 0 3 1 2 0 2 1 2 0 
2 1 3 1 2 1 2 0 2 1 3 0 2 1 2 1 
2 0 2 1 3 0 2 1 2 1 2 0 2 1 3 0 
2 1 2 1 2 0 2 1 3 1 2 0 2 1 2 0 
3 1 2 1 2 1 2 0 2 1 3 1 2 0 2 1 
2 0 2 1 3 1 2 0 2 1 2 1 3 1 2 0 
2 1 2 1 2 0 3 1 2 1 2 0 2 1 2 1 
3 1 2 0 2 1 2 1 2 0 3 1 2 1 2 1 
2 0 3 1 2 1 2 0 2 1 2 1 3 1 2 0 
2 1 2 1 2 1 3 0 2 1 2 1 2 1 2 1 
3 0 2 1 2 1 2 1 3 1 2 0 2 1 2 1 
2 1 3 0 2 1 2 1 2 1 2 1 3 0 2 1 
2 1 2 1 3 1 2 1 2 0 2 1 2 1 3 1 
2 1 2 1 2 0 2 1 3 1 2 1 2 1 2 1 
2 1 3 0 2 1 2 1 2 1 3 1 2 1 2 1 
2 1 2 0 3 1 2 1 2 1 2 1 2 1 3 1 
2 1 2 1 2 1 2 1 3 1 2 0 2 1 2 1 
3 1 2 1 2 1 2 1 2 1 3 1 2 1 2 1 
2 1 2 1 3 1 2 1 2 1 2 1 2 1 3 1 
2 1 2 1 2 1 3 1 2 1 2 1 2 1 2 1 
3 1 2 1 2 1 2 1 2 1 3 1 2 1 2 1 
2 1 3 1 2 1 2 1 2 2 2 1 3 1 2 1 
2 1 2 1 2 1 3 1 2 1 2 1 2 1 2 2 
3 1 2 1 2 1 2 1 3 1 2 1 2 1 2 2 
2 1 3 1 2 1 2 1 2 1 2 2 3 1 2 1 
2 1 2 1 2 1 3 2 2 1 2 1 2 1 3 1 
2 2 2 1 2 1 2 1 3 2 2 1 2 1 2 1 
2 2 3 1 2 1 2 1 2 2 3 1 2 1 2 1 
2 2 2 1 3 1 2 2 2 1 2 1 2 1 3 2 
2 1 2 1 2 2 2 1 3 1 2 2 2 1 2 2 
3 1 2 1 2 2 2 1 2 1 3 2 2 1 2 2 
2 1 2 1 3 2 2 1 2 2 2 1 2 1 3 2 
2 1 2 2 2 1 3 2 2 1 2 2 2 1 2 2 
3 1 2 2 2 1 2 2 2 1 3 2 2 1 2 2 
2 1 3 2 2 1 2014 1785 300 MP stroke
2 2 2 1 2 2 3 1 2 2 2 2 2 1 2 2 
3 1 2 2 2 1 2 2 2 2 3 1 2 2 2 2 
2 1 3 2 2 1 2 2 2 2 2 1 3 2 2 2 
2 1 2 2 2 2 3 1 2 2 2 2 2 2 2 1 
3 2 2 2 2 2 2 1 3 2 2 2 2 2 2 1 
2 2 3 2 2 2 2 1 2 2 2 2 3 2 2 2 
2 2 2 1 2 2 3 2 2 2 2 2 2 2 3 1 
2 2 2 2 2 2 2 2 3 2 2 2 2 2 2 2 
2 2 3 2 2 2 2 1 2 2 3 2 2 2 2 2 
2 2 2 2 3 2 2 2 2 2 2 2 2 2 3 2 
2 3 2 2 2 2 2 2 3 2 2 2 2 2 2 2 
3 2 2 2 2 2 2 2 2 3 3 2 2 2 2 2 
2 2 2 2 3 3 2 2 2 2 2 2 2 2 3 3 
2 2 2 2 2 2 3 3 2 2 2 2 2 2 2 3 
3 2 2 2 2 3 2 2 2 2 3 3 2 2 2 2 
2 3 3 2 2 2 2 3 2 2 2 2 3 3 2 2 
2 3 2 2 2 3 3 2 2 3 2 2 2 2 2 3 
3 2 2 3 2 2 2 3 3 3 2 2 2 3 2 2 
2 3 3 2 2 3 2 2 2 3 2 3 3 2 2 3 
2 3 2 2 2 3 3 3 2 2 2 3 2 3 3 2 
2 3 2 3 2 3 2 2 3 3 2 3 2 3 2 2 
2 3 3 3 2 3 2 3 2 2 3 3 2 3 2 3 
2 3 2 3 3 3 2 3 2 2 2 3 2 3 3 3 
2 3 2 3 2 3 2 3 3 3 2 3 2 3 2 3 
3 3 2 3 2 3 2 3 2 4 3 3 2 3 2 3 
2 3 2 3 3 3 2 3 2 4 2 3 2 3 3 3 
2 3 2 4 2 3 3 3 2 3 2 4 2 3 2 3 
3 4 2 3 2 3 2 4 2 3 3 3 2 4 2 3 
2 4 2 3 3 3 2 4 2 3 2 4 3 3 2 4 
2 3 2 4 2 3 3 4 2 3 2 4 2 4 2 3 
3 4 2 3 2 4 2 4 3 3 2 4 2 4 2 3 
2 4 3 4 2 3 2 4 2 4 2 4 3 4 2 3 
2 4 2 4 2 4 3 4 2 4 2 3 2 4 3 4 
2 4 2 4 2 4 2 4 3 4 2 4 2 4 2 4 
2 4 3 4 2 4 2 4 2 4 2 5 3 4 2 4 
2 4 2 4 3 4 2 5 2 4 2 4 2 4 3 4 
2 5 2 4 2 4 2 5 3 4 2 4 2 5 2 4 
3 4 2 5 2 4 1353 967 300 MP stroke
2 5 2 4 3 5 2 4 2 5 2 4 2 5 3 4 
2 5 2 4 2 5 2 5 3 4 2 5 2 5 2 4 
3 5 2 5 2 5 2 4 2 5 3 5 2 5 2 4 
2 5 2 5 3 5 2 5 2 5 2 5 2 5 3 5 
2 5 2 5 2 5 3 5 2 5 2 5 2 5 2 5 
3 5 2 5 2 5 2 5 2 6 3 5 2 5 2 5 
2 6 3 5 2 5 2 5 2 6 2 5 3 6 2 5 
2 5 2 6 2 5 3 6 2 5 2 6 2 5 2 6 
3 5 2 6 2 5 2 6 3 6 2 5 2 6 2 6 
2 5 3 6 2 6 2 6 2 5 2 6 3 6 2 6 
2 6 2 5 2 6 3 6 2 6 2 6 2 6 3 6 
2 6 2 6 2 6 2 7 3 6 2 5 2 7 2 8 
2 7 3 6 2 9 2 4 2 60 1130 373 102 MP stroke
DA
3 1 2 1 2 0 2 1 3 0 2 1 2 0 2 1 
2 0 3 1 2 0 2 1 2 1 2 0 3 1 2 0 
2 1 2 0 3 1 2 1 2 0 2 1 2 0 3 1 
2 0 2 1 2 1 2 0 3 1 2 0 2 1 2 1 
2 0 3 1 2 0 2 1 2 1 3 0 2 1 2 0 
2 1 2 1 3 0 2 1 2 1 2 0 2 1 3 0 
2 1 2 1 2 0 2 1 3 1 2 0 2 1 2 1 
3 0 2 1 2 1 2 0 2 1 3 0 2 1 2 1 
2 0 2 1 3 1 2 1 2 0 2 1 3 1 2 0 
2 1 2 1 2 0 3 1 2 1 2 0 2 1 2 1 
3 1 2 0 2 1 2 1 2 0 3 1 2 1 2 1 
2 0 3 1 2 1 2 1 2 0 2 1 3 1 2 0 
2 1 2 1 2 1 3 1 2 0 2 1 2 1 2 1 
3 0 2 1 2 1 2 1 3 0 2 1 2 1 2 1 
2 1 3 0 2 1 2 1 2 1 2 1 3 0 2 1 
2 1 2 1 3 1 2 1 2 0 2 1 2 1 3 1 
2 1 2 1 2 0 2 1 3 1 2 1 2 1 2 1 
2 1 3 0 2 1 2 1 2 1 3 1 2 1 2 1 
2 1 2 0 3 1 2 1 2 1 2 1 2 1 3 1 
2 1 2 1 2 1 2 1 3 1 2 0 2 1 2 1 
3 1 2 1 2 1 2 1 2 1 3 1 2 1 2 1 
2 1 2 1 3 1 2 1 2 1 2 1 2 1 3 1 
2 1 2 1 2 1 3 1 2 1 2 1 2 1 2 1 
3 1 2 1 2 1 2 1 2 1 3 1 2 1 2 1 
2 1 3 1 2 1 2 1 2 2 2 1 3 1 2 1 
2 1 2 1 2 1 3 1 2 1 2 1 2 1 2 2 
3 1 2 1 2 1 2 1 3 1 2 1 2 1 2 2 
2 1 3 1 2 1 2 1 2 1 2 2 3 1 2 1 
2 1 2 1 2 1 3 2 2 1 2 1 2 1 3 1 
2 2 2 1 2 1 2 1 3 2 2 1 2 1 2 1 
2 2 3 1 2 1 2 1 2 2 3 1 2 1 2 1 
2 2 2 1 3 1 2 2 2 1 2 1 2 2 3 1 
2 1 2 2 2 1 2 1 3 2 2 1 2 1 2 2 
3 1 2 1 2 2 2 1 2 1 3 2 2 1 2 2 
2 1 2 1 3 2 2 1 2 2 2 1 2 2 3 1 
2 1 2 2 2 1 3 2 2 1 2 2 2 1 2 2 
3 1 2 2 2 1 2 2 2 1 3 2 2 1 2 2 
2 1 3 2 2 1 2014 1785 300 MP stroke
2 2 2 1 2 2 3 1 2 2 2 2 2 1 2 2 
3 1 2 2 2 1 2 2 2 2 3 1 2 2 2 2 
2 1 3 2 2 1 2 2 2 2 2 1 3 2 2 2 
2 1 2 2 2 2 3 2 2 1 2 2 2 2 2 1 
3 2 2 2 2 2 2 1 3 2 2 2 2 2 2 1 
2 2 3 2 2 2 2 1 2 2 2 2 3 2 2 2 
2 2 2 1 2 2 3 2 2 2 2 2 2 2 3 2 
2 1 2 2 2 2 2 2 3 2 2 2 2 2 2 2 
2 2 3 2 2 2 2 2 2 1 3 2 2 2 2 2 
2 2 2 2 3 2 2 2 2 2 2 2 2 2 3 3 
2 2 2 2 2 2 2 2 3 2 2 2 2 2 2 2 
3 2 2 2 2 2 2 3 2 2 3 2 2 2 2 2 
2 2 2 2 3 3 2 2 2 2 2 2 2 2 3 3 
2 2 2 2 2 2 3 3 2 2 2 2 2 2 2 3 
3 2 2 2 2 3 2 2 2 2 3 3 2 2 2 2 
2 3 3 2 2 2 2 3 2 2 2 3 3 2 2 2 
2 3 2 2 2 3 3 2 2 3 2 2 2 3 2 2 
3 3 2 2 2 3 2 2 3 3 2 2 2 3 2 2 
2 3 3 2 2 3 2 3 2 2 2 3 3 2 2 3 
2 3 2 2 2 3 3 3 2 2 2 3 2 3 3 2 
2 3 2 3 2 3 2 2 3 3 2 3 2 3 2 2 
2 3 3 3 2 3 2 3 2 3 3 2 2 3 2 3 
2 3 2 3 3 3 2 3 2 3 2 2 2 3 3 3 
2 3 2 3 2 3 2 3 3 3 2 3 2 3 2 3 
3 3 2 3 2 3 2 4 2 3 3 3 2 3 2 3 
2 3 2 3 3 3 2 4 2 3 2 3 2 3 3 3 
2 4 2 3 2 3 3 3 2 4 2 3 2 3 2 3 
3 4 2 3 2 3 2 4 2 3 3 3 2 4 2 3 
2 4 2 3 3 3 2 4 2 3 2 4 3 3 2 4 
2 3 2 4 2 3 3 4 2 3 2 4 2 4 2 3 
3 4 2 3 2 4 2 4 3 3 2 4 2 4 2 3 
2 4 3 4 2 4 2 3 2 4 2 4 3 4 2 4 
2 3 2 4 2 4 3 4 2 4 2 4 2 4 3 3 
2 4 2 4 2 4 2 4 3 4 2 4 2 4 2 4 
2 4 3 4 2 4 2 4 2 5 2 4 3 4 2 4 
2 4 2 4 3 4 2 5 2 4 2 4 2 4 3 5 
2 4 2 4 2 4 2 5 3 4 2 4 2 5 2 4 
3 5 2 4 2 4 1353 967 300 MP stroke
2 5 2 4 3 5 2 4 2 5 2 4 2 5 3 4 
2 5 2 5 2 4 2 5 3 5 2 4 2 5 2 5 
3 4 2 5 2 5 2 4 2 5 3 5 2 5 2 5 
2 4 2 5 3 5 2 5 2 5 2 5 2 5 3 5 
2 5 2 5 2 5 3 5 2 5 2 5 2 5 2 5 
3 5 2 5 2 6 2 5 2 5 3 5 2 5 2 6 
2 5 3 5 2 6 2 5 2 5 2 6 3 5 2 5 
2 6 2 5 2 6 3 5 2 6 2 5 2 6 2 5 
3 6 2 5 2 6 2 6 3 5 2 6 2 6 2 5 
2 6 3 6 2 6 2 5 2 6 2 6 3 6 2 6 
2 6 2 6 2 6 3 6 2 6 2 6 2 6 3 6 
2 6 2 6 2 6 2 6 3 6 2 6 2 7 2 6 
2 6 3 6 2 7 2 6 2 6 2 7 1128 421 103 MP stroke
DO
2 0 2 1 2 1 3 0 2 1 2 0 2 1 2 0 
3 1 2 0 2 1 2 1 2 0 3 1 2 0 2 1 
2 0 3 1 2 1 2 0 2 1 2 0 3 1 2 0 
2 1 2 1 2 0 3 1 2 0 2 1 2 1 2 0 
3 1 2 0 2 1 2 1 3 0 2 1 2 0 2 1 
2 1 3 0 2 1 2 1 2 0 2 1 3 0 2 1 
2 1 2 0 2 1 3 1 2 0 2 1 2 1 3 0 
2 1 2 1 2 0 2 1 3 1 2 0 2 1 2 1 
2 0 3 1 2 1 2 0 2 1 3 1 2 0 2 1 
2 1 2 0 3 1 2 1 2 1 2 0 2 1 3 1 
2 0 2 1 2 1 2 1 3 0 2 1 2 1 2 0 
3 1 2 1 2 1 2 0 2 1 3 1 2 1 2 0 
2 1 2 1 3 1 2 0 2 1 2 1 2 1 3 1 
2 0 2 1 2 1 3 1 2 0 2 1 2 1 2 1 
3 1 2 0 2 1 2 1 2 1 3 1 2 0 2 1 
2 1 3 1 2 1 2 1 2 0 2 1 3 1 2 1 
2 1 2 1 2 1 3 0 2 1 2 1 2 1 2 1 
3 1 2 1 2 0 2 1 3 1 2 1 2 1 2 1 
2 1 3 1 2 1 2 0 2 1 2 1 3 1 2 1 
2 1 2 1 2 1 3 1 2 1 2 1 2 1 3 1 
2 1 2 1 2 0 2 1 3 1 2 1 2 1 2 1 
2 1 3 1 2 1 2 1 2 1 2 1 3 1 2 1 
2 1 2 1 3 1 2 1 2 1 2 1 2 1 3 1 
2 1 2 1 2 1 2 1 3 2 2 1 2 1 2 1 
3 1 2 1 2 1 2 1 2 1 3 1 2 1 2 1 
2 1 2 1 3 2 2 1 2 1 2 1 2 1 3 1 
2 1 2 1 2 2 3 1 2 1 2 1 2 1 2 1 
3 1 2 2 2 1 2 1 2 1 3 1 2 1 2 2 
2 1 2 1 3 1 2 1 2 2 2 1 3 1 2 1 
2 1 2 2 2 1 3 1 2 1 2 2 2 1 2 1 
3 1 2 2 2 1 2 1 3 1 2 2 2 1 2 1 
2 2 3 1 2 1 2 2 2 1 2 1 3 1 2 2 
2 1 2 1 2 2 3 1 2 2 2 1 2 1 3 2 
2 1 2 1 2 2 2 1 3 1 2 2 2 1 2 2 
2 1 3 2 2 1 2 1 2 2 2 1 3 2 2 1 
2 2 2 1 3 1 2 2 2 1 2 2 2 1 3 2 
2 1 2 2 2 1 2 2 3 1 2 2 2 1 2 2 
3 1 2 2 2 2 2012 1781 300 MP stroke
2 1 2 2 3 1 2 2 2 1 2 2 2 2 3 1 
2 2 2 1 2 2 2 2 3 1 2 2 2 1 2 2 
3 2 2 1 2 2 2 2 2 1 3 2 2 2 2 1 
2 2 2 2 3 1 2 2 2 2 2 2 2 1 3 2 
2 2 2 1 2 2 3 2 2 2 2 1 2 2 2 2 
3 2 2 2 2 1 2 2 2 2 3 2 2 2 2 2 
2 1 2 2 3 2 2 2 2 2 2 2 3 2 2 1 
2 2 2 2 2 2 3 2 2 2 2 2 2 2 2 2 
3 2 2 2 2 2 2 2 3 1 2 2 2 2 2 2 
2 2 3 2 2 2 2 2 2 3 2 2 3 2 2 2 
2 2 2 2 2 2 3 2 2 2 2 2 2 2 3 2 
2 2 2 3 2 2 2 2 3 2 2 2 2 2 2 2 
2 3 3 2 2 2 2 2 2 2 2 3 3 2 2 2 
2 2 2 3 3 2 2 2 2 2 2 3 2 2 3 2 
2 3 2 2 2 2 2 2 3 3 2 2 2 3 2 2 
3 2 2 3 2 2 2 2 2 3 3 2 2 3 2 2 
2 3 2 2 3 2 2 3 2 2 2 3 2 2 3 3 
2 2 2 3 2 2 3 3 2 2 2 3 2 3 2 2 
3 3 2 2 2 3 2 2 2 3 3 3 2 2 2 3 
2 3 2 2 3 3 2 3 2 2 2 3 3 3 2 3 
2 2 2 3 2 3 3 2 2 3 2 3 2 3 2 3 
3 2 2 3 2 3 2 3 3 3 2 3 2 2 2 3 
2 3 3 3 2 3 2 3 2 3 2 3 3 3 2 3 
2 3 2 3 2 3 3 3 2 3 2 3 2 3 3 3 
2 3 2 3 2 3 2 3 3 3 2 3 2 3 2 4 
2 3 3 3 2 3 2 3 2 3 2 4 3 3 2 3 
2 3 2 4 3 3 2 3 2 3 2 4 2 3 3 3 
2 4 2 3 2 3 2 4 3 3 2 3 2 4 2 3 
2 4 3 3 2 4 2 3 2 3 3 4 2 3 2 4 
2 3 2 4 3 4 2 3 2 4 2 3 2 4 3 3 
2 4 2 4 2 3 3 4 2 4 2 3 2 4 2 4 
3 4 2 3 2 4 2 4 2 4 3 3 2 4 2 4 
2 4 2 4 3 4 2 3 2 4 2 4 3 4 2 4 
2 4 2 4 2 4 3 4 2 4 2 4 2 4 2 4 
3 4 2 4 2 4 2 4 2 4 3 5 2 4 2 4 
2 4 3 4 2 4 2 5 2 4 2 4 3 4 2 5 
2 4 2 4 2 5 3 4 2 4 2 5 2 4 3 4 
2 5 2 4 2 5 1351 959 300 MP stroke
2 4 3 5 2 4 2 5 2 4 2 5 3 4 2 5 
2 4 2 5 2 5 3 4 2 5 2 5 2 4 3 5 
2 5 2 4 2 5 2 5 3 5 2 5 2 4 2 5 
2 5 3 5 2 5 2 5 2 5 2 5 3 5 2 5 
2 5 2 5 3 5 2 5 2 5 2 5 2 5 3 5 
2 5 2 5 2 5 2 6 3 5 2 5 2 5 2 6 
3 5 2 5 2 5 2 6 2 5 3 6 2 5 2 5 
2 6 2 5 3 6 2 5 2 6 2 5 2 6 3 5 
2 6 2 5 2 6 3 6 2 5 2 6 2 6 2 5 
3 6 2 6 2 6 2 5 2 6 3 6 2 6 2 6 
2 6 2 5 3 6 2 6 2 6 2 6 3 6 2 6 
2 6 2 6 2 6 3 6 2 6 2 6 2 7 2 6 
3 6 2 6 2 6 2 6 2 7 1128 421 102 MP stroke
gr

c9
DO
0 sg
1884 2357 mt 
(t) s
 724 1279 mt  -90 rotate
(v) s
90 rotate
%%IncludeResource: font Helvetica
/Helvetica /ISOLatin1Encoding 96 FMSR

 784 1219 mt  -90 rotate
(L) s
90 rotate
SO
1 sg
0 1697 1547 0 0 -1697 3317 2069 4 MP
PP
-1547 0 0 1697 1547 0 0 -1697 3317 2069 5 MP stroke
4 w
DO
SO
6 w
0 sg
3317 2069 mt 4864 2069 L
3317  372 mt 4864  372 L
3317 2069 mt 3317  372 L
4864 2069 mt 4864  372 L
3317 2069 mt 4864 2069 L
3317 2069 mt 3317  372 L
3317 2069 mt 3317 2052 L
3317  373 mt 3317  389 L
%%IncludeResource: font Helvetica
/Helvetica /ISOLatin1Encoding 120 FMSR

3284 2214 mt 
(0) s
3759 2069 mt 3759 2052 L
3759  373 mt 3759  389 L
3726 2214 mt 
(2) s
4201 2069 mt 4201 2052 L
4201  373 mt 4201  389 L
4168 2214 mt 
(4) s
4643 2069 mt 4643 2052 L
4643  373 mt 4643  389 L
4610 2214 mt 
(6) s
3317 1852 mt 3333 1852 L
4864 1852 mt 4847 1852 L
3116 1896 mt 
(0.2) s
3317 1482 mt 3333 1482 L
4864 1482 mt 4847 1482 L
3116 1526 mt 
(0.4) s
3317 1112 mt 3333 1112 L
4864 1112 mt 4847 1112 L
3116 1156 mt 
(0.6) s
3317  742 mt 3333  742 L
4864  742 mt 4847  742 L
3116  786 mt 
(0.8) s
3317  373 mt 3333  373 L
4864  373 mt 4847  373 L
3216  417 mt 
(1) s
3317 2069 mt 4864 2069 L
3317  372 mt 4864  372 L
3317 2069 mt 3317  372 L
4864 2069 mt 4864  372 L
gs 3317 373 1548 1697 rc
c8
2 1 2 0 2 1 3 0 2 1 2 0 2 1 2 0 
3 1 2 1 2 0 2 1 2 0 3 1 2 0 2 1 
2 1 2 0 3 1 2 0 2 1 2 1 3 0 2 1 
2 0 2 1 2 1 3 0 2 1 2 0 2 1 2 1 
3 0 2 1 2 1 2 0 2 1 3 0 2 1 2 1 
2 0 3 1 2 1 2 0 2 1 2 1 3 0 2 1 
2 0 2 1 2 1 3 0 2 1 2 1 2 0 2 1 
3 1 2 0 2 1 2 1 3 0 2 1 2 1 2 1 
2 0 3 1 2 1 2 0 2 1 2 1 3 0 2 1 
2 1 2 1 2 0 3 1 2 1 2 0 2 1 3 1 
2 1 2 0 2 1 2 1 3 1 2 0 2 1 2 1 
2 1 3 0 2 1 2 1 2 1 2 0 3 1 2 1 
2 1 2 1 2 0 3 1 2 1 2 1 2 0 3 1 
2 1 2 1 2 1 2 0 3 1 2 1 2 1 2 1 
2 1 3 0 2 1 2 1 2 1 2 1 3 0 2 1 
2 1 2 1 3 1 2 1 2 1 2 0 2 1 3 1 
2 1 2 1 2 1 2 1 3 1 2 0 2 1 2 1 
2 1 3 1 2 1 2 1 2 1 3 1 2 1 2 0 
2 1 2 1 3 1 2 1 2 1 2 1 2 1 3 1 
2 1 2 1 2 1 2 1 3 1 2 1 2 1 2 1 
3 0 2 1 2 1 2 1 2 1 3 1 2 1 2 1 
2 1 2 1 3 1 2 1 2 1 2 1 2 1 3 2 
2 1 2 1 2 1 3 1 2 1 2 1 2 1 2 1 
3 1 2 1 2 1 2 1 2 1 3 1 2 1 2 1 
2 1 2 2 3 1 2 1 2 1 2 1 2 1 3 1 
2 1 2 1 2 2 3 1 2 1 2 1 2 1 2 1 
3 1 2 2 2 1 2 1 2 1 3 1 2 1 2 2 
2 1 2 1 3 1 2 1 2 2 2 1 3 1 2 1 
2 1 2 2 2 1 3 1 2 1 2 2 2 1 2 1 
3 1 2 2 2 1 2 1 2 1 3 2 2 1 2 1 
2 2 3 1 2 1 2 1 2 2 2 1 3 1 2 2 
2 1 2 1 2 2 3 1 2 1 2 2 2 1 2 1 
3 2 2 1 2 2 2 1 3 1 2 2 2 1 2 2 
2 1 3 1 2 2 2 1 2 2 2 1 3 1 2 2 
2 1 2 2 2 1 3 2 2 1 2 2 2 1 3 2 
2 1 2 2 2 1 2 2 3 1 2 2 2 1 2 2 
2 1 3 2 2 1 2 2 2 1 2 2 3 2 2 1 
2 2 2 1 2 2 4201 1773 300 MP stroke
3 1 2 2 2 2 2 1 3 2 2 1 2 2 2 2 
2 1 3 2 2 2 2 1 2 2 2 2 3 1 2 2 
2 2 2 1 2 2 3 2 2 1 2 2 2 2 3 2 
2 1 2 2 2 2 2 2 3 1 2 2 2 2 2 2 
2 1 3 2 2 2 2 2 2 2 2 1 3 2 2 2 
2 2 2 2 3 2 2 1 2 2 2 2 2 2 3 2 
2 2 2 2 2 2 2 1 3 2 2 2 2 2 2 2 
2 2 3 2 2 2 2 2 2 2 3 2 2 2 2 2 
2 2 2 2 3 2 2 2 2 2 2 2 2 2 3 2 
2 2 2 2 2 2 2 2 3 2 2 2 2 3 2 2 
3 2 2 2 2 2 2 2 2 2 3 2 2 3 2 2 
2 2 2 2 3 2 2 3 2 2 2 2 2 2 3 2 
2 3 2 2 2 2 2 2 3 3 2 2 2 2 2 3 
3 2 2 2 2 2 2 3 2 2 3 2 2 3 2 2 
2 2 2 3 3 2 2 3 2 2 2 2 2 3 3 2 
2 3 2 2 2 3 3 2 2 3 2 2 2 3 2 2 
3 3 2 2 2 3 2 2 2 3 3 2 2 3 2 2 
2 3 2 2 3 3 2 3 2 2 2 3 3 2 2 3 
2 3 2 2 2 3 3 3 2 2 2 3 2 3 2 3 
3 2 2 3 2 3 2 3 2 2 3 3 2 3 2 3 
2 2 3 3 2 3 2 3 2 3 2 3 3 3 2 2 
2 3 2 3 2 3 3 3 2 3 2 3 2 3 2 3 
3 3 2 3 2 3 2 3 3 3 2 3 2 3 2 3 
2 3 3 3 2 3 2 3 2 3 2 3 3 3 2 4 
2 3 2 3 2 3 3 3 2 3 2 4 2 3 2 3 
3 3 2 3 2 4 2 3 3 3 2 4 2 3 2 3 
2 3 3 4 2 3 2 3 2 4 2 3 3 4 2 3 
2 3 2 4 2 3 3 4 2 3 2 4 2 3 3 4 
2 3 2 4 2 3 2 4 3 3 2 4 2 4 2 3 
2 4 3 3 2 4 2 4 2 3 2 4 3 4 2 4 
2 3 2 4 3 4 2 4 2 3 2 4 2 4 3 4 
2 4 2 3 2 4 2 4 3 4 2 4 2 4 2 4 
2 4 3 4 2 4 2 4 2 4 3 4 2 4 2 4 
2 4 2 4 3 4 2 4 2 4 2 4 2 4 3 4 
2 5 2 4 2 4 2 4 3 4 2 5 2 4 2 4 
3 5 2 4 2 4 2 4 2 5 3 4 2 5 2 4 
2 4 2 5 3 4 2 5 2 4 2 5 2 4 3 5 
2 4 2 5 2 4 3540 929 300 MP stroke
2 5 3 5 2 4 2 5 2 4 3 5 2 5 2 5 
2 4 2 5 3 5 2 5 2 4 2 5 2 5 3 5 
2 5 2 4 2 5 2 5 3 5 2 5 2 5 2 5 
3 5 2 5 2 5 2 5 2 5 3 5 2 5 2 6 
2 5 2 5 3 5 2 5 2 5 2 6 2 5 3 5 
2 5 2 6 2 5 3 5 2 6 2 5 2 6 2 5 
3 5 2 6 2 5 2 6 2 5 3 6 2 5 2 6 
2 6 2 5 3 6 2 6 2 5 2 6 3 6 2 5 
2 6 2 6 2 6 3 6 2 5 2 6 2 6 2 6 
3 6 2 6 2 6 2 6 2 6 3 6 2 6 2 6 
2 6 3 6 2 6 2 6 2 7 2 6 3 6 2 6 
2 7 2 6 2 6 3 6 2 7 2 6 2 7 2 6 
3 6 2 7 2 6 2 7 2 6 3317 373 102 MP stroke
c9
3 0 2 1 2 0 2 1 3 0 2 1 2 0 2 1 
2 1 3 0 2 1 2 0 2 1 2 0 3 1 2 1 
2 0 2 1 2 0 3 1 2 1 2 0 2 1 3 0 
2 1 2 1 2 0 2 1 3 0 2 1 2 1 2 0 
2 1 3 0 2 1 2 1 2 0 2 1 3 1 2 0 
2 1 2 0 3 1 2 1 2 0 2 1 2 1 3 0 
2 1 2 1 2 0 2 1 3 1 2 0 2 1 2 1 
2 0 3 1 2 1 2 0 2 1 3 1 2 0 2 1 
2 1 2 0 3 1 2 1 2 0 2 1 2 1 3 1 
2 0 2 1 2 1 2 0 3 1 2 1 2 1 2 0 
3 1 2 1 2 1 2 0 2 1 3 1 2 0 2 1 
2 1 2 1 3 1 2 0 2 1 2 1 2 1 3 0 
2 1 2 1 2 1 2 0 3 1 2 1 2 1 2 1 
3 0 2 1 2 1 2 1 2 1 3 0 2 1 2 1 
2 1 2 1 3 0 2 1 2 1 2 1 2 1 3 1 
2 0 2 1 2 1 3 1 2 1 2 1 2 1 2 0 
3 1 2 1 2 1 2 1 2 1 3 1 2 1 2 0 
2 1 2 1 3 1 2 1 2 1 2 1 3 1 2 1 
2 1 2 0 2 1 3 1 2 1 2 1 2 1 2 1 
3 1 2 1 2 1 2 1 2 1 3 1 2 1 2 1 
2 1 3 1 2 1 2 1 2 1 2 1 3 1 2 1 
2 1 2 1 2 1 3 1 2 1 2 1 2 1 2 1 
3 1 2 1 2 1 2 1 3 1 2 1 2 1 2 1 
2 1 3 1 2 1 2 1 2 1 2 1 3 1 2 1 
2 2 2 1 2 1 3 1 2 1 2 1 2 1 2 1 
3 1 2 1 2 2 2 1 3 1 2 1 2 1 2 1 
2 1 3 2 2 1 2 1 2 1 2 1 3 1 2 2 
2 1 2 1 2 1 3 1 2 2 2 1 2 1 3 1 
2 1 2 2 2 1 2 1 3 1 2 2 2 1 2 1 
2 1 3 2 2 1 2 1 2 1 2 2 3 1 2 1 
2 1 2 2 3 1 2 1 2 2 2 1 2 1 3 2 
2 1 2 1 2 2 2 1 3 1 2 2 2 1 2 1 
2 2 3 1 2 1 2 2 2 1 3 2 2 1 2 1 
2 2 2 1 3 2 2 1 2 1 2 2 2 1 3 2 
2 1 2 2 2 1 2 1 3 2 2 1 2 2 2 1 
3 2 2 1 2 2 2 1 2 2 3 1 2 2 2 1 
2 2 2 1 3 2 2 1 2 2 2 2 2 1 3 2 
2 1 2 2 2 1 4203 1775 300 MP stroke
2 2 3 2 2 1 2 2 2 1 3 2 2 2 2 1 
2 2 2 1 3 2 2 2 2 1 2 2 2 2 3 1 
2 2 2 2 2 1 2 2 3 2 2 2 2 1 2 2 
3 2 2 1 2 2 2 2 2 2 3 1 2 2 2 2 
2 2 2 2 3 1 2 2 2 2 2 2 2 2 3 1 
2 2 2 2 2 2 3 2 2 2 2 1 2 2 2 2 
3 2 2 2 2 2 2 2 2 2 3 2 2 1 2 2 
2 2 2 2 3 2 2 2 2 2 2 2 3 2 2 2 
2 2 2 2 2 2 3 2 2 2 2 2 2 2 2 2 
3 2 2 2 2 2 2 2 2 2 3 3 2 2 2 2 
2 2 3 2 2 2 2 2 2 2 2 2 3 3 2 2 
2 2 2 2 2 2 3 2 2 3 2 2 2 2 2 2 
3 3 2 2 2 2 2 2 2 3 3 2 2 2 2 2 
2 3 3 2 2 2 2 3 2 2 2 2 3 3 2 2 
2 2 2 3 2 2 3 2 2 3 2 2 2 3 2 2 
3 2 2 3 2 2 2 3 3 2 2 3 2 2 2 3 
2 2 3 3 2 2 2 3 2 2 2 3 3 2 2 3 
2 2 2 3 2 3 3 2 2 3 2 2 2 3 3 3 
2 2 2 3 2 3 2 2 3 3 2 3 2 2 2 3 
2 3 3 2 2 3 2 3 2 3 2 2 3 3 2 3 
2 3 2 3 3 2 2 3 2 3 2 3 2 3 3 3 
2 2 2 3 2 3 2 3 3 3 2 3 2 3 2 3 
2 3 3 3 2 3 2 3 2 3 3 3 2 3 2 3 
2 3 2 3 3 3 2 3 2 3 2 3 2 3 3 3 
2 4 2 3 2 3 2 3 3 3 2 3 2 4 2 3 
2 3 3 3 2 4 2 3 2 3 3 3 2 4 2 3 
2 3 2 4 3 3 2 3 2 4 2 3 2 3 3 4 
2 3 2 4 2 3 2 3 3 4 2 3 2 4 2 3 
3 4 2 3 2 4 2 3 2 4 3 4 2 3 2 4 
2 3 2 4 3 4 2 3 2 4 2 4 2 3 3 4 
2 4 2 3 2 4 3 4 2 4 2 3 2 4 2 4 
3 4 2 4 2 3 2 4 2 4 3 4 2 4 2 4 
2 4 2 4 3 4 2 4 2 4 2 4 3 4 2 4 
2 4 2 4 2 4 3 4 2 4 2 4 2 4 2 4 
3 5 2 4 2 4 2 4 2 4 3 5 2 4 2 4 
2 4 3 5 2 4 2 4 2 5 2 4 3 4 2 5 
2 4 2 4 2 5 3 4 2 5 2 4 2 5 2 4 
3 5 2 4 2 5 3542 933 300 MP stroke
2 4 2 5 3 5 2 4 2 5 2 5 3 4 2 5 
2 5 2 4 2 5 3 5 2 5 2 4 2 5 2 5 
3 5 2 5 2 5 2 4 2 5 3 5 2 5 2 5 
2 5 3 5 2 5 2 5 2 5 2 5 3 5 2 5 
2 6 2 5 2 5 3 5 2 5 2 5 2 6 2 5 
3 5 2 6 2 5 2 5 3 5 2 6 2 5 2 6 
2 5 3 5 2 6 2 5 2 6 2 5 3 6 2 6 
2 5 2 6 2 5 3 6 2 6 2 5 2 6 3 6 
2 5 2 6 2 6 2 6 3 6 2 5 2 6 2 6 
2 6 3 6 2 6 2 6 2 6 2 6 3 6 2 6 
2 6 2 6 3 6 2 6 2 6 2 7 2 6 3 6 
2 6 2 7 2 6 2 6 3 6 2 7 2 6 2 7 
2 6 3 6 2 7 2 6 2 7 2 6 3317 373 103 MP stroke
DA
3 1 2 1 2 0 2 1 3 0 2 1 2 0 2 1 
2 0 3 1 2 1 2 0 2 1 2 0 3 1 2 0 
2 1 2 1 2 0 3 1 2 0 2 1 2 1 3 0 
2 1 2 0 2 1 2 1 3 0 2 1 2 0 2 1 
2 1 3 0 2 1 2 1 2 0 2 1 3 0 2 1 
2 1 2 0 3 1 2 1 2 0 2 1 2 1 3 0 
2 1 2 0 2 1 2 1 3 0 2 1 2 1 2 0 
2 1 3 1 2 0 2 1 2 1 3 0 2 1 2 1 
2 1 2 0 3 1 2 1 2 0 2 1 2 1 3 0 
2 1 2 1 2 1 2 0 3 1 2 1 2 0 2 1 
3 1 2 1 2 0 2 1 2 1 3 1 2 0 2 1 
2 1 2 1 3 0 2 1 2 1 2 1 2 0 3 1 
2 1 2 1 2 1 2 0 3 1 2 1 2 1 2 0 
3 1 2 1 2 1 2 1 2 0 3 1 2 1 2 1 
2 1 2 1 3 0 2 1 2 1 2 1 2 1 3 0 
2 1 2 1 2 1 3 1 2 1 2 1 2 0 2 1 
3 1 2 1 2 1 2 1 2 1 3 1 2 0 2 1 
2 1 2 1 3 1 2 1 2 1 2 1 3 1 2 1 
2 0 2 1 2 1 3 1 2 1 2 1 2 1 2 1 
3 1 2 1 2 1 2 1 2 1 3 1 2 1 2 1 
2 1 3 0 2 1 2 1 2 1 2 1 3 1 2 1 
2 1 2 1 2 1 3 1 2 1 2 1 2 1 2 1 
3 2 2 1 2 1 2 1 3 1 2 1 2 1 2 1 
2 1 3 1 2 1 2 1 2 1 2 1 3 1 2 1 
2 1 2 1 2 2 3 1 2 1 2 1 2 1 2 1 
3 1 2 1 2 1 2 2 3 1 2 1 2 1 2 1 
2 1 3 1 2 2 2 1 2 1 2 1 3 1 2 1 
2 2 2 1 2 1 3 1 2 1 2 2 2 1 3 1 
2 1 2 1 2 2 2 1 3 1 2 1 2 2 2 1 
2 1 3 1 2 2 2 1 2 1 2 1 3 2 2 1 
2 1 2 2 3 1 2 1 2 1 2 2 2 1 3 1 
2 2 2 1 2 1 2 2 3 1 2 1 2 2 2 1 
2 1 3 2 2 1 2 2 2 1 3 1 2 2 2 1 
2 2 2 1 3 1 2 2 2 1 2 2 2 1 3 1 
2 2 2 1 2 2 2 1 3 2 2 1 2 2 2 1 
3 2 2 1 2 2 2 1 2 2 3 1 2 2 2 1 
2 2 2 1 3 2 2 1 2 2 2 1 2 2 3 2 
2 1 2 2 2 1 4203 1775 300 MP stroke
2 2 3 1 2 2 2 2 2 1 3 2 2 1 2 2 
2 2 2 1 3 2 2 2 2 1 2 2 2 2 3 1 
2 2 2 2 2 1 2 2 3 2 2 1 2 2 2 2 
3 2 2 1 2 2 2 2 2 2 3 1 2 2 2 2 
2 2 2 1 3 2 2 2 2 2 2 2 2 1 3 2 
2 2 2 2 2 2 3 2 2 1 2 2 2 2 2 2 
3 2 2 2 2 2 2 2 2 1 3 2 2 2 2 2 
2 2 2 2 3 2 2 2 2 2 2 2 3 2 2 2 
2 2 2 2 2 2 3 2 2 2 2 2 2 2 2 2 
3 2 2 2 2 2 2 2 2 2 3 2 2 2 2 3 
2 2 3 2 2 2 2 2 2 2 2 2 3 2 2 3 
2 2 2 2 2 2 3 2 2 3 2 2 2 2 2 2 
3 2 2 3 2 2 2 2 2 2 3 3 2 2 2 2 
2 3 3 2 2 2 2 2 2 3 2 2 3 2 2 3 
2 2 2 2 2 3 3 2 2 3 2 2 2 2 2 3 
3 2 2 3 2 2 2 3 3 2 2 3 2 2 2 3 
2 2 3 3 2 2 2 3 2 2 2 3 3 2 2 3 
2 2 2 3 2 2 3 3 2 3 2 2 2 3 3 2 
2 3 2 3 2 2 2 3 3 3 2 2 2 3 2 3 
2 3 3 2 2 3 2 3 2 3 2 2 3 3 2 3 
2 3 2 2 3 3 2 3 2 3 2 3 2 3 3 3 
2 2 2 3 2 3 2 3 3 3 2 3 2 3 2 3 
2 3 3 3 2 3 2 3 2 3 3 3 2 3 2 3 
2 3 2 3 3 3 2 3 2 3 2 3 2 3 3 3 
2 4 2 3 2 3 2 3 3 3 2 3 2 4 2 3 
2 3 3 3 2 3 2 4 2 3 3 3 2 4 2 3 
2 3 2 3 3 4 2 3 2 3 2 4 2 3 3 4 
2 3 2 3 2 4 2 3 3 4 2 3 2 4 2 3 
3 4 2 3 2 4 2 3 2 4 3 3 2 4 2 4 
2 3 2 4 3 3 2 4 2 4 2 3 2 4 3 4 
2 4 2 3 2 4 3 4 2 4 2 3 2 4 2 4 
3 4 2 4 2 3 2 4 2 4 3 4 2 4 2 4 
2 4 2 4 3 4 2 4 2 4 2 4 3 4 2 4 
2 4 2 4 2 4 3 4 2 4 2 4 2 4 2 4 
3 4 2 5 2 4 2 4 2 4 3 4 2 5 2 4 
2 4 3 5 2 4 2 4 2 4 2 5 3 4 2 5 
2 4 2 4 2 5 3 4 2 5 2 4 2 5 2 4 
3 5 2 4 2 5 3542 933 300 MP stroke
2 4 2 5 3 5 2 4 2 5 2 4 3 5 2 5 
2 5 2 4 2 5 3 5 2 5 2 4 2 5 2 5 
3 5 2 5 2 4 2 5 2 5 3 5 2 5 2 5 
2 5 3 5 2 5 2 5 2 5 2 5 3 5 2 5 
2 6 2 5 2 5 3 5 2 5 2 5 2 6 2 5 
3 5 2 5 2 6 2 5 3 5 2 6 2 5 2 6 
2 5 3 5 2 6 2 5 2 6 2 5 3 6 2 5 
2 6 2 6 2 5 3 6 2 6 2 5 2 6 3 6 
2 5 2 6 2 6 2 6 3 6 2 5 2 6 2 6 
2 6 3 6 2 6 2 6 2 6 2 6 3 6 2 6 
2 6 2 6 3 6 2 6 2 6 2 7 2 6 3 6 
2 6 2 7 2 6 2 6 3 6 2 7 2 6 2 7 
2 6 3 6 2 7 2 6 2 7 2 6 3317 373 103 MP stroke
DO
2 1 2 1 2 0 3 1 2 0 2 1 2 0 2 1 
3 1 2 0 2 1 2 0 2 1 3 0 2 1 2 1 
2 0 2 1 3 0 2 1 2 1 2 0 3 1 2 0 
2 1 2 1 2 0 3 1 2 0 2 1 2 1 2 0 
3 1 2 0 2 1 2 1 2 0 3 1 2 1 2 0 
2 1 3 1 2 0 2 1 2 0 2 1 3 1 2 0 
2 1 2 1 2 0 3 1 2 1 2 0 2 1 2 1 
3 0 2 1 2 1 2 0 3 1 2 1 2 1 2 0 
2 1 3 1 2 0 2 1 2 1 2 0 3 1 2 1 
2 1 2 0 2 1 3 1 2 0 2 1 2 1 3 1 
2 0 2 1 2 1 2 1 3 0 2 1 2 1 2 1 
2 0 3 1 2 1 2 1 2 0 2 1 3 1 2 1 
2 0 2 1 2 1 3 1 2 1 2 0 2 1 3 1 
2 1 2 1 2 0 2 1 3 1 2 1 2 1 2 1 
2 0 3 1 2 1 2 1 2 1 2 0 3 1 2 1 
2 1 2 1 3 1 2 1 2 0 2 1 2 1 3 1 
2 1 2 1 2 1 2 1 3 0 2 1 2 1 2 1 
2 1 3 1 2 1 2 1 2 1 3 1 2 0 2 1 
2 1 2 1 3 1 2 1 2 1 2 1 2 1 3 1 
2 1 2 1 2 1 2 1 3 1 2 1 2 1 2 1 
3 0 2 1 2 1 2 1 2 1 3 1 2 1 2 1 
2 1 2 1 3 1 2 1 2 1 2 1 2 2 3 1 
2 1 2 1 2 1 3 1 2 1 2 1 2 1 2 1 
3 1 2 1 2 1 2 1 2 1 3 1 2 1 2 1 
2 2 2 1 3 1 2 1 2 1 2 1 2 1 3 1 
2 1 2 2 2 1 3 1 2 1 2 1 2 1 2 1 
3 2 2 1 2 1 2 1 2 1 3 1 2 2 2 1 
2 1 2 1 3 1 2 2 2 1 2 1 3 1 2 1 
2 2 2 1 2 1 3 1 2 2 2 1 2 1 2 1 
3 2 2 1 2 1 2 1 2 2 3 1 2 1 2 2 
2 1 3 1 2 1 2 2 2 1 2 1 3 2 2 1 
2 1 2 2 2 1 3 1 2 2 2 1 2 1 2 2 
3 1 2 2 2 1 2 1 3 2 2 1 2 2 2 1 
2 1 3 2 2 1 2 2 2 1 2 1 3 2 2 1 
2 2 2 1 2 2 3 1 2 2 2 1 2 2 3 1 
2 2 2 1 2 2 2 1 3 2 2 1 2 2 2 1 
2 2 3 1 2 2 2 1 2 2 2 1 3 2 2 2 
2 1 2 2 2 1 4201 1775 300 MP stroke
3 2 2 2 2 1 2 2 3 1 2 2 2 2 2 1 
2 2 3 2 2 1 2 2 2 2 2 1 3 2 2 2 
2 1 2 2 2 2 3 1 2 2 2 2 2 1 3 2 
2 2 2 2 2 1 2 2 3 2 2 2 2 1 2 2 
2 2 3 2 2 2 2 1 2 2 2 2 3 2 2 2 
2 2 2 1 3 2 2 2 2 2 2 2 2 2 3 2 
2 2 2 1 2 2 2 2 3 2 2 2 2 2 2 2 
2 2 3 2 2 2 2 2 2 2 3 2 2 2 2 2 
2 2 2 2 3 2 2 2 2 2 2 2 2 2 3 2 
2 2 2 2 2 2 2 2 3 2 2 2 2 2 2 3 
3 2 2 2 2 2 2 2 2 2 3 2 2 3 2 2 
2 2 2 2 3 2 2 2 2 3 2 2 2 2 3 2 
2 3 2 2 2 2 2 2 3 3 2 2 2 2 2 2 
3 3 2 2 2 2 2 3 2 2 3 2 2 3 2 2 
2 2 2 3 3 2 2 3 2 2 2 2 2 3 3 2 
2 3 2 2 2 3 3 2 2 3 2 2 2 3 2 2 
3 3 2 2 2 3 2 2 2 3 3 2 2 3 2 2 
2 3 2 3 3 2 2 3 2 2 2 3 3 3 2 2 
2 3 2 3 2 2 3 3 2 3 2 2 2 3 2 3 
3 3 2 2 2 3 2 3 2 3 3 2 2 3 2 3 
2 3 3 3 2 2 2 3 2 3 2 3 3 3 2 3 
2 3 2 2 2 3 3 3 2 3 2 3 2 3 2 3 
3 3 2 3 2 3 2 3 3 3 2 3 2 3 2 3 
2 3 3 3 2 3 2 3 2 4 2 3 3 3 2 3 
2 3 2 3 2 3 3 4 2 3 2 3 2 3 2 3 
3 4 2 3 2 3 2 3 3 4 2 3 2 3 2 4 
2 3 3 3 2 4 2 3 2 3 2 4 3 3 2 4 
2 3 2 3 2 4 3 3 2 4 2 3 2 4 3 3 
2 4 2 3 2 4 2 3 3 4 2 4 2 3 2 4 
2 3 3 4 2 4 2 3 2 4 2 4 3 3 2 4 
2 4 2 4 3 3 2 4 2 4 2 4 2 3 3 4 
2 4 2 4 2 4 2 4 3 4 2 3 2 4 2 4 
2 4 3 4 2 4 2 4 2 4 3 4 2 4 2 4 
2 4 2 4 3 5 2 4 2 4 2 4 2 4 3 4 
2 4 2 5 2 4 2 4 3 4 2 4 2 5 2 4 
3 4 2 5 2 4 2 4 2 5 3 4 2 4 2 5 
2 4 2 5 3 4 2 4 2 5 2 4 2 5 3 4 
2 5 2 5 2 4 3540 929 300 MP stroke
2 5 3 4 2 5 2 5 2 4 3 5 2 5 2 4 
2 5 2 5 3 5 2 4 2 5 2 5 2 5 3 5 
2 4 2 5 2 5 2 5 3 5 2 5 2 5 2 5 
3 5 2 5 2 5 2 5 2 5 3 5 2 5 2 5 
2 6 2 5 3 5 2 5 2 5 2 6 2 5 3 5 
2 5 2 6 2 5 3 5 2 6 2 5 2 6 2 5 
3 5 2 6 2 5 2 6 2 5 3 6 2 5 2 6 
2 6 2 5 3 6 2 6 2 5 2 6 3 6 2 5 
2 6 2 6 2 6 3 5 2 6 2 6 2 6 2 6 
3 6 2 6 2 6 2 6 2 6 3 6 2 6 2 6 
2 6 3 6 2 6 2 6 2 7 2 6 3 6 2 6 
2 7 2 6 2 6 3 6 2 7 2 6 2 7 2 6 
3 6 2 7 2 6 2 7 2 6 3317 373 102 MP stroke
gr

c9
DO
0 sg
4072 2357 mt 
(t) s
2980 1287 mt  -90 rotate
(v) s
90 rotate
%%IncludeResource: font Helvetica
/Helvetica /ISOLatin1Encoding 96 FMSR

3040 1227 mt  -90 rotate
(C) s
90 rotate
SO
1 sg
0 1696 1548 0 0 -1696 5505 2069 4 MP
PP
-1548 0 0 1696 1548 0 0 -1696 5505 2069 5 MP stroke
4 w
DO
SO
6 w
0 sg
5505 2069 mt 7053 2069 L
5505  373 mt 7053  373 L
5505 2069 mt 5505  373 L
7053 2069 mt 7053  373 L
5505 2069 mt 7053 2069 L
5505 2069 mt 5505  373 L
5505 2069 mt 5505 2052 L
5505  373 mt 5505  389 L
%%IncludeResource: font Helvetica
/Helvetica /ISOLatin1Encoding 120 FMSR

5472 2214 mt 
(0) s
5947 2069 mt 5947 2052 L
5947  373 mt 5947  389 L
5914 2214 mt 
(2) s
6389 2069 mt 6389 2052 L
6389  373 mt 6389  389 L
6356 2214 mt 
(4) s
6831 2069 mt 6831 2052 L
6831  373 mt 6831  389 L
6798 2214 mt 
(6) s
5505 1959 mt 5521 1959 L
7053 1959 mt 7036 1959 L
5334 2003 mt 
(-1) s
5505 1611 mt 5521 1611 L
7053 1611 mt 7036 1611 L
5234 1655 mt 
(-0.8) s
5505 1263 mt 5521 1263 L
7053 1263 mt 7036 1263 L
5234 1307 mt 
(-0.6) s
5505  915 mt 5521  915 L
7053  915 mt 7036  915 L
5234  959 mt 
(-0.4) s
5505  567 mt 5521  567 L
7053  567 mt 7036  567 L
5234  611 mt 
(-0.2) s
5505 2069 mt 7053 2069 L
5505  373 mt 7053  373 L
5505 2069 mt 5505  373 L
7053 2069 mt 7053  373 L
gs 5505 373 1549 1697 rc
c8
2 0 2 -1 2 0 3 -1 2 -1 2 0 2 -1 2 0 
3 -1 2 0 2 -1 2 -1 2 0 3 -1 2 0 2 -1 
2 0 3 -1 2 -1 2 0 2 -1 2 0 3 -1 2 -1 
2 0 2 -1 2 0 3 -1 2 -1 2 0 2 -1 2 0 
3 -1 2 -1 2 0 2 -1 3 -1 2 0 2 -1 2 0 
2 -1 3 -1 2 0 2 -1 2 -1 2 0 3 -1 2 -1 
2 0 2 -1 2 -1 3 0 2 -1 2 -1 2 0 3 -1 
2 -1 2 0 2 -1 2 -1 3 0 2 -1 2 -1 2 0 
2 -1 3 -1 2 0 2 -1 2 -1 3 -1 2 0 2 -1 
2 -1 2 0 3 -1 2 -1 2 -1 2 0 2 -1 3 -1 
2 0 2 -1 2 -1 2 -1 3 0 2 -1 2 -1 2 -1 
3 0 2 -1 2 -1 2 -1 2 0 3 -1 2 -1 2 -1 
2 -1 2 0 3 -1 2 -1 2 -1 2 0 2 -1 3 -1 
2 -1 2 -1 2 0 3 -1 2 -1 2 -1 2 -1 2 0 
3 -1 2 -1 2 -1 2 -1 2 -1 3 0 2 -1 2 -1 
2 -1 3 -1 2 -1 2 -1 2 0 2 -1 3 -1 2 -1 
2 -1 2 -1 2 -1 3 0 2 -1 2 -1 2 -1 2 -1 
3 -1 2 -1 2 -1 2 -1 3 -1 2 0 2 -1 2 -1 
2 -1 3 -1 2 -1 2 -1 2 -1 2 -1 3 -1 2 -1 
2 -1 2 -1 2 -1 3 0 2 -1 2 -1 2 -1 3 -1 
2 -1 2 -1 2 -1 2 -1 3 -1 2 -1 2 -1 2 -1 
2 -1 3 -1 2 -1 2 -1 2 -1 2 -1 3 -1 2 -1 
2 -1 2 -1 3 -1 2 -1 2 -1 2 -2 2 -1 3 -1 
2 -1 2 -1 2 -1 2 -1 3 -1 2 -1 2 -1 2 -1 
3 -1 2 -1 2 -2 2 -1 2 -1 3 -1 2 -1 2 -1 
2 -1 2 -1 3 -1 2 -2 2 -1 2 -1 2 -1 3 -1 
2 -1 2 -1 2 -2 3 -1 2 -1 2 -1 2 -1 2 -1 
3 -2 2 -1 2 -1 2 -1 2 -1 3 -2 2 -1 2 -1 
2 -1 2 -2 3 -1 2 -1 2 -1 2 -1 3 -2 2 -1 
2 -1 2 -1 2 -2 3 -1 2 -1 2 -2 2 -1 2 -1 
3 -1 2 -2 2 -1 2 -1 3 -2 2 -1 2 -1 2 -2 
2 -1 3 -1 2 -2 2 -1 2 -1 2 -2 3 -1 2 -1 
2 -2 2 -1 2 -1 3 -2 2 -1 2 -2 2 -1 3 -1 
2 -2 2 -1 2 -2 2 -1 3 -1 2 -2 2 -1 2 -2 
2 -1 3 -2 2 -1 2 -2 2 -1 2 -2 3 -1 2 -1 
2 -2 2 -1 3 -2 2 -1 2 -2 2 -1 2 -2 3 -2 
2 -1 2 -2 2 -1 2 -2 3 -1 2 -2 2 -1 2 -2 
3 -1 2 -2 2 -2 6389 668 300 MP stroke
2 -1 2 -2 3 -1 2 -2 2 -2 2 -1 2 -2 3 -2 
2 -1 2 -2 2 -1 2 -2 3 -2 2 -1 2 -2 2 -2 
3 -1 2 -2 2 -2 2 -2 2 -1 3 -2 2 -2 2 -1 
2 -2 2 -2 3 -2 2 -1 2 -2 2 -2 2 -2 3 -1 
2 -2 2 -2 2 -2 3 -2 2 -1 2 -2 2 -2 2 -2 
3 -2 2 -2 2 -1 2 -2 2 -2 3 -2 2 -2 2 -2 
2 -2 2 -2 3 -1 2 -2 2 -2 2 -2 3 -2 2 -2 
2 -2 2 -2 2 -2 3 -2 2 -2 2 -2 2 -2 2 -2 
3 -2 2 -2 2 -2 2 -2 3 -2 2 -2 2 -2 2 -2 
2 -2 3 -2 2 -2 2 -2 2 -2 2 -2 3 -2 2 -3 
2 -2 2 -2 2 -2 3 -2 2 -2 2 -2 2 -2 3 -3 
2 -2 2 -2 2 -2 2 -2 3 -3 2 -2 2 -2 2 -2 
2 -2 3 -3 2 -2 2 -2 2 -3 2 -2 3 -2 2 -2 
2 -3 2 -2 3 -2 2 -3 2 -2 2 -2 2 -3 3 -2 
2 -2 2 -3 2 -2 2 -3 3 -2 2 -2 2 -3 2 -2 
3 -3 2 -2 2 -2 2 -3 2 -2 3 -3 2 -2 2 -3 
2 -2 2 -3 3 -2 2 -3 2 -2 2 -3 2 -3 3 -2 
2 -3 2 -2 2 -3 3 -3 2 -2 2 -3 2 -2 2 -3 
3 -3 2 -2 2 -3 2 -3 2 -2 3 -3 2 -3 2 -2 
2 -3 2 -3 3 -3 2 -2 2 -3 2 -3 3 -3 2 -3 
2 -2 2 -3 2 -3 3 -3 2 -3 2 -3 2 -2 2 -3 
3 -3 2 -3 2 -3 2 -3 3 -3 2 -3 2 -3 2 -3 
2 -3 3 -3 2 -3 2 -3 2 -3 2 -3 3 -3 2 -3 
2 -3 2 -3 2 -3 3 -3 2 -3 2 -3 2 -3 3 -3 
2 -4 2 -3 2 -3 2 -3 3 -3 2 -3 2 -4 2 -3 
2 -3 3 -3 2 -4 2 -3 2 -3 2 -3 3 -4 2 -3 
2 -3 2 -4 3 -3 2 -3 2 -4 2 -3 2 -4 3 -3 
2 -3 2 -4 2 -3 2 -4 3 -3 2 -4 2 -3 2 -4 
2 -3 3 -4 2 -3 2 -4 2 -3 3 -4 2 -4 2 -3 
2 -4 2 -3 3 -4 2 -4 2 -3 2 -4 2 -4 3 -3 
2 -4 2 -4 2 -4 3 -3 2 -4 2 -4 2 -4 2 -4 
3 -3 2 -4 2 -4 2 -4 2 -4 3 -4 2 -4 2 -4 
2 -4 2 -4 3 -3 2 -4 2 -4 2 -4 3 -5 2 -4 
2 -4 2 -4 2 -4 3 -4 2 -4 2 -4 2 -4 2 -4 
3 -5 2 -4 2 -4 2 -4 2 -4 3 -5 2 -4 2 -4 
2 -4 3 -5 2 -4 2 -4 2 -5 2 -4 3 -4 2 -5 
2 -4 2 -5 2 -4 3 -5 2 -4 2 -5 2 -4 3 -5 
2 -4 2 -5 2 -4 5728 1512 300 MP stroke
2 -5 3 -5 2 -4 2 -5 2 -4 2 -5 3 -5 2 -4 
2 -5 2 -5 2 -5 3 -4 2 -5 2 -5 2 -5 3 -5 
2 -5 2 -4 2 -5 2 -5 3 -5 2 -5 2 -5 2 -5 
2 -5 3 -5 2 -5 2 -5 2 -5 2 -5 3 -5 2 -6 
2 -5 2 -5 3 -5 2 -5 2 -5 2 -6 2 -5 3 -5 
2 -5 2 -6 2 -5 2 -5 3 -6 2 -5 2 -6 2 -5 
3 -5 2 -6 2 -5 2 -6 2 -5 3 -6 2 -5 2 -6 
2 -6 2 -5 3 -6 2 -6 2 -5 2 -6 2 -6 3 -5 
2 -6 2 -6 2 -6 3 -5 2 -6 2 -6 2 -6 2 -6 
3 -6 2 -6 2 -6 2 -6 2 -6 3 -6 2 -6 2 -6 
2 -6 2 -6 3 -6 2 -6 2 -7 2 -6 3 -6 2 -6 
2 -7 2 -6 2 -6 3 -6 2 -7 2 -6 2 -7 2 -6 
3 -6 2 -7 2 -6 2 -7 2 -7 5505 2069 102 MP stroke
c9
3 -1 2 0 2 -1 2 -1 3 0 2 -1 2 0 2 -1 
2 0 3 -1 2 -1 2 0 2 -1 2 0 3 -1 2 0 
2 -1 2 -1 3 0 2 -1 2 0 2 -1 2 -1 3 0 
2 -1 2 0 2 -1 2 -1 3 0 2 -1 2 0 2 -1 
2 -1 3 0 2 -1 2 0 2 -1 3 -1 2 0 2 -1 
2 -1 2 0 3 -1 2 -1 2 0 2 -1 2 0 3 -1 
2 -1 2 0 2 -1 2 -1 3 0 2 -1 2 -1 2 0 
3 -1 2 -1 2 0 2 -1 2 -1 3 0 2 -1 2 -1 
2 0 2 -1 3 -1 2 -1 2 0 2 -1 3 -1 2 0 
2 -1 2 -1 2 -1 3 0 2 -1 2 -1 2 0 2 -1 
3 -1 2 -1 2 0 2 -1 2 -1 3 -1 2 0 2 -1 
2 -1 3 -1 2 0 2 -1 2 -1 2 -1 3 0 2 -1 
2 -1 2 -1 2 0 3 -1 2 -1 2 -1 2 -1 2 0 
3 -1 2 -1 2 -1 2 -1 3 0 2 -1 2 -1 2 -1 
2 -1 3 0 2 -1 2 -1 2 -1 2 -1 3 -1 2 0 
2 -1 2 -1 3 -1 2 -1 2 -1 2 -1 2 0 3 -1 
2 -1 2 -1 2 -1 2 -1 3 -1 2 0 2 -1 2 -1 
2 -1 3 -1 2 -1 2 -1 2 -1 3 -1 2 -1 2 0 
2 -1 2 -1 3 -1 2 -1 2 -1 2 -1 2 -1 3 -1 
2 -1 2 -1 2 -1 2 -1 3 -1 2 -1 2 -1 2 0 
3 -1 2 -1 2 -1 2 -1 2 -1 3 -1 2 -1 2 -1 
2 -1 2 -1 3 -1 2 -1 2 -1 2 -1 2 -1 3 -1 
2 -1 2 -1 2 -2 3 -1 2 -1 2 -1 2 -1 2 -1 
3 -1 2 -1 2 -1 2 -1 2 -1 3 -1 2 -1 2 -1 
2 -1 3 -1 2 -2 2 -1 2 -1 2 -1 3 -1 2 -1 
2 -1 2 -1 2 -1 3 -2 2 -1 2 -1 2 -1 2 -1 
3 -1 2 -1 2 -2 2 -1 3 -1 2 -1 2 -1 2 -1 
2 -2 3 -1 2 -1 2 -1 2 -1 2 -2 3 -1 2 -1 
2 -1 2 -1 2 -2 3 -1 2 -1 2 -1 2 -2 3 -1 
2 -1 2 -1 2 -2 2 -1 3 -1 2 -1 2 -2 2 -1 
2 -1 3 -2 2 -1 2 -1 2 -1 3 -2 2 -1 2 -1 
2 -2 2 -1 3 -1 2 -2 2 -1 2 -1 2 -2 3 -1 
2 -1 2 -2 2 -1 2 -2 3 -1 2 -1 2 -2 2 -1 
3 -2 2 -1 2 -1 2 -2 2 -1 3 -2 2 -1 2 -1 
2 -2 2 -1 3 -2 2 -1 2 -2 2 -1 2 -2 3 -1 
2 -2 2 -1 2 -2 3 -1 2 -2 2 -1 2 -2 2 -1 
3 -2 2 -1 2 -2 2 -1 2 -2 3 -1 2 -2 2 -1 
2 -2 3 -2 2 -1 6391 666 300 MP stroke
2 -2 2 -1 2 -2 3 -2 2 -1 2 -2 2 -1 2 -2 
3 -2 2 -1 2 -2 2 -2 2 -1 3 -2 2 -2 2 -1 
2 -2 3 -2 2 -1 2 -2 2 -2 2 -1 3 -2 2 -2 
2 -2 2 -1 2 -2 3 -2 2 -2 2 -1 2 -2 2 -2 
3 -2 2 -1 2 -2 2 -2 3 -2 2 -2 2 -1 2 -2 
2 -2 3 -2 2 -2 2 -2 2 -1 2 -2 3 -2 2 -2 
2 -2 2 -2 2 -2 3 -2 2 -1 2 -2 2 -2 3 -2 
2 -2 2 -2 2 -2 2 -2 3 -2 2 -2 2 -2 2 -2 
2 -2 3 -2 2 -2 2 -2 2 -2 3 -2 2 -2 2 -2 
2 -2 2 -2 3 -2 2 -2 2 -2 2 -2 2 -2 3 -3 
2 -2 2 -2 2 -2 2 -2 3 -2 2 -2 2 -2 2 -3 
3 -2 2 -2 2 -2 2 -2 2 -3 3 -2 2 -2 2 -2 
2 -2 2 -3 3 -2 2 -2 2 -2 2 -3 2 -2 3 -2 
2 -2 2 -3 2 -2 3 -2 2 -3 2 -2 2 -2 2 -3 
3 -2 2 -2 2 -3 2 -2 2 -3 3 -2 2 -2 2 -3 
2 -2 3 -3 2 -2 2 -3 2 -2 2 -3 3 -2 2 -2 
2 -3 2 -2 2 -3 3 -3 2 -2 2 -3 2 -2 2 -3 
3 -2 2 -3 2 -2 2 -3 3 -3 2 -2 2 -3 2 -2 
2 -3 3 -3 2 -2 2 -3 2 -3 2 -2 3 -3 2 -3 
2 -3 2 -2 2 -3 3 -3 2 -3 2 -2 2 -3 3 -3 
2 -3 2 -2 2 -3 2 -3 3 -3 2 -3 2 -3 2 -2 
2 -3 3 -3 2 -3 2 -3 2 -3 3 -3 2 -3 2 -3 
2 -3 2 -3 3 -3 2 -3 2 -3 2 -3 2 -3 3 -3 
2 -3 2 -3 2 -3 2 -3 3 -3 2 -3 2 -3 2 -3 
3 -3 2 -4 2 -3 2 -3 2 -3 3 -3 2 -4 2 -3 
2 -3 2 -3 3 -3 2 -4 2 -3 2 -3 2 -3 3 -4 
2 -3 2 -3 2 -4 3 -3 2 -3 2 -4 2 -3 2 -4 
3 -3 2 -3 2 -4 2 -3 2 -4 3 -3 2 -4 2 -3 
2 -4 2 -3 3 -4 2 -3 2 -4 2 -3 3 -4 2 -4 
2 -3 2 -4 2 -3 3 -4 2 -4 2 -3 2 -4 2 -4 
3 -4 2 -3 2 -4 2 -4 3 -3 2 -4 2 -4 2 -4 
2 -4 3 -4 2 -3 2 -4 2 -4 2 -4 3 -4 2 -4 
2 -4 2 -4 2 -4 3 -4 2 -4 2 -4 2 -4 3 -4 
2 -4 2 -4 2 -4 2 -4 3 -4 2 -4 2 -4 2 -4 
2 -4 3 -5 2 -4 2 -4 2 -4 2 -4 3 -5 2 -4 
2 -4 2 -4 3 -5 2 -4 2 -4 2 -5 2 -4 3 -5 
2 -4 2 -4 2 -5 2 -4 3 -5 2 -4 2 -5 2 -4 
3 -5 2 -4 2 -5 5730 1508 300 MP stroke
2 -4 2 -5 3 -5 2 -4 2 -5 2 -4 2 -5 3 -5 
2 -5 2 -4 2 -5 2 -5 3 -5 2 -4 2 -5 2 -5 
3 -5 2 -5 2 -4 2 -5 2 -5 3 -5 2 -5 2 -5 
2 -5 2 -5 3 -5 2 -5 2 -5 2 -5 2 -5 3 -5 
2 -6 2 -5 2 -5 3 -5 2 -5 2 -5 2 -6 2 -5 
3 -5 2 -5 2 -6 2 -5 2 -5 3 -6 2 -5 2 -6 
2 -5 3 -5 2 -6 2 -5 2 -6 2 -5 3 -6 2 -5 
2 -6 2 -6 2 -5 3 -6 2 -6 2 -5 2 -6 2 -6 
3 -5 2 -6 2 -6 2 -6 3 -5 2 -6 2 -6 2 -6 
2 -6 3 -6 2 -6 2 -6 2 -6 2 -6 3 -6 2 -6 
2 -6 2 -6 2 -6 3 -6 2 -6 2 -7 2 -6 3 -6 
2 -6 2 -6 2 -7 2 -6 3 -6 2 -7 2 -6 2 -7 
2 -6 3 -7 2 -6 2 -7 2 -9 2 -4 5505 2069 103 MP stroke
DA
3 -1 2 0 2 -1 2 0 3 -1 2 -1 2 0 2 -1 
2 0 3 -1 2 0 2 -1 2 -1 2 0 3 -1 2 0 
2 -1 2 0 3 -1 2 -1 2 0 2 -1 2 0 3 -1 
2 -1 2 0 2 -1 2 0 3 -1 2 -1 2 0 2 -1 
2 0 3 -1 2 -1 2 0 2 -1 3 -1 2 0 2 -1 
2 0 2 -1 3 -1 2 0 2 -1 2 -1 2 0 3 -1 
2 -1 2 0 2 -1 2 -1 3 0 2 -1 2 -1 2 0 
3 -1 2 -1 2 0 2 -1 2 -1 3 0 2 -1 2 -1 
2 0 2 -1 3 -1 2 0 2 -1 2 -1 3 -1 2 0 
2 -1 2 -1 2 0 3 -1 2 -1 2 -1 2 0 2 -1 
3 -1 2 0 2 -1 2 -1 2 -1 3 0 2 -1 2 -1 
2 -1 3 0 2 -1 2 -1 2 -1 2 0 3 -1 2 -1 
2 -1 2 -1 2 0 3 -1 2 -1 2 -1 2 0 2 -1 
3 -1 2 -1 2 -1 2 0 3 -1 2 -1 2 -1 2 -1 
2 0 3 -1 2 -1 2 -1 2 -1 2 -1 3 0 2 -1 
2 -1 2 -1 3 -1 2 -1 2 -1 2 0 2 -1 3 -1 
2 -1 2 -1 2 -1 2 -1 3 0 2 -1 2 -1 2 -1 
2 -1 3 -1 2 -1 2 -1 2 -1 3 -1 2 0 2 -1 
2 -1 2 -1 3 -1 2 -1 2 -1 2 -1 2 -1 3 -1 
2 -1 2 -1 2 -1 2 -1 3 0 2 -1 2 -1 2 -1 
3 -1 2 -1 2 -1 2 -1 2 -1 3 -1 2 -1 2 -1 
2 -1 2 -1 3 -1 2 -1 2 -1 2 -1 2 -1 3 -1 
2 -1 2 -1 2 -1 3 -1 2 -1 2 -1 2 -2 2 -1 
3 -1 2 -1 2 -1 2 -1 2 -1 3 -1 2 -1 2 -1 
2 -1 3 -1 2 -1 2 -2 2 -1 2 -1 3 -1 2 -1 
2 -1 2 -1 2 -1 3 -1 2 -2 2 -1 2 -1 2 -1 
3 -1 2 -1 2 -1 2 -2 3 -1 2 -1 2 -1 2 -1 
2 -1 3 -2 2 -1 2 -1 2 -1 2 -1 3 -2 2 -1 
2 -1 2 -1 2 -2 3 -1 2 -1 2 -1 2 -1 3 -2 
2 -1 2 -1 2 -1 2 -2 3 -1 2 -1 2 -2 2 -1 
2 -1 3 -1 2 -2 2 -1 2 -1 3 -2 2 -1 2 -1 
2 -2 2 -1 3 -1 2 -2 2 -1 2 -1 2 -2 3 -1 
2 -1 2 -2 2 -1 2 -1 3 -2 2 -1 2 -2 2 -1 
3 -1 2 -2 2 -1 2 -2 2 -1 3 -1 2 -2 2 -1 
2 -2 2 -1 3 -2 2 -1 2 -2 2 -1 2 -2 3 -1 
2 -1 2 -2 2 -1 3 -2 2 -1 2 -2 2 -1 2 -2 
3 -2 2 -1 2 -2 2 -1 2 -2 3 -1 2 -2 2 -1 
2 -2 3 -1 2 -2 6391 666 300 MP stroke
2 -2 2 -1 2 -2 3 -1 2 -2 2 -2 2 -1 2 -2 
3 -2 2 -1 2 -2 2 -1 2 -2 3 -2 2 -1 2 -2 
2 -2 3 -1 2 -2 2 -2 2 -2 2 -1 3 -2 2 -2 
2 -1 2 -2 2 -2 3 -2 2 -1 2 -2 2 -2 2 -2 
3 -1 2 -2 2 -2 2 -2 3 -2 2 -1 2 -2 2 -2 
2 -2 3 -2 2 -2 2 -1 2 -2 2 -2 3 -2 2 -2 
2 -2 2 -2 2 -2 3 -1 2 -2 2 -2 2 -2 3 -2 
2 -2 2 -2 2 -2 2 -2 3 -2 2 -2 2 -2 2 -2 
2 -2 3 -2 2 -2 2 -2 2 -2 3 -2 2 -2 2 -2 
2 -2 2 -2 3 -2 2 -2 2 -2 2 -2 2 -2 3 -2 
2 -3 2 -2 2 -2 2 -2 3 -2 2 -2 2 -2 2 -2 
3 -3 2 -2 2 -2 2 -2 2 -2 3 -3 2 -2 2 -2 
2 -2 2 -2 3 -3 2 -2 2 -2 2 -3 2 -2 3 -2 
2 -2 2 -3 2 -2 3 -2 2 -3 2 -2 2 -2 2 -3 
3 -2 2 -2 2 -3 2 -2 2 -3 3 -2 2 -2 2 -3 
2 -2 3 -3 2 -2 2 -2 2 -3 2 -2 3 -3 2 -2 
2 -3 2 -2 2 -3 3 -2 2 -3 2 -2 2 -3 2 -3 
3 -2 2 -3 2 -2 2 -3 3 -3 2 -2 2 -3 2 -2 
2 -3 3 -3 2 -2 2 -3 2 -3 2 -2 3 -3 2 -3 
2 -2 2 -3 2 -3 3 -3 2 -2 2 -3 2 -3 3 -3 
2 -3 2 -2 2 -3 2 -3 3 -3 2 -3 2 -3 2 -2 
2 -3 3 -3 2 -3 2 -3 2 -3 3 -3 2 -3 2 -3 
2 -3 2 -3 3 -3 2 -3 2 -3 2 -3 2 -3 3 -3 
2 -3 2 -3 2 -3 2 -3 3 -3 2 -3 2 -3 2 -3 
3 -3 2 -4 2 -3 2 -3 2 -3 3 -3 2 -3 2 -4 
2 -3 2 -3 3 -3 2 -4 2 -3 2 -3 2 -3 3 -4 
2 -3 2 -3 2 -4 3 -3 2 -3 2 -4 2 -3 2 -4 
3 -3 2 -3 2 -4 2 -3 2 -4 3 -3 2 -4 2 -3 
2 -4 2 -3 3 -4 2 -3 2 -4 2 -3 3 -4 2 -4 
2 -3 2 -4 2 -3 3 -4 2 -4 2 -3 2 -4 2 -4 
3 -3 2 -4 2 -4 2 -4 3 -3 2 -4 2 -4 2 -4 
2 -4 3 -3 2 -4 2 -4 2 -4 2 -4 3 -4 2 -4 
2 -4 2 -4 2 -4 3 -3 2 -4 2 -4 2 -4 3 -5 
2 -4 2 -4 2 -4 2 -4 3 -4 2 -4 2 -4 2 -4 
2 -4 3 -5 2 -4 2 -4 2 -4 2 -4 3 -5 2 -4 
2 -4 2 -4 3 -5 2 -4 2 -4 2 -5 2 -4 3 -4 
2 -5 2 -4 2 -5 2 -4 3 -5 2 -4 2 -5 2 -4 
3 -5 2 -4 2 -5 5730 1508 300 MP stroke
2 -4 2 -5 3 -5 2 -4 2 -5 2 -4 2 -5 3 -5 
2 -4 2 -5 2 -5 2 -5 3 -4 2 -5 2 -5 2 -5 
3 -5 2 -5 2 -4 2 -5 2 -5 3 -5 2 -5 2 -5 
2 -5 2 -5 3 -5 2 -5 2 -5 2 -5 2 -5 3 -5 
2 -6 2 -5 2 -5 3 -5 2 -5 2 -5 2 -6 2 -5 
3 -5 2 -5 2 -6 2 -5 2 -5 3 -6 2 -5 2 -6 
2 -5 3 -5 2 -6 2 -5 2 -6 2 -5 3 -6 2 -5 
2 -6 2 -6 2 -5 3 -6 2 -6 2 -5 2 -6 2 -6 
3 -5 2 -6 2 -6 2 -6 3 -5 2 -6 2 -6 2 -6 
2 -6 3 -6 2 -6 2 -6 2 -6 2 -6 3 -6 2 -6 
2 -6 2 -6 2 -6 3 -6 2 -6 2 -7 2 -6 3 -6 
2 -6 2 -7 2 -6 2 -6 3 -6 2 -7 2 -6 2 -7 
2 -6 3 -6 2 -7 2 -6 2 -7 2 -7 5505 2069 103 MP stroke
DO
2 0 2 -1 2 0 3 -1 2 0 2 -1 2 0 2 -1 
3 -1 2 0 2 -1 2 0 2 -1 3 0 2 -1 2 -1 
2 0 3 -1 2 0 2 -1 2 -1 2 0 3 -1 2 0 
2 -1 2 -1 2 0 3 -1 2 0 2 -1 2 -1 2 0 
3 -1 2 0 2 -1 2 -1 3 0 2 -1 2 -1 2 0 
2 -1 3 -1 2 0 2 -1 2 0 2 -1 3 -1 2 0 
2 -1 2 -1 2 0 3 -1 2 -1 2 0 2 -1 3 -1 
2 0 2 -1 2 -1 2 0 3 -1 2 -1 2 -1 2 0 
2 -1 3 -1 2 0 2 -1 2 -1 3 0 2 -1 2 -1 
2 -1 2 0 3 -1 2 -1 2 0 2 -1 2 -1 3 -1 
2 0 2 -1 2 -1 2 -1 3 0 2 -1 2 -1 2 -1 
3 0 2 -1 2 -1 2 -1 2 0 3 -1 2 -1 2 -1 
2 -1 2 0 3 -1 2 -1 2 -1 2 0 2 -1 3 -1 
2 -1 2 -1 2 0 3 -1 2 -1 2 -1 2 -1 2 -1 
3 0 2 -1 2 -1 2 -1 2 -1 3 0 2 -1 2 -1 
2 -1 3 -1 2 -1 2 -1 2 0 2 -1 3 -1 2 -1 
2 -1 2 -1 2 -1 3 -1 2 0 2 -1 2 -1 2 -1 
3 -1 2 -1 2 -1 2 -1 3 -1 2 -1 2 0 2 -1 
2 -1 3 -1 2 -1 2 -1 2 -1 2 -1 3 -1 2 -1 
2 -1 2 -1 2 -1 3 -1 2 -1 2 -1 2 -1 3 -1 
2 0 2 -1 2 -1 2 -1 3 -1 2 -1 2 -1 2 -1 
2 -1 3 -1 2 -1 2 -1 2 -1 2 -1 3 -2 2 -1 
2 -1 2 -1 3 -1 2 -1 2 -1 2 -1 2 -1 3 -1 
2 -1 2 -1 2 -1 2 -1 3 -1 2 -1 2 -1 2 -2 
3 -1 2 -1 2 -1 2 -1 2 -1 3 -1 2 -1 2 -1 
2 -1 2 -2 3 -1 2 -1 2 -1 2 -1 2 -1 3 -1 
2 -2 2 -1 2 -1 3 -1 2 -1 2 -1 2 -2 2 -1 
3 -1 2 -1 2 -1 2 -2 2 -1 3 -1 2 -1 2 -1 
2 -2 2 -1 3 -1 2 -1 2 -2 2 -1 3 -1 2 -1 
2 -2 2 -1 2 -1 3 -1 2 -2 2 -1 2 -1 2 -2 
3 -1 2 -1 2 -1 2 -2 3 -1 2 -1 2 -2 2 -1 
2 -1 3 -2 2 -1 2 -1 2 -2 2 -1 3 -1 2 -2 
2 -1 2 -2 2 -1 3 -1 2 -2 2 -1 2 -2 3 -1 
2 -1 2 -2 2 -1 2 -2 3 -1 2 -1 2 -2 2 -1 
2 -2 3 -1 2 -2 2 -1 2 -2 2 -1 3 -2 2 -1 
2 -2 2 -1 3 -2 2 -1 2 -2 2 -1 2 -2 3 -1 
2 -2 2 -1 2 -2 2 -1 3 -2 2 -1 2 -2 2 -2 
3 -1 2 -2 2 -1 6389 666 300 MP stroke
2 -2 2 -2 3 -1 2 -2 2 -1 2 -2 2 -2 3 -1 
2 -2 2 -2 2 -1 2 -2 3 -2 2 -1 2 -2 2 -2 
3 -1 2 -2 2 -2 2 -1 2 -2 3 -2 2 -2 2 -1 
2 -2 2 -2 3 -1 2 -2 2 -2 2 -2 2 -2 3 -1 
2 -2 2 -2 2 -2 3 -1 2 -2 2 -2 2 -2 2 -2 
3 -2 2 -1 2 -2 2 -2 2 -2 3 -2 2 -2 2 -2 
2 -2 2 -1 3 -2 2 -2 2 -2 2 -2 3 -2 2 -2 
2 -2 2 -2 2 -2 3 -2 2 -2 2 -2 2 -2 2 -2 
3 -2 2 -2 2 -2 2 -2 3 -2 2 -2 2 -2 2 -2 
2 -2 3 -2 2 -2 2 -2 2 -2 2 -2 3 -2 2 -3 
2 -2 2 -2 2 -2 3 -2 2 -2 2 -2 2 -3 3 -2 
2 -2 2 -2 2 -2 2 -2 3 -3 2 -2 2 -2 2 -2 
2 -3 3 -2 2 -2 2 -2 2 -3 2 -2 3 -2 2 -3 
2 -2 2 -2 3 -2 2 -3 2 -2 2 -2 2 -3 3 -2 
2 -3 2 -2 2 -2 2 -3 3 -2 2 -3 2 -2 2 -2 
3 -3 2 -2 2 -3 2 -2 2 -3 3 -2 2 -3 2 -2 
2 -3 2 -2 3 -3 2 -2 2 -3 2 -2 2 -3 3 -2 
2 -3 2 -3 2 -2 3 -3 2 -2 2 -3 2 -3 2 -2 
3 -3 2 -3 2 -2 2 -3 2 -3 3 -2 2 -3 2 -3 
2 -3 2 -2 3 -3 2 -3 2 -3 2 -2 3 -3 2 -3 
2 -3 2 -3 2 -2 3 -3 2 -3 2 -3 2 -3 2 -3 
3 -3 2 -2 2 -3 2 -3 3 -3 2 -3 2 -3 2 -3 
2 -3 3 -3 2 -3 2 -3 2 -3 2 -3 3 -3 2 -3 
2 -3 2 -3 2 -3 3 -3 2 -4 2 -3 2 -3 3 -3 
2 -3 2 -3 2 -3 2 -4 3 -3 2 -3 2 -3 2 -3 
2 -4 3 -3 2 -3 2 -3 2 -4 2 -3 3 -3 2 -4 
2 -3 2 -3 3 -4 2 -3 2 -3 2 -4 2 -3 3 -4 
2 -3 2 -3 2 -4 2 -3 3 -4 2 -3 2 -4 2 -3 
2 -4 3 -3 2 -4 2 -3 2 -4 3 -4 2 -3 2 -4 
2 -3 2 -4 3 -4 2 -3 2 -4 2 -4 2 -3 3 -4 
2 -4 2 -4 2 -3 3 -4 2 -4 2 -4 2 -4 2 -3 
3 -4 2 -4 2 -4 2 -4 2 -4 3 -4 2 -4 2 -3 
2 -4 2 -4 3 -4 2 -4 2 -4 2 -4 3 -4 2 -4 
2 -4 2 -5 2 -4 3 -4 2 -4 2 -4 2 -4 2 -4 
3 -4 2 -5 2 -4 2 -4 2 -4 3 -5 2 -4 2 -4 
2 -4 3 -5 2 -4 2 -4 2 -5 2 -4 3 -4 2 -5 
2 -4 2 -5 2 -4 3 -5 2 -4 2 -5 2 -4 3 -5 
2 -4 2 -5 2 -4 5728 1512 300 MP stroke
2 -5 3 -4 2 -5 2 -5 2 -4 2 -5 3 -5 2 -4 
2 -5 2 -5 2 -5 3 -4 2 -5 2 -5 2 -5 3 -5 
2 -5 2 -4 2 -5 2 -5 3 -5 2 -5 2 -5 2 -5 
2 -5 3 -5 2 -5 2 -5 2 -5 2 -5 3 -5 2 -6 
2 -5 2 -5 3 -5 2 -5 2 -5 2 -6 2 -5 3 -5 
2 -6 2 -5 2 -5 2 -5 3 -6 2 -5 2 -6 2 -5 
3 -5 2 -6 2 -5 2 -6 2 -5 3 -6 2 -6 2 -5 
2 -6 2 -5 3 -6 2 -6 2 -5 2 -6 2 -6 3 -5 
2 -6 2 -6 2 -6 3 -6 2 -5 2 -6 2 -6 2 -6 
3 -6 2 -6 2 -6 2 -6 2 -6 3 -6 2 -6 2 -6 
2 -6 2 -6 3 -6 2 -7 2 -6 2 -6 3 -6 2 -6 
2 -7 2 -6 2 -6 3 -7 2 -6 2 -6 2 -7 2 -6 
3 -7 2 -6 2 -6 2 -7 2 -7 5505 2069 102 MP stroke
gr

c9
DO
0 sg
6261 2357 mt 
(t) s
5098 1287 mt  -90 rotate
(v) s
90 rotate
%%IncludeResource: font Helvetica
/Helvetica /ISOLatin1Encoding 96 FMSR

5158 1227 mt  -90 rotate
(R) s
90 rotate
SO
1 sg
0 1696 1548 0 0 -1696 1128 4424 4 MP
PP
-1548 0 0 1696 1548 0 0 -1696 1128 4424 5 MP stroke
4 w
DO
SO
6 w
0 sg
1128 4424 mt 2676 4424 L
1128 2728 mt 2676 2728 L
1128 4424 mt 1128 2728 L
2676 4424 mt 2676 2728 L
1128 4424 mt 2676 4424 L
1128 4424 mt 1128 2728 L
1128 4424 mt 1128 4407 L
1128 2728 mt 1128 2744 L
%%IncludeResource: font Helvetica
/Helvetica /ISOLatin1Encoding 120 FMSR

1095 4569 mt 
(0) s
1570 4424 mt 1570 4407 L
1570 2728 mt 1570 2744 L
1537 4569 mt 
(2) s
2012 4424 mt 2012 4407 L
2012 2728 mt 2012 2744 L
1979 4569 mt 
(4) s
2454 4424 mt 2454 4407 L
2454 2728 mt 2454 2744 L
2421 4569 mt 
(6) s
1128 4424 mt 1128 4424 L
1128 4424 mt 1128 4424 L
1128 4424 mt 1128 4424 L
1128 4424 mt 1128 4424 L
1128 4424 mt 1128 4424 L
1128 4424 mt 1128 4424 L
1128 4424 mt 1128 4424 L
1128 4424 mt 1128 4424 L
1128 4424 mt 1128 4424 L
1128 4424 mt 1128 4424 L
1128 4424 mt 1128 4424 L
1128 4424 mt 1128 4424 L
1128 4424 mt 1128 4424 L
1128 4424 mt 1128 4424 L
1128 4424 mt 1128 4424 L
1128 4424 mt 1128 4424 L
1128 4424 mt 1128 4424 L
1128 4424 mt 1128 4424 L
1128 4424 mt 1144 4424 L
2676 4424 mt 2659 4424 L
 825 4468 mt 
(10) s
%%IncludeResource: font Helvetica
/Helvetica /ISOLatin1Encoding 80 FMSR

 958 4394 mt 
(-15) s
1128 4424 mt 1128 4424 L
1128 4424 mt 1128 4424 L
1128 4424 mt 1128 4424 L
1128 4424 mt 1128 4424 L
1128 4424 mt 1128 4424 L
1128 4424 mt 1128 4424 L
1128 4424 mt 1128 4424 L
1128 4424 mt 1128 4424 L
1128 4424 mt 1128 4424 L
1128 4424 mt 1128 4424 L
1128 4424 mt 1128 4424 L
1128 4424 mt 1128 4424 L
1128 4424 mt 1128 4424 L
1128 4424 mt 1128 4424 L
1128 4424 mt 1128 4424 L
1128 4424 mt 1128 4424 L
1128 4424 mt 1128 4424 L
1128 4424 mt 1128 4424 L
1128 3858 mt 1144 3858 L
2676 3858 mt 2659 3858 L
%%IncludeResource: font Helvetica
/Helvetica /ISOLatin1Encoding 120 FMSR

 825 3902 mt 
(10) s
%%IncludeResource: font Helvetica
/Helvetica /ISOLatin1Encoding 80 FMSR

 958 3828 mt 
(-10) s
1128 4424 mt 1128 4424 L
1128 4424 mt 1128 4424 L
1128 4424 mt 1128 4424 L
1128 4424 mt 1128 4424 L
1128 4424 mt 1128 4424 L
1128 4424 mt 1128 4424 L
1128 4424 mt 1128 4424 L
1128 4424 mt 1128 4424 L
1128 4424 mt 1128 4424 L
1128 4424 mt 1128 4424 L
1128 4424 mt 1128 4424 L
1128 4424 mt 1128 4424 L
1128 4424 mt 1128 4424 L
1128 4424 mt 1128 4424 L
1128 4424 mt 1128 4424 L
1128 4424 mt 1128 4424 L
1128 4424 mt 1128 4424 L
1128 4424 mt 1128 4424 L
1128 3293 mt 1144 3293 L
2676 3293 mt 2659 3293 L
%%IncludeResource: font Helvetica
/Helvetica /ISOLatin1Encoding 120 FMSR

 825 3337 mt 
(10) s
%%IncludeResource: font Helvetica
/Helvetica /ISOLatin1Encoding 80 FMSR

 958 3263 mt 
(-5) s
1128 4424 mt 1128 4424 L
1128 4424 mt 1128 4424 L
1128 4424 mt 1128 4424 L
1128 4424 mt 1128 4424 L
1128 4424 mt 1128 4424 L
1128 4424 mt 1128 4424 L
1128 4424 mt 1128 4424 L
1128 4424 mt 1128 4424 L
1128 4424 mt 1128 4424 L
1128 4424 mt 1128 4424 L
1128 4424 mt 1128 4424 L
1128 4424 mt 1128 4424 L
1128 4424 mt 1128 4424 L
1128 4424 mt 1128 4424 L
1128 4424 mt 1128 4424 L
1128 4424 mt 1128 4424 L
1128 4424 mt 1128 4424 L
1128 4424 mt 1128 4424 L
1128 2728 mt 1144 2728 L
2676 2728 mt 2659 2728 L
%%IncludeResource: font Helvetica
/Helvetica /ISOLatin1Encoding 120 FMSR

 825 2772 mt 
(10) s
%%IncludeResource: font Helvetica
/Helvetica /ISOLatin1Encoding 80 FMSR

 958 2698 mt 
(0) s
1128 4424 mt 1128 4424 L
1128 4424 mt 1128 4424 L
1128 4424 mt 1128 4424 L
1128 4424 mt 1128 4424 L
1128 4424 mt 1128 4424 L
1128 4424 mt 1128 4424 L
1128 4424 mt 1128 4424 L
1128 4424 mt 1128 4424 L
1128 4424 mt 1128 4424 L
1128 4424 mt 1128 4424 L
1128 4424 mt 1128 4424 L
1128 4424 mt 1128 4424 L
1128 4424 mt 1128 4424 L
1128 4424 mt 1128 4424 L
1128 4424 mt 1128 4424 L
1128 4424 mt 1128 4424 L
1128 4424 mt 1128 4424 L
1128 4424 mt 1128 4424 L
1128 4424 mt 2676 4424 L
1128 2728 mt 2676 2728 L
1128 4424 mt 1128 2728 L
2676 4424 mt 2676 2728 L
gs 1128 2728 1549 1697 rc
c9
3 36 2 -7 2 -5 2 -207 3 175 2 36 2 -20 2 0 
2 -41 3 -25 2 57 2 23 2 28 2 -21 3 -43 2 8 
2 9 2 27 3 -2 2 17 2 -26 2 -45 2 0 3 -8 
2 24 2 -37 2 17 2 -35 3 51 2 46 2 -11 2 3 
2 -25 3 29 2 0 2 8 2 -47 3 -225 2 243 2 -7 
2 -2 2 -79 3 66 2 34 2 -22 2 9 2 -33 3 -11 
2 -12 2 -20 2 -6 2 73 3 14 2 21 2 -21 2 1 
3 -26 2 17 2 -37 2 -11 2 -2 3 -20 2 49 2 -15 
2 29 2 -48 3 5 2 -17 2 12 2 67 3 -8 2 4 
2 -91 2 15 2 77 3 -11 2 13 2 -23 2 17 2 -35 
3 0 2 -80 2 -19 2 63 2 -18 3 -42 2 73 2 -68 
2 -66 3 175 2 -4 2 21 2 -42 2 28 3 -12 2 35 
2 -20 2 18 2 -14 3 29 2 -15 2 9 2 -42 2 -14 
3 -88 2 99 2 -4 2 27 3 -41 2 40 2 -1 2 23 
2 -52 3 -60 2 68 2 -46 2 37 2 -88 3 39 2 -156 
2 229 2 -11 3 10 2 -53 2 21 2 37 2 -97 3 -45 
2 125 2 -57 2 41 2 -186 3 197 2 -38 2 35 2 -47 
2 -41 3 -76 2 189 2 -15 2 17 3 -95 2 26 2 25 
2 -67 2 28 3 22 2 10 2 -116 2 112 2 15 3 -32 
2 63 2 -63 2 36 2 -19 3 -43 2 92 2 -40 2 29 
3 -140 2 95 2 14 2 -341 2 363 3 -118 2 105 2 -39 
2 -1 2 35 3 -63 2 51 2 9 2 -115 2 142 3 -95 
2 -40 2 161 2 -20 3 25 2 -59 2 26 2 -96 2 70 
3 -20 2 5 2 -5 2 22 2 -19 3 -187 2 245 2 -52 
2 42 3 -82 2 27 2 40 2 -178 2 186 3 -107 2 76 
2 19 2 -105 2 108 3 -62 2 51 2 -15 2 2 2 -19 
3 42 2 -59 2 54 2 -55 3 66 2 -83 2 75 2 -53 
2 57 3 -52 2 36 2 -7 2 5 2 -6 3 -14 2 40 
2 -55 2 31 2 22 3 -86 2 91 2 -62 2 61 3 -92 
2 95 2 -71 2 70 2 -87 3 84 2 -28 2 -9 2 37 
2 -60 3 57 2 -28 2 13 2 -3 3 7 2 -8 2 -4 
2 20 2 -26 3 14 2 8 2 -11 2 -7 2 27 3 -43 
2 39 2 -14 2 0 2 6 3 -7 2 9 2 -3 2 -10 
3 15 2 -1 2 -18 2 24 2 -17 3 9 2 -4 2 8 
2 -4 2 -15 3 30 2 -28 2 9 2 17 2 -32 3 31 
2 -17 2 5 2 5 3 -2 2 -16 2 32 2 -35 2 24 
3 -6 2 3 2 -10 2 18 2 -12 3 -8 2 25 2 -28 
2 23 3 -19 2 20 2014 3381 300 MP stroke
2 -17 2 14 2 -10 3 8 2 -4 2 2 2 -1 2 1 
3 1 2 -1 2 1 2 -1 2 2 3 -2 2 5 2 -10 
2 13 3 -11 2 9 2 -8 2 10 2 -8 3 4 2 0 
2 0 2 2 2 -6 3 10 2 -9 2 5 2 1 2 -4 
3 5 2 -4 2 3 2 -1 3 1 2 -1 2 1 2 1 
2 -3 3 7 2 -9 2 9 2 -5 2 3 3 -5 2 10 
2 -14 2 15 2 -12 3 9 2 -4 2 2 2 0 3 -1 
2 3 2 -3 2 3 2 0 3 -4 2 6 2 -5 2 4 
2 -3 3 4 2 -2 2 -1 2 5 3 -7 2 9 2 -9 
2 8 2 -5 3 4 2 -4 2 5 2 -4 2 4 3 -3 
2 3 2 -2 2 2 2 -2 3 2 2 1 2 -4 2 6 
3 -4 2 2 2 0 2 -1 2 2 3 -2 2 4 2 -5 
2 6 2 -5 3 3 2 1 2 -3 2 4 2 -3 3 3 
2 -2 2 0 2 4 3 -5 2 5 2 -3 2 2 2 -1 
3 1 2 0 2 -1 2 3 2 -2 3 2 2 -2 2 2 
2 -2 3 3 2 -2 2 2 2 -1 2 1 3 -1 2 2 
2 -1 2 0 2 1 3 0 2 0 2 1 2 -1 2 1 
3 1 2 -2 2 3 2 -2 3 1 2 0 2 1 2 0 
2 0 3 0 2 0 2 1 2 0 2 0 3 1 2 -1 
2 1 2 0 2 0 3 0 2 1 2 0 2 0 3 1 
2 -1 2 1 2 -1 2 2 3 -1 2 1 2 0 2 0 
2 0 3 1 2 0 2 0 2 0 3 0 2 1 2 0 
2 0 2 0 3 0 2 1 2 0 2 0 2 0 3 1 
2 0 2 0 2 0 2 0 3 1 2 0 2 0 2 1 
3 -1 2 1 2 0 2 0 2 1 3 0 2 0 2 0 
2 0 2 1 3 0 2 0 2 0 2 0 2 1 3 0 
2 0 2 0 2 1 3 0 2 0 2 0 2 0 2 1 
3 0 2 0 2 0 2 1 2 0 3 0 2 0 2 1 
2 0 2 0 3 0 2 0 2 1 2 0 3 0 2 0 
2 1 2 0 2 0 3 0 2 0 2 1 2 0 2 0 
3 0 2 1 2 0 2 0 3 0 2 0 2 1 2 0 
2 0 3 0 2 1 2 0 2 0 2 0 3 1 2 0 
2 0 2 0 2 0 3 1 2 0 2 0 2 0 3 1 
2 0 2 0 2 0 2 1 3 0 2 0 2 0 2 1 
2 0 3 0 2 0 2 1 2 0 2 0 3 1 2 0 
2 0 2 0 3 1 2 0 2 0 2 1 2 0 3 0 
2 1 2 0 2 0 2 0 3 1 2 0 2 0 2 1 
3 0 2 1 2 0 1353 3320 300 MP stroke
2 0 2 1 3 0 2 0 2 1 2 0 2 1 3 0 
2 1 2 0 2 1 2 0 3 1 2 0 2 1 2 0 
3 1 2 0 2 1 2 1 2 0 3 1 2 0 2 1 
2 1 2 1 3 0 2 1 2 1 2 1 2 1 3 0 
2 1 2 1 2 1 3 1 2 1 2 1 2 1 2 1 
3 1 2 2 2 1 2 1 2 1 3 2 2 1 2 1 
2 2 3 1 2 1 2 2 2 1 2 2 3 2 2 1 
2 2 2 1 2 2 3 2 2 2 2 1 2 2 2 2 
3 2 2 2 2 2 2 2 3 2 2 2 2 2 2 2 
2 2 3 2 2 3 2 2 2 2 2 2 3 2 2 3 
2 2 2 2 2 3 3 2 2 2 2 3 2 2 3 3 
2 2 2 3 2 -8 2 -14 3 -23 2 62 2 -28 2 -44 
2 7 3 8 2 61 2 -46 2 190 1130 3035 102 MP stroke
DA
3 0 2 0 2 0 2 0 3 1 2 0 2 0 2 0 
2 0 3 0 2 0 2 0 2 0 2 0 3 1 2 0 
2 0 2 0 3 0 2 0 2 0 2 0 2 0 3 1 
2 0 2 0 2 0 2 0 3 0 2 0 2 0 2 0 
2 0 3 1 2 0 2 0 2 0 3 0 2 0 2 0 
2 0 2 0 3 0 2 1 2 0 2 0 2 0 3 0 
2 0 2 0 2 0 2 0 3 0 2 1 2 0 2 0 
3 0 2 0 2 0 2 0 2 0 3 0 2 0 2 0 
2 1 2 0 3 0 2 0 2 0 2 0 3 0 2 0 
2 0 2 0 2 1 3 0 2 0 2 0 2 0 2 0 
3 0 2 0 2 0 2 0 2 0 3 1 2 0 2 0 
2 0 3 0 2 0 2 0 2 0 2 0 3 0 2 1 
2 0 2 0 2 0 3 0 2 0 2 0 2 0 2 0 
3 0 2 0 2 1 2 0 3 0 2 0 2 0 2 0 
2 0 3 0 2 0 2 0 2 0 2 1 3 0 2 0 
2 0 2 0 3 0 2 0 2 0 2 0 2 0 3 0 
2 0 2 1 2 0 2 0 3 0 2 0 2 0 2 0 
2 0 3 0 2 0 2 0 2 1 3 0 2 0 2 0 
2 0 2 0 3 0 2 0 2 0 2 0 2 0 3 0 
2 1 2 0 2 0 2 0 3 0 2 0 2 0 2 0 
3 0 2 0 2 0 2 0 2 1 3 0 2 0 2 0 
2 0 2 0 3 0 2 0 2 0 2 0 2 0 3 0 
2 1 2 0 2 0 3 0 2 0 2 0 2 0 2 0 
3 0 2 0 2 0 2 0 2 0 3 1 2 0 2 0 
2 0 3 0 2 0 2 0 2 0 2 0 3 0 2 0 
2 0 2 0 2 1 3 0 2 0 2 0 2 0 2 0 
3 0 2 0 2 0 2 0 3 0 2 0 2 0 2 1 
2 0 3 0 2 0 2 0 2 0 2 0 3 0 2 0 
2 0 2 0 2 0 3 0 2 0 2 1 2 0 3 0 
2 0 2 0 2 0 2 0 3 0 2 0 2 0 2 0 
2 0 3 0 2 0 2 0 2 1 3 0 2 0 2 0 
2 0 2 0 3 0 2 0 2 0 2 0 2 0 3 0 
2 0 2 0 2 0 2 0 3 1 2 0 2 0 2 0 
3 0 2 0 2 0 2 0 2 0 3 0 2 0 2 0 
2 0 2 0 3 0 2 0 2 1 2 0 2 0 3 0 
2 0 2 0 2 0 3 0 2 0 2 0 2 0 2 0 
3 0 2 0 2 0 2 0 2 0 3 0 2 0 2 1 
2 0 3 0 2 0 2014 3957 300 MP stroke
2 0 2 0 2 0 3 0 2 0 2 0 2 0 2 0 
3 0 2 0 2 0 2 0 2 0 3 0 2 0 2 0 
2 1 3 0 2 0 2 0 2 0 2 0 3 0 2 0 
2 0 2 0 2 0 3 0 2 0 2 0 2 0 2 0 
3 0 2 0 2 0 2 0 3 0 2 0 2 0 2 1 
2 0 3 0 2 0 2 0 2 0 2 0 3 0 2 0 
2 0 2 0 2 0 3 0 2 0 2 0 2 0 3 0 
2 0 2 0 2 0 2 0 3 0 2 0 2 0 2 0 
2 0 3 0 2 0 2 0 2 0 3 0 2 0 2 1 
2 0 2 0 3 0 2 0 2 0 2 0 2 0 3 0 
2 0 2 0 2 0 2 0 3 0 2 0 2 0 2 0 
3 0 2 0 2 0 2 0 2 0 3 0 2 0 2 0 
2 0 2 0 3 0 2 0 2 0 2 0 2 0 3 0 
2 0 2 0 2 0 3 0 2 0 2 0 2 0 2 0 
3 0 2 0 2 0 2 0 2 0 3 0 2 0 2 0 
2 0 3 0 2 0 2 0 2 0 2 0 3 0 2 0 
2 0 2 0 2 0 3 0 2 0 2 0 2 0 2 0 
3 0 2 0 2 0 2 0 3 0 2 0 2 0 2 0 
2 0 3 0 2 0 2 0 2 0 2 0 3 0 2 0 
2 0 2 0 2 0 3 0 2 0 2 0 2 0 3 0 
2 0 2 -1 2 0 2 0 3 0 2 0 2 0 2 0 
2 0 3 0 2 0 2 0 2 0 3 0 2 0 2 0 
2 0 2 0 3 0 2 0 2 0 2 0 2 0 3 0 
2 0 2 -1 2 0 2 0 3 0 2 0 2 0 2 0 
3 0 2 0 2 0 2 0 2 0 3 0 2 0 2 0 
2 0 2 -1 3 0 2 0 2 0 2 0 2 0 3 0 
2 0 2 0 2 0 3 0 2 0 2 -1 2 0 2 0 
3 0 2 0 2 0 2 0 2 0 3 0 2 0 2 0 
2 -1 2 0 3 0 2 0 2 0 2 0 3 0 2 0 
2 0 2 -1 2 0 3 0 2 0 2 0 2 0 2 0 
3 0 2 -1 2 0 2 0 3 0 2 0 2 0 2 0 
2 -1 3 0 2 0 2 0 2 0 2 0 3 -1 2 0 
2 0 2 0 2 0 3 0 2 -1 2 0 2 0 3 0 
2 0 2 0 2 -1 2 0 3 0 2 0 2 0 2 -1 
2 0 3 0 2 0 2 -1 2 0 2 0 3 0 2 0 
2 -1 2 0 3 0 2 0 2 -1 2 0 2 0 3 0 
2 -1 2 0 2 0 2 0 3 -1 2 0 2 0 2 -1 
3 0 2 0 2 -1 1353 3973 300 MP stroke
2 0 2 0 3 0 2 -1 2 0 2 0 2 -1 3 0 
2 0 2 -1 2 0 2 -1 3 0 2 0 2 -1 2 0 
3 -1 2 0 2 0 2 -1 2 0 3 -1 2 0 2 -1 
2 0 2 0 3 -1 2 0 2 -1 2 0 2 -1 3 0 
2 -1 2 -1 2 0 3 -1 2 0 2 -1 2 0 2 -1 
3 -1 2 0 2 -1 2 -1 2 0 3 -1 2 -1 2 0 
2 -1 3 -1 2 -1 2 0 2 -1 2 -1 3 -1 2 -1 
2 -1 2 -1 2 -1 3 -1 2 -1 2 -1 2 -1 2 -1 
3 -1 2 -1 2 -1 2 -2 3 -1 2 -1 2 -2 2 -1 
2 -2 3 -1 2 -2 2 -1 2 -2 2 -2 3 -2 2 -2 
2 -2 2 -2 2 -3 3 -2 2 -3 2 -3 2 -3 3 -3 
2 -3 2 -4 2 -4 2 -5 3 -5 2 -5 2 -7 2 -7 
2 -9 3 -10 2 -14 2 -20 2 -34 1130 4182 102 MP stroke
DO
2 0 2 0 2 0 3 0 2 0 2 0 2 1 2 0 
3 0 2 0 2 0 2 0 2 0 3 0 2 1 2 0 
2 0 3 0 2 0 2 0 2 0 2 0 3 0 2 1 
2 0 2 0 2 0 3 0 2 0 2 0 2 0 2 1 
3 0 2 0 2 0 2 0 3 0 2 0 2 0 2 1 
2 0 3 0 2 0 2 0 2 0 2 0 3 0 2 0 
2 1 2 0 2 0 3 0 2 0 2 0 2 0 3 0 
2 1 2 0 2 0 2 0 3 0 2 0 2 0 2 0 
2 1 3 0 2 0 2 0 2 0 3 0 2 0 2 0 
2 0 2 1 3 0 2 0 2 0 2 0 2 0 3 0 
2 0 2 1 2 0 2 0 3 0 2 0 2 0 2 0 
3 0 2 0 2 1 2 0 2 0 3 0 2 0 2 0 
2 0 2 0 3 0 2 1 2 0 2 0 2 0 3 0 
2 0 2 0 2 0 3 1 2 0 2 0 2 0 2 0 
3 0 2 0 2 0 2 0 2 1 3 0 2 0 2 0 
2 0 3 0 2 0 2 0 2 0 2 1 3 0 2 0 
2 0 2 0 2 0 3 0 2 0 2 0 2 1 2 0 
3 0 2 0 2 0 2 0 3 0 2 0 2 1 2 0 
2 0 3 0 2 0 2 0 2 0 2 0 3 0 2 1 
2 0 2 0 2 0 3 0 2 0 2 0 2 0 3 0 
2 1 2 0 2 0 2 0 3 0 2 0 2 0 2 0 
2 0 3 1 2 0 2 0 2 0 2 0 3 0 2 0 
2 0 2 0 3 1 2 0 2 0 2 0 2 0 3 0 
2 0 2 0 2 0 2 0 3 1 2 0 2 0 2 0 
3 0 2 0 2 0 2 0 2 0 3 1 2 0 2 0 
2 0 2 0 3 0 2 0 2 0 2 0 2 1 3 0 
2 0 2 0 2 0 3 0 2 0 2 0 2 0 2 0 
3 1 2 0 2 0 2 0 2 0 3 0 2 0 2 0 
2 0 2 1 3 0 2 0 2 0 2 0 3 0 2 0 
2 0 2 0 2 1 3 0 2 0 2 0 2 0 2 0 
3 0 2 0 2 0 2 0 3 1 2 0 2 0 2 0 
2 0 3 0 2 0 2 0 2 0 2 0 3 1 2 0 
2 0 2 0 2 0 3 0 2 0 2 0 2 0 3 0 
2 1 2 0 2 0 2 0 3 0 2 0 2 0 2 0 
2 0 3 1 2 0 2 0 2 0 2 0 3 0 2 0 
2 0 2 0 3 0 2 1 2 0 2 0 2 0 3 0 
2 0 2 0 2 0 2 0 3 0 2 0 2 1 2 0 
3 0 2 0 2 0 2012 3203 300 MP stroke
2 0 2 0 3 0 2 0 2 0 2 1 2 0 3 0 
2 0 2 0 2 0 2 0 3 0 2 0 2 0 2 1 
3 0 2 0 2 0 2 0 2 0 3 0 2 0 2 0 
2 0 2 0 3 1 2 0 2 0 2 0 2 0 3 0 
2 0 2 0 2 0 3 0 2 1 2 0 2 0 2 0 
3 0 2 0 2 0 2 0 2 0 3 0 2 0 2 1 
2 0 2 0 3 0 2 0 2 0 2 0 3 0 2 0 
2 0 2 0 2 1 3 0 2 0 2 0 2 0 2 0 
3 0 2 0 2 0 2 0 3 0 2 1 2 0 2 0 
2 0 3 0 2 0 2 0 2 0 2 0 3 0 2 0 
2 0 2 1 2 0 3 0 2 0 2 0 2 0 3 0 
2 0 2 0 2 0 2 0 3 1 2 0 2 0 2 0 
2 0 3 0 2 0 2 0 2 0 2 0 3 0 2 0 
2 1 2 0 3 0 2 0 2 0 2 0 2 0 3 0 
2 0 2 0 2 0 2 0 3 1 2 0 2 0 2 0 
3 0 2 0 2 0 2 0 2 0 3 0 2 0 2 0 
2 0 2 1 3 0 2 0 2 0 2 0 2 0 3 0 
2 0 2 0 2 0 3 0 2 0 2 0 2 1 2 0 
3 0 2 0 2 0 2 0 2 0 3 0 2 0 2 0 
2 0 2 0 3 0 2 1 2 0 2 0 3 0 2 0 
2 0 2 0 2 0 3 0 2 0 2 0 2 0 2 0 
3 0 2 1 2 0 2 0 3 0 2 0 2 0 2 0 
2 0 3 0 2 0 2 0 2 0 2 0 3 0 2 0 
2 1 2 0 2 0 3 0 2 0 2 0 2 0 3 0 
2 0 2 0 2 0 2 0 3 0 2 0 2 0 2 1 
2 0 3 0 2 0 2 0 2 0 2 0 3 0 2 0 
2 0 2 0 3 0 2 0 2 0 2 0 2 0 3 1 
2 0 2 0 2 0 2 0 3 0 2 0 2 0 2 0 
2 0 3 0 2 0 2 0 2 0 3 0 2 0 2 0 
2 0 2 1 3 0 2 0 2 0 2 0 2 0 3 0 
2 0 2 0 2 0 3 0 2 0 2 0 2 0 2 0 
3 0 2 0 2 0 2 0 2 1 3 0 2 0 2 0 
2 0 2 0 3 0 2 0 2 0 2 0 3 0 2 0 
2 0 2 0 2 0 3 0 2 0 2 0 2 0 2 0 
3 0 2 0 2 0 2 1 2 0 3 0 2 0 2 0 
2 0 3 0 2 0 2 0 2 0 2 0 3 0 2 0 
2 0 2 0 2 0 3 0 2 0 2 0 2 0 3 0 
2 0 2 0 2 0 1351 3182 300 MP stroke
2 0 3 0 2 0 2 0 2 0 2 0 3 0 2 0 
2 0 2 0 2 0 3 0 2 0 2 0 2 0 3 0 
2 0 2 0 2 0 2 0 3 0 2 0 2 0 2 0 
2 0 3 0 2 0 2 0 2 0 2 0 3 0 2 0 
2 0 2 0 3 0 2 0 2 0 2 0 2 0 3 0 
2 -1 2 0 2 0 2 0 3 0 2 0 2 0 2 0 
3 -1 2 0 2 0 2 0 2 0 3 -1 2 0 2 0 
2 0 2 -1 3 0 2 0 2 0 2 -1 2 0 3 -1 
2 0 2 -1 2 0 3 -1 2 0 2 -1 2 0 2 -1 
3 -1 2 -1 2 -1 2 -1 2 -1 3 -1 2 -1 2 -1 
2 -1 2 -2 3 -2 2 -1 2 -2 2 -3 3 -2 2 -3 
2 -3 2 -3 2 -4 3 -5 2 -5 2 -6 2 -7 2 -10 
3 -12 2 -18 2 -31 2 -116 1130 3436 101 MP stroke
gr

c9
DO
0 sg
%%IncludeResource: font Helvetica
/Helvetica /ISOLatin1Encoding 120 FMSR

1884 4712 mt 
(t) s
 689 3837 mt  -90 rotate
(error in v) s
90 rotate
%%IncludeResource: font Helvetica
/Helvetica /ISOLatin1Encoding 96 FMSR

 749 3364 mt  -90 rotate
(L) s
90 rotate
SO
1 sg
0 1696 1547 0 0 -1696 3317 4424 4 MP
PP
-1547 0 0 1696 1547 0 0 -1696 3317 4424 5 MP stroke
4 w
DO
SO
6 w
0 sg
3317 4424 mt 4864 4424 L
3317 2728 mt 4864 2728 L
3317 4424 mt 3317 2728 L
4864 4424 mt 4864 2728 L
3317 4424 mt 4864 4424 L
3317 4424 mt 3317 2728 L
3317 4424 mt 3317 4407 L
3317 2728 mt 3317 2744 L
%%IncludeResource: font Helvetica
/Helvetica /ISOLatin1Encoding 120 FMSR

3284 4569 mt 
(0) s
3759 4424 mt 3759 4407 L
3759 2728 mt 3759 2744 L
3726 4569 mt 
(2) s
4201 4424 mt 4201 4407 L
4201 2728 mt 4201 2744 L
4168 4569 mt 
(4) s
4643 4424 mt 4643 4407 L
4643 2728 mt 4643 2744 L
4610 4569 mt 
(6) s
3317 4424 mt 3317 4424 L
3317 4424 mt 3317 4424 L
3317 4424 mt 3317 4424 L
3317 4424 mt 3317 4424 L
3317 4424 mt 3317 4424 L
3317 4424 mt 3317 4424 L
3317 4424 mt 3317 4424 L
3317 4424 mt 3317 4424 L
3317 4424 mt 3317 4424 L
3317 4424 mt 3317 4424 L
3317 4424 mt 3317 4424 L
3317 4424 mt 3317 4424 L
3317 4424 mt 3317 4424 L
3317 4424 mt 3317 4424 L
3317 4424 mt 3317 4424 L
3317 4424 mt 3317 4424 L
3317 4424 mt 3317 4424 L
3317 4424 mt 3317 4424 L
3317 4424 mt 3333 4424 L
4864 4424 mt 4847 4424 L
3014 4468 mt 
(10) s
%%IncludeResource: font Helvetica
/Helvetica /ISOLatin1Encoding 80 FMSR

3147 4394 mt 
(-15) s
3317 4424 mt 3317 4424 L
3317 4424 mt 3317 4424 L
3317 4424 mt 3317 4424 L
3317 4424 mt 3317 4424 L
3317 4424 mt 3317 4424 L
3317 4424 mt 3317 4424 L
3317 4424 mt 3317 4424 L
3317 4424 mt 3317 4424 L
3317 4424 mt 3317 4424 L
3317 4424 mt 3317 4424 L
3317 4424 mt 3317 4424 L
3317 4424 mt 3317 4424 L
3317 4424 mt 3317 4424 L
3317 4424 mt 3317 4424 L
3317 4424 mt 3317 4424 L
3317 4424 mt 3317 4424 L
3317 4424 mt 3317 4424 L
3317 4424 mt 3317 4424 L
3317 3858 mt 3333 3858 L
4864 3858 mt 4847 3858 L
%%IncludeResource: font Helvetica
/Helvetica /ISOLatin1Encoding 120 FMSR

3014 3902 mt 
(10) s
%%IncludeResource: font Helvetica
/Helvetica /ISOLatin1Encoding 80 FMSR

3147 3828 mt 
(-10) s
3317 4424 mt 3317 4424 L
3317 4424 mt 3317 4424 L
3317 4424 mt 3317 4424 L
3317 4424 mt 3317 4424 L
3317 4424 mt 3317 4424 L
3317 4424 mt 3317 4424 L
3317 4424 mt 3317 4424 L
3317 4424 mt 3317 4424 L
3317 4424 mt 3317 4424 L
3317 4424 mt 3317 4424 L
3317 4424 mt 3317 4424 L
3317 4424 mt 3317 4424 L
3317 4424 mt 3317 4424 L
3317 4424 mt 3317 4424 L
3317 4424 mt 3317 4424 L
3317 4424 mt 3317 4424 L
3317 4424 mt 3317 4424 L
3317 4424 mt 3317 4424 L
3317 3293 mt 3333 3293 L
4864 3293 mt 4847 3293 L
%%IncludeResource: font Helvetica
/Helvetica /ISOLatin1Encoding 120 FMSR

3014 3337 mt 
(10) s
%%IncludeResource: font Helvetica
/Helvetica /ISOLatin1Encoding 80 FMSR

3147 3263 mt 
(-5) s
3317 4424 mt 3317 4424 L
3317 4424 mt 3317 4424 L
3317 4424 mt 3317 4424 L
3317 4424 mt 3317 4424 L
3317 4424 mt 3317 4424 L
3317 4424 mt 3317 4424 L
3317 4424 mt 3317 4424 L
3317 4424 mt 3317 4424 L
3317 4424 mt 3317 4424 L
3317 4424 mt 3317 4424 L
3317 4424 mt 3317 4424 L
3317 4424 mt 3317 4424 L
3317 4424 mt 3317 4424 L
3317 4424 mt 3317 4424 L
3317 4424 mt 3317 4424 L
3317 4424 mt 3317 4424 L
3317 4424 mt 3317 4424 L
3317 4424 mt 3317 4424 L
3317 2728 mt 3333 2728 L
4864 2728 mt 4847 2728 L
%%IncludeResource: font Helvetica
/Helvetica /ISOLatin1Encoding 120 FMSR

3014 2772 mt 
(10) s
%%IncludeResource: font Helvetica
/Helvetica /ISOLatin1Encoding 80 FMSR

3147 2698 mt 
(0) s
3317 4424 mt 3317 4424 L
3317 4424 mt 3317 4424 L
3317 4424 mt 3317 4424 L
3317 4424 mt 3317 4424 L
3317 4424 mt 3317 4424 L
3317 4424 mt 3317 4424 L
3317 4424 mt 3317 4424 L
3317 4424 mt 3317 4424 L
3317 4424 mt 3317 4424 L
3317 4424 mt 3317 4424 L
3317 4424 mt 3317 4424 L
3317 4424 mt 3317 4424 L
3317 4424 mt 3317 4424 L
3317 4424 mt 3317 4424 L
3317 4424 mt 3317 4424 L
3317 4424 mt 3317 4424 L
3317 4424 mt 3317 4424 L
3317 4424 mt 3317 4424 L
3317 4424 mt 4864 4424 L
3317 2728 mt 4864 2728 L
3317 4424 mt 3317 2728 L
4864 4424 mt 4864 2728 L
gs 3317 2728 1548 1697 rc
c9
3 0 2 0 2 0 2 0 3 0 2 0 2 0 2 0 
2 0 3 0 2 0 2 0 2 0 2 0 3 0 2 0 
2 0 2 0 2 0 3 0 2 0 2 0 2 0 3 0 
2 0 2 0 2 0 2 0 3 0 2 0 2 0 2 0 
2 0 3 0 2 0 2 0 2 0 2 0 3 0 2 0 
2 0 2 0 3 0 2 0 2 0 2 0 2 0 3 0 
2 0 2 0 2 0 2 0 3 0 2 0 2 0 2 0 
2 0 3 0 2 0 2 0 2 0 3 0 2 0 2 0 
2 0 2 0 3 0 2 0 2 0 2 0 2 0 3 0 
2 0 2 0 2 0 2 0 3 0 2 0 2 0 2 0 
3 0 2 0 2 0 2 0 2 0 3 0 2 -1 2 0 
2 0 2 0 3 0 2 0 2 0 2 0 2 0 3 0 
2 0 2 0 2 0 2 0 3 0 2 0 2 0 2 0 
3 0 2 0 2 0 2 0 2 0 3 0 2 0 2 0 
2 0 2 0 3 0 2 0 2 0 2 0 2 0 3 0 
2 0 2 0 2 0 3 0 2 0 2 0 2 0 2 0 
3 0 2 0 2 0 2 0 2 0 3 0 2 0 2 0 
2 0 2 0 3 0 2 0 2 0 2 0 3 0 2 0 
2 0 2 0 2 0 3 0 2 0 2 0 2 0 2 0 
3 0 2 0 2 0 2 0 2 0 3 0 2 0 2 0 
2 0 3 0 2 0 2 0 2 0 2 -1 3 0 2 0 
2 0 2 0 2 0 3 0 2 0 2 0 2 0 2 0 
3 0 2 0 2 0 2 0 3 0 2 0 2 0 2 0 
2 0 3 0 2 0 2 0 2 0 2 0 3 0 2 0 
2 0 2 0 2 0 3 0 2 0 2 0 2 0 2 0 
3 0 2 0 2 0 2 0 3 0 2 0 2 0 2 0 
2 0 3 0 2 0 2 0 2 0 2 0 3 0 2 0 
2 0 2 0 2 -1 3 0 2 0 2 0 2 0 3 0 
2 0 2 0 2 0 2 0 3 0 2 0 2 0 2 0 
2 0 3 0 2 0 2 0 2 0 2 0 3 0 2 0 
2 0 2 0 3 0 2 0 2 0 2 0 2 0 3 0 
2 0 2 0 2 0 2 0 3 0 2 0 2 0 2 0 
2 0 3 0 2 -1 2 0 2 0 3 0 2 0 2 0 
2 0 2 0 3 0 2 0 2 0 2 0 2 0 3 0 
2 0 2 0 2 0 2 0 3 0 2 0 2 0 2 0 
3 0 2 0 2 0 2 0 2 0 3 0 2 0 2 0 
2 0 2 0 3 -1 2 0 2 0 2 0 2 0 3 0 
2 0 2 0 2 0 4203 3196 300 MP stroke
2 0 3 0 2 0 2 0 2 0 3 0 2 0 2 0 
2 0 2 0 3 0 2 0 2 0 2 0 2 0 3 0 
2 0 2 0 2 -1 2 0 3 0 2 0 2 0 2 0 
3 0 2 0 2 0 2 0 2 0 3 0 2 0 2 0 
2 0 2 0 3 0 2 0 2 0 2 0 2 0 3 0 
2 0 2 -1 2 0 3 0 2 0 2 0 2 0 2 0 
3 0 2 0 2 0 2 0 2 0 3 0 2 0 2 0 
2 0 2 0 3 0 2 0 2 0 2 0 3 -1 2 0 
2 0 2 0 2 0 3 0 2 0 2 0 2 0 2 0 
3 0 2 0 2 0 2 0 2 0 3 0 2 0 2 0 
2 -1 3 0 2 0 2 0 2 0 2 0 3 0 2 0 
2 0 2 0 2 0 3 0 2 0 2 0 2 0 2 0 
3 -1 2 0 2 0 2 0 2 0 3 0 2 0 2 0 
2 0 3 0 2 0 2 0 2 0 2 0 3 0 2 -1 
2 0 2 0 2 0 3 0 2 0 2 0 2 0 2 0 
3 0 2 0 2 0 2 0 3 -1 2 0 2 0 2 0 
2 0 3 0 2 0 2 0 2 0 2 0 3 0 2 0 
2 0 2 -1 2 0 3 0 2 0 2 0 2 0 3 0 
2 0 2 0 2 0 2 0 3 -1 2 0 2 0 2 0 
2 0 3 0 2 0 2 0 2 0 2 0 3 0 2 -1 
2 0 2 0 3 0 2 0 2 0 2 0 2 0 3 0 
2 0 2 -1 2 0 2 0 3 0 2 0 2 0 2 0 
2 0 3 0 2 -1 2 0 2 0 3 0 2 0 2 0 
2 0 2 0 3 0 2 -1 2 0 2 0 2 0 3 0 
2 0 2 0 2 0 2 -1 3 0 2 0 2 0 2 0 
2 0 3 0 2 -1 2 0 2 0 3 0 2 0 2 0 
2 0 2 0 3 -1 2 0 2 0 2 0 2 0 3 0 
2 0 2 -1 2 0 2 0 3 0 2 0 2 0 2 -1 
3 0 2 0 2 0 2 0 2 0 3 -1 2 0 2 0 
2 0 2 0 3 0 2 -1 2 0 2 0 2 0 3 0 
2 0 2 -1 2 0 3 0 2 0 2 0 2 -1 2 0 
3 0 2 0 2 0 2 -1 2 0 3 0 2 0 2 0 
2 -1 2 0 3 0 2 0 2 0 2 -1 3 0 2 0 
2 0 2 -1 2 0 3 0 2 0 2 0 2 -1 2 0 
3 0 2 0 2 -1 2 0 2 0 3 0 2 -1 2 0 
2 0 3 0 2 -1 2 0 2 0 2 -1 3 0 2 0 
2 0 2 -1 2 0 3 0 2 -1 2 0 2 0 2 0 
3 -1 2 0 2 0 3542 3230 300 MP stroke
2 -1 2 0 3 0 2 -1 2 0 2 0 3 -1 2 0 
2 0 2 -1 2 0 3 0 2 -1 2 0 2 -1 2 0 
3 0 2 -1 2 0 2 -1 2 0 3 0 2 -1 2 0 
2 -1 3 0 2 -1 2 0 2 0 2 -1 3 0 2 -1 
2 0 2 -1 2 0 3 -1 2 0 2 -1 2 -1 2 0 
3 -1 2 0 2 -1 2 0 3 -1 2 -1 2 0 2 -1 
2 -1 3 0 2 -1 2 -1 2 0 2 -1 3 -1 2 -1 
2 0 2 -1 2 -1 3 -1 2 -1 2 -1 2 -1 3 -1 
2 -1 2 -1 2 -1 2 -1 3 -1 2 -1 2 -2 2 -1 
2 -1 3 -2 2 -1 2 -2 2 -1 2 -2 3 -2 2 -2 
2 -2 2 -2 3 -2 2 -2 2 -3 2 -3 2 -3 3 -3 
2 -4 2 -4 2 -4 2 -5 3 -6 2 -7 2 -8 2 -9 
2 -12 3 -15 2 -21 2 -31 2 -58 3319 3491 102 MP stroke
DA
3 0 2 0 2 0 2 0 3 1 2 0 2 0 2 0 
2 0 3 0 2 0 2 0 2 0 2 0 3 1 2 0 
2 0 2 0 2 0 3 0 2 0 2 0 2 0 3 0 
2 1 2 0 2 0 2 0 3 0 2 0 2 0 2 0 
2 0 3 0 2 1 2 0 2 0 2 0 3 0 2 0 
2 0 2 0 3 0 2 0 2 1 2 0 2 0 3 0 
2 0 2 0 2 0 2 0 3 0 2 0 2 1 2 0 
2 0 3 0 2 0 2 0 2 0 3 0 2 0 2 0 
2 1 2 0 3 0 2 0 2 0 2 0 2 0 3 0 
2 0 2 0 2 0 2 1 3 0 2 0 2 0 2 0 
3 0 2 0 2 0 2 0 2 0 3 1 2 0 2 0 
2 0 2 0 3 0 2 0 2 0 2 0 2 0 3 0 
2 1 2 0 2 0 2 0 3 0 2 0 2 0 2 0 
3 0 2 0 2 0 2 1 2 0 3 0 2 0 2 0 
2 0 2 0 3 0 2 0 2 0 2 0 2 1 3 0 
2 0 2 0 2 0 3 0 2 0 2 0 2 0 2 0 
3 0 2 1 2 0 2 0 2 0 3 0 2 0 2 0 
2 0 2 0 3 0 2 0 2 0 2 1 3 0 2 0 
2 0 2 0 2 0 3 0 2 0 2 0 2 0 2 0 
3 1 2 0 2 0 2 0 2 0 3 0 2 0 2 0 
2 0 3 0 2 0 2 0 2 1 2 0 3 0 2 0 
2 0 2 0 2 0 3 0 2 0 2 0 2 0 2 0 
3 0 2 1 2 0 2 0 3 0 2 0 2 0 2 0 
2 0 3 0 2 0 2 0 2 0 2 1 3 0 2 0 
2 0 2 0 2 0 3 0 2 0 2 0 2 0 2 0 
3 0 2 0 2 1 2 0 3 0 2 0 2 0 2 0 
2 0 3 0 2 0 2 0 2 0 2 0 3 0 2 0 
2 1 2 0 2 0 3 0 2 0 2 0 2 0 3 0 
2 0 2 0 2 0 2 0 3 0 2 0 2 1 2 0 
2 0 3 0 2 0 2 0 2 0 2 0 3 0 2 0 
2 0 2 0 3 0 2 0 2 0 2 1 2 0 3 0 
2 0 2 0 2 0 2 0 3 0 2 0 2 0 2 0 
2 0 3 0 2 0 2 0 2 0 3 1 2 0 2 0 
2 0 2 0 3 0 2 0 2 0 2 0 2 0 3 0 
2 0 2 0 2 0 2 0 3 0 2 1 2 0 2 0 
3 0 2 0 2 0 2 0 2 0 3 0 2 0 2 0 
2 0 2 0 3 0 2 0 2 0 2 0 2 0 3 1 
2 0 2 0 2 0 4203 3821 300 MP stroke
2 0 3 0 2 0 2 0 2 0 3 0 2 0 2 0 
2 0 2 0 3 0 2 0 2 0 2 0 2 0 3 0 
2 0 2 1 2 0 2 0 3 0 2 0 2 0 2 0 
3 0 2 0 2 0 2 0 2 0 3 0 2 0 2 0 
2 0 2 0 3 0 2 0 2 0 2 0 2 0 3 0 
2 0 2 1 2 0 3 0 2 0 2 0 2 0 2 0 
3 0 2 0 2 0 2 0 2 0 3 0 2 0 2 0 
2 0 2 0 3 0 2 0 2 0 2 0 3 0 2 0 
2 0 2 0 2 0 3 0 2 0 2 0 2 0 2 0 
3 0 2 1 2 0 2 0 2 0 3 0 2 0 2 0 
2 0 3 0 2 0 2 0 2 0 2 0 3 0 2 0 
2 0 2 0 2 0 3 0 2 0 2 0 2 0 2 0 
3 0 2 0 2 0 2 0 2 0 3 0 2 0 2 0 
2 0 3 0 2 0 2 0 2 0 2 0 3 0 2 0 
2 0 2 0 2 0 3 0 2 0 2 0 2 0 2 0 
3 0 2 0 2 0 2 0 3 0 2 0 2 0 2 0 
2 0 3 0 2 0 2 0 2 0 2 0 3 0 2 0 
2 0 2 0 2 0 3 0 2 0 2 0 2 0 3 0 
2 0 2 0 2 0 2 0 3 0 2 0 2 0 2 0 
2 0 3 0 2 0 2 0 2 0 2 0 3 0 2 -1 
2 0 2 0 3 0 2 0 2 0 2 0 2 0 3 0 
2 0 2 0 2 0 2 0 3 0 2 0 2 0 2 0 
2 0 3 0 2 0 2 0 2 0 3 0 2 0 2 0 
2 -1 2 0 3 0 2 0 2 0 2 0 2 0 3 0 
2 0 2 0 2 0 2 0 3 0 2 0 2 0 2 0 
2 -1 3 0 2 0 2 0 2 0 3 0 2 0 2 0 
2 0 2 0 3 0 2 0 2 0 2 -1 2 0 3 0 
2 0 2 0 2 0 2 0 3 0 2 0 2 0 2 -1 
3 0 2 0 2 0 2 0 2 0 3 0 2 0 2 0 
2 -1 2 0 3 0 2 0 2 0 2 0 2 0 3 0 
2 -1 2 0 2 0 3 0 2 0 2 0 2 0 2 -1 
3 0 2 0 2 0 2 0 2 0 3 0 2 -1 2 0 
2 0 2 0 3 0 2 0 2 -1 2 0 3 0 2 0 
2 0 2 -1 2 0 3 0 2 0 2 0 2 -1 2 0 
3 0 2 0 2 0 2 -1 2 0 3 0 2 0 2 0 
2 -1 3 0 2 0 2 0 2 -1 2 0 3 0 2 0 
2 -1 2 0 2 0 3 -1 2 0 2 0 2 0 2 -1 
3 0 2 0 2 -1 3542 3837 300 MP stroke
2 0 2 0 3 0 2 -1 2 0 2 0 3 -1 2 0 
2 -1 2 0 2 0 3 -1 2 0 2 0 2 -1 2 0 
3 -1 2 0 2 0 2 -1 2 0 3 -1 2 0 2 -1 
2 0 3 0 2 -1 2 0 2 -1 2 0 3 -1 2 0 
2 -1 2 -1 2 0 3 -1 2 0 2 -1 2 0 2 -1 
3 -1 2 0 2 -1 2 -1 3 0 2 -1 2 -1 2 0 
2 -1 3 -1 2 -1 2 -1 2 0 2 -1 3 -1 2 -1 
2 -1 2 -1 2 -1 3 -1 2 -1 2 -1 2 -1 3 -1 
2 -1 2 -1 2 -1 2 -2 3 -1 2 -1 2 -2 2 -1 
2 -2 3 -1 2 -2 2 -1 2 -2 2 -2 3 -2 2 -2 
2 -2 2 -2 3 -3 2 -2 2 -3 2 -3 2 -3 3 -3 
2 -3 2 -4 2 -4 2 -5 3 -5 2 -5 2 -7 2 -7 
2 -9 3 -11 2 -13 2 -20 2 -34 3319 4046 102 MP stroke
DO
2 0 2 0 2 0 3 0 2 0 2 0 2 0 2 0 
3 0 2 0 2 -1 2 0 2 0 3 0 2 0 2 0 
2 0 2 0 3 0 2 0 2 0 2 0 3 0 2 0 
2 0 2 0 2 0 3 0 2 0 2 -1 2 0 2 0 
3 0 2 0 2 0 2 0 2 0 3 0 2 0 2 0 
2 0 3 0 2 0 2 0 2 0 2 0 3 0 2 -1 
2 0 2 0 2 0 3 0 2 0 2 0 2 0 2 0 
3 0 2 0 2 0 2 0 3 0 2 0 2 0 2 0 
2 -1 3 0 2 0 2 0 2 0 2 0 3 0 2 0 
2 0 2 0 2 0 3 0 2 0 2 0 2 0 3 0 
2 0 2 -1 2 0 2 0 3 0 2 0 2 0 2 0 
2 0 3 0 2 0 2 0 2 0 2 0 3 0 2 0 
2 -1 2 0 2 0 3 0 2 0 2 0 2 0 3 0 
2 0 2 0 2 0 2 0 3 0 2 0 2 0 2 -1 
2 0 3 0 2 0 2 0 2 0 2 0 3 0 2 0 
2 0 2 0 3 0 2 0 2 -1 2 0 2 0 3 0 
2 0 2 0 2 0 2 0 3 0 2 0 2 0 2 0 
2 0 3 0 2 -1 2 0 2 0 3 0 2 0 2 0 
2 0 2 0 3 0 2 0 2 0 2 0 2 0 3 -1 
2 0 2 0 2 0 2 0 3 0 2 0 2 0 2 0 
3 0 2 0 2 0 2 -1 2 0 3 0 2 0 2 0 
2 0 2 0 3 0 2 0 2 0 2 0 2 -1 3 0 
2 0 2 0 2 0 3 0 2 0 2 0 2 0 2 0 
3 0 2 0 2 -1 2 0 2 0 3 0 2 0 2 0 
2 0 2 0 3 0 2 0 2 0 2 -1 2 0 3 0 
2 0 2 0 2 0 3 0 2 0 2 0 2 0 2 -1 
3 0 2 0 2 0 2 0 2 0 3 0 2 0 2 0 
2 0 2 -1 3 0 2 0 2 0 2 0 3 0 2 0 
2 0 2 0 2 0 3 -1 2 0 2 0 2 0 2 0 
3 0 2 0 2 0 2 0 2 -1 3 0 2 0 2 0 
2 0 3 0 2 0 2 0 2 0 2 -1 3 0 2 0 
2 0 2 0 2 0 3 0 2 0 2 0 2 -1 2 0 
3 0 2 0 2 0 2 0 3 0 2 0 2 -1 2 0 
2 0 3 0 2 0 2 0 2 0 2 0 3 0 2 -1 
2 0 2 0 2 0 3 0 2 0 2 0 2 0 3 -1 
2 0 2 0 2 0 2 0 3 0 2 0 2 -1 2 0 
2 0 3 0 2 0 2 0 2 0 2 0 3 -1 2 0 
2 0 2 0 2 0 4201 3077 300 MP stroke
3 0 2 0 2 -1 2 0 3 0 2 0 2 0 2 0 
2 0 3 -1 2 0 2 0 2 0 2 0 3 0 2 0 
2 -1 2 0 2 0 3 0 2 0 2 0 2 0 3 -1 
2 0 2 0 2 0 2 0 3 0 2 -1 2 0 2 0 
2 0 3 0 2 0 2 0 2 -1 2 0 3 0 2 0 
2 0 2 0 3 -1 2 0 2 0 2 0 2 0 3 0 
2 -1 2 0 2 0 2 0 3 0 2 0 2 -1 2 0 
2 0 3 0 2 0 2 0 2 -1 3 0 2 0 2 0 
2 0 2 -1 3 0 2 0 2 0 2 0 2 0 3 -1 
2 0 2 0 2 0 2 0 3 -1 2 0 2 0 2 0 
3 0 2 -1 2 0 2 0 2 0 3 0 2 0 2 -1 
2 0 2 0 3 0 2 0 2 -1 2 0 2 0 3 0 
2 -1 2 0 2 0 2 0 3 0 2 -1 2 0 2 0 
3 0 2 0 2 -1 2 0 2 0 3 0 2 -1 2 0 
2 0 2 0 3 0 2 -1 2 0 2 0 2 0 3 -1 
2 0 2 0 2 0 3 0 2 -1 2 0 2 0 2 0 
3 -1 2 0 2 0 2 0 2 -1 3 0 2 0 2 0 
2 -1 2 0 3 0 2 0 2 -1 2 0 3 0 2 0 
2 -1 2 0 2 0 3 0 2 -1 2 0 2 0 2 -1 
3 0 2 0 2 0 2 -1 2 0 3 0 2 -1 2 0 
2 0 3 0 2 -1 2 0 2 0 2 -1 3 0 2 0 
2 0 2 -1 2 0 3 0 2 -1 2 0 2 0 2 -1 
3 0 2 0 2 0 2 -1 3 0 2 0 2 -1 2 0 
2 0 3 -1 2 0 2 0 2 -1 2 0 3 0 2 -1 
2 0 2 0 2 -1 3 0 2 0 2 -1 2 0 2 -1 
3 0 2 0 2 -1 2 0 3 0 2 -1 2 0 2 0 
2 -1 3 0 2 -1 2 0 2 0 2 -1 3 0 2 -1 
2 0 2 0 2 -1 3 0 2 -1 2 0 2 0 3 -1 
2 0 2 -1 2 0 2 0 3 -1 2 0 2 -1 2 0 
2 -1 3 0 2 -1 2 0 2 0 2 -1 3 0 2 -1 
2 0 2 -1 3 0 2 -1 2 0 2 -1 2 0 3 -1 
2 0 2 -1 2 0 2 -1 3 0 2 -1 2 0 2 -1 
2 0 3 -1 2 0 2 -1 2 0 3 -1 2 -1 2 0 
2 -1 2 0 3 -1 2 0 2 -1 2 -1 2 0 3 -1 
2 0 2 -1 2 -1 2 0 3 -1 2 -1 2 0 2 -1 
3 0 2 -1 2 -1 2 0 2 -1 3 -1 2 -1 2 0 
2 -1 2 -1 3 0 2 -1 2 -1 2 -1 2 0 3 -1 
2 -1 2 -1 2 0 3540 3173 300 MP stroke
2 -1 3 -1 2 -1 2 -1 2 0 3 -1 2 -1 2 -1 
2 -1 2 -1 3 -1 2 -1 2 0 2 -1 2 -1 3 -1 
2 -1 2 -1 2 -1 2 -1 3 -1 2 -1 2 -1 2 -1 
3 -1 2 -2 2 -1 2 -1 2 -1 3 -1 2 -1 2 -1 
2 -2 2 -1 3 -1 2 -1 2 -2 2 -1 2 -1 3 -2 
2 -1 2 -1 2 -2 3 -1 2 -2 2 -1 2 -2 2 -1 
3 -2 2 -2 2 -1 2 -2 2 -2 3 -2 2 -1 2 -2 
2 -2 2 -2 3 -2 2 -2 2 -3 2 -2 3 -2 2 -2 
2 -3 2 -2 2 -3 3 -2 2 -3 2 -3 2 -3 2 -3 
3 -3 2 -3 2 -3 2 -4 2 -4 3 -3 2 -4 2 -5 
2 -4 3 -5 2 -5 2 -5 2 -6 2 -6 3 -6 2 -7 
2 -7 2 -9 2 -9 3 -10 2 -11 2 -13 2 -15 2 -17 
3 -22 2 -29 2 -41 2 -72 3319 3607 101 MP stroke
gr

c9
DO
0 sg
%%IncludeResource: font Helvetica
/Helvetica /ISOLatin1Encoding 120 FMSR

4072 4712 mt 
(t) s
2878 3845 mt  -90 rotate
(error in v) s
90 rotate
%%IncludeResource: font Helvetica
/Helvetica /ISOLatin1Encoding 96 FMSR

2938 3372 mt  -90 rotate
(C) s
90 rotate
SO
1 sg
0 1696 1467 0 0 -1696 5586 4424 4 MP
PP
-1467 0 0 1696 1467 0 0 -1696 5586 4424 5 MP stroke
4 w
DO
SO
6 w
0 sg
5586 4424 mt 7053 4424 L
5586 2728 mt 7053 2728 L
5586 4424 mt 5586 2728 L
7053 4424 mt 7053 2728 L
5586 4424 mt 7053 4424 L
5586 4424 mt 5586 2728 L
5586 4424 mt 5586 4407 L
5586 2728 mt 5586 2744 L
%%IncludeResource: font Helvetica
/Helvetica /ISOLatin1Encoding 120 FMSR

5553 4569 mt 
(0) s
6005 4424 mt 6005 4407 L
6005 2728 mt 6005 2744 L
5972 4569 mt 
(2) s
6424 4424 mt 6424 4407 L
6424 2728 mt 6424 2744 L
6391 4569 mt 
(4) s
6843 4424 mt 6843 4407 L
6843 2728 mt 6843 2744 L
6810 4569 mt 
(6) s
5586 4424 mt 5586 4424 L
5586 4424 mt 5586 4424 L
5586 4424 mt 5586 4424 L
5586 4424 mt 5586 4424 L
5586 4424 mt 5586 4424 L
5586 4424 mt 5586 4424 L
5586 4424 mt 5586 4424 L
5586 4424 mt 5586 4424 L
5586 4424 mt 5586 4424 L
5586 4424 mt 5586 4424 L
5586 4424 mt 5586 4424 L
5586 4424 mt 5586 4424 L
5586 4424 mt 5586 4424 L
5586 4424 mt 5586 4424 L
5586 4424 mt 5586 4424 L
5586 4424 mt 5586 4424 L
5586 4424 mt 5586 4424 L
5586 4424 mt 5586 4424 L
5586 4424 mt 5602 4424 L
7053 4424 mt 7036 4424 L
5283 4468 mt 
(10) s
%%IncludeResource: font Helvetica
/Helvetica /ISOLatin1Encoding 80 FMSR

5416 4394 mt 
(-15) s
5586 4424 mt 5586 4424 L
5586 4424 mt 5586 4424 L
5586 4424 mt 5586 4424 L
5586 4424 mt 5586 4424 L
5586 4424 mt 5586 4424 L
5586 4424 mt 5586 4424 L
5586 4424 mt 5586 4424 L
5586 4424 mt 5586 4424 L
5586 4424 mt 5586 4424 L
5586 4424 mt 5586 4424 L
5586 4424 mt 5586 4424 L
5586 4424 mt 5586 4424 L
5586 4424 mt 5586 4424 L
5586 4424 mt 5586 4424 L
5586 4424 mt 5586 4424 L
5586 4424 mt 5586 4424 L
5586 4424 mt 5586 4424 L
5586 4424 mt 5586 4424 L
5586 3858 mt 5602 3858 L
7053 3858 mt 7036 3858 L
%%IncludeResource: font Helvetica
/Helvetica /ISOLatin1Encoding 120 FMSR

5283 3902 mt 
(10) s
%%IncludeResource: font Helvetica
/Helvetica /ISOLatin1Encoding 80 FMSR

5416 3828 mt 
(-10) s
5586 4424 mt 5586 4424 L
5586 4424 mt 5586 4424 L
5586 4424 mt 5586 4424 L
5586 4424 mt 5586 4424 L
5586 4424 mt 5586 4424 L
5586 4424 mt 5586 4424 L
5586 4424 mt 5586 4424 L
5586 4424 mt 5586 4424 L
5586 4424 mt 5586 4424 L
5586 4424 mt 5586 4424 L
5586 4424 mt 5586 4424 L
5586 4424 mt 5586 4424 L
5586 4424 mt 5586 4424 L
5586 4424 mt 5586 4424 L
5586 4424 mt 5586 4424 L
5586 4424 mt 5586 4424 L
5586 4424 mt 5586 4424 L
5586 4424 mt 5586 4424 L
5586 3293 mt 5602 3293 L
7053 3293 mt 7036 3293 L
%%IncludeResource: font Helvetica
/Helvetica /ISOLatin1Encoding 120 FMSR

5283 3337 mt 
(10) s
%%IncludeResource: font Helvetica
/Helvetica /ISOLatin1Encoding 80 FMSR

5416 3263 mt 
(-5) s
5586 4424 mt 5586 4424 L
5586 4424 mt 5586 4424 L
5586 4424 mt 5586 4424 L
5586 4424 mt 5586 4424 L
5586 4424 mt 5586 4424 L
5586 4424 mt 5586 4424 L
5586 4424 mt 5586 4424 L
5586 4424 mt 5586 4424 L
5586 4424 mt 5586 4424 L
5586 4424 mt 5586 4424 L
5586 4424 mt 5586 4424 L
5586 4424 mt 5586 4424 L
5586 4424 mt 5586 4424 L
5586 4424 mt 5586 4424 L
5586 4424 mt 5586 4424 L
5586 4424 mt 5586 4424 L
5586 4424 mt 5586 4424 L
5586 4424 mt 5586 4424 L
5586 2728 mt 5602 2728 L
7053 2728 mt 7036 2728 L
%%IncludeResource: font Helvetica
/Helvetica /ISOLatin1Encoding 120 FMSR

5283 2772 mt 
(10) s
%%IncludeResource: font Helvetica
/Helvetica /ISOLatin1Encoding 80 FMSR

5416 2698 mt 
(0) s
5586 4424 mt 5586 4424 L
5586 4424 mt 5586 4424 L
5586 4424 mt 5586 4424 L
5586 4424 mt 5586 4424 L
5586 4424 mt 5586 4424 L
5586 4424 mt 5586 4424 L
5586 4424 mt 5586 4424 L
5586 4424 mt 5586 4424 L
5586 4424 mt 5586 4424 L
5586 4424 mt 5586 4424 L
5586 4424 mt 5586 4424 L
5586 4424 mt 5586 4424 L
5586 4424 mt 5586 4424 L
5586 4424 mt 5586 4424 L
5586 4424 mt 5586 4424 L
5586 4424 mt 5586 4424 L
5586 4424 mt 5586 4424 L
5586 4424 mt 5586 4424 L
5586 4424 mt 7053 4424 L
5586 2728 mt 7053 2728 L
5586 4424 mt 5586 2728 L
7053 4424 mt 7053 2728 L
gs 5586 2728 1468 1697 rc
c9
3 -6 2 7 2 -6 2 3 2 2 2 -5 2 5 2 -4 
2 3 2 -1 3 -2 2 5 2 -8 2 8 2 -4 2 -1 
2 4 2 -5 2 6 2 -8 3 8 2 -4 2 0 2 2 
2 -2 2 2 2 -2 2 1 2 1 2 -5 2 7 3 -6 
2 5 2 -5 2 6 2 -7 2 5 2 -1 2 -2 2 4 
2 -4 3 2 2 1 2 -4 2 5 2 -4 2 3 2 -2 
2 0 2 1 2 -1 2 -1 3 4 2 -6 2 6 2 -5 
2 4 2 -3 2 3 2 -2 2 0 2 1 3 -2 2 3 
2 -3 2 2 2 -1 2 0 2 1 2 -3 2 5 2 -5 
2 3 3 0 2 -3 2 4 2 -4 2 4 2 -4 2 4 
2 -2 2 0 2 0 3 0 2 0 2 0 2 0 2 0 
2 0 2 -1 2 3 2 -4 2 3 2 -2 3 3 2 -4 
2 4 2 -4 2 4 2 -5 2 6 2 -6 2 5 2 -3 
3 1 2 -1 2 2 2 -3 2 3 2 -3 2 4 2 -5 
2 4 2 -1 3 -1 2 2 2 -2 2 1 2 0 2 0 
2 -2 2 3 2 -2 2 1 2 1 3 -3 2 2 2 0 
2 -1 2 1 2 -1 2 1 2 -1 2 1 2 -1 3 1 
2 0 2 0 2 -2 2 3 2 -3 2 2 2 -1 2 0 
2 1 2 -1 3 0 2 0 2 1 2 -1 2 0 2 1 
2 -2 2 2 2 -1 2 0 3 1 2 -2 2 2 2 -2 
2 1 2 0 2 0 2 1 2 -2 2 2 2 -1 3 0 
2 0 2 0 2 0 2 0 2 0 2 0 2 -1 2 1 
2 0 3 -2 2 4 2 -4 2 3 2 -2 2 1 2 -1 
2 1 2 0 2 0 2 -1 3 1 2 0 2 -2 2 3 
2 -2 2 1 2 0 2 -1 2 1 2 -1 3 1 2 -1 
2 0 2 1 2 -1 2 1 2 -1 2 0 2 0 2 0 
3 0 2 0 2 0 2 0 2 0 2 0 2 0 2 0 
2 0 2 0 2 0 3 0 2 0 2 0 2 0 2 -1 
2 1 2 0 2 -1 2 1 2 -1 3 1 2 -1 2 1 
2 -1 2 1 2 -1 2 1 2 -1 2 0 2 1 2 -1 
3 1 2 -1 2 0 2 0 2 0 2 0 2 0 2 0 
2 0 2 0 3 0 2 0 2 0 2 0 2 0 2 0 
2 0 2 0 2 0 2 0 2 0 3 0 2 0 2 0 
2 -1 2 0 2 1 2 -1 2 0 2 0 2 0 3 0 
2 0 2 0 2 0 2 0 2 0 2 0 2 0 2 0 
2 0 2 0 3 0 2 0 2 0 2 -1 2 1 2 0 
2 0 2 0 2 0 2 -1 3 1 2 0 2 -1 2 1 
2 -1 2 0 2 0 6426 3197 300 MP stroke
2 0 2 0 2 0 3 0 2 0 2 0 2 0 2 0 
2 0 2 0 2 0 2 0 2 0 2 0 3 0 2 0 
2 -1 2 1 2 -1 2 0 2 0 2 0 2 0 2 0 
3 0 2 0 2 0 2 0 2 0 2 0 2 0 2 0 
2 0 2 0 2 0 3 0 2 0 2 0 2 -1 2 0 
2 0 2 0 2 0 2 0 2 0 3 0 2 0 2 0 
2 0 2 0 2 0 2 0 2 0 2 0 2 0 2 0 
3 -1 2 0 2 0 2 0 2 0 2 0 2 0 2 0 
2 0 2 0 3 0 2 0 2 0 2 0 2 -1 2 1 
2 -1 2 0 2 0 2 0 2 0 3 0 2 0 2 0 
2 0 2 0 2 0 2 0 2 0 2 0 2 0 3 -1 
2 0 2 0 2 0 2 0 2 0 2 0 2 0 2 0 
2 0 2 0 3 0 2 0 2 0 2 -1 2 0 2 0 
2 0 2 0 2 0 2 0 3 0 2 0 2 0 2 0 
2 0 2 -1 2 0 2 0 2 0 2 0 3 0 2 0 
2 0 2 0 2 0 2 0 2 0 2 -1 2 0 2 0 
2 0 3 0 2 0 2 0 2 0 2 0 2 0 2 -1 
2 0 2 0 2 0 3 0 2 0 2 0 2 0 2 0 
2 0 2 -1 2 0 2 0 2 0 2 0 3 0 2 0 
2 0 2 0 2 0 2 -1 2 0 2 0 2 0 2 0 
3 0 2 0 2 0 2 -1 2 0 2 0 2 0 2 0 
2 0 2 0 2 0 3 0 2 -1 2 0 2 0 2 0 
2 0 2 0 2 0 2 -1 2 0 3 0 2 0 2 0 
2 0 2 0 2 0 2 -1 2 0 2 0 2 0 2 0 
3 0 2 0 2 -1 2 0 2 0 2 0 2 0 2 0 
2 -1 2 0 3 0 2 0 2 0 2 0 2 -1 2 0 
2 0 2 0 2 0 2 0 3 -1 2 0 2 0 2 0 
2 0 2 0 2 -1 2 0 2 0 2 0 2 0 3 -1 
2 0 2 0 2 0 2 0 2 0 2 -1 2 0 2 0 
2 0 3 0 2 -1 2 0 2 0 2 0 2 -1 2 0 
2 0 2 0 2 0 2 -1 3 0 2 0 2 0 2 -1 
2 0 2 0 2 0 2 -1 2 0 2 0 3 0 2 -1 
2 0 2 0 2 0 2 -1 2 0 2 0 2 0 2 -1 
2 0 3 0 2 -1 2 0 2 0 2 0 2 -1 2 0 
2 0 2 -1 2 0 3 0 2 -1 2 0 2 0 2 -1 
2 0 2 0 2 -1 2 0 2 0 2 -1 3 0 2 0 
2 -1 2 0 2 -1 2 0 2 0 2 -1 2 0 2 -1 
3 0 2 -1 2 0 5799 3239 300 MP stroke
2 0 2 -1 2 0 2 -1 2 0 2 -1 2 0 3 -1 
2 0 2 -1 2 -1 2 0 2 -1 2 0 2 -1 2 -1 
2 0 2 -1 3 0 2 -1 2 -1 2 -1 2 0 2 -1 
2 -1 2 -1 2 -1 2 -1 3 -1 2 -1 2 -1 2 -1 
2 -1 2 -1 2 -1 2 -1 2 -2 2 -1 2 -2 3 -1 
2 -2 2 -2 2 -2 2 -2 2 -2 2 -2 2 -3 2 -2 
2 -3 3 -4 2 -3 2 -4 2 -5 2 -5 2 -6 2 -8 
2 -9 2 -11 2 -15 2 -24 3 -52 2 -4 2 57 2 27 
2 17 2 14 2 11 2 9 2 8 2 7 3 7 2 6 
2 6 2 5 2 5 2 5 2 4 2 4 2 5 2 4 
2 3 3 4 2 4 2 3 2 4 2 3 2 4 2 3 
2 3 2 4 2 -8 3 -16 2 -25 2 68 2 -28 2 -34 
2 4 2 7 2 58 2 -45 2 190 5588 3034 102 MP stroke
DA
3 0 2 0 2 0 2 0 2 1 2 0 2 0 2 0 
2 0 2 0 3 0 2 0 2 0 2 0 2 1 2 0 
2 0 2 0 2 0 2 0 3 0 2 0 2 0 2 0 
2 1 2 0 2 0 2 0 2 0 2 0 2 0 3 0 
2 0 2 0 2 1 2 0 2 0 2 0 2 0 2 0 
2 0 3 0 2 0 2 0 2 1 2 0 2 0 2 0 
2 0 2 0 2 0 2 0 3 0 2 0 2 1 2 0 
2 0 2 0 2 0 2 0 2 0 2 0 3 0 2 0 
2 1 2 0 2 0 2 0 2 0 2 0 2 0 2 0 
2 0 3 0 2 0 2 1 2 0 2 0 2 0 2 0 
2 0 2 0 2 0 3 0 2 0 2 1 2 0 2 0 
2 0 2 0 2 0 2 0 2 0 2 0 3 0 2 0 
2 1 2 0 2 0 2 0 2 0 2 0 2 0 2 0 
3 0 2 0 2 0 2 1 2 0 2 0 2 0 2 0 
2 0 2 0 3 0 2 0 2 0 2 0 2 1 2 0 
2 0 2 0 2 0 2 0 2 0 3 0 2 0 2 0 
2 0 2 1 2 0 2 0 2 0 2 0 2 0 3 0 
2 0 2 0 2 0 2 0 2 0 2 1 2 0 2 0 
2 0 2 0 3 0 2 0 2 0 2 0 2 0 2 0 
2 0 2 1 2 0 2 0 3 0 2 0 2 0 2 0 
2 0 2 0 2 0 2 0 2 0 2 1 2 0 3 0 
2 0 2 0 2 0 2 0 2 0 2 0 2 0 2 0 
2 0 3 1 2 0 2 0 2 0 2 0 2 0 2 0 
2 0 2 0 2 0 2 0 3 0 2 0 2 1 2 0 
2 0 2 0 2 0 2 0 2 0 2 0 3 0 2 0 
2 0 2 0 2 0 2 1 2 0 2 0 2 0 2 0 
3 0 2 0 2 0 2 0 2 0 2 0 2 0 2 0 
2 1 2 0 2 0 3 0 2 0 2 0 2 0 2 0 
2 0 2 0 2 0 2 0 2 0 3 0 2 1 2 0 
2 0 2 0 2 0 2 0 2 0 2 0 2 0 2 0 
3 0 2 0 2 0 2 0 2 0 2 1 2 0 2 0 
2 0 2 0 3 0 2 0 2 0 2 0 2 0 2 0 
2 0 2 0 2 0 2 0 2 0 3 1 2 0 2 0 
2 0 2 0 2 0 2 0 2 0 2 0 2 0 3 0 
2 0 2 0 2 0 2 0 2 0 2 1 2 0 2 0 
2 0 2 0 3 0 2 0 2 0 2 0 2 0 2 0 
2 0 2 0 2 0 2 0 3 0 2 0 2 0 2 0 
2 1 2 0 2 0 6426 3818 300 MP stroke
2 0 2 0 2 0 3 0 2 0 2 0 2 0 2 0 
2 0 2 0 2 0 2 0 2 0 2 0 3 0 2 0 
2 0 2 1 2 0 2 0 2 0 2 0 2 0 2 0 
3 0 2 0 2 0 2 0 2 0 2 0 2 0 2 0 
2 0 2 0 2 0 3 0 2 0 2 0 2 0 2 0 
2 0 2 1 2 0 2 0 2 0 3 0 2 0 2 0 
2 0 2 0 2 0 2 0 2 0 2 0 2 0 2 0 
3 0 2 0 2 0 2 0 2 0 2 0 2 0 2 0 
2 0 2 0 3 0 2 0 2 0 2 0 2 0 2 0 
2 0 2 1 2 0 2 0 2 0 3 0 2 0 2 0 
2 0 2 0 2 0 2 0 2 0 2 0 2 0 3 0 
2 0 2 0 2 0 2 0 2 0 2 0 2 0 2 0 
2 0 2 0 3 0 2 0 2 0 2 0 2 0 2 0 
2 0 2 0 2 0 2 0 3 0 2 0 2 0 2 0 
2 0 2 0 2 0 2 0 2 0 2 0 3 0 2 0 
2 0 2 0 2 0 2 0 2 0 2 0 2 0 2 0 
2 0 3 0 2 0 2 0 2 0 2 0 2 0 2 0 
2 0 2 0 2 0 3 0 2 0 2 0 2 0 2 0 
2 0 2 0 2 0 2 0 2 0 2 0 3 0 2 0 
2 0 2 0 2 0 2 0 2 0 2 0 2 0 2 -1 
3 0 2 0 2 0 2 0 2 0 2 0 2 0 2 0 
2 0 2 0 2 0 3 0 2 0 2 0 2 0 2 0 
2 0 2 0 2 0 2 0 2 0 3 0 2 0 2 0 
2 -1 2 0 2 0 2 0 2 0 2 0 2 0 2 0 
3 0 2 0 2 0 2 0 2 0 2 0 2 0 2 0 
2 -1 2 0 3 0 2 0 2 0 2 0 2 0 2 0 
2 0 2 0 2 0 2 0 3 0 2 -1 2 0 2 0 
2 0 2 0 2 0 2 0 2 0 2 0 2 0 3 -1 
2 0 2 0 2 0 2 0 2 0 2 0 2 0 2 0 
2 -1 3 0 2 0 2 0 2 0 2 0 2 0 2 0 
2 -1 2 0 2 0 2 0 3 0 2 0 2 0 2 -1 
2 0 2 0 2 0 2 0 2 0 2 0 3 -1 2 0 
2 0 2 0 2 0 2 0 2 -1 2 0 2 0 2 0 
2 0 3 -1 2 0 2 0 2 0 2 0 2 -1 2 0 
2 0 2 0 2 0 3 -1 2 0 2 0 2 0 2 0 
2 -1 2 0 2 0 2 0 2 -1 2 0 3 0 2 0 
2 -1 2 0 2 0 2 -1 2 0 2 0 2 0 2 -1 
3 0 2 0 2 -1 5799 3834 300 MP stroke
2 0 2 0 2 -1 2 0 2 0 2 0 2 -1 3 0 
2 -1 2 0 2 0 2 -1 2 0 2 0 2 -1 2 0 
2 -1 2 0 3 0 2 -1 2 0 2 -1 2 0 2 -1 
2 0 2 0 2 -1 2 0 3 -1 2 0 2 -1 2 0 
2 -1 2 -1 2 0 2 -1 2 0 2 -1 2 0 3 -1 
2 -1 2 0 2 -1 2 -1 2 0 2 -1 2 -1 2 0 
2 -1 3 -1 2 -1 2 -1 2 0 2 -1 2 -1 2 -1 
2 -1 2 -1 2 -1 2 -1 3 -1 2 -1 2 -1 2 -1 
2 -1 2 -1 2 -1 2 -2 2 -1 2 -1 3 -2 2 -1 
2 -2 2 -1 2 -2 2 -1 2 -2 2 -2 2 -2 2 -2 
2 -2 3 -2 2 -3 2 -2 2 -3 2 -3 2 -3 2 -3 
2 -3 2 -4 2 -4 3 -5 2 -5 2 -5 2 -7 2 -7 
2 -9 2 -11 2 -14 2 -19 2 -34 5588 4043 102 MP stroke
DO
2 0 2 0 2 0 2 0 2 0 2 0 2 0 2 -1 
2 0 3 0 2 0 2 0 2 0 2 0 2 0 2 0 
2 0 2 0 2 0 3 0 2 0 2 0 2 0 2 0 
2 -1 2 0 2 0 2 0 2 0 2 0 3 0 2 0 
2 0 2 0 2 0 2 0 2 0 2 0 2 0 2 0 
3 0 2 -1 2 0 2 0 2 0 2 0 2 0 2 0 
2 0 2 0 2 0 3 0 2 0 2 0 2 0 2 0 
2 0 2 -1 2 0 2 0 2 0 3 0 2 0 2 0 
2 0 2 0 2 0 2 0 2 0 2 0 2 0 2 0 
3 -1 2 0 2 0 2 0 2 0 2 0 2 0 2 0 
2 0 2 0 3 0 2 0 2 0 2 0 2 0 2 -1 
2 0 2 0 2 0 2 0 2 0 3 0 2 0 2 0 
2 0 2 0 2 0 2 0 2 0 2 -1 2 0 3 0 
2 0 2 0 2 0 2 0 2 0 2 0 2 0 2 0 
2 0 3 0 2 -1 2 0 2 0 2 0 2 0 2 0 
2 0 2 0 2 0 2 0 3 0 2 0 2 -1 2 0 
2 0 2 0 2 0 2 0 2 0 2 0 3 0 2 0 
2 0 2 0 2 -1 2 0 2 0 2 0 2 0 2 0 
2 0 3 0 2 0 2 0 2 0 2 0 2 -1 2 0 
2 0 2 0 2 0 3 0 2 0 2 0 2 0 2 0 
2 0 2 -1 2 0 2 0 2 0 2 0 3 0 2 0 
2 0 2 0 2 0 2 0 2 -1 2 0 2 0 2 0 
3 0 2 0 2 0 2 0 2 0 2 0 2 -1 2 0 
2 0 2 0 2 0 3 0 2 0 2 0 2 0 2 0 
2 -1 2 0 2 0 2 0 2 0 3 0 2 0 2 0 
2 0 2 0 2 -1 2 0 2 0 2 0 2 0 3 0 
2 0 2 0 2 0 2 -1 2 0 2 0 2 0 2 0 
2 0 2 0 3 0 2 0 2 -1 2 0 2 0 2 0 
2 0 2 0 2 0 2 0 3 -1 2 0 2 0 2 0 
2 0 2 0 2 0 2 0 2 0 2 -1 2 0 3 0 
2 0 2 0 2 0 2 0 2 0 2 -1 2 0 2 0 
2 0 3 0 2 0 2 0 2 0 2 -1 2 0 2 0 
2 0 2 0 2 0 2 0 3 -1 2 0 2 0 2 0 
2 0 2 0 2 0 2 0 2 -1 2 0 3 0 2 0 
2 0 2 0 2 0 2 -1 2 0 2 0 2 0 2 0 
2 0 3 0 2 -1 2 0 2 0 2 0 2 0 2 0 
2 -1 2 0 2 0 3 0 2 0 2 0 2 0 2 -1 
2 0 2 0 2 0 6424 3081 300 MP stroke
2 0 2 0 3 -1 2 0 2 0 2 0 2 0 2 0 
2 0 2 -1 2 0 2 0 2 0 3 0 2 0 2 -1 
2 0 2 0 2 0 2 0 2 -1 2 0 2 0 3 0 
2 0 2 0 2 -1 2 0 2 0 2 0 2 0 2 0 
2 -1 2 0 3 0 2 0 2 0 2 -1 2 0 2 0 
2 0 2 0 2 0 2 -1 3 0 2 0 2 0 2 0 
2 -1 2 0 2 0 2 0 2 0 2 -1 2 0 3 0 
2 0 2 0 2 -1 2 0 2 0 2 0 2 0 2 -1 
2 0 3 0 2 0 2 -1 2 0 2 0 2 0 2 0 
2 -1 2 0 2 0 2 0 3 -1 2 0 2 0 2 0 
2 0 2 -1 2 0 2 0 2 0 2 -1 3 0 2 0 
2 0 2 -1 2 0 2 0 2 0 2 -1 2 0 2 0 
2 0 3 -1 2 0 2 0 2 0 2 -1 2 0 2 0 
2 0 2 -1 2 0 3 0 2 0 2 -1 2 0 2 0 
2 0 2 -1 2 0 2 0 2 -1 3 0 2 0 2 0 
2 -1 2 0 2 0 2 -1 2 0 2 0 2 0 2 -1 
3 0 2 0 2 -1 2 0 2 0 2 -1 2 0 2 0 
2 -1 2 0 3 0 2 0 2 -1 2 0 2 0 2 -1 
2 0 2 0 2 -1 2 0 2 0 3 -1 2 0 2 -1 
2 0 2 0 2 -1 2 0 2 0 2 -1 2 0 3 0 
2 -1 2 0 2 -1 2 0 2 0 2 -1 2 0 2 0 
2 -1 2 0 3 -1 2 0 2 0 2 -1 2 0 2 -1 
2 0 2 -1 2 0 2 0 3 -1 2 0 2 -1 2 0 
2 -1 2 0 2 0 2 -1 2 0 2 -1 2 0 3 -1 
2 0 2 -1 2 0 2 -1 2 0 2 -1 2 0 2 -1 
2 0 3 -1 2 0 2 -1 2 0 2 -1 2 0 2 -1 
2 -1 2 0 2 -1 3 0 2 -1 2 0 2 -1 2 -1 
2 0 2 -1 2 0 2 -1 2 -1 2 0 3 -1 2 -1 
2 0 2 -1 2 -1 2 0 2 -1 2 -1 2 0 2 -1 
3 -1 2 0 2 -1 2 -1 2 -1 2 0 2 -1 2 -1 
2 -1 2 -1 2 -1 3 0 2 -1 2 -1 2 -1 2 -1 
2 -1 2 -1 2 -1 2 -1 2 -1 3 -1 2 -1 2 -1 
2 -1 2 -1 2 -1 2 -1 2 -1 2 -1 2 -1 2 -1 
3 -2 2 -1 2 -1 2 -1 2 -2 2 -1 2 -2 2 -1 
2 -1 2 -2 3 -1 2 -2 2 -2 2 -1 2 -2 2 -2 
2 -2 2 -2 2 -2 2 -2 2 -2 3 -2 2 -3 2 -2 
2 -3 2 -2 2 -3 2 -3 2 -3 2 -4 2 -3 3 -4 
2 -4 2 -5 2 -4 5797 3264 300 MP stroke
2 -6 2 -6 2 -7 2 -8 2 -9 2 -12 3 -15 2 -21 
2 -39 2 -80 2 96 2 30 2 19 2 13 2 10 2 9 
2 7 3 6 2 6 2 4 2 5 2 4 2 3 2 4 
2 3 2 3 2 3 3 2 2 2 2 3 2 2 2 2 
2 2 2 1 2 2 2 2 2 1 2 2 3 1 2 2 
2 1 2 1 2 1 2 1 2 1 2 1 2 1 2 1 
3 1 2 1 2 1 2 0 2 1 2 1 2 0 2 1 
2 0 2 1 2 0 3 1 2 0 2 0 2 1 2 0 
2 0 2 0 2 0 2 0 2 0 3 0 2 0 2 0 
2 -1 2 0 2 0 2 -1 2 -1 2 0 2 -1 2 -1 
3 -1 2 -1 2 -1 2 -2 2 -2 2 -1 2 -3 2 -2 
2 -3 2 -3 3 -3 2 -5 2 -5 2 -6 2 -7 2 -9 
2 -12 2 -18 2 -30 2 -117 5588 3437 101 MP stroke
gr

c9
DO
0 sg
%%IncludeResource: font Helvetica
/Helvetica /ISOLatin1Encoding 120 FMSR

6301 4712 mt 
(t) s
5147 3845 mt  -90 rotate
(error in v) s
90 rotate
%%IncludeResource: font Helvetica
/Helvetica /ISOLatin1Encoding 96 FMSR

5207 3372 mt  -90 rotate
(R) s
90 rotate
SO
1 sg
0 579 827 0 0 -579 80 2741 4 MP
PP
-827 0 0 579 827 0 0 -579 80 2741 5 MP stroke
4 w
DO
SO
6 w
0 sg
  80 2741 mt  907 2741 L
  80 2162 mt  907 2162 L
  80 2741 mt   80 2162 L
 907 2741 mt  907 2162 L
  80 2741 mt  907 2741 L
  80 2741 mt   80 2162 L
  80 2741 mt  907 2741 L
  80 2162 mt  907 2162 L
  80 2741 mt   80 2162 L
 907 2741 mt  907 2162 L
%%IncludeResource: font Helvetica
/Helvetica /ISOLatin1Encoding 120 FMSR

 569 2315 mt 
(BDF) s
gs 80 2162 828 580 rc
c9
375 0 155 2272 2 MP stroke
gr

c9
0 sg
 569 2494 mt 
(RK) s
gs 80 2162 828 580 rc
DA
c9
375 0 155 2451 2 MP stroke
SO
gr

c9
0 sg
 569 2673 mt 
(GLM) s
gs 80 2162 828 580 rc
DO
c9
375 0 155 2630 2 MP stroke
SO
gr

c9

end %%Color Dict

eplot
%%EndObject

epage
end

showpage

%%Trailer
%%EOF
