%!PS-Adobe-3.0 EPSF-3.0
%%Creator: MATLAB, The Mathworks, Inc.
%%Title: /homes/numerik/wunder/program/example_const.eps
%%CreationDate: 05/10/2005  09:51:35
%%DocumentNeededFonts: Helvetica
%%DocumentProcessColors: Cyan Magenta Yellow Black
%%LanguageLevel: 2
%%Pages: 1
%%BoundingBox:    36   193   574   597
%%EndComments

%%BeginProlog
% MathWorks dictionary
/MathWorks 160 dict begin
% definition operators
/bdef {bind def} bind def
/ldef {load def} bind def
/xdef {exch def} bdef
/xstore {exch store} bdef
% operator abbreviations
/c  /clip ldef
/cc /concat ldef
/cp /closepath ldef
/gr /grestore ldef
/gs /gsave ldef
/mt /moveto ldef
/np /newpath ldef
/cm /currentmatrix ldef
/sm /setmatrix ldef
/rm /rmoveto ldef
/rl /rlineto ldef
/s {show newpath} bdef
/sc {setcmykcolor} bdef
/sr /setrgbcolor ldef
/sg /setgray ldef
/w /setlinewidth ldef
/j /setlinejoin ldef
/cap /setlinecap ldef
/rc {rectclip} bdef
/rf {rectfill} bdef
% page state control
/pgsv () def
/bpage {/pgsv save def} bdef
/epage {pgsv restore} bdef
/bplot /gsave ldef
/eplot {stroke grestore} bdef
% orientation switch
/portraitMode 0 def /landscapeMode 1 def /rotateMode 2 def
% coordinate system mappings
/dpi2point 0 def
% font control
/FontSize 0 def
/FMS {/FontSize xstore findfont [FontSize 0 0 FontSize neg 0 0]
  makefont setfont} bdef
/reencode {exch dup where {pop load} {pop StandardEncoding} ifelse
  exch dup 3 1 roll findfont dup length dict begin
  { 1 index /FID ne {def}{pop pop} ifelse } forall
  /Encoding exch def currentdict end definefont pop} bdef
/isroman {findfont /CharStrings get /Agrave known} bdef
/FMSR {3 1 roll 1 index dup isroman {reencode} {pop pop} ifelse
  exch FMS} bdef
/csm {1 dpi2point div -1 dpi2point div scale neg translate
 dup landscapeMode eq {pop -90 rotate}
  {rotateMode eq {90 rotate} if} ifelse} bdef
% line types: solid, dotted, dashed, dotdash
/SO { [] 0 setdash } bdef
/DO { [.5 dpi2point mul 4 dpi2point mul] 0 setdash } bdef
/DA { [6 dpi2point mul] 0 setdash } bdef
/DD { [.5 dpi2point mul 4 dpi2point mul 6 dpi2point mul 4
  dpi2point mul] 0 setdash } bdef
% macros for lines and objects
/L {lineto stroke} bdef
/MP {3 1 roll moveto 1 sub {rlineto} repeat} bdef
/AP {{rlineto} repeat} bdef
/PDlw -1 def
/W {/PDlw currentlinewidth def setlinewidth} def
/PP {closepath eofill} bdef
/DP {closepath stroke} bdef
/MR {4 -2 roll moveto dup  0 exch rlineto exch 0 rlineto
  neg 0 exch rlineto closepath} bdef
/FR {MR stroke} bdef
/PR {MR fill} bdef
/L1i {{currentfile picstr readhexstring pop} image} bdef
/tMatrix matrix def
/MakeOval {newpath tMatrix currentmatrix pop translate scale
0 0 1 0 360 arc tMatrix setmatrix} bdef
/FO {MakeOval stroke} bdef
/PO {MakeOval fill} bdef
/PD {currentlinewidth 2 div 0 360 arc fill
   PDlw -1 eq not {PDlw w /PDlw -1 def} if} def
/FA {newpath tMatrix currentmatrix pop translate scale
  0 0 1 5 -2 roll arc tMatrix setmatrix stroke} bdef
/PA {newpath tMatrix currentmatrix pop	translate 0 0 moveto scale
  0 0 1 5 -2 roll arc closepath tMatrix setmatrix fill} bdef
/FAn {newpath tMatrix currentmatrix pop translate scale
  0 0 1 5 -2 roll arcn tMatrix setmatrix stroke} bdef
/PAn {newpath tMatrix currentmatrix pop translate 0 0 moveto scale
  0 0 1 5 -2 roll arcn closepath tMatrix setmatrix fill} bdef
/vradius 0 def /hradius 0 def /lry 0 def
/lrx 0 def /uly 0 def /ulx 0 def /rad 0 def
/MRR {/vradius xdef /hradius xdef /lry xdef /lrx xdef /uly xdef
  /ulx xdef newpath tMatrix currentmatrix pop ulx hradius add uly
  vradius add translate hradius vradius scale 0 0 1 180 270 arc 
  tMatrix setmatrix lrx hradius sub uly vradius add translate
  hradius vradius scale 0 0 1 270 360 arc tMatrix setmatrix
  lrx hradius sub lry vradius sub translate hradius vradius scale
  0 0 1 0 90 arc tMatrix setmatrix ulx hradius add lry vradius sub
  translate hradius vradius scale 0 0 1 90 180 arc tMatrix setmatrix
  closepath} bdef
/FRR {MRR stroke } bdef
/PRR {MRR fill } bdef
/MlrRR {/lry xdef /lrx xdef /uly xdef /ulx xdef /rad lry uly sub 2 div def
  newpath tMatrix currentmatrix pop ulx rad add uly rad add translate
  rad rad scale 0 0 1 90 270 arc tMatrix setmatrix lrx rad sub lry rad
  sub translate rad rad scale 0 0 1 270 90 arc tMatrix setmatrix
  closepath} bdef
/FlrRR {MlrRR stroke } bdef
/PlrRR {MlrRR fill } bdef
/MtbRR {/lry xdef /lrx xdef /uly xdef /ulx xdef /rad lrx ulx sub 2 div def
  newpath tMatrix currentmatrix pop ulx rad add uly rad add translate
  rad rad scale 0 0 1 180 360 arc tMatrix setmatrix lrx rad sub lry rad
  sub translate rad rad scale 0 0 1 0 180 arc tMatrix setmatrix
  closepath} bdef
/FtbRR {MtbRR stroke } bdef
/PtbRR {MtbRR fill } bdef
/stri 6 array def /dtri 6 array def
/smat 6 array def /dmat 6 array def
/tmat1 6 array def /tmat2 6 array def /dif 3 array def
/asub {/ind2 exch def /ind1 exch def dup dup
  ind1 get exch ind2 get sub exch } bdef
/tri_to_matrix {
  2 0 asub 3 1 asub 4 0 asub 5 1 asub
  dup 0 get exch 1 get 7 -1 roll astore } bdef
/compute_transform {
  dmat dtri tri_to_matrix tmat1 invertmatrix 
  smat stri tri_to_matrix tmat2 concatmatrix } bdef
/ds {stri astore pop} bdef
/dt {dtri astore pop} bdef
/db {2 copy /cols xdef /rows xdef mul dup 3 mul string
  currentfile 
  3 index 0 eq {/ASCIIHexDecode filter}
  {/ASCII85Decode filter 3 index 2 eq {/RunLengthDecode filter} if }
  ifelse exch readstring pop
  dup 0 3 index getinterval /rbmap xdef
  dup 2 index dup getinterval /gbmap xdef
  1 index dup 2 mul exch getinterval /bbmap xdef pop pop}bdef
/it {gs np dtri aload pop moveto lineto lineto cp c
  cols rows 8 compute_transform 
  rbmap gbmap bbmap true 3 colorimage gr}bdef
/il {newpath moveto lineto stroke}bdef
currentdict end def
%%EndProlog

%%BeginSetup
MathWorks begin

0 cap

end
%%EndSetup

%%Page: 1 1
%%BeginPageSetup
%%PageBoundingBox:    36   193   574   597
MathWorks begin
bpage
%%EndPageSetup

%%BeginObject: obj1
bplot

/dpi2point 12 def
portraitMode 0432 7164 csm

    0     0  6456  4845 rc
87 dict begin %Colortable dictionary
/c0 { 0.000000 0.000000 0.000000 sr} bdef
/c1 { 1.000000 1.000000 1.000000 sr} bdef
/c2 { 0.900000 0.000000 0.000000 sr} bdef
/c3 { 0.000000 0.820000 0.000000 sr} bdef
/c4 { 0.000000 0.000000 0.800000 sr} bdef
/c5 { 0.910000 0.820000 0.320000 sr} bdef
/c6 { 1.000000 0.260000 0.820000 sr} bdef
/c7 { 0.000000 0.820000 0.820000 sr} bdef
c0
1 j
1 sg
   0    0 6457 4846 rf
6 w
0 1654 1164 0 0 -1654 1053 2016 4 MP
PP
-1164 0 0 1654 1164 0 0 -1654 1053 2016 5 MP stroke
4 w
DO
0 sg
1053 2016 mt 1053  363 L
1053  363 mt 1053  363 L
1633 2016 mt 1633  363 L
1633  363 mt 1633  363 L
2214 2016 mt 2214  363 L
2214  363 mt 2214  363 L
1053 1767 mt 2217 1767 L
2217 1767 mt 2217 1767 L
1053 1299 mt 2217 1299 L
2217 1299 mt 2217 1299 L
1053  831 mt 2217  831 L
2217  831 mt 2217  831 L
SO
6 w
1053 2016 mt 2217 2016 L
1053  362 mt 2217  362 L
1053 2016 mt 1053  362 L
2217 2016 mt 2217  362 L
1053 2016 mt 2217 2016 L
1053 2016 mt 1053  362 L
1053 2016 mt 1053 1999 L
1053  363 mt 1053  379 L
%%IncludeResource: font Helvetica
/Helvetica /ISOLatin1Encoding 120 FMSR

1020 2161 mt 
(0) s
1633 2016 mt 1633 1999 L
1633  363 mt 1633  379 L
1600 2161 mt 
(2) s
2214 2016 mt 2214 1999 L
2214  363 mt 2214  379 L
2181 2161 mt 
(4) s
1053 1767 mt 1069 1767 L
2217 1767 mt 2200 1767 L
 782 1811 mt 
(-0.5) s
1053 1299 mt 1069 1299 L
2217 1299 mt 2200 1299 L
 952 1343 mt 
(0) s
1053  831 mt 1069  831 L
2217  831 mt 2200  831 L
 852  875 mt 
(0.5) s
1053 2016 mt 2217 2016 L
1053  362 mt 2217  362 L
1053 2016 mt 1053  362 L
2217 2016 mt 2217  362 L
gs 1053 363 1165 1654 rc
/c8 { 1.000000 0.000000 0.000000 sr} bdef
c8
3 6 3 7 3 6 3 6 3 6 3 7 3 6 3 7 
3 7 3 6 2 7 3 7 3 7 3 7 3 7 3 7 
3 7 3 7 3 7 3 8 2 7 3 8 3 7 3 8 
3 7 3 8 3 8 3 7 3 8 3 8 2 8 3 8 
3 8 3 8 3 8 3 8 3 8 3 9 3 8 3 8 
3 9 2 8 3 9 3 8 3 9 3 8 3 9 3 8 
3 9 3 9 3 9 2 8 3 9 3 9 3 9 3 9 
3 9 3 9 3 9 3 9 3 9 2 9 3 9 3 9 
3 9 3 9 3 9 3 10 3 9 3 9 3 9 2 10 
3 9 3 9 3 9 3 10 3 9 3 9 3 10 3 9 
3 9 3 10 2 9 3 9 3 10 3 9 3 10 3 9 
3 9 3 10 3 9 3 9 2 10 3 9 3 9 3 10 
3 9 3 9 3 10 3 9 3 9 3 9 2 10 3 9 
3 9 3 9 3 10 3 9 3 9 3 9 3 9 3 9 
3 9 2 9 3 9 3 9 3 9 3 9 3 9 3 9 
3 9 3 9 3 8 2 9 3 9 3 8 3 9 3 9 
3 8 3 9 3 8 3 9 3 8 2 8 3 9 3 8 
3 8 3 9 3 8 3 8 3 8 3 8 3 8 2 8 
3 7 3 8 3 8 3 8 3 7 3 8 3 7 3 8 
3 7 3 8 2 7 3 7 3 7 3 8 3 7 3 7 
3 7 3 6 3 7 3 7 2 7 3 6 3 7 3 6 
3 7 3 6 3 6 3 7 3 6 3 6 2 6 3 6 
3 6 3 5 3 6 3 6 3 5 3 6 3 5 3 5 
3 6 2 5 3 5 3 5 3 5 3 5 3 4 3 5 
3 5 3 4 3 5 2 4 3 4 3 4 3 5 3 4 
3 4 3 3 3 4 3 4 3 3 2 4 3 3 3 4 
3 3 3 3 3 3 3 3 3 3 3 3 3 3 2 2 
3 3 3 2 3 3 3 2 3 2 3 2 3 2 3 2 
3 2 3 2 2 1 3 2 3 1 3 1 3 2 3 1 
3 1 3 1 3 1 3 1 2 0 3 1 3 0 3 1 
3 0 3 0 3 0 3 0 3 0 3 0 2 0 3 0 
3 -1 3 0 3 -1 3 -1 3 0 3 -1 3 -1 3 -1 
3 -1 2 -2 3 -1 3 -2 3 -1 3 -2 3 -1 3 -2 
3 -2 3 -2 3 -2 2 -3 3 -2 3 -2 3 -3 3 -2 
3 -3 3 -3 3 -2 3 -3 3 -3 2 -3 3 -4 3 -3 
3 -3 3 -4 3 -3 3 -4 3 -3 3 -4 3 -4 2 -4 
3 -4 3 -4 3 -4 3 -5 3 -4 3 -4 3 -5 3 -5 
3 -4 3 -5 2 -5 1349 501 300 MP stroke
3 -5 3 -5 3 -5 3 -5 3 -5 3 -6 3 -5 3 -6 
3 -5 2 -6 3 -6 3 -5 3 -6 3 -6 3 -6 3 -6 
3 -6 3 -7 3 -6 2 -6 3 -7 3 -6 3 -7 3 -6 
3 -7 3 -7 3 -7 3 -7 3 -6 3 -7 2 -8 3 -7 
3 -7 3 -7 3 -7 3 -8 3 -7 3 -8 3 -7 3 -8 
2 -7 3 -8 3 -8 3 -8 3 -8 3 -8 3 -7 3 -8 
3 -9 3 -8 2 -8 3 -8 3 -8 3 -9 3 -8 3 -8 
3 -9 3 -8 3 -9 3 -8 2 -9 3 -8 3 -9 3 -9 
3 -8 3 -9 3 -9 3 -9 3 -8 3 -9 3 -9 2 -9 
3 -9 3 -9 3 -9 3 -9 3 -9 3 -9 3 -9 3 -10 
3 -9 2 -9 3 -9 3 -9 3 -10 3 -9 3 -9 3 -9 
3 -10 3 -9 3 -9 2 -9 3 -10 3 -9 3 -9 3 -10 
3 -9 3 -9 3 -10 3 -9 3 -10 2 -9 1053 1299 103 MP stroke
DA
/c9 { 0.000000 0.000000 1.000000 sr} bdef
c9
3 0 3 0 2 0 3 0 3 -1 3 0 3 -1 3 -1 
3 0 3 -1 3 -1 3 -1 3 -1 2 -2 3 -1 3 -2 
3 -1 3 -2 3 -1 3 -2 3 -2 3 -2 3 -2 2 -3 
3 -2 3 -2 3 -3 3 -2 3 -3 3 -3 3 -2 3 -3 
3 -3 2 -3 3 -4 3 -3 3 -3 3 -4 3 -3 3 -4 
3 -3 3 -4 3 -4 2 -4 3 -4 3 -4 3 -4 3 -5 
3 -4 3 -5 3 -4 3 -5 3 -4 3 -5 2 -5 3 -5 
3 -5 3 -5 3 -5 3 -6 3 -5 3 -5 3 -6 3 -5 
2 -6 3 -6 3 -5 3 -6 3 -6 3 -6 3 -6 3 -6 
3 -7 3 -6 2 -6 3 -7 3 -6 3 -7 3 -6 3 -7 
3 -7 3 -7 3 -7 3 -7 3 -7 2 -7 3 -7 3 -7 
3 -7 3 -7 3 -8 3 -7 3 -8 3 -7 3 -8 2 -8 
3 -7 3 -8 3 -8 3 -8 3 -8 3 -8 3 -8 3 -8 
3 -8 2 -8 3 -8 3 -8 3 -9 3 -8 3 -8 3 -9 
3 -8 3 -9 3 -8 2 -9 3 -8 3 -9 3 -9 3 -8 
3 -9 3 -9 3 -9 3 -9 3 -8 3 -9 2 -9 3 -9 
3 -9 3 -9 3 -9 3 -9 3 -9 3 -9 3 -10 3 -9 
2 -9 3 -9 3 -9 3 -10 3 -9 3 -9 3 -9 3 -10 
3 -9 3 -9 2 -9 3 -10 3 -9 3 -9 3 -10 3 -9 
3 -9 3 -10 3 -9 3 -10 2 -9 1053 1299 158 MP stroke
3 7 3 6 3 6 3 6 3 7 3 6 3 7 3 6 
3 7 3 6 2 7 3 7 3 7 3 7 3 7 3 7 
3 7 3 7 3 8 3 7 2 7 3 8 3 7 3 8 
3 7 3 8 3 8 3 7 3 8 3 8 2 8 3 8 
3 8 3 8 3 8 3 8 3 9 3 8 3 8 3 9 
3 8 2 8 3 9 3 8 3 9 3 8 3 9 3 9 
3 8 3 9 3 9 2 9 3 8 3 9 3 9 3 9 
3 9 3 9 3 9 3 9 3 9 2 9 3 9 3 9 
3 10 3 9 3 9 3 9 3 9 3 10 3 9 2 9 
3 9 3 10 3 9 3 9 3 10 3 9 3 9 3 10 
3 9 3 9 2 10 3 9 3 9 3 10 3 9 3 9 
3 10 3 9 3 10 3 9 2 9 3 10 3 9 3 9 
3 10 3 9 3 9 3 10 3 9 3 9 2 9 3 10 
3 9 3 9 3 9 3 10 3 9 3 9 3 9 3 9 
3 9 2 9 3 9 3 9 3 9 3 9 3 9 3 9 
3 9 3 9 3 8 2 9 3 9 3 9 3 8 3 9 
3 8 3 9 3 8 3 9 3 8 2 9 3 8 3 8 
3 9 3 8 3 8 3 8 3 8 3 8 3 8 2 8 
3 8 3 8 3 7 3 8 3 8 3 7 3 8 3 7 
3 8 3 7 2 8 3 7 3 7 3 7 3 7 3 7 
3 7 3 7 3 7 3 7 2 6 3 7 3 6 3 7 
3 6 3 7 3 6 3 6 3 6 3 6 2 6 3 6 
3 6 3 6 3 6 3 5 3 6 3 5 3 6 3 5 
3 5 2 6 3 5 3 5 3 5 3 4 3 5 3 5 
3 4 3 5 3 4 2 5 3 4 3 4 3 4 3 4 
3 4 3 4 3 4 3 4 3 3 2 4 3 3 3 4 
3 3 3 3 3 3 3 3 3 3 3 3 3 3 2 2 
3 3 3 2 3 3 3 2 3 2 3 2 3 2 3 2 
3 2 3 1 2 2 3 2 3 1 3 1 3 2 3 1 
3 1 3 1 3 1 3 1 2 0 3 1 3 0 3 1 
3 0 3 0 3 0 3 0 1508 363 245 MP stroke
SO
/c10 { 0.000000 1.000000 0.000000 sr} bdef
c10
3 6 3 7 3 6 3 6 3 6 3 7 3 6 3 7 
3 7 3 6 2 7 3 7 3 7 3 7 3 7 3 7 
3 7 3 7 3 7 3 8 2 7 3 8 3 7 3 8 
3 7 3 8 3 8 3 7 3 8 3 8 2 8 3 8 
3 8 3 8 3 8 3 8 3 8 3 9 3 8 3 8 
3 9 2 8 3 9 3 8 3 9 3 8 3 9 3 8 
3 9 3 9 3 9 2 8 3 9 3 9 3 9 3 9 
3 9 3 9 3 9 3 9 3 9 2 9 3 9 3 9 
3 9 3 9 3 9 3 10 3 9 3 9 3 9 2 10 
3 9 3 9 3 9 3 10 3 9 3 9 3 10 3 9 
3 9 3 10 2 9 3 9 3 10 3 9 3 10 3 9 
3 9 3 10 3 9 3 9 2 10 3 9 3 9 3 10 
3 9 3 9 3 10 3 9 3 9 3 9 2 10 3 9 
3 9 3 9 3 10 3 9 3 9 3 9 3 9 3 9 
3 9 2 9 3 9 3 9 3 9 3 9 3 9 3 9 
3 9 3 9 3 8 2 9 3 9 3 8 3 9 3 9 
3 8 3 9 3 8 3 9 3 8 2 8 3 9 3 8 
3 8 3 9 3 8 3 8 3 8 3 8 3 8 2 8 
3 7 3 8 3 8 3 8 3 7 3 8 3 7 3 8 
3 7 3 8 2 7 3 7 3 7 3 8 3 7 3 7 
3 7 3 6 3 7 3 7 2 7 3 6 3 7 3 6 
3 7 3 6 3 6 3 7 3 6 3 6 2 6 3 6 
3 6 3 5 3 6 3 6 3 5 3 6 3 5 3 5 
3 6 2 5 3 5 3 5 3 5 3 5 3 4 3 5 
3 5 3 4 3 5 2 4 3 4 3 4 3 5 3 4 
3 4 3 3 3 4 3 4 3 3 2 4 3 3 3 4 
3 3 3 3 3 3 3 3 3 3 3 3 3 3 2 2 
3 3 3 2 3 3 3 2 3 2 3 2 3 2 3 2 
3 2 3 2 2 1 3 2 3 1 3 1 3 2 3 1 
3 1 3 1 3 1 3 1 2 0 3 1 3 0 3 1 
3 0 3 0 3 0 3 0 3 0 3 0 2 0 3 0 
3 -1 3 0 3 -1 3 -1 3 0 3 -1 3 -1 3 -1 
3 -1 2 -2 3 -1 3 -2 3 -1 3 -2 3 -1 3 -2 
3 -2 3 -2 3 -2 2 -3 3 -2 3 -2 3 -3 3 -2 
3 -3 3 -3 3 -2 3 -3 3 -3 2 -3 3 -4 3 -3 
3 -3 3 -4 3 -3 3 -4 3 -3 3 -4 3 -4 2 -4 
3 -4 3 -4 3 -4 3 -5 3 -4 3 -4 3 -5 3 -5 
3 -4 3 -5 2 -5 1349 501 300 MP stroke
3 -5 3 -5 3 -5 3 -5 3 -5 3 -6 3 -5 3 -6 
3 -5 2 -6 3 -6 3 -5 3 -6 3 -6 3 -6 3 -6 
3 -6 3 -7 3 -6 2 -6 3 -7 3 -6 3 -7 3 -6 
3 -7 3 -7 3 -7 3 -7 3 -6 3 -7 2 -8 3 -7 
3 -7 3 -7 3 -7 3 -8 3 -7 3 -8 3 -7 3 -8 
2 -7 3 -8 3 -8 3 -8 3 -8 3 -8 3 -7 3 -8 
3 -9 3 -8 2 -8 3 -8 3 -8 3 -9 3 -8 3 -8 
3 -9 3 -8 3 -9 3 -8 2 -9 3 -8 3 -9 3 -9 
3 -8 3 -9 3 -9 3 -9 3 -8 3 -9 3 -9 2 -9 
3 -9 3 -9 3 -9 3 -9 3 -9 3 -9 3 -9 3 -10 
3 -9 2 -9 3 -9 3 -9 3 -10 3 -9 3 -9 3 -9 
3 -10 3 -9 3 -9 2 -9 3 -10 3 -9 3 -9 3 -10 
3 -9 3 -9 3 -10 3 -9 3 -10 2 -9 1053 1299 103 MP stroke
gr

c10
0 sg
1617 2304 mt 
(t) s
 700 1220 mt  -90 rotate
(x) s
90 rotate
1 sg
0 1653 1164 0 0 -1653 2866 2016 4 MP
PP
-1164 0 0 1653 1164 0 0 -1653 2866 2016 5 MP stroke
4 w
DO
0 sg
2866 2016 mt 2866  363 L
2866  363 mt 2866  363 L
3446 2016 mt 3446  363 L
3446  363 mt 3446  363 L
4027 2016 mt 4027  363 L
4027  363 mt 4027  363 L
2866 2015 mt 4030 2015 L
4030 2015 mt 4030 2015 L
2866 1602 mt 4030 1602 L
4030 1602 mt 4030 1602 L
2866 1189 mt 4030 1189 L
4030 1189 mt 4030 1189 L
2866  776 mt 4030  776 L
4030  776 mt 4030  776 L
2866  363 mt 4030  363 L
4030  363 mt 4030  363 L
SO
6 w
2866 2016 mt 4030 2016 L
2866  363 mt 4030  363 L
2866 2016 mt 2866  363 L
4030 2016 mt 4030  363 L
2866 2016 mt 4030 2016 L
2866 2016 mt 2866  363 L
2866 2016 mt 2866 1999 L
2866  363 mt 2866  379 L
2833 2161 mt 
(0) s
3446 2016 mt 3446 1999 L
3446  363 mt 3446  379 L
3413 2161 mt 
(2) s
4027 2016 mt 4027 1999 L
4027  363 mt 4027  379 L
3994 2161 mt 
(4) s
2866 2015 mt 2882 2015 L
4030 2015 mt 4013 2015 L
2695 2059 mt 
(-1) s
2866 1602 mt 2882 1602 L
4030 1602 mt 4013 1602 L
2595 1646 mt 
(-0.5) s
2866 1189 mt 2882 1189 L
4030 1189 mt 4013 1189 L
2765 1233 mt 
(0) s
2866  776 mt 2882  776 L
4030  776 mt 4013  776 L
2665  820 mt 
(0.5) s
2866  363 mt 2882  363 L
4030  363 mt 4013  363 L
2765  407 mt 
(1) s
2866 2016 mt 4030 2016 L
2866  363 mt 4030  363 L
2866 2016 mt 2866  363 L
4030 2016 mt 4030  363 L
gs 2866 363 1165 1654 rc
c8
3 -6 3 -6 3 -7 3 -6 3 -6 3 -6 3 -6 3 -6 
3 -5 3 -6 2 -6 3 -6 3 -5 3 -6 3 -5 3 -6 
3 -5 3 -5 3 -5 3 -6 2 -5 3 -5 3 -5 3 -5 
3 -4 3 -5 3 -5 3 -5 3 -4 3 -5 2 -4 3 -4 
3 -5 3 -4 3 -4 3 -4 3 -4 3 -4 3 -4 3 -3 
3 -4 2 -4 3 -3 3 -4 3 -3 3 -4 3 -3 3 -3 
3 -3 3 -3 3 -3 2 -3 3 -3 3 -2 3 -3 3 -3 
3 -2 3 -2 3 -3 3 -2 3 -2 2 -2 3 -2 3 -2 
3 -2 3 -2 3 -1 3 -2 3 -1 3 -2 3 -1 2 -1 
3 -2 3 -1 3 -1 3 -1 3 -1 3 0 3 -1 3 -1 
3 0 3 -1 2 0 3 0 3 0 3 0 3 0 3 0 
3 0 3 0 3 0 3 1 2 0 3 1 3 0 3 1 
3 1 3 1 3 1 3 1 3 1 3 1 2 1 3 2 
3 1 3 2 3 1 3 2 3 2 3 2 3 2 3 2 
3 2 2 2 3 2 3 2 3 3 3 2 3 3 3 3 
3 2 3 3 3 3 2 3 3 3 3 3 3 3 3 4 
3 3 3 3 3 4 3 3 3 4 2 4 3 4 3 3 
3 4 3 4 3 4 3 5 3 4 3 4 3 4 2 5 
3 4 3 5 3 5 3 4 3 5 3 5 3 5 3 5 
3 5 3 5 2 5 3 5 3 6 3 5 3 6 3 5 
3 6 3 5 3 6 3 6 2 5 3 6 3 6 3 6 
3 6 3 6 3 6 3 7 3 6 3 6 2 6 3 7 
3 6 3 7 3 6 3 7 3 7 3 6 3 7 3 7 
3 7 2 7 3 7 3 7 3 7 3 7 3 7 3 7 
3 7 3 7 3 8 2 7 3 7 3 8 3 7 3 8 
3 7 3 8 3 7 3 8 3 7 2 8 3 8 3 7 
3 8 3 8 3 8 3 8 3 7 3 8 3 8 2 8 
3 8 3 8 3 8 3 8 3 8 3 8 3 8 3 8 
3 9 3 8 2 8 3 8 3 8 3 8 3 9 3 8 
3 8 3 8 3 8 3 9 2 8 3 8 3 8 3 9 
3 8 3 8 3 8 3 9 3 8 3 8 2 8 3 9 
3 8 3 8 3 8 3 9 3 8 3 8 3 8 3 9 
3 8 2 8 3 8 3 8 3 8 3 9 3 8 3 8 
3 8 3 8 3 8 2 8 3 8 3 8 3 8 3 8 
3 8 3 8 3 8 3 8 3 7 2 8 3 8 3 8 
3 7 3 8 3 8 3 7 3 8 3 8 3 7 2 8 
3 7 3 8 3 7 3 7 3 8 3 7 3 7 3 7 
3 7 3 7 2 8 3162 756 300 MP stroke
3 7 3 7 3 6 3 7 3 7 3 7 3 7 3 6 
3 7 2 7 3 6 3 7 3 6 3 7 3 6 3 6 
3 6 3 7 3 6 2 6 3 6 3 6 3 6 3 6 
3 5 3 6 3 6 3 5 3 6 3 5 2 6 3 5 
3 5 3 6 3 5 3 5 3 5 3 5 3 5 3 5 
2 4 3 5 3 5 3 4 3 5 3 4 3 5 3 4 
3 4 3 4 2 4 3 4 3 4 3 4 3 4 3 4 
3 3 3 4 3 3 3 4 2 3 3 3 3 3 3 4 
3 3 3 3 3 2 3 3 3 3 3 3 3 2 2 3 
3 2 3 2 3 3 3 2 3 2 3 2 3 2 3 2 
3 1 2 2 3 2 3 1 3 2 3 1 3 1 3 1 
3 2 3 1 3 1 2 0 3 1 3 1 3 0 3 1 
3 0 3 1 3 0 3 0 3 0 2 0 2866 363 103 MP stroke
DA
c9
3 -6 3 -7 3 -6 3 -6 3 -6 3 -6 3 -6 3 -6 
3 -6 3 -6 2 -5 3 -6 3 -6 3 -5 3 -6 3 -5 
3 -6 3 -5 3 -5 3 -5 2 -5 3 -6 3 -5 3 -4 
3 -5 3 -5 3 -5 3 -4 3 -5 3 -5 2 -4 3 -4 
3 -5 3 -4 3 -4 3 -4 3 -4 3 -4 3 -4 3 -4 
3 -3 2 -4 3 -4 3 -3 3 -4 3 -3 3 -3 3 -3 
3 -3 3 -3 3 -3 2 -3 3 -3 3 -3 3 -2 3 -3 
3 -3 3 -2 3 -2 3 -2 3 -3 2 -2 3 -2 3 -2 
3 -2 3 -1 3 -2 3 -2 3 -1 3 -2 3 -1 2 -1 
3 -1 3 -2 3 -1 3 0 3 -1 3 -1 3 -1 3 0 
3 -1 3 0 2 -1 3 0 3 0 3 0 3 -1 3 1 
3 0 3 0 3 0 3 1 2 0 3 1 3 0 3 1 
3 1 3 1 3 0 3 1 3 2 3 1 2 1 3 1 
3 2 3 1 3 2 3 2 3 1 3 2 3 2 3 2 
3 2 2 3 3 2 3 2 3 3 3 2 3 3 3 2 
3 3 3 3 3 3 2 3 3 3 3 3 3 3 3 3 
3 4 3 3 3 3 3 4 3 4 2 3 3 4 3 4 
3 4 3 4 3 4 3 4 3 4 3 5 3 4 2 5 
3 4 3 5 3 4 3 5 3 5 3 5 3 4 3 5 
3 5 3 6 2 5 3 5 3 5 3 6 3 5 3 6 
3 5 3 6 3 5 3 6 2 6 3 6 3 6 3 6 
3 6 3 6 3 6 3 6 3 6 3 7 2 6 3 6 
3 7 3 6 3 7 3 7 3 6 3 7 3 7 3 7 
3 6 2 7 3 7 3 7 3 7 3 7 3 7 3 8 
3 7 3 7 3 7 2 8 3 7 3 7 3 8 3 7 
3 8 3 7 3 8 3 7 3 8 2 8 3 7 3 8 
3 8 3 8 3 8 3 7 3 8 3 8 3 8 2 8 
3 8 3 8 3 8 3 8 3 8 3 8 3 8 3 8 
3 8 3 8 2 9 3 8 3 8 3 8 3 8 3 9 
3 8 3 8 3 8 3 8 2 9 3 8 3 8 3 8 
3 9 3 8 3 8 3 9 3 8 3 8 2 8 3 9 
3 8 3 8 3 8 3 9 3 8 3 8 3 8 3 8 
3 9 2 8 3 8 3 8 3 8 3 9 3 8 3 8 
3 8 3 8 3 8 2 8 3 8 3 8 3 8 3 8 
3 8 3 8 3 8 3 8 3 7 2 8 3 8 3 8 
3 7 3 8 3 8 3 7 3 8 3 8 3 7 2 8 
3 7 3 8 3 7 3 7 3 8 3 7 3 7 3 7 
3 7 3 8 2 7 3162 756 300 MP stroke
3 7 3 7 3 7 3 6 3 7 3 7 3 7 3 6 
3 7 2 7 3 6 3 7 3 6 3 7 3 6 3 6 
3 7 3 6 3 6 2 6 3 6 3 6 3 6 3 6 
3 5 3 6 3 6 3 5 3 6 3 5 2 6 3 5 
3 5 3 6 3 5 3 5 3 5 3 5 3 5 3 5 
2 4 3 5 3 5 3 4 3 5 3 4 3 5 3 4 
3 4 3 4 2 4 3 4 3 4 3 4 3 4 3 4 
3 3 3 4 3 3 3 4 2 3 3 3 3 3 3 4 
3 3 3 3 3 2 3 3 3 3 3 3 3 2 2 3 
3 2 3 2 3 3 3 2 3 2 3 2 3 2 3 2 
3 1 2 2 3 2 3 1 3 2 3 1 3 1 3 1 
3 2 3 1 3 1 2 0 3 1 3 1 3 0 3 1 
3 0 3 1 3 0 3 0 3 0 2 0 2866 363 103 MP stroke
SO
c10
3 -6 3 -6 3 -7 3 -6 3 -6 3 -6 3 -6 3 -6 
3 -5 3 -6 2 -6 3 -6 3 -5 3 -6 3 -5 3 -6 
3 -5 3 -5 3 -5 3 -6 2 -5 3 -5 3 -5 3 -5 
3 -4 3 -5 3 -5 3 -5 3 -4 3 -5 2 -4 3 -4 
3 -5 3 -4 3 -4 3 -4 3 -4 3 -4 3 -4 3 -3 
3 -4 2 -4 3 -3 3 -4 3 -3 3 -4 3 -3 3 -3 
3 -3 3 -3 3 -3 2 -3 3 -3 3 -2 3 -3 3 -3 
3 -2 3 -2 3 -3 3 -2 3 -2 2 -2 3 -2 3 -2 
3 -2 3 -2 3 -1 3 -2 3 -1 3 -2 3 -1 2 -1 
3 -2 3 -1 3 -1 3 -1 3 -1 3 0 3 -1 3 -1 
3 0 3 -1 2 0 3 0 3 0 3 0 3 0 3 0 
3 0 3 0 3 0 3 1 2 0 3 1 3 0 3 1 
3 1 3 1 3 1 3 1 3 1 3 1 2 1 3 2 
3 1 3 2 3 1 3 2 3 2 3 2 3 2 3 2 
3 2 2 2 3 2 3 2 3 3 3 2 3 3 3 3 
3 2 3 3 3 3 2 3 3 3 3 3 3 3 3 4 
3 3 3 3 3 4 3 3 3 4 2 4 3 4 3 3 
3 4 3 4 3 4 3 5 3 4 3 4 3 4 2 5 
3 4 3 5 3 5 3 4 3 5 3 5 3 5 3 5 
3 5 3 5 2 5 3 5 3 6 3 5 3 6 3 5 
3 6 3 5 3 6 3 6 2 5 3 6 3 6 3 6 
3 6 3 6 3 6 3 7 3 6 3 6 2 6 3 7 
3 6 3 7 3 6 3 7 3 7 3 6 3 7 3 7 
3 7 2 7 3 7 3 7 3 7 3 7 3 7 3 7 
3 7 3 7 3 8 2 7 3 7 3 8 3 7 3 8 
3 7 3 8 3 7 3 8 3 7 2 8 3 8 3 7 
3 8 3 8 3 8 3 8 3 7 3 8 3 8 2 8 
3 8 3 8 3 8 3 8 3 8 3 8 3 8 3 8 
3 9 3 8 2 8 3 8 3 8 3 8 3 9 3 8 
3 8 3 8 3 8 3 9 2 8 3 8 3 8 3 9 
3 8 3 8 3 8 3 9 3 8 3 8 2 8 3 9 
3 8 3 8 3 8 3 9 3 8 3 8 3 8 3 9 
3 8 2 8 3 8 3 8 3 8 3 9 3 8 3 8 
3 8 3 8 3 8 2 8 3 8 3 8 3 8 3 8 
3 8 3 8 3 8 3 8 3 7 2 8 3 8 3 8 
3 7 3 8 3 8 3 7 3 8 3 8 3 7 2 8 
3 7 3 8 3 7 3 7 3 8 3 7 3 7 3 7 
3 7 3 7 2 8 3162 756 300 MP stroke
3 7 3 7 3 6 3 7 3 7 3 7 3 7 3 6 
3 7 2 7 3 6 3 7 3 6 3 7 3 6 3 6 
3 6 3 7 3 6 2 6 3 6 3 6 3 6 3 6 
3 5 3 6 3 6 3 5 3 6 3 5 2 6 3 5 
3 5 3 6 3 5 3 5 3 5 3 5 3 5 3 5 
2 4 3 5 3 5 3 4 3 5 3 4 3 5 3 4 
3 4 3 4 2 4 3 4 3 4 3 4 3 4 3 4 
3 3 3 4 3 3 3 4 2 3 3 3 3 3 3 4 
3 3 3 3 3 2 3 3 3 3 3 3 3 2 2 3 
3 2 3 2 3 3 3 2 3 2 3 2 3 2 3 2 
3 1 2 2 3 2 3 1 3 2 3 1 3 1 3 1 
3 2 3 1 3 1 2 0 3 1 3 1 3 0 3 1 
3 0 3 1 3 0 3 0 3 0 2 0 2866 363 103 MP stroke
gr

c10
0 sg
3430 2304 mt 
(t) s
2513 1220 mt  -90 rotate
(y) s
90 rotate
1 sg
0 1653 1164 0 0 -1653 4679 2016 4 MP
PP
-1164 0 0 1653 1164 0 0 -1653 4679 2016 5 MP stroke
4 w
DO
0 sg
4679 2016 mt 4679  363 L
4679  363 mt 4679  363 L
5259 2016 mt 5259  363 L
5259  363 mt 5259  363 L
5840 2016 mt 5840  363 L
5840  363 mt 5840  363 L
4679 1851 mt 5843 1851 L
5843 1851 mt 5843 1851 L
4679 1521 mt 5843 1521 L
5843 1521 mt 5843 1521 L
4679 1191 mt 5843 1191 L
5843 1191 mt 5843 1191 L
4679  862 mt 5843  862 L
5843  862 mt 5843  862 L
4679  532 mt 5843  532 L
5843  532 mt 5843  532 L
SO
6 w
4679 2016 mt 5843 2016 L
4679  363 mt 5843  363 L
4679 2016 mt 4679  363 L
5843 2016 mt 5843  363 L
4679 2016 mt 5843 2016 L
4679 2016 mt 4679  363 L
4679 2016 mt 4679 1999 L
4679  363 mt 4679  379 L
4646 2161 mt 
(0) s
5259 2016 mt 5259 1999 L
5259  363 mt 5259  379 L
5226 2161 mt 
(2) s
5840 2016 mt 5840 1999 L
5840  363 mt 5840  379 L
5807 2161 mt 
(4) s
4679 1851 mt 4695 1851 L
5843 1851 mt 5826 1851 L
4408 1895 mt 
(-0.4) s
4679 1521 mt 4695 1521 L
5843 1521 mt 5826 1521 L
4408 1565 mt 
(-0.2) s
4679 1191 mt 4695 1191 L
5843 1191 mt 5826 1191 L
4578 1235 mt 
(0) s
4679  862 mt 4695  862 L
5843  862 mt 5826  862 L
4478  906 mt 
(0.2) s
4679  532 mt 4695  532 L
5843  532 mt 5826  532 L
4478  576 mt 
(0.4) s
4679 2016 mt 5843 2016 L
4679  363 mt 5843  363 L
4679 2016 mt 4679  363 L
5843 2016 mt 5843  363 L
gs 4679 363 1165 1654 rc
c8
3 3 3 2 3 2 3 2 3 1 3 1 3 0 3 1 
3 0 3 -1 2 -1 3 -1 3 -1 3 -2 3 -2 3 -2 
3 -3 3 -3 3 -3 3 -4 2 -4 3 -4 3 -5 3 -5 
3 -5 3 -5 3 -6 3 -6 3 -7 3 -7 2 -7 3 -7 
3 -8 3 -8 3 -8 3 -9 3 -8 3 -9 3 -10 3 -9 
3 -10 2 -11 3 -10 3 -11 3 -11 3 -11 3 -11 3 -12 
3 -12 3 -12 3 -12 2 -13 3 -12 3 -13 3 -13 3 -14 
3 -13 3 -14 3 -14 3 -14 3 -14 2 -15 3 -14 3 -15 
3 -15 3 -15 3 -15 3 -15 3 -16 3 -15 3 -16 2 -15 
3 -16 3 -16 3 -16 3 -16 3 -16 3 -16 3 -17 3 -16 
3 -16 3 -17 2 -16 3 -17 3 -16 3 -17 3 -16 3 -17 
3 -16 3 -16 3 -17 3 -16 2 -17 3 -16 3 -16 3 -17 
3 -16 3 -16 3 -16 3 -16 3 -16 3 -15 2 -16 3 -16 
3 -15 3 -16 3 -15 3 -15 3 -15 3 -15 3 -14 3 -15 
3 -14 2 -14 3 -14 3 -14 3 -14 3 -13 3 -14 3 -13 
3 -13 3 -12 3 -13 2 -12 3 -12 3 -12 3 -11 3 -12 
3 -11 3 -11 3 -10 3 -11 3 -10 2 -9 3 -10 3 -9 
3 -9 3 -9 3 -8 3 -9 3 -7 3 -8 3 -7 2 -7 
3 -7 3 -6 3 -6 3 -6 3 -6 3 -5 3 -5 3 -4 
3 -4 3 -4 2 -4 3 -3 3 -3 3 -3 3 -2 3 -2 
3 -1 3 -2 3 -1 3 0 2 -1 3 1 3 0 3 1 
3 1 3 1 3 2 3 2 3 2 3 3 2 3 3 3 
3 4 3 4 3 4 3 4 3 5 3 6 3 5 3 6 
3 6 2 7 3 6 3 7 3 8 3 7 3 8 3 9 
3 8 3 9 3 9 2 9 3 10 3 10 3 10 3 10 
3 11 3 11 3 11 3 11 3 12 2 12 3 12 3 12 
3 13 3 12 3 13 3 13 3 14 3 13 3 14 2 14 
3 14 3 14 3 15 3 14 3 15 3 15 3 15 3 15 
3 15 3 15 2 16 3 16 3 15 3 16 3 16 3 16 
3 16 3 16 3 16 3 17 2 16 3 16 3 17 3 16 
3 16 3 17 3 16 3 17 3 16 3 17 2 16 3 17 
3 16 3 17 3 16 3 16 3 16 3 17 3 16 3 16 
3 16 2 16 3 15 3 16 3 16 3 15 3 15 3 16 
3 15 3 15 3 15 2 14 3 15 3 14 3 14 3 14 
3 14 3 14 3 13 3 14 3 13 2 13 3 12 3 13 
3 12 3 12 3 12 3 12 3 11 3 11 3 11 2 11 
3 10 3 10 3 10 3 9 3 10 3 9 3 8 3 9 
3 8 3 8 2 8 4975 456 300 MP stroke
3 7 3 7 3 7 3 6 3 6 3 6 3 5 3 6 
3 4 2 5 3 4 3 4 3 4 3 3 3 3 3 2 
3 3 3 2 3 1 2 2 3 1 3 0 3 1 3 0 
3 -1 3 0 3 -1 3 -2 3 -1 3 -2 2 -3 3 -2 
3 -3 3 -4 3 -3 3 -4 3 -4 3 -5 3 -5 3 -5 
2 -6 3 -5 3 -6 3 -7 3 -7 3 -7 3 -7 3 -8 
3 -8 3 -8 2 -8 3 -9 3 -9 3 -9 3 -10 3 -10 
3 -10 3 -10 3 -11 3 -11 2 -11 3 -11 3 -12 3 -12 
3 -12 3 -12 3 -13 3 -12 3 -13 3 -13 3 -14 2 -13 
3 -14 3 -14 3 -14 3 -14 3 -14 3 -15 3 -15 3 -14 
3 -15 2 -16 3 -15 3 -15 3 -16 3 -15 3 -16 3 -16 
3 -16 3 -16 3 -16 2 -16 3 -16 3 -16 3 -16 3 -17 
3 -16 3 -17 3 -16 3 -16 3 -17 2 -16 4679 1191 103 MP stroke
DA
c9
3 2 3 2 3 2 3 2 3 1 3 1 3 0 3 0 
3 0 3 0 2 -1 3 -1 3 -1 3 -2 3 -2 3 -3 
3 -2 3 -3 3 -4 3 -3 2 -4 3 -5 3 -4 3 -5 
3 -6 3 -5 3 -6 3 -6 3 -7 3 -7 2 -7 3 -7 
3 -8 3 -8 3 -8 3 -8 3 -9 3 -9 3 -10 3 -9 
3 -10 2 -10 3 -11 3 -11 3 -11 3 -11 3 -11 3 -12 
3 -12 3 -12 3 -12 2 -13 3 -12 3 -13 3 -13 3 -14 
3 -13 3 -14 3 -14 3 -14 3 -14 2 -15 3 -14 3 -15 
3 -15 3 -15 3 -15 3 -15 3 -16 3 -15 3 -16 2 -16 
3 -15 3 -16 3 -16 3 -16 3 -16 3 -17 3 -16 3 -16 
3 -17 3 -16 2 -16 3 -17 3 -16 3 -17 3 -16 3 -17 
3 -16 3 -17 3 -16 3 -17 2 -16 3 -16 3 -17 3 -16 
3 -16 3 -16 3 -16 3 -16 3 -16 3 -16 2 -16 3 -15 
3 -16 3 -15 3 -16 3 -15 3 -15 3 -15 3 -14 3 -15 
3 -14 2 -14 3 -15 3 -13 3 -14 3 -14 3 -13 3 -13 
3 -13 3 -13 3 -12 2 -13 3 -12 3 -11 3 -12 3 -11 
3 -12 3 -10 3 -11 3 -11 3 -10 2 -10 3 -9 3 -9 
3 -10 3 -8 3 -9 3 -8 3 -8 3 -8 3 -7 2 -7 
3 -7 3 -6 3 -6 3 -6 3 -6 3 -5 3 -5 3 -4 
3 -5 3 -3 2 -4 3 -3 3 -3 3 -3 3 -2 3 -2 
3 -2 3 -1 3 -1 3 -1 2 0 3 0 3 0 3 1 
3 1 3 1 3 2 3 2 3 2 3 3 2 3 3 3 
3 3 3 4 3 5 3 4 3 5 3 5 3 6 3 6 
3 6 2 6 3 7 3 7 3 7 3 8 3 8 3 8 
3 9 3 8 3 9 2 10 3 9 3 10 3 10 3 11 
3 10 3 11 3 11 3 12 3 11 2 12 3 12 3 13 
3 12 3 13 3 13 3 13 3 13 3 14 3 14 2 14 
3 14 3 14 3 14 3 15 3 15 3 15 3 15 3 15 
3 15 3 16 2 15 3 16 3 15 3 16 3 16 3 16 
3 16 3 16 3 17 3 16 2 16 3 17 3 16 3 17 
3 16 3 17 3 16 3 17 3 16 3 17 2 16 3 17 
3 16 3 17 3 16 3 16 3 17 3 16 3 16 3 16 
3 16 2 16 3 16 3 16 3 15 3 16 3 15 3 15 
3 15 3 15 3 15 2 15 3 15 3 14 3 14 3 14 
3 14 3 14 3 13 3 14 3 13 2 13 3 12 3 13 
3 12 3 12 3 12 3 12 3 11 3 11 3 11 2 10 
3 11 3 10 3 10 3 9 3 9 3 9 3 9 3 9 
3 8 3 8 2 7 4975 455 300 MP stroke
3 7 3 7 3 7 3 6 3 6 3 6 3 6 3 5 
3 5 2 4 3 4 3 4 3 4 3 3 3 3 3 2 
3 3 3 2 3 1 2 2 3 0 3 1 3 0 3 0 
3 0 3 -1 3 -1 3 -1 3 -2 3 -2 2 -2 3 -3 
3 -3 3 -3 3 -4 3 -4 3 -4 3 -5 3 -5 3 -5 
2 -5 3 -6 3 -6 3 -7 3 -6 3 -7 3 -8 3 -7 
3 -8 3 -9 2 -8 3 -9 3 -9 3 -9 3 -10 3 -10 
3 -10 3 -10 3 -11 3 -11 2 -11 3 -11 3 -12 3 -12 
3 -12 3 -12 3 -13 3 -12 3 -13 3 -13 3 -14 2 -13 
3 -14 3 -14 3 -14 3 -14 3 -14 3 -15 3 -15 3 -14 
3 -15 2 -15 3 -16 3 -15 3 -16 3 -15 3 -16 3 -16 
3 -16 3 -15 3 -17 2 -16 3 -16 3 -16 3 -16 3 -17 
3 -16 3 -16 3 -17 3 -16 3 -17 2 -16 4679 1191 103 MP stroke
SO
c10
3 3 3 2 3 2 3 2 3 1 3 1 3 0 3 1 
3 0 3 -1 2 -1 3 -1 3 -1 3 -2 3 -2 3 -2 
3 -3 3 -3 3 -3 3 -4 2 -4 3 -4 3 -5 3 -5 
3 -5 3 -5 3 -6 3 -6 3 -7 3 -7 2 -7 3 -7 
3 -8 3 -8 3 -8 3 -9 3 -8 3 -9 3 -10 3 -9 
3 -10 2 -11 3 -10 3 -11 3 -11 3 -11 3 -11 3 -12 
3 -12 3 -12 3 -12 2 -13 3 -12 3 -13 3 -13 3 -14 
3 -13 3 -14 3 -14 3 -14 3 -14 2 -15 3 -14 3 -15 
3 -15 3 -15 3 -15 3 -15 3 -16 3 -15 3 -16 2 -15 
3 -16 3 -16 3 -16 3 -16 3 -16 3 -16 3 -17 3 -16 
3 -16 3 -17 2 -16 3 -17 3 -16 3 -17 3 -16 3 -17 
3 -16 3 -16 3 -17 3 -16 2 -17 3 -16 3 -16 3 -17 
3 -16 3 -16 3 -16 3 -16 3 -16 3 -15 2 -16 3 -16 
3 -15 3 -16 3 -15 3 -15 3 -15 3 -15 3 -14 3 -15 
3 -14 2 -14 3 -14 3 -14 3 -14 3 -13 3 -14 3 -13 
3 -13 3 -12 3 -13 2 -12 3 -12 3 -12 3 -11 3 -12 
3 -11 3 -11 3 -10 3 -11 3 -10 2 -9 3 -10 3 -9 
3 -9 3 -9 3 -8 3 -9 3 -7 3 -8 3 -7 2 -7 
3 -7 3 -6 3 -6 3 -6 3 -6 3 -5 3 -5 3 -4 
3 -4 3 -4 2 -4 3 -3 3 -3 3 -3 3 -2 3 -2 
3 -1 3 -2 3 -1 3 0 2 0 3 0 3 0 3 1 
3 1 3 1 3 2 3 2 3 2 3 3 2 3 3 3 
3 4 3 4 3 4 3 4 3 5 3 6 3 5 3 6 
3 6 2 7 3 6 3 7 3 8 3 7 3 8 3 9 
3 8 3 9 3 9 2 9 3 10 3 10 3 10 3 10 
3 11 3 11 3 11 3 11 3 12 2 12 3 12 3 12 
3 13 3 12 3 13 3 13 3 14 3 13 3 14 2 14 
3 14 3 14 3 15 3 14 3 15 3 15 3 15 3 15 
3 15 3 16 2 15 3 16 3 15 3 16 3 16 3 16 
3 16 3 16 3 16 3 17 2 16 3 16 3 17 3 16 
3 16 3 17 3 16 3 17 3 16 3 17 2 16 3 17 
3 16 3 17 3 16 3 16 3 16 3 17 3 16 3 16 
3 16 2 16 3 15 3 16 3 16 3 15 3 15 3 16 
3 15 3 15 3 15 2 14 3 15 3 14 3 14 3 14 
3 14 3 14 3 13 3 14 3 13 2 13 3 12 3 13 
3 12 3 12 3 12 3 12 3 11 3 11 3 11 2 11 
3 10 3 10 3 10 3 9 3 10 3 9 3 8 3 9 
3 8 3 8 2 8 4975 456 300 MP stroke
3 7 3 7 3 7 3 6 3 6 3 6 3 5 3 6 
3 4 2 5 3 4 3 4 3 4 3 3 3 3 3 3 
3 2 3 2 3 1 2 2 3 1 3 0 3 1 3 0 
3 -1 3 0 3 -1 3 -2 3 -1 3 -2 2 -3 3 -2 
3 -3 3 -4 3 -3 3 -4 3 -4 3 -5 3 -5 3 -5 
2 -6 3 -5 3 -6 3 -7 3 -7 3 -7 3 -7 3 -8 
3 -8 3 -8 2 -8 3 -9 3 -9 3 -9 3 -10 3 -10 
3 -10 3 -10 3 -11 3 -11 2 -11 3 -11 3 -12 3 -12 
3 -12 3 -12 3 -13 3 -12 3 -13 3 -13 3 -14 2 -13 
3 -14 3 -14 3 -14 3 -14 3 -14 3 -15 3 -15 3 -14 
3 -15 2 -15 3 -16 3 -15 3 -16 3 -15 3 -16 3 -16 
3 -16 3 -16 3 -16 2 -16 3 -16 3 -16 3 -16 3 -17 
3 -16 3 -17 3 -16 3 -16 3 -17 2 -16 4679 1191 103 MP stroke
gr

c10
0 sg
5243 2304 mt 
(t) s
%%IncludeResource: font Symbol
/Symbol /ISOLatin1Encoding 120 FMSR

4318 1223 mt  -90 rotate
(l) s
90 rotate
1 sg
0 1653 1164 0 0 -1653 1053 4312 4 MP
PP
-1164 0 0 1653 1164 0 0 -1653 1053 4312 5 MP stroke
4 w
DO
0 sg
1053 4312 mt 1053 2659 L
1053 2659 mt 1053 2659 L
1633 4312 mt 1633 2659 L
1633 2659 mt 1633 2659 L
2214 4312 mt 2214 2659 L
2214 2659 mt 2214 2659 L
1053 3972 mt 2217 3972 L
2217 3972 mt 2217 3972 L
1053 3071 mt 2217 3071 L
2217 3071 mt 2217 3071 L
SO
6 w
1053 4312 mt 2217 4312 L
1053 2659 mt 2217 2659 L
1053 4312 mt 1053 2659 L
2217 4312 mt 2217 2659 L
1053 4312 mt 2217 4312 L
1053 4312 mt 1053 2659 L
1053 4312 mt 1053 4295 L
1053 2659 mt 1053 2675 L
%%IncludeResource: font Helvetica
/Helvetica /ISOLatin1Encoding 120 FMSR

1020 4457 mt 
(0) s
1633 4312 mt 1633 4295 L
1633 2659 mt 1633 2675 L
1600 4457 mt 
(2) s
2214 4312 mt 2214 4295 L
2214 2659 mt 2214 2675 L
2181 4457 mt 
(4) s
1053 4312 mt 1053 4312 L
1053 4312 mt 1053 4312 L
DO
1053 4312 mt 1053 4312 L
1053 4312 mt 1053 4312 L
SO
1053 4312 mt 1053 4312 L
1053 4312 mt 1053 4312 L
DO
1053 4312 mt 1053 4312 L
1053 4312 mt 1053 4312 L
SO
1053 4312 mt 1053 4312 L
1053 4312 mt 1053 4312 L
DO
1053 4312 mt 1053 4312 L
1053 4312 mt 1053 4312 L
SO
1053 4312 mt 1053 4312 L
1053 4312 mt 1053 4312 L
DO
1053 4312 mt 1053 4312 L
1053 4312 mt 1053 4312 L
SO
1053 4312 mt 1053 4312 L
1053 4312 mt 1053 4312 L
DO
1053 4312 mt 1053 4312 L
1053 4312 mt 1053 4312 L
SO
1053 4312 mt 1053 4312 L
1053 4312 mt 1053 4312 L
DO
1053 4312 mt 1053 4312 L
1053 4312 mt 1053 4312 L
SO
1053 4312 mt 1053 4312 L
1053 4312 mt 1053 4312 L
DO
1053 4312 mt 1053 4312 L
1053 4312 mt 1053 4312 L
SO
1053 4312 mt 1053 4312 L
1053 4312 mt 1053 4312 L
DO
1053 4312 mt 1053 4312 L
1053 4312 mt 1053 4312 L
SO
1053 4312 mt 1053 4312 L
1053 4312 mt 1053 4312 L
DO
1053 4312 mt 1053 4312 L
1053 4312 mt 1053 4312 L
SO
1053 3972 mt 1069 3972 L
2217 3972 mt 2200 3972 L
 750 4016 mt 
(10) s
%%IncludeResource: font Helvetica
/Helvetica /ISOLatin1Encoding 80 FMSR

 883 3942 mt 
(-10) s
1053 4312 mt 1053 4312 L
1053 4312 mt 1053 4312 L
DO
1053 4312 mt 1053 4312 L
1053 4312 mt 1053 4312 L
SO
1053 4312 mt 1053 4312 L
1053 4312 mt 1053 4312 L
DO
1053 4312 mt 1053 4312 L
1053 4312 mt 1053 4312 L
SO
1053 4312 mt 1053 4312 L
1053 4312 mt 1053 4312 L
DO
1053 4312 mt 1053 4312 L
1053 4312 mt 1053 4312 L
SO
1053 4312 mt 1053 4312 L
1053 4312 mt 1053 4312 L
DO
1053 4312 mt 1053 4312 L
1053 4312 mt 1053 4312 L
SO
1053 4312 mt 1053 4312 L
1053 4312 mt 1053 4312 L
DO
1053 4312 mt 1053 4312 L
1053 4312 mt 1053 4312 L
SO
1053 4312 mt 1053 4312 L
1053 4312 mt 1053 4312 L
DO
1053 4312 mt 1053 4312 L
1053 4312 mt 1053 4312 L
SO
1053 4312 mt 1053 4312 L
1053 4312 mt 1053 4312 L
DO
1053 4312 mt 1053 4312 L
1053 4312 mt 1053 4312 L
SO
1053 4312 mt 1053 4312 L
1053 4312 mt 1053 4312 L
DO
1053 4312 mt 1053 4312 L
1053 4312 mt 1053 4312 L
SO
1053 4312 mt 1053 4312 L
1053 4312 mt 1053 4312 L
DO
1053 4312 mt 1053 4312 L
1053 4312 mt 1053 4312 L
SO
1053 3071 mt 1069 3071 L
2217 3071 mt 2200 3071 L
%%IncludeResource: font Helvetica
/Helvetica /ISOLatin1Encoding 120 FMSR

 750 3115 mt 
(10) s
%%IncludeResource: font Helvetica
/Helvetica /ISOLatin1Encoding 80 FMSR

 883 3041 mt 
(-5) s
1053 4312 mt 1053 4312 L
1053 4312 mt 1053 4312 L
DO
1053 4312 mt 1053 4312 L
1053 4312 mt 1053 4312 L
SO
1053 4312 mt 1053 4312 L
1053 4312 mt 1053 4312 L
DO
1053 4312 mt 1053 4312 L
1053 4312 mt 1053 4312 L
SO
1053 4312 mt 1053 4312 L
1053 4312 mt 1053 4312 L
DO
1053 4312 mt 1053 4312 L
1053 4312 mt 1053 4312 L
SO
1053 4312 mt 1053 4312 L
1053 4312 mt 1053 4312 L
DO
1053 4312 mt 1053 4312 L
1053 4312 mt 1053 4312 L
SO
1053 4312 mt 1053 4312 L
1053 4312 mt 1053 4312 L
DO
1053 4312 mt 1053 4312 L
1053 4312 mt 1053 4312 L
SO
1053 4312 mt 1053 4312 L
1053 4312 mt 1053 4312 L
DO
1053 4312 mt 1053 4312 L
1053 4312 mt 1053 4312 L
SO
1053 4312 mt 1053 4312 L
1053 4312 mt 1053 4312 L
DO
1053 4312 mt 1053 4312 L
1053 4312 mt 1053 4312 L
SO
1053 4312 mt 1053 4312 L
1053 4312 mt 1053 4312 L
DO
1053 4312 mt 1053 4312 L
1053 4312 mt 1053 4312 L
SO
1053 4312 mt 1053 4312 L
1053 4312 mt 1053 4312 L
DO
1053 4312 mt 1053 4312 L
1053 4312 mt 1053 4312 L
SO
1053 4312 mt 2217 4312 L
1053 2659 mt 2217 2659 L
1053 4312 mt 1053 2659 L
2217 4312 mt 2217 2659 L
gs 1053 2659 1165 1654 rc
DA
c9
3 1 3 0 3 0 3 0 3 0 3 1 3 0 3 0 
3 0 3 0 2 0 3 0 3 0 3 0 3 0 3 0 
3 0 3 0 3 0 3 0 2 0 3 0 3 0 3 0 
3 0 3 0 3 0 3 0 3 0 3 0 2 0 3 0 
3 0 3 0 3 0 3 -1 3 0 3 0 3 0 3 0 
3 0 2 0 3 -1 3 0 3 0 3 0 3 0 3 -1 
3 0 3 0 3 0 2 -1 3 0 3 0 3 0 3 -1 
3 0 3 0 3 -1 3 0 3 0 2 -1 3 0 3 0 
3 -1 3 0 3 0 3 -1 3 0 3 -1 3 0 2 0 
3 -1 3 0 3 -1 3 0 3 -1 3 0 3 -1 3 0 
3 -1 3 0 2 -1 3 -1 3 0 3 -1 3 0 3 -1 
3 -1 3 0 3 -1 3 -1 2 0 3 -1 3 -1 3 0 
3 -1 3 -1 3 -1 3 -1 3 0 3 -1 2 -1 3 -1 
3 -1 3 -1 3 0 3 -1 3 -1 3 -1 3 -1 3 -1 
3 -1 2 -1 3 -1 3 -1 3 -1 3 -1 3 -1 3 -1 
3 -2 3 -1 3 -1 2 -1 3 -1 3 -1 3 -2 3 -1 
3 -1 3 -1 3 -2 3 -1 3 -1 2 -1 3 -2 3 -1 
3 -2 3 -1 3 -1 3 -2 3 -1 3 -2 3 -1 2 -2 
3 -1 3 -2 3 -1 3 -2 3 -1 3 -2 3 -1 3 -2 
3 -2 3 -1 2 -2 3 -2 3 -1 3 -2 3 -2 3 -1 
3 -2 3 -2 3 -2 3 -1 2 -2 3 -2 3 -2 3 -2 
3 -2 3 -2 3 -1 3 -2 3 -2 3 -2 2 -2 3 -2 
3 -2 3 -2 3 -2 3 -2 3 -3 3 -2 3 -2 3 -2 
3 -2 2 -2 3 -3 3 -2 3 -2 3 -3 3 -2 3 -2 
3 -3 3 -2 3 -3 2 -2 3 -3 3 -3 3 -2 3 -3 
3 -3 3 -2 3 -3 3 -3 3 -3 2 -3 3 -3 3 -3 
3 -4 3 -3 3 -3 3 -4 3 -3 3 -4 3 -4 2 -4 
3 -4 3 -4 3 -4 3 -4 3 -5 3 -4 3 -5 3 -5 
3 -6 3 -5 2 -6 3 -6 3 -7 3 -6 3 -8 3 -7 
3 -9 3 -9 3 -10 3 -11 2 -12 3 -14 3 -16 3 -19 
3 -25 3 -35 3 -59 3 -193 3 201 3 50 2 28 3 20 
3 15 3 12 3 9 3 8 3 7 3 5 3 5 3 4 
3 4 2 2 3 3 3 2 3 1 3 1 3 1 3 0 
3 0 3 0 3 -1 2 -1 3 -1 3 -2 3 -2 3 -2 
3 -3 3 -4 3 -4 3 -4 3 -5 2 -6 3 -6 3 -8 
3 -8 3 -11 3 -12 3 -15 3 -20 3 -27 3 -42 2 -106 
3 51 3 73 3 37 3 26 3 19 3 16 3 13 3 11 
3 10 3 9 2 7 1349 3038 300 MP stroke
3 7 3 7 3 6 3 5 3 5 3 5 3 4 3 4 
3 4 2 3 3 4 3 3 3 3 3 2 3 3 3 2 
3 2 3 2 3 2 2 2 3 2 3 1 3 2 3 1 
3 1 3 1 3 1 3 1 3 1 3 1 2 0 3 1 
3 0 3 1 3 0 3 0 3 1 3 0 3 0 3 0 
2 0 3 -1 3 0 3 0 3 -1 3 0 3 -1 3 0 
3 -1 3 0 2 -1 3 -1 3 -1 3 -1 3 -1 3 -1 
3 -1 3 -1 3 -2 3 -1 2 -1 3 -2 3 -2 3 -1 
3 -2 3 -2 3 -2 3 -2 3 -2 3 -2 3 -2 2 -3 
3 -2 3 -3 3 -3 3 -2 3 -3 3 -4 3 -3 3 -3 
3 -4 2 -4 3 -4 3 -4 3 -5 3 -5 3 -6 3 -5 
3 -7 3 -6 3 -8 2 -8 3 -10 3 -10 3 -12 3 -15 
3 -18 3 -23 3 -33 3 -49 3 -91 1055 3336 102 MP stroke
SO
c10
3 0 3 0 3 0 3 1 3 0 3 0 3 0 3 0 
3 1 3 0 2 0 3 0 3 0 3 0 3 0 3 0 
3 0 3 0 3 1 3 0 2 0 3 0 3 0 3 0 
3 0 3 0 3 0 3 0 3 0 3 0 2 0 3 0 
3 0 3 0 3 0 3 -1 3 0 3 0 3 0 3 0 
3 0 2 0 3 0 3 0 3 0 3 -1 3 0 3 0 
3 0 3 0 3 0 2 0 3 -1 3 0 3 0 3 0 
3 0 3 -1 3 0 3 0 3 0 2 -1 3 0 3 0 
3 0 3 -1 3 0 3 0 3 -1 3 0 3 0 2 -1 
3 0 3 0 3 -1 3 0 3 0 3 -1 3 0 3 -1 
3 0 3 0 2 -1 3 0 3 -1 3 0 3 -1 3 0 
3 -1 3 0 3 -1 3 0 2 -1 3 0 3 -1 3 0 
3 -1 3 -1 3 0 3 -1 3 0 3 -1 2 -1 3 0 
3 -1 3 -1 3 0 3 -1 3 -1 3 -1 3 0 3 -1 
3 -1 2 0 3 -1 3 -1 3 -1 3 -1 3 0 3 -1 
3 -1 3 -1 3 -1 2 -1 3 -1 3 -1 3 0 3 -1 
3 -1 3 -1 3 -1 3 -1 3 -1 2 -1 3 -1 3 -1 
3 -1 3 -1 3 -1 3 -1 3 -2 3 -1 3 -1 2 -1 
3 -1 3 -1 3 -1 3 -1 3 -2 3 -1 3 -1 3 -1 
3 -2 3 -1 2 -1 3 -1 3 -2 3 -1 3 -1 3 -2 
3 -1 3 -1 3 -2 3 -1 2 -2 3 -1 3 -2 3 -1 
3 -1 3 -2 3 -2 3 -1 3 -2 3 -1 2 -2 3 -1 
3 -2 3 -2 3 -1 3 -2 3 -2 3 -2 3 -1 3 -2 
3 -2 2 -2 3 -2 3 -2 3 -2 3 -2 3 -2 3 -2 
3 -2 3 -2 3 -2 2 -2 3 -2 3 -3 3 -2 3 -2 
3 -3 3 -2 3 -3 3 -2 3 -3 2 -3 3 -2 3 -3 
3 -3 3 -3 3 -3 3 -3 3 -3 3 -3 3 -4 2 -3 
3 -4 3 -4 3 -3 3 -4 3 -4 3 -5 3 -4 3 -5 
3 -5 3 -5 2 -5 3 -5 3 -6 3 -7 3 -6 3 -8 
3 -7 3 -9 3 -9 3 -10 2 -12 3 -13 3 -15 3 -19 
3 -24 3 -34 3 -58 3 -193 3 203 3 50 2 30 3 21 
3 16 3 13 3 11 3 9 3 8 3 7 3 6 3 6 
3 5 2 4 3 4 3 4 3 4 3 3 3 3 3 2 
3 3 3 2 3 2 2 2 3 2 3 1 3 2 3 1 
3 1 3 1 3 1 3 1 3 1 2 1 3 0 3 1 
3 0 3 1 3 0 3 0 3 0 3 1 3 0 2 0 
3 -1 3 0 3 0 3 0 3 0 3 -1 3 0 3 -1 
3 0 3 -1 2 0 1349 3597 300 MP stroke
3 -1 3 -1 3 -1 3 0 3 -1 3 -1 3 -1 3 -1 
3 -1 2 -1 3 -1 3 -1 3 -2 3 -1 3 -1 3 -2 
3 -1 3 -1 3 -2 2 -1 3 -2 3 -1 3 -2 3 -2 
3 -1 3 -2 3 -2 3 -2 3 -1 3 -2 2 -2 3 -2 
3 -2 3 -2 3 -2 3 -3 3 -2 3 -2 3 -2 3 -3 
2 -2 3 -3 3 -2 3 -3 3 -2 3 -3 3 -3 3 -3 
3 -2 3 -3 2 -3 3 -3 3 -3 3 -4 3 -3 3 -3 
3 -4 3 -3 3 -4 3 -4 2 -3 3 -4 3 -4 3 -4 
3 -5 3 -4 3 -4 3 -5 3 -5 3 -5 3 -5 2 -5 
3 -6 3 -5 3 -6 3 -6 3 -6 3 -7 3 -7 3 -7 
3 -8 2 -7 3 -9 3 -9 3 -9 3 -10 3 -10 3 -11 
3 -12 3 -13 3 -15 2 -15 3 -17 3 -20 3 -22 3 -25 
3 -30 3 -37 3 -48 3 -67 3 -97 1055 4312 102 MP stroke
gr

c10
0 sg
%%IncludeResource: font Helvetica
/Helvetica /ISOLatin1Encoding 120 FMSR

1617 4600 mt 
(t) s
 668 3657 mt  -90 rotate
(error x) s
90 rotate
1 sg
0 1653 1164 0 0 -1653 2866 4312 4 MP
PP
-1164 0 0 1653 1164 0 0 -1653 2866 4312 5 MP stroke
4 w
DO
0 sg
2866 4312 mt 2866 2659 L
2866 2659 mt 2866 2659 L
3446 4312 mt 3446 2659 L
3446 2659 mt 3446 2659 L
4027 4312 mt 4027 2659 L
4027 2659 mt 4027 2659 L
2866 3740 mt 4030 3740 L
4030 3740 mt 4030 3740 L
2866 3004 mt 4030 3004 L
4030 3004 mt 4030 3004 L
SO
6 w
2866 4312 mt 4030 4312 L
2866 2659 mt 4030 2659 L
2866 4312 mt 2866 2659 L
4030 4312 mt 4030 2659 L
2866 4312 mt 4030 4312 L
2866 4312 mt 2866 2659 L
2866 4312 mt 2866 4295 L
2866 2659 mt 2866 2675 L
2833 4457 mt 
(0) s
3446 4312 mt 3446 4295 L
3446 2659 mt 3446 2675 L
3413 4457 mt 
(2) s
4027 4312 mt 4027 4295 L
4027 2659 mt 4027 2675 L
3994 4457 mt 
(4) s
2866 4312 mt 2866 4312 L
2866 4312 mt 2866 4312 L
DO
2866 4312 mt 2866 4312 L
2866 4312 mt 2866 4312 L
SO
2866 4312 mt 2866 4312 L
2866 4312 mt 2866 4312 L
DO
2866 4312 mt 2866 4312 L
2866 4312 mt 2866 4312 L
SO
2866 4312 mt 2866 4312 L
2866 4312 mt 2866 4312 L
DO
2866 4312 mt 2866 4312 L
2866 4312 mt 2866 4312 L
SO
2866 4312 mt 2866 4312 L
2866 4312 mt 2866 4312 L
DO
2866 4312 mt 2866 4312 L
2866 4312 mt 2866 4312 L
SO
2866 4312 mt 2866 4312 L
2866 4312 mt 2866 4312 L
DO
2866 4312 mt 2866 4312 L
2866 4312 mt 2866 4312 L
SO
2866 4312 mt 2866 4312 L
2866 4312 mt 2866 4312 L
DO
2866 4312 mt 2866 4312 L
2866 4312 mt 2866 4312 L
SO
2866 4312 mt 2866 4312 L
2866 4312 mt 2866 4312 L
DO
2866 4312 mt 2866 4312 L
2866 4312 mt 2866 4312 L
SO
2866 4312 mt 2866 4312 L
2866 4312 mt 2866 4312 L
DO
2866 4312 mt 2866 4312 L
2866 4312 mt 2866 4312 L
SO
2866 4312 mt 2866 4312 L
2866 4312 mt 2866 4312 L
DO
2866 4312 mt 2866 4312 L
2866 4312 mt 2866 4312 L
SO
2866 3740 mt 2882 3740 L
4030 3740 mt 4013 3740 L
2563 3784 mt 
(10) s
%%IncludeResource: font Helvetica
/Helvetica /ISOLatin1Encoding 80 FMSR

2696 3710 mt 
(-10) s
2866 4312 mt 2866 4312 L
2866 4312 mt 2866 4312 L
DO
2866 4312 mt 2866 4312 L
2866 4312 mt 2866 4312 L
SO
2866 4312 mt 2866 4312 L
2866 4312 mt 2866 4312 L
DO
2866 4312 mt 2866 4312 L
2866 4312 mt 2866 4312 L
SO
2866 4312 mt 2866 4312 L
2866 4312 mt 2866 4312 L
DO
2866 4312 mt 2866 4312 L
2866 4312 mt 2866 4312 L
SO
2866 4312 mt 2866 4312 L
2866 4312 mt 2866 4312 L
DO
2866 4312 mt 2866 4312 L
2866 4312 mt 2866 4312 L
SO
2866 4312 mt 2866 4312 L
2866 4312 mt 2866 4312 L
DO
2866 4312 mt 2866 4312 L
2866 4312 mt 2866 4312 L
SO
2866 4312 mt 2866 4312 L
2866 4312 mt 2866 4312 L
DO
2866 4312 mt 2866 4312 L
2866 4312 mt 2866 4312 L
SO
2866 4312 mt 2866 4312 L
2866 4312 mt 2866 4312 L
DO
2866 4312 mt 2866 4312 L
2866 4312 mt 2866 4312 L
SO
2866 4312 mt 2866 4312 L
2866 4312 mt 2866 4312 L
DO
2866 4312 mt 2866 4312 L
2866 4312 mt 2866 4312 L
SO
2866 4312 mt 2866 4312 L
2866 4312 mt 2866 4312 L
DO
2866 4312 mt 2866 4312 L
2866 4312 mt 2866 4312 L
SO
2866 3004 mt 2882 3004 L
4030 3004 mt 4013 3004 L
%%IncludeResource: font Helvetica
/Helvetica /ISOLatin1Encoding 120 FMSR

2563 3048 mt 
(10) s
%%IncludeResource: font Helvetica
/Helvetica /ISOLatin1Encoding 80 FMSR

2696 2974 mt 
(-5) s
2866 4312 mt 2866 4312 L
2866 4312 mt 2866 4312 L
DO
2866 4312 mt 2866 4312 L
2866 4312 mt 2866 4312 L
SO
2866 4312 mt 2866 4312 L
2866 4312 mt 2866 4312 L
DO
2866 4312 mt 2866 4312 L
2866 4312 mt 2866 4312 L
SO
2866 4312 mt 2866 4312 L
2866 4312 mt 2866 4312 L
DO
2866 4312 mt 2866 4312 L
2866 4312 mt 2866 4312 L
SO
2866 4312 mt 2866 4312 L
2866 4312 mt 2866 4312 L
DO
2866 4312 mt 2866 4312 L
2866 4312 mt 2866 4312 L
SO
2866 4312 mt 2866 4312 L
2866 4312 mt 2866 4312 L
DO
2866 4312 mt 2866 4312 L
2866 4312 mt 2866 4312 L
SO
2866 4312 mt 2866 4312 L
2866 4312 mt 2866 4312 L
DO
2866 4312 mt 2866 4312 L
2866 4312 mt 2866 4312 L
SO
2866 4312 mt 2866 4312 L
2866 4312 mt 2866 4312 L
DO
2866 4312 mt 2866 4312 L
2866 4312 mt 2866 4312 L
SO
2866 4312 mt 2866 4312 L
2866 4312 mt 2866 4312 L
DO
2866 4312 mt 2866 4312 L
2866 4312 mt 2866 4312 L
SO
2866 4312 mt 2866 4312 L
2866 4312 mt 2866 4312 L
DO
2866 4312 mt 2866 4312 L
2866 4312 mt 2866 4312 L
SO
2866 4312 mt 4030 4312 L
2866 2659 mt 4030 2659 L
2866 4312 mt 2866 2659 L
4030 4312 mt 4030 2659 L
gs 2866 2659 1165 1654 rc
DA
c9
3 -1 3 -1 3 -1 3 -1 3 -1 3 -1 3 -2 3 -1 
3 -1 3 -1 2 -1 3 -1 3 -2 3 -1 3 -1 3 -1 
3 -2 3 -1 3 -1 3 -2 2 -1 3 -1 3 -2 3 -1 
3 -1 3 -2 3 -1 3 -2 3 -1 3 -1 2 -2 3 -1 
3 -2 3 -2 3 -1 3 -2 3 -1 3 -2 3 -2 3 -1 
3 -2 2 -2 3 -2 3 -1 3 -2 3 -2 3 -2 3 -2 
3 -2 3 -2 3 -2 2 -3 3 -2 3 -2 3 -2 3 -3 
3 -2 3 -3 3 -2 3 -3 3 -3 2 -3 3 -3 3 -3 
3 -3 3 -4 3 -3 3 -4 3 -4 3 -4 3 -4 2 -5 
3 -5 3 -5 3 -5 3 -6 3 -7 3 -7 3 -8 3 -9 
3 -11 3 -12 2 -15 3 -19 3 -28 3 -47 3 -154 3 163 
3 42 3 24 3 17 3 14 2 11 3 9 3 8 3 7 
3 6 3 5 3 5 3 5 3 4 3 4 2 3 3 3 
3 3 3 3 3 3 3 2 3 3 3 2 3 2 3 2 
3 2 2 1 3 2 3 1 3 2 3 1 3 1 3 2 
3 1 3 1 3 1 2 1 3 1 3 1 3 1 3 0 
3 1 3 1 3 0 3 1 3 0 2 1 3 0 3 1 
3 0 3 1 3 0 3 0 3 1 3 0 3 0 2 0 
3 0 3 1 3 0 3 0 3 0 3 0 3 0 3 0 
3 0 3 0 2 0 3 0 3 0 3 0 3 0 3 0 
3 -1 3 0 3 0 3 0 2 0 3 0 3 -1 3 0 
3 0 3 0 3 -1 3 0 3 0 3 -1 2 0 3 0 
3 -1 3 0 3 0 3 -1 3 0 3 0 3 -1 3 0 
3 -1 2 0 3 -1 3 0 3 0 3 -1 3 0 3 -1 
3 0 3 -1 3 0 2 -1 3 0 3 -1 3 0 3 -1 
3 -1 3 0 3 -1 3 0 3 -1 2 -1 3 0 3 -1 
3 -1 3 0 3 -1 3 -1 3 0 3 -1 3 -1 2 -1 
3 0 3 -1 3 -1 3 -1 3 -1 3 -1 3 -1 3 -1 
3 -1 3 0 2 -1 3 -2 3 -1 3 -1 3 -1 3 -1 
3 -1 3 -1 3 -1 3 -2 2 -1 3 -1 3 -2 3 -1 
3 -2 3 -1 3 -2 3 -1 3 -2 3 -1 2 -2 3 -2 
3 -2 3 -2 3 -2 3 -2 3 -2 3 -2 3 -2 3 -2 
3 -3 2 -2 3 -3 3 -2 3 -3 3 -3 3 -3 3 -3 
3 -3 3 -3 3 -4 2 -4 3 -3 3 -4 3 -5 3 -4 
3 -5 3 -5 3 -5 3 -6 3 -6 2 -7 3 -7 3 -8 
3 -10 3 -10 3 -12 3 -14 3 -18 3 -24 3 -36 2 -90 
3 43 3 58 3 29 3 19 3 14 3 11 3 9 3 8 
3 6 3 6 2 5 3162 2946 300 MP stroke
3 4 3 4 3 4 3 3 3 2 3 3 3 2 3 2 
3 2 2 1 3 1 3 2 3 1 3 0 3 1 3 1 
3 0 3 1 3 0 2 0 3 0 3 0 3 0 3 0 
3 0 3 -1 3 0 3 -1 3 0 3 -1 2 -1 3 -1 
3 -1 3 -1 3 -1 3 -1 3 -1 3 -1 3 -2 3 -1 
2 -1 3 -2 3 -1 3 -2 3 -2 3 -2 3 -1 3 -2 
3 -2 3 -2 2 -2 3 -3 3 -2 3 -2 3 -3 3 -2 
3 -3 3 -2 3 -3 3 -3 2 -3 3 -3 3 -3 3 -3 
3 -3 3 -4 3 -3 3 -4 3 -4 3 -4 3 -4 2 -4 
3 -4 3 -5 3 -4 3 -5 3 -5 3 -5 3 -6 3 -6 
3 -6 2 -6 3 -7 3 -7 3 -8 3 -8 3 -8 3 -9 
3 -10 3 -11 3 -12 2 -12 3 -15 3 -16 3 -18 3 -22 
3 -26 3 -32 3 -42 3 -58 3 -74 2868 3457 102 MP stroke
SO
c10
3 -1 3 -1 3 -1 3 -1 3 -1 3 -1 3 -1 3 -2 
3 -1 3 -1 2 -1 3 -1 3 -1 3 -2 3 -1 3 -1 
3 -1 3 -2 3 -1 3 -1 2 -1 3 -2 3 -1 3 -1 
3 -2 3 -1 3 -1 3 -2 3 -1 3 -2 2 -1 3 -1 
3 -2 3 -1 3 -2 3 -1 3 -2 3 -2 3 -1 3 -2 
3 -2 2 -1 3 -2 3 -2 3 -2 3 -1 3 -2 3 -2 
3 -2 3 -2 3 -2 2 -2 3 -3 3 -2 3 -2 3 -2 
3 -3 3 -2 3 -3 3 -3 3 -2 2 -3 3 -3 3 -3 
3 -3 3 -4 3 -3 3 -4 3 -4 3 -4 3 -4 2 -4 
3 -5 3 -5 3 -6 3 -6 3 -6 3 -8 3 -8 3 -9 
3 -10 3 -13 2 -15 3 -19 3 -28 3 -51 3 -107 3 127 
3 39 3 24 3 17 3 14 2 11 3 9 3 8 3 7 
3 6 3 5 3 5 3 5 3 4 3 4 2 4 3 3 
3 3 3 3 3 3 3 3 3 2 3 3 3 2 3 2 
3 2 2 2 3 2 3 1 3 2 3 1 3 2 3 1 
3 2 3 1 3 1 2 1 3 2 3 1 3 1 3 1 
3 1 3 1 3 1 3 0 3 1 2 1 3 1 3 0 
3 1 3 1 3 0 3 1 3 1 3 0 3 1 2 0 
3 1 3 0 3 0 3 1 3 0 3 1 3 0 3 0 
3 1 3 0 2 0 3 0 3 1 3 0 3 0 3 0 
3 0 3 1 3 0 3 0 2 0 3 0 3 0 3 0 
3 0 3 0 3 0 3 0 3 0 3 0 2 0 3 0 
3 0 3 0 3 0 3 0 3 0 3 0 3 0 3 0 
3 0 2 0 3 -1 3 0 3 0 3 0 3 0 3 0 
3 -1 3 0 3 0 2 0 3 -1 3 0 3 0 3 0 
3 -1 3 0 3 0 3 -1 3 0 2 0 3 -1 3 0 
3 0 3 -1 3 0 3 -1 3 0 3 0 3 -1 2 0 
3 -1 3 0 3 -1 3 0 3 -1 3 0 3 -1 3 0 
3 -1 3 0 2 -1 3 -1 3 0 3 -1 3 -1 3 0 
3 -1 3 -1 3 0 3 -1 2 -1 3 0 3 -1 3 -1 
3 -1 3 -1 3 0 3 -1 3 -1 3 -1 2 -1 3 -1 
3 -1 3 -1 3 0 3 -1 3 -1 3 -1 3 -1 3 -1 
3 -2 2 -1 3 -1 3 -1 3 -1 3 -1 3 -1 3 -1 
3 -2 3 -1 3 -1 2 -1 3 -2 3 -1 3 -1 3 -2 
3 -1 3 -1 3 -2 3 -1 3 -2 2 -1 3 -2 3 -1 
3 -2 3 -1 3 -2 3 -1 3 -2 3 -2 3 -1 2 -2 
3 -2 3 -2 3 -1 3 -2 3 -2 3 -2 3 -2 3 -1 
3 -2 3 -2 2 -2 3162 3403 300 MP stroke
3 -2 3 -2 3 -2 3 -2 3 -2 3 -2 3 -3 3 -2 
3 -2 2 -2 3 -2 3 -3 3 -2 3 -2 3 -3 3 -2 
3 -2 3 -3 3 -2 2 -3 3 -2 3 -3 3 -2 3 -3 
3 -3 3 -2 3 -3 3 -3 3 -3 3 -2 2 -3 3 -3 
3 -3 3 -3 3 -3 3 -3 3 -3 3 -4 3 -3 3 -3 
2 -3 3 -4 3 -3 3 -4 3 -3 3 -4 3 -4 3 -3 
3 -4 3 -4 2 -4 3 -4 3 -4 3 -4 3 -4 3 -5 
3 -4 3 -5 3 -4 3 -5 2 -5 3 -5 3 -5 3 -5 
3 -5 3 -6 3 -5 3 -6 3 -6 3 -6 3 -7 2 -6 
3 -7 3 -7 3 -7 3 -8 3 -7 3 -8 3 -9 3 -9 
3 -9 2 -10 3 -10 3 -10 3 -12 3 -12 3 -12 3 -14 
3 -15 3 -15 3 -18 2 -18 3 -21 3 -24 3 -26 3 -31 
3 -36 3 -45 3 -57 3 -80 3 -124 2868 4312 102 MP stroke
gr

c10
0 sg
%%IncludeResource: font Helvetica
/Helvetica /ISOLatin1Encoding 120 FMSR

3430 4600 mt 
(t) s
2481 3657 mt  -90 rotate
(error y) s
90 rotate
1 sg
0 1653 1164 0 0 -1653 4679 4312 4 MP
PP
-1164 0 0 1653 1164 0 0 -1653 4679 4312 5 MP stroke
4 w
DO
0 sg
4679 4312 mt 4679 2659 L
4679 2659 mt 4679 2659 L
5259 4312 mt 5259 2659 L
5259 2659 mt 5259 2659 L
5840 4312 mt 5840 2659 L
5840 2659 mt 5840 2659 L
4679 4312 mt 5843 4312 L
5843 4312 mt 5843 4312 L
4679 3520 mt 5843 3520 L
5843 3520 mt 5843 3520 L
4679 2728 mt 5843 2728 L
5843 2728 mt 5843 2728 L
SO
6 w
4679 4312 mt 5843 4312 L
4679 2659 mt 5843 2659 L
4679 4312 mt 4679 2659 L
5843 4312 mt 5843 2659 L
4679 4312 mt 5843 4312 L
4679 4312 mt 4679 2659 L
4679 4312 mt 4679 4295 L
4679 2659 mt 4679 2675 L
4646 4457 mt 
(0) s
5259 4312 mt 5259 4295 L
5259 2659 mt 5259 2675 L
5226 4457 mt 
(2) s
5840 4312 mt 5840 4295 L
5840 2659 mt 5840 2675 L
5807 4457 mt 
(4) s
4679 4312 mt 4679 4312 L
4679 4312 mt 4679 4312 L
DO
4679 4312 mt 4679 4312 L
4679 4312 mt 4679 4312 L
SO
4679 4312 mt 4679 4312 L
4679 4312 mt 4679 4312 L
DO
4679 4312 mt 4679 4312 L
4679 4312 mt 4679 4312 L
SO
4679 4312 mt 4679 4312 L
4679 4312 mt 4679 4312 L
DO
4679 4312 mt 4679 4312 L
4679 4312 mt 4679 4312 L
SO
4679 4312 mt 4679 4312 L
4679 4312 mt 4679 4312 L
DO
4679 4312 mt 4679 4312 L
4679 4312 mt 4679 4312 L
SO
4679 4312 mt 4679 4312 L
4679 4312 mt 4679 4312 L
DO
4679 4312 mt 4679 4312 L
4679 4312 mt 4679 4312 L
SO
4679 4312 mt 4679 4312 L
4679 4312 mt 4679 4312 L
DO
4679 4312 mt 4679 4312 L
4679 4312 mt 4679 4312 L
SO
4679 4312 mt 4679 4312 L
4679 4312 mt 4679 4312 L
DO
4679 4312 mt 4679 4312 L
4679 4312 mt 4679 4312 L
SO
4679 4312 mt 4679 4312 L
4679 4312 mt 4679 4312 L
DO
4679 4312 mt 4679 4312 L
4679 4312 mt 4679 4312 L
SO
4679 4312 mt 4679 4312 L
4679 4312 mt 4679 4312 L
DO
4679 4312 mt 4679 4312 L
4679 4312 mt 4679 4312 L
SO
4679 4312 mt 4695 4312 L
5843 4312 mt 5826 4312 L
4420 4356 mt 
(10) s
%%IncludeResource: font Helvetica
/Helvetica /ISOLatin1Encoding 80 FMSR

4553 4282 mt 
(-6) s
4679 4312 mt 4679 4312 L
4679 4312 mt 4679 4312 L
DO
4679 4312 mt 4679 4312 L
4679 4312 mt 4679 4312 L
SO
4679 4312 mt 4679 4312 L
4679 4312 mt 4679 4312 L
DO
4679 4312 mt 4679 4312 L
4679 4312 mt 4679 4312 L
SO
4679 4312 mt 4679 4312 L
4679 4312 mt 4679 4312 L
DO
4679 4312 mt 4679 4312 L
4679 4312 mt 4679 4312 L
SO
4679 4312 mt 4679 4312 L
4679 4312 mt 4679 4312 L
DO
4679 4312 mt 4679 4312 L
4679 4312 mt 4679 4312 L
SO
4679 4312 mt 4679 4312 L
4679 4312 mt 4679 4312 L
DO
4679 4312 mt 4679 4312 L
4679 4312 mt 4679 4312 L
SO
4679 4312 mt 4679 4312 L
4679 4312 mt 4679 4312 L
DO
4679 4312 mt 4679 4312 L
4679 4312 mt 4679 4312 L
SO
4679 4312 mt 4679 4312 L
4679 4312 mt 4679 4312 L
DO
4679 4312 mt 4679 4312 L
4679 4312 mt 4679 4312 L
SO
4679 4312 mt 4679 4312 L
4679 4312 mt 4679 4312 L
DO
4679 4312 mt 4679 4312 L
4679 4312 mt 4679 4312 L
SO
4679 4312 mt 4679 4312 L
4679 4312 mt 4679 4312 L
DO
4679 4312 mt 4679 4312 L
4679 4312 mt 4679 4312 L
SO
4679 3520 mt 4695 3520 L
5843 3520 mt 5826 3520 L
%%IncludeResource: font Helvetica
/Helvetica /ISOLatin1Encoding 120 FMSR

4420 3564 mt 
(10) s
%%IncludeResource: font Helvetica
/Helvetica /ISOLatin1Encoding 80 FMSR

4553 3490 mt 
(-4) s
4679 4312 mt 4679 4312 L
4679 4312 mt 4679 4312 L
DO
4679 4312 mt 4679 4312 L
4679 4312 mt 4679 4312 L
SO
4679 4312 mt 4679 4312 L
4679 4312 mt 4679 4312 L
DO
4679 4312 mt 4679 4312 L
4679 4312 mt 4679 4312 L
SO
4679 4312 mt 4679 4312 L
4679 4312 mt 4679 4312 L
DO
4679 4312 mt 4679 4312 L
4679 4312 mt 4679 4312 L
SO
4679 4312 mt 4679 4312 L
4679 4312 mt 4679 4312 L
DO
4679 4312 mt 4679 4312 L
4679 4312 mt 4679 4312 L
SO
4679 4312 mt 4679 4312 L
4679 4312 mt 4679 4312 L
DO
4679 4312 mt 4679 4312 L
4679 4312 mt 4679 4312 L
SO
4679 4312 mt 4679 4312 L
4679 4312 mt 4679 4312 L
DO
4679 4312 mt 4679 4312 L
4679 4312 mt 4679 4312 L
SO
4679 4312 mt 4679 4312 L
4679 4312 mt 4679 4312 L
DO
4679 4312 mt 4679 4312 L
4679 4312 mt 4679 4312 L
SO
4679 4312 mt 4679 4312 L
4679 4312 mt 4679 4312 L
DO
4679 4312 mt 4679 4312 L
4679 4312 mt 4679 4312 L
SO
4679 4312 mt 4679 4312 L
4679 4312 mt 4679 4312 L
DO
4679 4312 mt 4679 4312 L
4679 4312 mt 4679 4312 L
SO
4679 2728 mt 4695 2728 L
5843 2728 mt 5826 2728 L
%%IncludeResource: font Helvetica
/Helvetica /ISOLatin1Encoding 120 FMSR

4420 2772 mt 
(10) s
%%IncludeResource: font Helvetica
/Helvetica /ISOLatin1Encoding 80 FMSR

4553 2698 mt 
(-2) s
4679 4312 mt 4679 4312 L
4679 4312 mt 4679 4312 L
DO
4679 4312 mt 4679 4312 L
4679 4312 mt 4679 4312 L
SO
4679 4312 mt 4679 4312 L
4679 4312 mt 4679 4312 L
DO
4679 4312 mt 4679 4312 L
4679 4312 mt 4679 4312 L
SO
4679 4312 mt 4679 4312 L
4679 4312 mt 4679 4312 L
DO
4679 4312 mt 4679 4312 L
4679 4312 mt 4679 4312 L
SO
4679 4312 mt 4679 4312 L
4679 4312 mt 4679 4312 L
DO
4679 4312 mt 4679 4312 L
4679 4312 mt 4679 4312 L
SO
4679 4312 mt 4679 4312 L
4679 4312 mt 4679 4312 L
DO
4679 4312 mt 4679 4312 L
4679 4312 mt 4679 4312 L
SO
4679 4312 mt 4679 4312 L
4679 4312 mt 4679 4312 L
DO
4679 4312 mt 4679 4312 L
4679 4312 mt 4679 4312 L
SO
4679 4312 mt 4679 4312 L
4679 4312 mt 4679 4312 L
DO
4679 4312 mt 4679 4312 L
4679 4312 mt 4679 4312 L
SO
4679 4312 mt 4679 4312 L
4679 4312 mt 4679 4312 L
DO
4679 4312 mt 4679 4312 L
4679 4312 mt 4679 4312 L
SO
4679 4312 mt 4679 4312 L
4679 4312 mt 4679 4312 L
DO
4679 4312 mt 4679 4312 L
4679 4312 mt 4679 4312 L
SO
4679 4312 mt 5843 4312 L
4679 2659 mt 5843 2659 L
4679 4312 mt 4679 2659 L
5843 4312 mt 5843 2659 L
gs 4679 2659 1165 1654 rc
DA
c9
3 -1 3 -2 3 -1 3 -1 3 -2 3 -1 3 -2 3 -1 
3 -1 3 -2 2 -1 3 -2 3 -1 3 -1 3 -2 3 -1 
3 -1 3 -1 3 -1 3 -2 2 -1 3 -1 3 -1 3 -1 
3 -1 3 -1 3 -1 3 0 3 -1 3 -1 2 -1 3 -1 
3 0 3 -1 3 0 3 -1 3 0 3 -1 3 0 3 -1 
3 0 2 -1 3 0 3 0 3 -1 3 0 3 0 3 -1 
3 0 3 0 3 0 2 -1 3 0 3 0 3 0 3 -1 
3 0 3 0 3 0 3 -1 3 0 2 0 3 0 3 -1 
3 0 3 0 3 0 3 -1 3 0 3 0 3 -1 2 0 
3 0 3 -1 3 0 3 -1 3 0 3 -1 3 0 3 -1 
3 0 3 -1 2 0 3 -1 3 -1 3 -1 3 0 3 -1 
3 -1 3 -1 3 -1 3 -1 2 -1 3 -1 3 -1 3 -1 
3 -1 3 -1 3 -1 3 -2 3 -1 3 -2 2 -1 3 -2 
3 -1 3 -2 3 -2 3 -2 3 -1 3 -2 3 -2 3 -3 
3 -2 2 -2 3 -2 3 -3 3 -2 3 -3 3 -3 3 -3 
3 -3 3 -3 3 -3 2 -3 3 -4 3 -3 3 -4 3 -4 
3 -4 3 -4 3 -4 3 -5 3 -4 2 -5 3 -5 3 -5 
3 -5 3 -6 3 -6 3 -6 3 -6 3 -6 3 -7 2 -7 
3 -7 3 -8 3 -8 3 -8 3 -9 3 -9 3 -10 3 -10 
3 -10 3 -12 2 -11 3 -13 3 -13 3 -15 3 -15 3 -17 
3 -18 3 -19 3 -22 3 -25 2 -28 3 -33 3 -40 3 -50 
3 -69 3 -111 3 -374 3 323 3 129 3 71 2 48 3 37 
3 29 3 23 3 20 3 17 3 15 3 13 3 12 3 9 
3 9 2 8 3 7 3 6 3 5 3 5 3 4 3 4 
3 2 3 3 3 1 2 2 3 0 3 1 3 0 3 -1 
3 -1 3 -2 3 -2 3 -3 3 -3 2 -4 3 -5 3 -5 
3 -6 3 -6 3 -8 3 -8 3 -10 3 -11 3 -12 2 -14 
3 -17 3 -18 3 -23 3 -26 3 -33 3 -43 3 -60 3 -95 
3 -250 3 149 2 155 3 81 3 57 3 43 3 35 3 29 
3 26 3 23 3 20 3 18 2 17 3 16 3 14 3 13 
3 12 3 12 3 11 3 10 3 9 3 9 2 9 3 8 
3 8 3 7 3 7 3 6 3 6 3 6 3 6 3 5 
3 5 2 4 3 5 3 4 3 4 3 3 3 4 3 3 
3 3 3 2 3 3 2 2 3 2 3 2 3 2 3 1 
3 1 3 1 3 1 3 1 3 0 2 0 3 0 3 0 
3 0 3 0 3 -1 3 -1 3 -1 3 -1 3 -2 2 -1 
3 -2 3 -2 3 -2 3 -2 3 -3 3 -2 3 -3 3 -3 
3 -3 3 -3 2 -4 4975 3136 300 MP stroke
3 -3 3 -4 3 -4 3 -4 3 -4 3 -5 3 -4 3 -5 
3 -5 2 -5 3 -6 3 -5 3 -6 3 -6 3 -6 3 -6 
3 -6 3 -7 3 -6 2 -7 3 -7 3 -7 3 -8 3 -8 
3 -7 3 -8 3 -8 3 -9 3 -8 3 -9 2 -9 3 -9 
3 -10 3 -9 3 -10 3 -10 3 -11 3 -10 3 -11 3 -11 
2 -11 3 -11 3 -12 3 -12 3 -12 3 -13 3 -12 3 -13 
3 -14 3 -13 2 -14 3 -14 3 -14 3 -14 3 -15 3 -15 
3 -14 3 -15 3 -15 3 -15 2 -15 3 -14 3 -14 3 -14 
3 -13 3 -12 3 -11 3 -10 3 -8 3 -8 3 -6 2 -4 
3 -2 3 -1 3 0 3 2 3 3 3 4 3 5 3 6 
3 6 2 7 3 7 3 8 3 7 3 8 3 7 3 7 
3 8 3 7 3 8 2 5 3 1 3 1 3 6 3 129 
3 -196 3 156 3 -248 3 427 3 -258 4681 3696 102 MP stroke
SO
c10
3 0 3 0 3 0 3 0 3 0 3 0 3 0 3 0 
3 0 3 0 2 0 3 0 3 0 3 1 3 0 3 0 
3 0 3 0 3 0 3 0 2 0 3 0 3 0 3 0 
3 0 3 0 3 0 3 0 3 0 3 0 2 0 3 0 
3 0 3 0 3 0 3 0 3 0 3 0 3 0 3 0 
3 0 2 0 3 0 3 0 3 0 3 0 3 0 3 0 
3 0 3 0 3 0 2 0 3 0 3 0 3 0 3 0 
3 0 3 0 3 0 3 0 3 0 2 0 3 0 3 0 
3 0 3 0 3 0 3 0 3 0 3 0 3 0 2 0 
3 0 3 0 3 0 3 0 3 0 3 0 3 0 3 0 
3 0 3 0 2 0 3 0 3 0 3 0 3 0 3 0 
3 0 3 0 3 0 3 0 2 0 3 0 3 0 3 1 
3 0 3 0 3 0 3 0 3 0 3 0 2 0 3 0 
3 0 3 0 3 0 3 0 3 0 3 0 3 0 3 0 
3 0 2 0 3 0 3 0 3 0 3 0 3 1 3 0 
3 0 3 0 3 0 2 0 3 0 3 0 3 0 3 0 
3 0 3 0 3 0 3 0 3 0 2 0 3 0 3 1 
3 0 3 0 3 0 3 0 3 0 3 0 3 0 2 0 
3 0 3 0 3 0 3 0 3 0 3 0 3 0 3 1 
3 0 3 0 2 0 3 0 3 0 3 0 3 0 3 0 
3 0 3 0 3 0 3 0 2 0 3 0 3 0 3 0 
3 0 3 0 3 0 3 0 3 1 3 0 2 0 3 0 
3 0 3 0 3 0 3 0 3 0 3 0 3 0 3 0 
3 0 2 0 3 0 3 0 3 0 3 0 3 0 3 0 
3 0 3 0 3 0 2 0 3 0 3 0 3 0 3 0 
3 0 3 0 3 0 3 0 3 0 2 0 3 0 3 0 
3 0 3 0 3 0 3 0 3 0 3 0 3 0 2 0 
3 0 3 0 3 0 3 0 3 0 3 0 3 0 3 0 
3 0 3 0 2 0 3 0 3 -1 3 0 3 0 3 0 
3 0 3 0 3 0 3 0 2 0 3 0 3 0 3 0 
3 0 3 0 3 0 3 0 3 0 3 0 2 0 3 0 
3 0 3 0 3 0 3 0 3 0 3 0 3 0 3 0 
3 0 2 0 3 0 3 0 3 0 3 0 3 0 3 0 
3 0 3 -1 3 0 2 0 3 0 3 0 3 0 3 0 
3 0 3 0 3 0 3 0 3 0 2 0 3 0 3 0 
3 0 3 0 3 0 3 0 3 0 3 0 3 0 2 0 
3 0 3 0 3 0 3 1 3 0 3 0 3 0 3 0 
3 0 3 0 2 0 4975 3878 300 MP stroke
3 0 3 0 3 0 3 0 3 0 3 0 3 0 3 0 
3 0 2 0 3 0 3 0 3 0 3 0 3 0 3 0 
3 0 3 0 3 0 2 0 3 0 3 0 3 0 3 0 
3 0 3 0 3 0 3 0 3 0 3 0 2 0 3 0 
3 0 3 0 3 0 3 0 3 0 3 0 3 0 3 0 
2 0 3 0 3 0 3 1 3 0 3 0 3 0 3 0 
3 0 3 0 2 0 3 0 3 0 3 0 3 0 3 0 
3 0 3 0 3 0 3 0 2 0 3 0 3 0 3 0 
3 0 3 0 3 0 3 0 3 0 3 0 3 0 2 0 
3 0 3 0 3 0 3 0 3 0 3 0 3 0 3 0 
3 0 2 0 3 0 3 0 3 0 3 0 3 0 3 0 
3 0 3 0 3 0 2 0 3 0 3 0 3 0 3 0 
3 0 3 0 3 0 3 0 3 -44 4681 3921 102 MP stroke
gr

c10
0 sg
%%IncludeResource: font Helvetica
/Helvetica /ISOLatin1Encoding 120 FMSR

5243 4600 mt 
(t) s
4330 3660 mt  -90 rotate
(error ) s
90 rotate
%%IncludeResource: font Symbol
/Symbol /ISOLatin1Encoding 120 FMSR

4330 3374 mt  -90 rotate
(l) s
90 rotate
1 sg
0 400 1265 0 0 -400 5105 458 4 MP
PP
-1265 0 0 400 1265 0 0 -400 5105 458 5 MP stroke
4 w
DO
SO
6 w
0 sg
5105  458 mt 6370  458 L
5105   58 mt 6370   58 L
5105  458 mt 5105   58 L
6370  458 mt 6370   58 L
5105  458 mt 6370  458 L
5105  458 mt 5105   58 L
5105  458 mt 6370  458 L
5105   58 mt 6370   58 L
5105  458 mt 5105   58 L
6370  458 mt 6370   58 L
%%IncludeResource: font Helvetica
/Helvetica /ISOLatin1Encoding 120 FMSR

5573  211 mt 
(BDF methods) s
gs 5105 58 1266 401 rc
DA
c9
360 0 5177 168 2 MP stroke
SO
gr

c9
0 sg
5573  390 mt 
(RK methods) s
gs 5105 58 1266 401 rc
c10
360 0 5177 347 2 MP stroke
gr

c10

end %%Color Dict

eplot
%%EndObject

epage
end

showpage

%%Trailer
%%EOF
