%!PS-Adobe-3.0 EPSF-3.0
%%Creator: MATLAB, The Mathworks, Inc.
%%Title: /homes/numerik/wunder/program/example2.eps
%%CreationDate: 05/26/2005  17:37:47
%%DocumentNeededFonts: Helvetica
%%DocumentProcessColors: Cyan Magenta Yellow Black
%%LanguageLevel: 2
%%Pages: 1
%%BoundingBox:  -258   193   870   597
%%EndComments

%%BeginProlog
% MathWorks dictionary
/MathWorks 160 dict begin
% definition operators
/bdef {bind def} bind def
/ldef {load def} bind def
/xdef {exch def} bdef
/xstore {exch store} bdef
% operator abbreviations
/c  /clip ldef
/cc /concat ldef
/cp /closepath ldef
/gr /grestore ldef
/gs /gsave ldef
/mt /moveto ldef
/np /newpath ldef
/cm /currentmatrix ldef
/sm /setmatrix ldef
/rm /rmoveto ldef
/rl /rlineto ldef
/s {show newpath} bdef
/sc {setcmykcolor} bdef
/sr /setrgbcolor ldef
/sg /setgray ldef
/w /setlinewidth ldef
/j /setlinejoin ldef
/cap /setlinecap ldef
/rc {rectclip} bdef
/rf {rectfill} bdef
% page state control
/pgsv () def
/bpage {/pgsv save def} bdef
/epage {pgsv restore} bdef
/bplot /gsave ldef
/eplot {stroke grestore} bdef
% orientation switch
/portraitMode 0 def /landscapeMode 1 def /rotateMode 2 def
% coordinate system mappings
/dpi2point 0 def
% font control
/FontSize 0 def
/FMS {/FontSize xstore findfont [FontSize 0 0 FontSize neg 0 0]
  makefont setfont} bdef
/reencode {exch dup where {pop load} {pop StandardEncoding} ifelse
  exch dup 3 1 roll findfont dup length dict begin
  { 1 index /FID ne {def}{pop pop} ifelse } forall
  /Encoding exch def currentdict end definefont pop} bdef
/isroman {findfont /CharStrings get /Agrave known} bdef
/FMSR {3 1 roll 1 index dup isroman {reencode} {pop pop} ifelse
  exch FMS} bdef
/csm {1 dpi2point div -1 dpi2point div scale neg translate
 dup landscapeMode eq {pop -90 rotate}
  {rotateMode eq {90 rotate} if} ifelse} bdef
% line types: solid, dotted, dashed, dotdash
/SO { [] 0 setdash } bdef
/DO { [.5 dpi2point mul 4 dpi2point mul] 0 setdash } bdef
/DA { [6 dpi2point mul] 0 setdash } bdef
/DD { [.5 dpi2point mul 4 dpi2point mul 6 dpi2point mul 4
  dpi2point mul] 0 setdash } bdef
% macros for lines and objects
/L {lineto stroke} bdef
/MP {3 1 roll moveto 1 sub {rlineto} repeat} bdef
/AP {{rlineto} repeat} bdef
/PDlw -1 def
/W {/PDlw currentlinewidth def setlinewidth} def
/PP {closepath eofill} bdef
/DP {closepath stroke} bdef
/MR {4 -2 roll moveto dup  0 exch rlineto exch 0 rlineto
  neg 0 exch rlineto closepath} bdef
/FR {MR stroke} bdef
/PR {MR fill} bdef
/L1i {{currentfile picstr readhexstring pop} image} bdef
/tMatrix matrix def
/MakeOval {newpath tMatrix currentmatrix pop translate scale
0 0 1 0 360 arc tMatrix setmatrix} bdef
/FO {MakeOval stroke} bdef
/PO {MakeOval fill} bdef
/PD {currentlinewidth 2 div 0 360 arc fill
   PDlw -1 eq not {PDlw w /PDlw -1 def} if} def
/FA {newpath tMatrix currentmatrix pop translate scale
  0 0 1 5 -2 roll arc tMatrix setmatrix stroke} bdef
/PA {newpath tMatrix currentmatrix pop	translate 0 0 moveto scale
  0 0 1 5 -2 roll arc closepath tMatrix setmatrix fill} bdef
/FAn {newpath tMatrix currentmatrix pop translate scale
  0 0 1 5 -2 roll arcn tMatrix setmatrix stroke} bdef
/PAn {newpath tMatrix currentmatrix pop translate 0 0 moveto scale
  0 0 1 5 -2 roll arcn closepath tMatrix setmatrix fill} bdef
/vradius 0 def /hradius 0 def /lry 0 def
/lrx 0 def /uly 0 def /ulx 0 def /rad 0 def
/MRR {/vradius xdef /hradius xdef /lry xdef /lrx xdef /uly xdef
  /ulx xdef newpath tMatrix currentmatrix pop ulx hradius add uly
  vradius add translate hradius vradius scale 0 0 1 180 270 arc 
  tMatrix setmatrix lrx hradius sub uly vradius add translate
  hradius vradius scale 0 0 1 270 360 arc tMatrix setmatrix
  lrx hradius sub lry vradius sub translate hradius vradius scale
  0 0 1 0 90 arc tMatrix setmatrix ulx hradius add lry vradius sub
  translate hradius vradius scale 0 0 1 90 180 arc tMatrix setmatrix
  closepath} bdef
/FRR {MRR stroke } bdef
/PRR {MRR fill } bdef
/MlrRR {/lry xdef /lrx xdef /uly xdef /ulx xdef /rad lry uly sub 2 div def
  newpath tMatrix currentmatrix pop ulx rad add uly rad add translate
  rad rad scale 0 0 1 90 270 arc tMatrix setmatrix lrx rad sub lry rad
  sub translate rad rad scale 0 0 1 270 90 arc tMatrix setmatrix
  closepath} bdef
/FlrRR {MlrRR stroke } bdef
/PlrRR {MlrRR fill } bdef
/MtbRR {/lry xdef /lrx xdef /uly xdef /ulx xdef /rad lrx ulx sub 2 div def
  newpath tMatrix currentmatrix pop ulx rad add uly rad add translate
  rad rad scale 0 0 1 180 360 arc tMatrix setmatrix lrx rad sub lry rad
  sub translate rad rad scale 0 0 1 0 180 arc tMatrix setmatrix
  closepath} bdef
/FtbRR {MtbRR stroke } bdef
/PtbRR {MtbRR fill } bdef
/stri 6 array def /dtri 6 array def
/smat 6 array def /dmat 6 array def
/tmat1 6 array def /tmat2 6 array def /dif 3 array def
/asub {/ind2 exch def /ind1 exch def dup dup
  ind1 get exch ind2 get sub exch } bdef
/tri_to_matrix {
  2 0 asub 3 1 asub 4 0 asub 5 1 asub
  dup 0 get exch 1 get 7 -1 roll astore } bdef
/compute_transform {
  dmat dtri tri_to_matrix tmat1 invertmatrix 
  smat stri tri_to_matrix tmat2 concatmatrix } bdef
/ds {stri astore pop} bdef
/dt {dtri astore pop} bdef
/db {2 copy /cols xdef /rows xdef mul dup 3 mul string
  currentfile 
  3 index 0 eq {/ASCIIHexDecode filter}
  {/ASCII85Decode filter 3 index 2 eq {/RunLengthDecode filter} if }
  ifelse exch readstring pop
  dup 0 3 index getinterval /rbmap xdef
  dup 2 index dup getinterval /gbmap xdef
  1 index dup 2 mul exch getinterval /bbmap xdef pop pop}bdef
/it {gs np dtri aload pop moveto lineto lineto cp c
  cols rows 8 compute_transform 
  rbmap gbmap bbmap true 3 colorimage gr}bdef
/il {newpath moveto lineto stroke}bdef
currentdict end def
%%EndProlog

%%BeginSetup
MathWorks begin

0 cap

end
%%EndSetup

%%Page: 1 1
%%BeginPageSetup
%%PageBoundingBox:  -258   193   870   597
MathWorks begin
bpage
%%EndPageSetup

%%BeginObject: obj1
bplot

/dpi2point 12 def
portraitMode -3096 7164 csm

    0     0 13546  4845 rc
86 dict begin %Colortable dictionary
/c0 { 0.000000 0.000000 0.000000 sr} bdef
/c1 { 1.000000 1.000000 1.000000 sr} bdef
/c2 { 0.900000 0.000000 0.000000 sr} bdef
/c3 { 0.000000 0.820000 0.000000 sr} bdef
/c4 { 0.000000 0.000000 0.800000 sr} bdef
/c5 { 0.910000 0.820000 0.320000 sr} bdef
/c6 { 1.000000 0.260000 0.820000 sr} bdef
/c7 { 0.000000 0.820000 0.820000 sr} bdef
c0
1 j
1 sg
   0    0 13547 4846 rf
6 w
0 1653 1489 0 0 -1653 1948 2016 4 MP
PP
-1489 0 0 1653 1489 0 0 -1653 1948 2016 5 MP stroke
4 w
DO
SO
6 w
0 sg
1948 2016 mt 3437 2016 L
1948  363 mt 3437  363 L
1948 2016 mt 1948  363 L
3437 2016 mt 3437  363 L
1948 2016 mt 3437 2016 L
1948 2016 mt 1948  363 L
1948 2016 mt 1948 1999 L
1948  363 mt 1948  379 L
%%IncludeResource: font Helvetica
/Helvetica /ISOLatin1Encoding 120 FMSR

1915 2161 mt 
(0) s
2543 2016 mt 2543 1999 L
2543  363 mt 2543  379 L
2427 2161 mt 
(0.01) s
3139 2016 mt 3139 1999 L
3139  363 mt 3139  379 L
3023 2161 mt 
(0.02) s
1948 2016 mt 1964 2016 L
3437 2016 mt 3420 2016 L
1847 2060 mt 
(0) s
1948 1685 mt 1964 1685 L
3437 1685 mt 3420 1685 L
1613 1729 mt 
(0.005) s
1948 1354 mt 1964 1354 L
3437 1354 mt 3420 1354 L
1680 1398 mt 
(0.01) s
1948 1024 mt 1964 1024 L
3437 1024 mt 3420 1024 L
1613 1068 mt 
(0.015) s
1948  693 mt 1964  693 L
3437  693 mt 3420  693 L
1680  737 mt 
(0.02) s
1948 2016 mt 3437 2016 L
1948  363 mt 3437  363 L
1948 2016 mt 1948  363 L
3437 2016 mt 3437  363 L
gs 1948 363 1490 1654 rc
DA
/c8 { 0.000000 0.000000 1.000000 sr} bdef
c8
60 -66 60 -66 59 -66 60 -66 59 -66 60 -66 59 -66 60 -66 
60 -67 59 -66 60 -66 59 -66 60 -66 59 -66 60 -66 59 -66 
60 -66 60 -67 59 -66 60 -66 59 -66 60 -66 59 -66 60 -66 
59 -67 1948 2016 26 MP stroke
SO
/c9 { 0.000000 1.000000 0.000000 sr} bdef
c9
60 -66 60 -66 59 -66 60 -66 59 -66 60 -66 59 -66 60 -66 
60 -67 59 -66 60 -66 59 -66 60 -66 59 -66 60 -66 59 -66 
60 -66 60 -67 59 -66 60 -66 59 -66 60 -66 59 -66 60 -66 
59 -67 1948 2016 26 MP stroke
gr

c9
0 sg
2674 2304 mt 
(t) s
1531 1220 mt  -90 rotate
(x) s
90 rotate
1 sg
0 1653 1490 0 0 -1653 4153 2016 4 MP
PP
-1490 0 0 1653 1490 0 0 -1653 4153 2016 5 MP stroke
4 w
DO
SO
6 w
0 sg
4153 2016 mt 5643 2016 L
4153  363 mt 5643  363 L
4153 2016 mt 4153  363 L
5643 2016 mt 5643  363 L
4153 2016 mt 5643 2016 L
4153 2016 mt 4153  363 L
4153 2016 mt 4153 1999 L
4153  363 mt 4153  379 L
4120 2161 mt 
(0) s
4749 2016 mt 4749 1999 L
4749  363 mt 4749  379 L
4633 2161 mt 
(0.01) s
5344 2016 mt 5344 1999 L
5344  363 mt 5344  379 L
5228 2161 mt 
(0.02) s
4153 1949 mt 4169 1949 L
5643 1949 mt 5626 1949 L
3752 1993 mt 
(0.9997) s
4153 1685 mt 4169 1685 L
5643 1685 mt 5626 1685 L
3752 1729 mt 
(0.9997) s
4153 1420 mt 4169 1420 L
5643 1420 mt 5626 1420 L
3752 1464 mt 
(0.9998) s
4153 1156 mt 4169 1156 L
5643 1156 mt 5626 1156 L
3752 1200 mt 
(0.9998) s
4153  891 mt 4169  891 L
5643  891 mt 5626  891 L
3752  935 mt 
(0.9999) s
4153  627 mt 4169  627 L
5643  627 mt 5626  627 L
3752  671 mt 
(0.9999) s
4153  363 mt 4169  363 L
5643  363 mt 5626  363 L
4052  407 mt 
(1) s
4153 2016 mt 5643 2016 L
4153  363 mt 5643  363 L
4153 2016 mt 4153  363 L
5643 2016 mt 5643  363 L
gs 4153 363 1491 1654 rc
DA
c8
60 130 60 124 59 119 60 114 59 109 60 103 60 98 59 92 
60 87 59 82 60 77 60 72 59 66 60 60 59 56 60 50 
60 45 59 40 60 34 59 29 60 24 60 19 59 13 60 8 
59 2 4153 363 26 MP stroke
SO
c9
60 130 60 124 59 119 60 114 59 109 60 103 60 98 59 92 
60 87 59 82 60 77 60 72 59 66 60 60 59 56 60 50 
60 45 59 40 60 34 59 29 60 24 60 19 59 13 60 8 
59 2 4153 363 26 MP stroke
gr

c9
0 sg
4880 2304 mt 
(t) s
3670 1220 mt  -90 rotate
(y) s
90 rotate
1 sg
0 1653 1489 0 0 -1653 6359 2016 4 MP
PP
-1489 0 0 1653 1489 0 0 -1653 6359 2016 5 MP stroke
4 w
DO
SO
6 w
0 sg
6359 2016 mt 7848 2016 L
6359  363 mt 7848  363 L
6359 2016 mt 6359  363 L
7848 2016 mt 7848  363 L
6359 2016 mt 7848 2016 L
6359 2016 mt 6359  363 L
6359 2016 mt 6359 1999 L
6359  363 mt 6359  379 L
6326 2161 mt 
(0) s
6954 2016 mt 6954 1999 L
6954  363 mt 6954  379 L
6838 2161 mt 
(0.01) s
7550 2016 mt 7550 1999 L
7550  363 mt 7550  379 L
7434 2161 mt 
(0.02) s
6359 2016 mt 6375 2016 L
7848 2016 mt 7831 2016 L
6258 2060 mt 
(0) s
6359 1685 mt 6375 1685 L
7848 1685 mt 7831 1685 L
6024 1729 mt 
(0.005) s
6359 1354 mt 6375 1354 L
7848 1354 mt 7831 1354 L
6091 1398 mt 
(0.01) s
6359 1023 mt 6375 1023 L
7848 1023 mt 7831 1023 L
6024 1067 mt 
(0.015) s
6359  693 mt 6375  693 L
7848  693 mt 7831  693 L
6091  737 mt 
(0.02) s
6359 2016 mt 7848 2016 L
6359  363 mt 7848  363 L
6359 2016 mt 6359  363 L
7848 2016 mt 7848  363 L
gs 6359 363 1490 1654 rc
DA
c8
60 -66 60 -66 59 -66 60 -66 59 -66 60 -66 59 -66 60 -66 
60 -66 59 -66 60 -67 59 -66 60 -66 59 -66 60 -66 59 -66 
60 -66 60 -66 59 -67 60 -66 59 -66 60 -66 59 -66 60 -66 
59 -67 6359 2016 26 MP stroke
SO
c9
60 -66 60 -66 59 -66 60 -66 59 -66 60 -66 59 -66 60 -66 
60 -66 59 -66 60 -67 59 -66 60 -66 59 -66 60 -66 59 -66 
60 -66 60 -66 59 -67 60 -66 59 -66 60 -66 59 -66 60 -66 
59 -67 6359 2016 26 MP stroke
gr

c9
0 sg
7085 2304 mt 
(t) s
%%IncludeResource: font Symbol
/Symbol /ISOLatin1Encoding 120 FMSR

5934 1223 mt  -90 rotate
(l) s
90 rotate
1 sg
0 1653 1490 0 0 -1653 8564 2015 4 MP
PP
-1490 0 0 1653 1490 0 0 -1653 8564 2015 5 MP stroke
4 w
DO
SO
6 w
0 sg
8564 2015 mt 10054 2015 L
8564  362 mt 10054  362 L
8564 2015 mt 8564  362 L
10054 2015 mt 10054  362 L
8564 2015 mt 10054 2015 L
8564 2015 mt 8564  362 L
8564 2015 mt 8564 1999 L
8564  362 mt 8564  379 L
%%IncludeResource: font Helvetica
/Helvetica /ISOLatin1Encoding 120 FMSR

8531 2161 mt 
(0) s
9160 2015 mt 9160 1999 L
9160  362 mt 9160  379 L
9044 2161 mt 
(0.01) s
9756 2015 mt 9756 1999 L
9756  362 mt 9756  379 L
9640 2161 mt 
(0.02) s
8564 1949 mt 8580 1949 L
10054 1949 mt 10037 1949 L
8163 1993 mt 
(0.9997) s
8564 1685 mt 8580 1685 L
10054 1685 mt 10037 1685 L
8163 1729 mt 
(0.9997) s
8564 1420 mt 8580 1420 L
10054 1420 mt 10037 1420 L
8163 1464 mt 
(0.9998) s
8564 1156 mt 8580 1156 L
10054 1156 mt 10037 1156 L
8163 1200 mt 
(0.9998) s
8564  891 mt 8580  891 L
10054  891 mt 10037  891 L
8163  935 mt 
(0.9999) s
8564  627 mt 8580  627 L
10054  627 mt 10037  627 L
8163  671 mt 
(0.9999) s
8564  363 mt 8580  363 L
10054  363 mt 10037  363 L
8463  407 mt 
(1) s
8564 2015 mt 10054 2015 L
8564  362 mt 10054  362 L
8564 2015 mt 8564  362 L
10054 2015 mt 10054  362 L
gs 8564 362 1491 1654 rc
DA
c8
60 129 60 124 59 119 60 114 59 109 60 103 60 98 59 92 
60 87 59 82 60 77 60 72 59 66 60 60 59 56 60 50 
60 45 59 40 60 34 59 29 60 24 60 19 59 13 60 8 
59 3 8564 362 26 MP stroke
SO
c9
60 129 60 124 59 119 60 114 59 109 60 103 60 98 59 92 
60 87 59 82 60 77 60 72 59 66 60 60 59 56 60 50 
60 45 59 40 60 34 59 29 60 24 60 19 59 13 60 8 
59 3 8564 362 26 MP stroke
gr

c9
0 sg
9291 2304 mt 
(t) s
8073 1235 mt  -90 rotate
(x) s
90 rotate
%%IncludeResource: font Symbol
/Symbol /ISOLatin1Encoding 120 FMSR

8073 1175 mt  -90 rotate
(\242) s
90 rotate
1 sg
0 1653 1489 0 0 -1653 10770 2016 4 MP
PP
-1489 0 0 1653 1489 0 0 -1653 10770 2016 5 MP stroke
4 w
DO
SO
6 w
0 sg
10770 2016 mt 12259 2016 L
10770  363 mt 12259  363 L
10770 2016 mt 10770  363 L
12259 2016 mt 12259  363 L
10770 2016 mt 12259 2016 L
10770 2016 mt 10770  363 L
10770 2016 mt 10770 1999 L
10770  363 mt 10770  379 L
%%IncludeResource: font Helvetica
/Helvetica /ISOLatin1Encoding 120 FMSR

10737 2161 mt 
(0) s
11365 2016 mt 11365 1999 L
11365  363 mt 11365  379 L
11249 2161 mt 
(0.01) s
11961 2016 mt 11961 1999 L
11961  363 mt 11961  379 L
11845 2161 mt 
(0.02) s
10770 1685 mt 10786 1685 L
12259 1685 mt 12242 1685 L
10432 1729 mt 
(-0.02) s
10770 1354 mt 10786 1354 L
12259 1354 mt 12242 1354 L
10365 1398 mt 
(-0.015) s
10770 1024 mt 10786 1024 L
12259 1024 mt 12242 1024 L
10432 1068 mt 
(-0.01) s
10770  693 mt 10786  693 L
12259  693 mt 12242  693 L
10365  737 mt 
(-0.005) s
10770  363 mt 10786  363 L
12259  363 mt 12242  363 L
10669  407 mt 
(0) s
10770 2016 mt 12259 2016 L
10770  363 mt 12259  363 L
10770 2016 mt 10770  363 L
12259 2016 mt 12259  363 L
gs 10770 363 1490 1654 rc
DA
c8
60 67 60 66 59 66 60 66 59 66 60 66 59 66 60 66 
60 67 59 66 60 66 59 66 60 66 59 66 60 66 59 66 
60 66 60 67 59 66 60 66 59 66 60 66 59 66 60 66 
59 66 10770 363 26 MP stroke
SO
c9
60 66 60 66 59 66 60 66 59 66 60 66 59 66 60 66 
60 67 59 66 60 66 59 66 60 66 59 66 60 66 59 66 
60 66 60 67 59 66 60 66 59 66 60 66 59 66 60 66 
59 66 10770 363 26 MP stroke
gr

c9
0 sg
11496 2304 mt 
(t) s
10275 1235 mt  -90 rotate
(y) s
90 rotate
%%IncludeResource: font Symbol
/Symbol /ISOLatin1Encoding 120 FMSR

10275 1175 mt  -90 rotate
(\242) s
90 rotate
1 sg
0 1653 1489 0 0 -1653 1948 4312 4 MP
PP
-1489 0 0 1653 1489 0 0 -1653 1948 4312 5 MP stroke
4 w
DO
SO
6 w
0 sg
1948 4312 mt 3437 4312 L
1948 2659 mt 3437 2659 L
1948 4312 mt 1948 2659 L
3437 4312 mt 3437 2659 L
1948 4312 mt 3437 4312 L
1948 4312 mt 1948 2659 L
1948 4312 mt 1948 4295 L
1948 2659 mt 1948 2675 L
%%IncludeResource: font Helvetica
/Helvetica /ISOLatin1Encoding 120 FMSR

1915 4457 mt 
(0) s
2543 4312 mt 2543 4295 L
2543 2659 mt 2543 2675 L
2427 4457 mt 
(0.01) s
3139 4312 mt 3139 4295 L
3139 2659 mt 3139 2675 L
3023 4457 mt 
(0.02) s
1948 3792 mt 1956 3792 L
3437 3792 mt 3428 3792 L
1948 3819 mt 1956 3819 L
3437 3819 mt 3428 3819 L
1948 3849 mt 1956 3849 L
3437 3849 mt 3428 3849 L
1948 3883 mt 1956 3883 L
3437 3883 mt 3428 3883 L
1948 3922 mt 1956 3922 L
3437 3922 mt 3428 3922 L
1948 3968 mt 1956 3968 L
3437 3968 mt 3428 3968 L
1948 4025 mt 1956 4025 L
3437 4025 mt 3428 4025 L
1948 4099 mt 1956 4099 L
3437 4099 mt 3428 4099 L
1948 4202 mt 1956 4202 L
3437 4202 mt 3428 4202 L
1948 3792 mt 1964 3792 L
3437 3792 mt 3420 3792 L
1645 3836 mt 
(10) s
%%IncludeResource: font Helvetica
/Helvetica /ISOLatin1Encoding 80 FMSR

1778 3762 mt 
(-16) s
1948 3615 mt 1956 3615 L
3437 3615 mt 3428 3615 L
1948 3512 mt 1956 3512 L
3437 3512 mt 3428 3512 L
1948 3438 mt 1956 3438 L
3437 3438 mt 3428 3438 L
1948 3381 mt 1956 3381 L
3437 3381 mt 3428 3381 L
1948 3335 mt 1956 3335 L
3437 3335 mt 3428 3335 L
1948 3296 mt 1956 3296 L
3437 3296 mt 3428 3296 L
1948 3262 mt 1956 3262 L
3437 3262 mt 3428 3262 L
1948 3232 mt 1956 3232 L
3437 3232 mt 3428 3232 L
1948 3205 mt 1956 3205 L
3437 3205 mt 3428 3205 L
1948 3205 mt 1964 3205 L
3437 3205 mt 3420 3205 L
%%IncludeResource: font Helvetica
/Helvetica /ISOLatin1Encoding 120 FMSR

1645 3249 mt 
(10) s
%%IncludeResource: font Helvetica
/Helvetica /ISOLatin1Encoding 80 FMSR

1778 3175 mt 
(-15) s
1948 3028 mt 1956 3028 L
3437 3028 mt 3428 3028 L
1948 2925 mt 1956 2925 L
3437 2925 mt 3428 2925 L
1948 2851 mt 1956 2851 L
3437 2851 mt 3428 2851 L
1948 2794 mt 1956 2794 L
3437 2794 mt 3428 2794 L
1948 2748 mt 1956 2748 L
3437 2748 mt 3428 2748 L
1948 2709 mt 1956 2709 L
3437 2709 mt 3428 2709 L
1948 2675 mt 1956 2675 L
3437 2675 mt 3428 2675 L
1948 4312 mt 3437 4312 L
1948 2659 mt 3437 2659 L
1948 4312 mt 1948 2659 L
3437 4312 mt 3437 2659 L
gs 1948 2659 1490 1654 rc
DA
c8
60 -21 60 -22 59 -23 60 -24 59 -26 60 -26 59 -29 60 -29 
60 -32 59 -33 60 -37 59 -39 60 -42 59 -46 60 -50 59 -56 
60 -62 60 -71 59 -82 60 -98 59 -120 60 -156 59 -217 60 -312 
2007 4312 25 MP stroke
SO
c9
60 -21 60 -22 59 -23 60 -24 59 -25 60 -27 59 -29 60 -29 
60 -32 59 -34 60 -36 59 -38 60 -42 59 -46 60 -50 59 -56 
60 -63 60 -71 59 -82 60 -97 59 -120 60 -155 59 -216 60 -315 
2007 4312 25 MP stroke
gr

c9
0 sg
%%IncludeResource: font Helvetica
/Helvetica /ISOLatin1Encoding 120 FMSR

2674 4600 mt 
(t) s
1563 3657 mt  -90 rotate
(error x) s
90 rotate
1 sg
0 1653 1490 0 0 -1653 4153 4312 4 MP
PP
-1490 0 0 1653 1490 0 0 -1653 4153 4312 5 MP stroke
4 w
DO
SO
6 w
0 sg
4153 4312 mt 5643 4312 L
4153 2659 mt 5643 2659 L
4153 4312 mt 4153 2659 L
5643 4312 mt 5643 2659 L
4153 4312 mt 5643 4312 L
4153 4312 mt 4153 2659 L
4153 4312 mt 4153 4295 L
4153 2659 mt 4153 2675 L
4120 4457 mt 
(0) s
4749 4312 mt 4749 4295 L
4749 2659 mt 4749 2675 L
4633 4457 mt 
(0.01) s
5344 4312 mt 5344 4295 L
5344 2659 mt 5344 2675 L
5228 4457 mt 
(0.02) s
4153 4312 mt 4153 4312 L
4153 4312 mt 4153 4312 L
4153 4312 mt 4153 4312 L
4153 4312 mt 4153 4312 L
4153 4312 mt 4153 4312 L
4153 4312 mt 4153 4312 L
4153 4312 mt 4153 4312 L
4153 4312 mt 4153 4312 L
4153 4312 mt 4153 4312 L
4153 4312 mt 4153 4312 L
4153 4312 mt 4153 4312 L
4153 4312 mt 4153 4312 L
4153 4312 mt 4153 4312 L
4153 4312 mt 4153 4312 L
4153 4312 mt 4153 4312 L
4153 4312 mt 4153 4312 L
4153 4312 mt 4153 4312 L
4153 4312 mt 4153 4312 L
4153 4122 mt 4169 4122 L
5643 4122 mt 5626 4122 L
3783 4166 mt 
(10) s
%%IncludeResource: font Helvetica
/Helvetica /ISOLatin1Encoding 80 FMSR

3916 4092 mt 
(-15.9) s
4153 4312 mt 4153 4312 L
4153 4312 mt 4153 4312 L
4153 4312 mt 4153 4312 L
4153 4312 mt 4153 4312 L
4153 4312 mt 4153 4312 L
4153 4312 mt 4153 4312 L
4153 4312 mt 4153 4312 L
4153 4312 mt 4153 4312 L
4153 4312 mt 4153 4312 L
4153 4312 mt 4153 4312 L
4153 4312 mt 4153 4312 L
4153 4312 mt 4153 4312 L
4153 4312 mt 4153 4312 L
4153 4312 mt 4153 4312 L
4153 4312 mt 4153 4312 L
4153 4312 mt 4153 4312 L
4153 4312 mt 4153 4312 L
4153 4312 mt 4153 4312 L
4153 3429 mt 4169 3429 L
5643 3429 mt 5626 3429 L
%%IncludeResource: font Helvetica
/Helvetica /ISOLatin1Encoding 120 FMSR

3783 3473 mt 
(10) s
%%IncludeResource: font Helvetica
/Helvetica /ISOLatin1Encoding 80 FMSR

3916 3399 mt 
(-15.7) s
4153 4312 mt 4153 4312 L
4153 4312 mt 4153 4312 L
4153 4312 mt 4153 4312 L
4153 4312 mt 4153 4312 L
4153 4312 mt 4153 4312 L
4153 4312 mt 4153 4312 L
4153 4312 mt 4153 4312 L
4153 4312 mt 4153 4312 L
4153 4312 mt 4153 4312 L
4153 4312 mt 4153 4312 L
4153 4312 mt 4153 4312 L
4153 4312 mt 4153 4312 L
4153 4312 mt 4153 4312 L
4153 4312 mt 4153 4312 L
4153 4312 mt 4153 4312 L
4153 4312 mt 4153 4312 L
4153 4312 mt 4153 4312 L
4153 4312 mt 4153 4312 L
4153 2737 mt 4169 2737 L
5643 2737 mt 5626 2737 L
%%IncludeResource: font Helvetica
/Helvetica /ISOLatin1Encoding 120 FMSR

3783 2781 mt 
(10) s
%%IncludeResource: font Helvetica
/Helvetica /ISOLatin1Encoding 80 FMSR

3916 2707 mt 
(-15.5) s
4153 4312 mt 4153 4312 L
4153 4312 mt 4153 4312 L
4153 4312 mt 4153 4312 L
4153 4312 mt 4153 4312 L
4153 4312 mt 4153 4312 L
4153 4312 mt 4153 4312 L
4153 4312 mt 4153 4312 L
4153 4312 mt 4153 4312 L
4153 4312 mt 4153 4312 L
4153 4312 mt 4153 4312 L
4153 4312 mt 4153 4312 L
4153 4312 mt 4153 4312 L
4153 4312 mt 4153 4312 L
4153 4312 mt 4153 4312 L
4153 4312 mt 4153 4312 L
4153 4312 mt 4153 4312 L
4153 4312 mt 4153 4312 L
4153 4312 mt 4153 4312 L
4153 4312 mt 5643 4312 L
4153 2659 mt 5643 2659 L
4153 4312 mt 4153 2659 L
5643 4312 mt 5643 2659 L
gs 4153 2659 1491 1654 rc
DA
c8
4689 4312 PD
59 0 4868 4312 2 MP stroke
60 1043 60 -1043 59 0 60 0 59 0 60 0 60 0 5225 4312 8 MP stroke
SO
c9
4689 4312 PD
4868 4312 PD
5047 4312 PD
60 1653 60 -1653 59 0 60 1043 59 -1043 60 1043 60 -1043 5225 4312 8 MP stroke
gr

c9
0 sg
%%IncludeResource: font Helvetica
/Helvetica /ISOLatin1Encoding 120 FMSR

4880 4600 mt 
(t) s
3701 3657 mt  -90 rotate
(error y) s
90 rotate
1 sg
0 1653 1489 0 0 -1653 6359 4312 4 MP
PP
-1489 0 0 1653 1489 0 0 -1653 6359 4312 5 MP stroke
4 w
DO
SO
6 w
0 sg
6359 4312 mt 7848 4312 L
6359 2659 mt 7848 2659 L
6359 4312 mt 6359 2659 L
7848 4312 mt 7848 2659 L
6359 4312 mt 7848 4312 L
6359 4312 mt 6359 2659 L
6359 4312 mt 6359 4295 L
6359 2659 mt 6359 2675 L
6326 4457 mt 
(0) s
6954 4312 mt 6954 4295 L
6954 2659 mt 6954 2675 L
6838 4457 mt 
(0.01) s
7550 4312 mt 7550 4295 L
7550 2659 mt 7550 2675 L
7434 4457 mt 
(0.02) s
6359 4139 mt 6367 4139 L
7848 4139 mt 7839 4139 L
6359 4139 mt 6375 4139 L
7848 4139 mt 7831 4139 L
6100 4183 mt 
(10) s
%%IncludeResource: font Helvetica
/Helvetica /ISOLatin1Encoding 80 FMSR

6233 4109 mt 
(-7) s
6359 4312 mt 7848 4312 L
6359 2659 mt 7848 2659 L
6359 4312 mt 6359 2659 L
7848 4312 mt 7848 2659 L
gs 6359 2659 1490 1654 rc
DA
c8
60 53 60 -33 59 -17 60 17 59 -65 60 20 59 47 60 -5 
60 52 59 -58 60 -17 59 -33 60 31 59 72 60 -75 59 -70 
60 53 60 42 59 22 60 -39 59 0 60 -14 59 3 60 -1547 
6418 4289 25 MP stroke
SO
c9
60 86 60 -31 59 -74 60 49 59 -63 60 98 59 37 60 -32 
60 -40 59 -13 60 21 59 -5 60 32 59 -19 60 -61 59 -19 
60 17 60 43 59 -8 60 17 59 42 60 -8 59 -9 60 -1588 
6418 4312 25 MP stroke
gr

c9
0 sg
%%IncludeResource: font Helvetica
/Helvetica /ISOLatin1Encoding 120 FMSR

7085 4600 mt 
(t) s
6010 3660 mt  -90 rotate
(error ) s
90 rotate
%%IncludeResource: font Symbol
/Symbol /ISOLatin1Encoding 120 FMSR

6010 3374 mt  -90 rotate
(l) s
90 rotate
1 sg
0 1653 1490 0 0 -1653 8564 4312 4 MP
PP
-1490 0 0 1653 1490 0 0 -1653 8564 4312 5 MP stroke
4 w
DO
SO
6 w
0 sg
8564 4312 mt 10054 4312 L
8564 2659 mt 10054 2659 L
8564 4312 mt 8564 2659 L
10054 4312 mt 10054 2659 L
8564 4312 mt 10054 4312 L
8564 4312 mt 8564 2659 L
8564 4312 mt 8564 4295 L
8564 2659 mt 8564 2675 L
%%IncludeResource: font Helvetica
/Helvetica /ISOLatin1Encoding 120 FMSR

8531 4457 mt 
(0) s
9160 4312 mt 9160 4295 L
9160 2659 mt 9160 2675 L
9044 4457 mt 
(0.01) s
9756 4312 mt 9756 4295 L
9756 2659 mt 9756 2675 L
9640 4457 mt 
(0.02) s
8564 4011 mt 8572 4011 L
10054 4011 mt 10045 4011 L
8564 4065 mt 8572 4065 L
10054 4065 mt 10045 4065 L
8564 4125 mt 8572 4125 L
10054 4125 mt 10045 4125 L
8564 4194 mt 8572 4194 L
10054 4194 mt 10045 4194 L
8564 4273 mt 8572 4273 L
10054 4273 mt 10045 4273 L
8564 4011 mt 8580 4011 L
10054 4011 mt 10037 4011 L
8261 4055 mt 
(10) s
%%IncludeResource: font Helvetica
/Helvetica /ISOLatin1Encoding 80 FMSR

8394 3981 mt 
(-13) s
8564 3655 mt 8572 3655 L
10054 3655 mt 10045 3655 L
8564 3448 mt 8572 3448 L
10054 3448 mt 10045 3448 L
8564 3300 mt 8572 3300 L
10054 3300 mt 10045 3300 L
8564 3186 mt 8572 3186 L
10054 3186 mt 10045 3186 L
8564 3092 mt 8572 3092 L
10054 3092 mt 10045 3092 L
8564 3013 mt 8572 3013 L
10054 3013 mt 10045 3013 L
8564 2945 mt 8572 2945 L
10054 2945 mt 10045 2945 L
8564 2884 mt 8572 2884 L
10054 2884 mt 10045 2884 L
8564 2830 mt 8572 2830 L
10054 2830 mt 10045 2830 L
8564 2830 mt 8580 2830 L
10054 2830 mt 10037 2830 L
%%IncludeResource: font Helvetica
/Helvetica /ISOLatin1Encoding 120 FMSR

8261 2874 mt 
(10) s
%%IncludeResource: font Helvetica
/Helvetica /ISOLatin1Encoding 80 FMSR

8394 2800 mt 
(-12) s
8564 4312 mt 10054 4312 L
8564 2659 mt 10054 2659 L
8564 4312 mt 8564 2659 L
10054 4312 mt 10054 2659 L
gs 8564 2659 1491 1654 rc
DA
c8
60 -18 60 -21 59 -28 60 -19 59 -31 60 -27 60 -23 59 -32 
60 -26 59 -36 60 -35 60 -42 59 -43 60 -37 59 -51 60 -63 
60 -56 59 -67 60 -76 59 -96 60 -115 60 -148 59 -209 60 -352 
8623 4310 25 MP stroke
SO
c9
60 -17 60 -20 59 -30 60 -20 59 -30 60 -22 60 -24 59 -31 
60 -32 59 -36 60 -35 60 -37 59 -40 60 -45 59 -52 60 -57 
60 -60 59 -65 60 -79 59 -94 60 -111 60 -148 59 -209 60 -356 
8623 4312 25 MP stroke
gr

c9
0 sg
%%IncludeResource: font Helvetica
/Helvetica /ISOLatin1Encoding 120 FMSR

9291 4600 mt 
(t) s
8171 3672 mt  -90 rotate
(error x) s
90 rotate
%%IncludeResource: font Symbol
/Symbol /ISOLatin1Encoding 120 FMSR

8171 3326 mt  -90 rotate
(\242) s
90 rotate
1 sg
0 1653 1489 0 0 -1653 10770 4312 4 MP
PP
-1489 0 0 1653 1489 0 0 -1653 10770 4312 5 MP stroke
4 w
DO
SO
6 w
0 sg
10770 4312 mt 12259 4312 L
10770 2659 mt 12259 2659 L
10770 4312 mt 10770 2659 L
12259 4312 mt 12259 2659 L
10770 4312 mt 12259 4312 L
10770 4312 mt 10770 2659 L
10770 4312 mt 10770 4295 L
10770 2659 mt 10770 2675 L
%%IncludeResource: font Helvetica
/Helvetica /ISOLatin1Encoding 120 FMSR

10737 4457 mt 
(0) s
11365 4312 mt 11365 4295 L
11365 2659 mt 11365 2675 L
11249 4457 mt 
(0.01) s
11961 4312 mt 11961 4295 L
11961 2659 mt 11961 2675 L
11845 4457 mt 
(0.02) s
10770 4312 mt 10770 4312 L
10770 4312 mt 10770 4312 L
10770 4312 mt 10770 4312 L
10770 4312 mt 10770 4312 L
10770 4312 mt 10770 4312 L
10770 4312 mt 10770 4312 L
10770 4312 mt 10770 4312 L
10770 4312 mt 10770 4312 L
10770 4312 mt 10770 4312 L
10770 4312 mt 10770 4312 L
10770 4312 mt 10770 4312 L
10770 4312 mt 10770 4312 L
10770 4312 mt 10770 4312 L
10770 4312 mt 10770 4312 L
10770 4312 mt 10770 4312 L
10770 4312 mt 10770 4312 L
10770 4312 mt 10770 4312 L
10770 4312 mt 10770 4312 L
10770 3729 mt 10786 3729 L
12259 3729 mt 12242 3729 L
10356 3773 mt 
(10) s
%%IncludeResource: font Helvetica
/Helvetica /ISOLatin1Encoding 80 FMSR

10489 3699 mt 
(-10.56) s
10770 4312 mt 10770 4312 L
10770 4312 mt 10770 4312 L
10770 4312 mt 10770 4312 L
10770 4312 mt 10770 4312 L
10770 4312 mt 10770 4312 L
10770 4312 mt 10770 4312 L
10770 4312 mt 10770 4312 L
10770 4312 mt 10770 4312 L
10770 4312 mt 10770 4312 L
10770 4312 mt 10770 4312 L
10770 4312 mt 10770 4312 L
10770 4312 mt 10770 4312 L
10770 4312 mt 10770 4312 L
10770 4312 mt 10770 4312 L
10770 4312 mt 10770 4312 L
10770 4312 mt 10770 4312 L
10770 4312 mt 10770 4312 L
10770 4312 mt 10770 4312 L
10770 2847 mt 10786 2847 L
12259 2847 mt 12242 2847 L
%%IncludeResource: font Helvetica
/Helvetica /ISOLatin1Encoding 120 FMSR

10356 2891 mt 
(10) s
%%IncludeResource: font Helvetica
/Helvetica /ISOLatin1Encoding 80 FMSR

10489 2817 mt 
(-10.55) s
10770 4312 mt 10770 4312 L
10770 4312 mt 10770 4312 L
10770 4312 mt 10770 4312 L
10770 4312 mt 10770 4312 L
10770 4312 mt 10770 4312 L
10770 4312 mt 10770 4312 L
10770 4312 mt 10770 4312 L
10770 4312 mt 10770 4312 L
10770 4312 mt 10770 4312 L
10770 4312 mt 10770 4312 L
10770 4312 mt 10770 4312 L
10770 4312 mt 10770 4312 L
10770 4312 mt 10770 4312 L
10770 4312 mt 10770 4312 L
10770 4312 mt 10770 4312 L
10770 4312 mt 10770 4312 L
10770 4312 mt 10770 4312 L
10770 4312 mt 10770 4312 L
10770 4312 mt 12259 4312 L
10770 2659 mt 12259 2659 L
10770 4312 mt 10770 2659 L
12259 4312 mt 12259 2659 L
gs 10770 2659 1490 1654 rc
DA
c8
60 381 60 113 59 -800 60 800 59 -800 60 -155 59 728 60 -382 
60 833 59 -453 60 0 59 -459 60 -348 59 1182 60 -265 59 -1310 
60 582 60 307 59 417 60 -343 59 -40 60 -40 59 -78 60 342 
10829 3165 25 MP stroke
SO
c9
60 576 60 339 59 -1041 60 572 59 -666 60 570 59 635 60 -203 
60 -206 59 -440 60 97 59 171 60 246 59 -62 60 -371 59 -454 
60 -68 60 629 59 -70 60 -72 59 617 60 -74 59 -75 60 -77 
10829 3363 25 MP stroke
gr

c9
0 sg
%%IncludeResource: font Helvetica
/Helvetica /ISOLatin1Encoding 120 FMSR

11496 4600 mt 
(t) s
10266 3672 mt  -90 rotate
(error y) s
90 rotate
%%IncludeResource: font Symbol
/Symbol /ISOLatin1Encoding 120 FMSR

10266 3326 mt  -90 rotate
(\242) s
90 rotate

end %%Color Dict

eplot
%%EndObject

epage
end

showpage

%%Trailer
%%EOF
