%!PS-Adobe-3.0 EPSF-3.0
%%Creator: MATLAB, The Mathworks, Inc.
%%Title: /homes/numerik/wunder/program/exampleRK.eps
%%CreationDate: 05/27/2005  10:05:38
%%DocumentNeededFonts: Helvetica
%%DocumentProcessColors: Cyan Magenta Yellow Black
%%LanguageLevel: 2
%%Pages: 1
%%BoundingBox:  -117   160   730   631
%%EndComments

%%BeginProlog
% MathWorks dictionary
/MathWorks 160 dict begin
% definition operators
/bdef {bind def} bind def
/ldef {load def} bind def
/xdef {exch def} bdef
/xstore {exch store} bdef
% operator abbreviations
/c  /clip ldef
/cc /concat ldef
/cp /closepath ldef
/gr /grestore ldef
/gs /gsave ldef
/mt /moveto ldef
/np /newpath ldef
/cm /currentmatrix ldef
/sm /setmatrix ldef
/rm /rmoveto ldef
/rl /rlineto ldef
/s {show newpath} bdef
/sc {setcmykcolor} bdef
/sr /setrgbcolor ldef
/sg /setgray ldef
/w /setlinewidth ldef
/j /setlinejoin ldef
/cap /setlinecap ldef
/rc {rectclip} bdef
/rf {rectfill} bdef
% page state control
/pgsv () def
/bpage {/pgsv save def} bdef
/epage {pgsv restore} bdef
/bplot /gsave ldef
/eplot {stroke grestore} bdef
% orientation switch
/portraitMode 0 def /landscapeMode 1 def /rotateMode 2 def
% coordinate system mappings
/dpi2point 0 def
% font control
/FontSize 0 def
/FMS {/FontSize xstore findfont [FontSize 0 0 FontSize neg 0 0]
  makefont setfont} bdef
/reencode {exch dup where {pop load} {pop StandardEncoding} ifelse
  exch dup 3 1 roll findfont dup length dict begin
  { 1 index /FID ne {def}{pop pop} ifelse } forall
  /Encoding exch def currentdict end definefont pop} bdef
/isroman {findfont /CharStrings get /Agrave known} bdef
/FMSR {3 1 roll 1 index dup isroman {reencode} {pop pop} ifelse
  exch FMS} bdef
/csm {1 dpi2point div -1 dpi2point div scale neg translate
 dup landscapeMode eq {pop -90 rotate}
  {rotateMode eq {90 rotate} if} ifelse} bdef
% line types: solid, dotted, dashed, dotdash
/SO { [] 0 setdash } bdef
/DO { [.5 dpi2point mul 4 dpi2point mul] 0 setdash } bdef
/DA { [6 dpi2point mul] 0 setdash } bdef
/DD { [.5 dpi2point mul 4 dpi2point mul 6 dpi2point mul 4
  dpi2point mul] 0 setdash } bdef
% macros for lines and objects
/L {lineto stroke} bdef
/MP {3 1 roll moveto 1 sub {rlineto} repeat} bdef
/AP {{rlineto} repeat} bdef
/PDlw -1 def
/W {/PDlw currentlinewidth def setlinewidth} def
/PP {closepath eofill} bdef
/DP {closepath stroke} bdef
/MR {4 -2 roll moveto dup  0 exch rlineto exch 0 rlineto
  neg 0 exch rlineto closepath} bdef
/FR {MR stroke} bdef
/PR {MR fill} bdef
/L1i {{currentfile picstr readhexstring pop} image} bdef
/tMatrix matrix def
/MakeOval {newpath tMatrix currentmatrix pop translate scale
0 0 1 0 360 arc tMatrix setmatrix} bdef
/FO {MakeOval stroke} bdef
/PO {MakeOval fill} bdef
/PD {currentlinewidth 2 div 0 360 arc fill
   PDlw -1 eq not {PDlw w /PDlw -1 def} if} def
/FA {newpath tMatrix currentmatrix pop translate scale
  0 0 1 5 -2 roll arc tMatrix setmatrix stroke} bdef
/PA {newpath tMatrix currentmatrix pop	translate 0 0 moveto scale
  0 0 1 5 -2 roll arc closepath tMatrix setmatrix fill} bdef
/FAn {newpath tMatrix currentmatrix pop translate scale
  0 0 1 5 -2 roll arcn tMatrix setmatrix stroke} bdef
/PAn {newpath tMatrix currentmatrix pop translate 0 0 moveto scale
  0 0 1 5 -2 roll arcn closepath tMatrix setmatrix fill} bdef
/vradius 0 def /hradius 0 def /lry 0 def
/lrx 0 def /uly 0 def /ulx 0 def /rad 0 def
/MRR {/vradius xdef /hradius xdef /lry xdef /lrx xdef /uly xdef
  /ulx xdef newpath tMatrix currentmatrix pop ulx hradius add uly
  vradius add translate hradius vradius scale 0 0 1 180 270 arc 
  tMatrix setmatrix lrx hradius sub uly vradius add translate
  hradius vradius scale 0 0 1 270 360 arc tMatrix setmatrix
  lrx hradius sub lry vradius sub translate hradius vradius scale
  0 0 1 0 90 arc tMatrix setmatrix ulx hradius add lry vradius sub
  translate hradius vradius scale 0 0 1 90 180 arc tMatrix setmatrix
  closepath} bdef
/FRR {MRR stroke } bdef
/PRR {MRR fill } bdef
/MlrRR {/lry xdef /lrx xdef /uly xdef /ulx xdef /rad lry uly sub 2 div def
  newpath tMatrix currentmatrix pop ulx rad add uly rad add translate
  rad rad scale 0 0 1 90 270 arc tMatrix setmatrix lrx rad sub lry rad
  sub translate rad rad scale 0 0 1 270 90 arc tMatrix setmatrix
  closepath} bdef
/FlrRR {MlrRR stroke } bdef
/PlrRR {MlrRR fill } bdef
/MtbRR {/lry xdef /lrx xdef /uly xdef /ulx xdef /rad lrx ulx sub 2 div def
  newpath tMatrix currentmatrix pop ulx rad add uly rad add translate
  rad rad scale 0 0 1 180 360 arc tMatrix setmatrix lrx rad sub lry rad
  sub translate rad rad scale 0 0 1 0 180 arc tMatrix setmatrix
  closepath} bdef
/FtbRR {MtbRR stroke } bdef
/PtbRR {MtbRR fill } bdef
/stri 6 array def /dtri 6 array def
/smat 6 array def /dmat 6 array def
/tmat1 6 array def /tmat2 6 array def /dif 3 array def
/asub {/ind2 exch def /ind1 exch def dup dup
  ind1 get exch ind2 get sub exch } bdef
/tri_to_matrix {
  2 0 asub 3 1 asub 4 0 asub 5 1 asub
  dup 0 get exch 1 get 7 -1 roll astore } bdef
/compute_transform {
  dmat dtri tri_to_matrix tmat1 invertmatrix 
  smat stri tri_to_matrix tmat2 concatmatrix } bdef
/ds {stri astore pop} bdef
/dt {dtri astore pop} bdef
/db {2 copy /cols xdef /rows xdef mul dup 3 mul string
  currentfile 
  3 index 0 eq {/ASCIIHexDecode filter}
  {/ASCII85Decode filter 3 index 2 eq {/RunLengthDecode filter} if }
  ifelse exch readstring pop
  dup 0 3 index getinterval /rbmap xdef
  dup 2 index dup getinterval /gbmap xdef
  1 index dup 2 mul exch getinterval /bbmap xdef pop pop}bdef
/it {gs np dtri aload pop moveto lineto lineto cp c
  cols rows 8 compute_transform 
  rbmap gbmap bbmap true 3 colorimage gr}bdef
/il {newpath moveto lineto stroke}bdef
currentdict end def
%%EndProlog

%%BeginSetup
MathWorks begin

0 cap

end
%%EndSetup

%%Page: 1 1
%%BeginPageSetup
%%PageBoundingBox:  -117   160   730   631
MathWorks begin
bpage
%%EndPageSetup

%%BeginObject: obj1
bplot

/dpi2point 12 def
portraitMode -1404 7572 csm

    0     0 10168  5651 rc
86 dict begin %Colortable dictionary
/c0 { 0.000000 0.000000 0.000000 sr} bdef
/c1 { 1.000000 1.000000 1.000000 sr} bdef
/c2 { 0.900000 0.000000 0.000000 sr} bdef
/c3 { 0.000000 0.820000 0.000000 sr} bdef
/c4 { 0.000000 0.000000 0.800000 sr} bdef
/c5 { 0.910000 0.820000 0.320000 sr} bdef
/c6 { 1.000000 0.260000 0.820000 sr} bdef
/c7 { 0.000000 0.820000 0.820000 sr} bdef
c0
1 j
1 sg
   0    0 10169 5652 rf
6 w
0 1929 1072 0 0 -1929 1508 2352 4 MP
PP
-1072 0 0 1929 1072 0 0 -1929 1508 2352 5 MP stroke
4 w
DO
SO
6 w
0 sg
1508 2352 mt 2580 2352 L
1508  423 mt 2580  423 L
1508 2352 mt 1508  423 L
2580 2352 mt 2580  423 L
1508 2352 mt 2580 2352 L
1508 2352 mt 1508  423 L
1508 2352 mt 1508 2332 L
1508  424 mt 1508  443 L
%%IncludeResource: font Helvetica
/Helvetica /ISOLatin1Encoding 120 FMSR

1475 2497 mt 
(0) s
2222 2352 mt 2222 2332 L
2222  424 mt 2222  443 L
2189 2497 mt 
(1) s
1508 2352 mt 1527 2352 L
2580 2352 mt 2560 2352 L
1407 2396 mt 
(0) s
1508 1965 mt 1527 1965 L
2580 1965 mt 2560 1965 L
1307 2009 mt 
(0.2) s
1508 1578 mt 1527 1578 L
2580 1578 mt 2560 1578 L
1307 1622 mt 
(0.4) s
1508 1192 mt 1527 1192 L
2580 1192 mt 2560 1192 L
1307 1236 mt 
(0.6) s
1508  805 mt 1527  805 L
2580  805 mt 2560  805 L
1307  849 mt 
(0.8) s
1508 2352 mt 2580 2352 L
1508  423 mt 2580  423 L
1508 2352 mt 1508  423 L
2580 2352 mt 2580  423 L
gs 1508 424 1073 1929 rc
/c8 { 1.000000 0.000000 0.000000 sr} bdef
c8
7 -1 7 -2 7 -1 7 -3 7 -2 7 -2 8 -3 7 -3 
7 -3 7 -3 7 -3 7 -4 7 -3 8 -4 7 -5 7 -4 
7 -4 7 -5 7 -5 7 -5 8 -5 7 -6 7 -5 7 -6 
7 -6 7 -6 7 -7 8 -6 7 -7 7 -7 7 -7 7 -7 
7 -8 7 -7 8 -8 7 -8 7 -8 7 -9 7 -8 7 -9 
8 -9 7 -9 7 -9 7 -9 7 -10 7 -10 7 -9 8 -11 
7 -10 7 -10 7 -11 7 -10 7 -11 7 -11 8 -11 7 -12 
7 -11 7 -12 7 -12 7 -11 7 -13 8 -12 7 -12 7 -13 
7 -12 7 -13 7 -13 7 -13 8 -14 7 -13 7 -13 7 -14 
7 -14 7 -14 7 -14 8 -14 7 -15 7 -14 7 -15 7 -14 
7 -15 8 -15 7 -15 7 -15 7 -16 7 -15 7 -16 7 -15 
8 -16 7 -16 7 -16 7 -16 7 -16 7 -17 7 -16 8 -17 
7 -16 7 -17 7 -17 7 -17 7 -17 7 -17 8 -17 7 -17 
7 -18 7 -17 7 -18 7 -17 7 -18 8 -18 7 -18 7 -18 
7 -18 7 -18 7 -18 8 -18 7 -18 7 -18 7 -19 7 -18 
7 -19 7 -18 8 -19 7 -19 7 -18 7 -19 7 -19 7 -19 
7 -19 8 -19 7 -18 7 -19 7 -19 7 -20 7 -19 7 -19 
8 -19 7 -19 7 -19 7 -20 7 -19 7 -19 7 -19 8 -20 
7 -19 7 -19 7 -20 7 -19 7 -19 7 -20 1508 2352 151 MP stroke
DA
/c9 { 0.000000 0.000000 1.000000 sr} bdef
c9
8 -1 7 -2 7 -1 7 -3 7 -2 7 -2 8 -3 7 -3 
7 -3 7 -3 7 -3 7 -4 7 -3 8 -4 7 -5 7 -4 
7 -4 7 -5 7 -5 7 -5 8 -5 7 -6 7 -5 7 -6 
7 -6 7 -6 7 -7 8 -6 7 -7 7 -7 7 -7 7 -7 
7 -8 7 -7 8 -8 7 -8 7 -8 7 -9 7 -8 7 -9 
8 -9 7 -9 7 -9 7 -9 7 -10 7 -10 7 -9 8 -11 
7 -10 7 -10 7 -11 7 -10 7 -11 7 -11 8 -11 7 -12 
7 -11 7 -12 7 -12 7 -11 7 -13 8 -12 7 -12 7 -13 
7 -12 7 -13 7 -13 7 -13 8 -14 7 -13 7 -13 7 -14 
7 -14 7 -14 7 -14 8 -14 7 -15 7 -14 7 -15 7 -14 
7 -15 8 -15 7 -15 7 -15 7 -16 7 -15 7 -16 7 -15 
8 -16 7 -16 7 -16 7 -16 7 -16 7 -17 7 -16 8 -17 
7 -16 7 -17 7 -17 7 -17 7 -17 7 -17 8 -17 7 -17 
7 -18 7 -17 7 -18 7 -17 7 -18 8 -18 7 -18 7 -18 
7 -18 7 -18 7 -18 8 -18 7 -18 7 -18 7 -19 7 -18 
7 -19 7 -18 8 -19 7 -19 7 -18 7 -19 7 -19 7 -19 
7 -19 8 -19 7 -18 7 -19 7 -19 7 -20 7 -19 7 -19 
8 -19 7 -19 7 -19 7 -20 7 -19 7 -19 7 -19 8 -20 
7 -19 7 -19 7 -20 7 -19 7 -19 7 -20 1508 2352 151 MP stroke
SO
/c10 { 0.000000 1.000000 0.000000 sr} bdef
c10
8 -1 7 -2 7 -1 7 -3 7 -2 7 -2 8 -3 7 -3 
7 -3 7 -3 7 -3 7 -4 7 -3 8 -4 7 -5 7 -4 
7 -4 7 -5 7 -5 7 -5 8 -5 7 -6 7 -5 7 -6 
7 -6 7 -6 7 -7 8 -6 7 -7 7 -7 7 -7 7 -7 
7 -8 7 -7 8 -8 7 -8 7 -8 7 -9 7 -8 7 -9 
8 -9 7 -9 7 -9 7 -9 7 -10 7 -10 7 -9 8 -11 
7 -10 7 -10 7 -11 7 -10 7 -11 7 -11 8 -11 7 -12 
7 -11 7 -12 7 -12 7 -11 7 -13 8 -12 7 -12 7 -13 
7 -12 7 -13 7 -13 7 -13 8 -14 7 -13 7 -13 7 -14 
7 -14 7 -14 7 -14 8 -14 7 -15 7 -14 7 -15 7 -14 
7 -15 8 -15 7 -15 7 -15 7 -16 7 -15 7 -16 7 -15 
8 -16 7 -16 7 -16 7 -16 7 -16 7 -17 7 -16 8 -17 
7 -16 7 -17 7 -17 7 -17 7 -17 7 -17 8 -17 7 -17 
7 -18 7 -17 7 -18 7 -17 7 -18 8 -18 7 -18 7 -18 
7 -18 7 -18 7 -18 8 -18 7 -18 7 -18 7 -19 7 -18 
7 -19 7 -18 8 -19 7 -19 7 -18 7 -19 7 -19 7 -19 
7 -19 8 -19 7 -18 7 -19 7 -19 7 -20 7 -19 7 -19 
8 -19 7 -19 7 -19 7 -20 7 -19 7 -19 7 -19 8 -20 
7 -19 7 -19 7 -20 7 -19 7 -19 7 -20 1508 2352 151 MP stroke
gr

c10
0 sg
2026 2640 mt 
(t) s
1225 1419 mt  -90 rotate
(x) s
90 rotate
1 sg
0 1928 1073 0 0 -1928 3163 2352 4 MP
PP
-1073 0 0 1928 1073 0 0 -1928 3163 2352 5 MP stroke
4 w
DO
SO
6 w
0 sg
3163 2352 mt 4236 2352 L
3163  424 mt 4236  424 L
3163 2352 mt 3163  424 L
4236 2352 mt 4236  424 L
3163 2352 mt 4236 2352 L
3163 2352 mt 3163  424 L
3163 2352 mt 3163 2332 L
3163  424 mt 3163  443 L
3130 2497 mt 
(0) s
3878 2352 mt 3878 2332 L
3878  424 mt 3878  443 L
3845 2497 mt 
(1) s
3163 2083 mt 3182 2083 L
4236 2083 mt 4216 2083 L
2962 2127 mt 
(0.2) s
3163 1668 mt 3182 1668 L
4236 1668 mt 4216 1668 L
2962 1712 mt 
(0.4) s
3163 1253 mt 3182 1253 L
4236 1253 mt 4216 1253 L
2962 1297 mt 
(0.6) s
3163  838 mt 3182  838 L
4236  838 mt 4216  838 L
2962  882 mt 
(0.8) s
3163  424 mt 3182  424 L
4236  424 mt 4216  424 L
3062  468 mt 
(1) s
3163 2352 mt 4236 2352 L
3163  424 mt 4236  424 L
3163 2352 mt 3163  424 L
4236 2352 mt 4236  424 L
gs 3163 423 1074 1930 rc
c8
8 21 7 21 7 21 7 20 7 21 7 20 8 21 7 20 
7 21 7 20 7 21 7 20 7 21 8 20 7 20 7 20 
7 21 7 20 7 20 8 20 7 20 7 20 7 19 7 20 
7 20 7 20 8 19 7 20 7 19 7 20 7 19 7 19 
8 19 7 19 7 19 7 19 7 19 7 19 7 18 8 19 
7 18 7 19 7 18 7 18 7 18 8 18 7 18 7 18 
7 17 7 18 7 17 7 17 8 18 7 17 7 17 7 16 
7 17 7 17 8 16 7 16 7 17 7 16 7 16 7 15 
7 16 8 16 7 15 7 15 7 15 7 15 7 15 8 15 
7 14 7 15 7 14 7 14 7 14 7 14 8 13 7 14 
7 13 7 13 7 13 7 13 8 12 7 13 7 12 7 12 
7 12 7 12 7 12 8 11 7 11 7 12 7 11 7 10 
7 11 8 10 7 10 7 11 7 9 7 10 7 10 7 9 
8 9 7 9 7 9 7 8 7 9 7 8 8 8 7 7 
7 8 7 8 7 7 7 7 7 7 8 6 7 7 7 6 
7 6 7 6 7 5 8 6 7 5 7 5 7 5 7 4 
7 5 7 4 8 4 7 4 7 4 7 3 7 3 7 3 
8 3 7 3 7 2 7 2 7 2 7 2 7 1 8 2 
7 1 7 1 7 1 7 0 7 0 7 0 3163 424 151 MP stroke
DA
c9
8 20 7 21 7 21 7 20 7 21 7 20 8 21 7 20 
7 21 7 20 7 21 7 20 7 21 8 20 7 20 7 20 
7 21 7 20 7 20 8 20 7 20 7 20 7 19 7 20 
7 20 7 20 8 19 7 20 7 19 7 20 7 19 7 19 
8 19 7 19 7 19 7 19 7 19 7 19 7 18 8 19 
7 18 7 19 7 18 7 18 7 18 8 18 7 18 7 18 
7 17 7 18 7 17 7 17 8 18 7 17 7 17 7 16 
7 17 7 17 8 16 7 16 7 17 7 16 7 16 7 15 
7 16 8 16 7 15 7 15 7 15 7 15 7 15 8 15 
7 14 7 15 7 14 7 14 7 14 7 14 8 13 7 14 
7 13 7 13 7 13 7 13 8 12 7 13 7 12 7 12 
7 12 7 12 7 12 8 11 7 11 7 12 7 11 7 10 
7 11 8 10 7 10 7 11 7 9 7 10 7 10 7 9 
8 9 7 9 7 9 7 8 7 9 7 8 8 8 7 7 
7 8 7 8 7 7 7 7 7 7 8 6 7 7 7 6 
7 6 7 6 7 5 8 6 7 5 7 5 7 5 7 4 
7 5 7 4 8 4 7 4 7 4 7 3 7 3 7 3 
8 3 7 3 7 2 7 2 7 2 7 2 7 1 8 2 
7 1 7 1 7 1 7 0 7 0 7 0 3163 424 151 MP stroke
SO
c10
8 20 7 21 7 21 7 20 7 21 7 20 8 21 7 20 
7 21 7 20 7 21 7 20 7 21 8 20 7 20 7 20 
7 21 7 20 7 20 8 20 7 20 7 20 7 19 7 20 
7 20 7 20 8 19 7 20 7 19 7 20 7 19 7 19 
8 19 7 19 7 19 7 19 7 19 7 19 7 18 8 19 
7 18 7 19 7 18 7 18 7 18 8 18 7 18 7 18 
7 17 7 18 7 17 7 17 8 18 7 17 7 17 7 16 
7 17 7 17 8 16 7 16 7 17 7 16 7 16 7 15 
7 16 8 16 7 15 7 15 7 15 7 15 7 15 8 15 
7 14 7 15 7 14 7 14 7 14 7 14 8 13 7 14 
7 13 7 13 7 13 7 13 8 12 7 13 7 12 7 12 
7 12 7 12 7 12 8 11 7 11 7 12 7 11 7 10 
7 11 8 10 7 10 7 11 7 9 7 10 7 10 7 9 
8 9 7 9 7 9 7 8 7 9 7 8 8 8 7 7 
7 8 7 8 7 7 7 7 7 7 8 6 7 7 7 6 
7 6 7 6 7 5 8 6 7 5 7 5 7 5 7 4 
7 5 7 4 8 4 7 4 7 4 7 3 7 3 7 3 
8 3 7 3 7 2 7 2 7 2 7 2 7 1 8 2 
7 1 7 1 7 1 7 0 7 0 7 0 3163 424 151 MP stroke
gr

c10
0 sg
3681 2640 mt 
(t) s
2880 1419 mt  -90 rotate
(y) s
90 rotate
1 sg
0 1928 1072 0 0 -1928 4819 2352 4 MP
PP
-1072 0 0 1928 1072 0 0 -1928 4819 2352 5 MP stroke
4 w
DO
SO
6 w
0 sg
4819 2352 mt 5891 2352 L
4819  424 mt 5891  424 L
4819 2352 mt 4819  424 L
5891 2352 mt 5891  424 L
4819 2352 mt 5891 2352 L
4819 2352 mt 4819  424 L
4819 2352 mt 4819 2332 L
4819  424 mt 4819  443 L
4786 2497 mt 
(0) s
5533 2352 mt 5533 2332 L
5533  424 mt 5533  443 L
5500 2497 mt 
(1) s
4819 2352 mt 4838 2352 L
5891 2352 mt 5871 2352 L
4718 2396 mt 
(0) s
4819 1966 mt 4838 1966 L
5891 1966 mt 5871 1966 L
4618 2010 mt 
(0.1) s
4819 1580 mt 4838 1580 L
5891 1580 mt 5871 1580 L
4618 1624 mt 
(0.2) s
4819 1195 mt 4838 1195 L
5891 1195 mt 5871 1195 L
4618 1239 mt 
(0.3) s
4819  809 mt 4838  809 L
5891  809 mt 5871  809 L
4618  853 mt 
(0.4) s
4819 2352 mt 5891 2352 L
4819  424 mt 5891  424 L
4819 2352 mt 4819  424 L
5891 2352 mt 5891  424 L
gs 4819 424 1073 1929 rc
c8
8 38 7 38 7 38 7 37 7 38 7 37 8 37 7 37 
7 37 7 36 7 37 7 35 7 36 8 35 7 36 7 34 
7 35 7 34 7 33 7 33 8 33 7 33 7 32 7 31 
7 31 7 31 7 30 8 30 7 29 7 29 7 28 7 28 
7 27 7 26 8 26 7 26 7 24 7 25 7 23 7 23 
8 23 7 21 7 22 7 20 7 20 7 19 7 18 8 18 
7 17 7 17 7 15 7 15 7 15 7 13 8 13 7 12 
7 11 7 11 7 10 7 9 7 8 8 8 7 7 7 6 
7 5 7 5 7 4 7 3 8 2 7 2 7 0 7 0 
7 0 7 -2 7 -2 8 -3 7 -4 7 -5 7 -5 7 -7 
7 -6 8 -8 7 -9 7 -9 7 -10 7 -10 7 -12 7 -12 
8 -13 7 -13 7 -15 7 -15 7 -16 7 -16 7 -17 8 -18 
7 -19 7 -19 7 -20 7 -20 7 -21 7 -22 8 -23 7 -23 
7 -23 7 -24 7 -25 7 -26 7 -26 8 -26 7 -28 7 -27 
7 -28 7 -29 7 -29 8 -30 7 -30 7 -31 7 -31 7 -32 
7 -32 7 -32 8 -33 7 -33 7 -34 7 -34 7 -35 7 -34 
7 -35 8 -36 7 -35 7 -36 7 -37 7 -36 7 -37 7 -37 
8 -37 7 -37 7 -38 7 -37 7 -38 7 -38 7 -38 8 -39 
7 -38 7 -38 7 -39 7 -38 7 -39 7 -39 4819 2352 151 MP stroke
DA
c9
8 38 7 38 7 38 7 37 7 38 7 37 8 37 7 37 
7 37 7 36 7 37 7 36 7 35 8 36 7 35 7 34 
7 35 7 34 7 33 7 33 8 33 7 33 7 32 7 31 
7 31 7 31 7 30 8 30 7 29 7 29 7 28 7 28 
7 27 7 26 8 26 7 26 7 25 7 24 7 23 7 23 
8 23 7 21 7 22 7 20 7 20 7 19 7 18 8 18 
7 17 7 17 7 15 7 15 7 15 7 13 8 13 7 12 
7 12 7 10 7 10 7 9 7 9 8 7 7 7 7 6 
7 6 7 4 7 4 7 3 8 2 7 2 7 0 7 0 
7 0 7 -2 7 -2 8 -3 7 -4 7 -5 7 -5 7 -6 
7 -7 8 -8 7 -9 7 -9 7 -10 7 -10 7 -12 7 -12 
8 -13 7 -13 7 -15 7 -15 7 -16 7 -16 7 -17 8 -18 
7 -19 7 -19 7 -20 7 -20 7 -21 7 -22 8 -22 7 -24 
7 -23 7 -24 7 -25 7 -26 7 -26 8 -26 7 -28 7 -27 
7 -28 7 -29 7 -29 8 -30 7 -30 7 -31 7 -31 7 -32 
7 -32 7 -32 8 -33 7 -33 7 -34 7 -34 7 -35 7 -34 
7 -35 8 -36 7 -35 7 -36 7 -36 7 -37 7 -37 7 -37 
8 -37 7 -37 7 -38 7 -37 7 -38 7 -38 7 -38 8 -39 
7 -38 7 -38 7 -39 7 -38 7 -39 7 -39 4819 2352 151 MP stroke
SO
c10
8 38 7 38 7 38 7 37 7 38 7 37 8 37 7 37 
7 37 7 36 7 37 7 36 7 35 8 36 7 35 7 34 
7 35 7 34 7 33 7 33 8 33 7 33 7 32 7 31 
7 31 7 31 7 30 8 30 7 29 7 29 7 28 7 28 
7 27 7 26 8 26 7 26 7 25 7 24 7 23 7 23 
8 23 7 21 7 22 7 20 7 20 7 19 7 18 8 18 
7 17 7 17 7 15 7 15 7 15 7 13 8 13 7 12 
7 12 7 10 7 10 7 9 7 9 8 7 7 7 7 6 
7 6 7 4 7 4 7 3 8 2 7 2 7 0 7 0 
7 0 7 -2 7 -2 8 -3 7 -4 7 -5 7 -5 7 -6 
7 -7 8 -8 7 -9 7 -9 7 -10 7 -10 7 -12 7 -12 
8 -13 7 -13 7 -15 7 -15 7 -16 7 -16 7 -17 8 -18 
7 -19 7 -19 7 -20 7 -20 7 -21 7 -22 8 -22 7 -24 
7 -23 7 -24 7 -25 7 -26 7 -26 8 -26 7 -28 7 -27 
7 -28 7 -29 7 -29 8 -30 7 -30 7 -31 7 -31 7 -32 
7 -32 7 -32 8 -33 7 -33 7 -34 7 -34 7 -35 7 -34 
7 -35 8 -36 7 -35 7 -36 7 -36 7 -37 7 -37 7 -37 
8 -37 7 -37 7 -38 7 -37 7 -38 7 -38 7 -38 8 -39 
7 -38 7 -38 7 -39 7 -38 7 -39 7 -39 4819 2352 151 MP stroke
gr

c10
0 sg
5337 2640 mt 
(t) s
%%IncludeResource: font Symbol
/Symbol /ISOLatin1Encoding 120 FMSR

4528 1422 mt  -90 rotate
(l) s
90 rotate
1 sg
0 1928 1073 0 0 -1928 6474 2352 4 MP
PP
-1073 0 0 1928 1073 0 0 -1928 6474 2352 5 MP stroke
4 w
DO
SO
6 w
0 sg
6474 2352 mt 7547 2352 L
6474  424 mt 7547  424 L
6474 2352 mt 6474  424 L
7547 2352 mt 7547  424 L
6474 2352 mt 7547 2352 L
6474 2352 mt 6474  424 L
6474 2352 mt 6474 2332 L
6474  424 mt 6474  443 L
%%IncludeResource: font Helvetica
/Helvetica /ISOLatin1Encoding 120 FMSR

6441 2497 mt 
(0) s
7189 2352 mt 7189 2332 L
7189  424 mt 7189  443 L
7156 2497 mt 
(1) s
6474 2083 mt 6493 2083 L
7547 2083 mt 7527 2083 L
6273 2127 mt 
(0.2) s
6474 1668 mt 6493 1668 L
7547 1668 mt 7527 1668 L
6273 1712 mt 
(0.4) s
6474 1253 mt 6493 1253 L
7547 1253 mt 7527 1253 L
6273 1297 mt 
(0.6) s
6474  838 mt 6493  838 L
7547  838 mt 7527  838 L
6273  882 mt 
(0.8) s
6474  424 mt 6493  424 L
7547  424 mt 7527  424 L
6373  468 mt 
(1) s
6474 2352 mt 7547 2352 L
6474  424 mt 7547  424 L
6474 2352 mt 6474  424 L
7547 2352 mt 7547  424 L
gs 6474 423 1074 1930 rc
c8
8 21 7 21 7 21 7 20 7 21 7 20 8 21 7 20 
7 21 7 20 7 21 7 20 7 21 8 20 7 20 7 20 
7 21 7 20 7 20 8 20 7 20 7 20 7 19 7 20 
7 20 7 20 8 19 7 20 7 19 7 20 7 19 7 19 
8 19 7 19 7 19 7 19 7 19 7 19 7 18 8 19 
7 18 7 19 7 18 7 18 7 18 8 18 7 18 7 18 
7 17 7 18 7 17 7 17 8 18 7 17 7 17 7 16 
7 17 7 17 8 16 7 16 7 17 7 16 7 16 7 15 
7 16 8 16 7 15 7 15 7 15 7 15 7 15 8 15 
7 14 7 15 7 14 7 14 7 14 7 14 8 13 7 14 
7 13 7 13 7 13 7 13 8 12 7 13 7 12 7 12 
7 12 7 12 7 12 8 11 7 11 7 12 7 11 7 10 
7 11 8 10 7 10 7 11 7 9 7 10 7 10 7 9 
8 9 7 9 7 9 7 8 7 9 7 8 8 8 7 7 
7 8 7 8 7 7 7 7 7 7 8 6 7 7 7 6 
7 6 7 6 7 5 8 6 7 5 7 5 7 5 7 4 
7 5 7 4 8 4 7 4 7 4 7 3 7 3 7 3 
8 3 7 3 7 2 7 2 7 2 7 2 7 1 8 2 
7 1 7 1 7 1 7 0 7 0 7 0 6474 424 151 MP stroke
DA
c9
8 20 7 21 7 21 7 20 7 21 7 20 8 21 7 20 
7 21 7 20 7 21 7 20 7 21 8 20 7 20 7 20 
7 21 7 20 7 20 8 20 7 20 7 20 7 19 7 20 
7 20 7 20 8 19 7 20 7 19 7 20 7 19 7 19 
8 19 7 19 7 19 7 19 7 19 7 19 7 18 8 19 
7 18 7 19 7 18 7 18 7 18 8 18 7 18 7 18 
7 17 7 18 7 17 7 17 8 18 7 17 7 17 7 16 
7 17 7 17 8 16 7 16 7 17 7 16 7 16 7 15 
7 16 8 16 7 15 7 15 7 15 7 15 7 15 8 15 
7 14 7 15 7 14 7 14 7 14 7 14 8 13 7 14 
7 13 7 13 7 13 7 13 8 12 7 13 7 12 7 12 
7 12 7 12 7 12 8 11 7 11 7 12 7 11 7 10 
7 11 8 10 7 10 7 11 7 9 7 10 7 10 7 9 
8 9 7 9 7 9 7 8 7 9 7 8 8 8 7 7 
7 8 7 8 7 7 7 7 7 7 8 6 7 7 7 6 
7 6 7 6 7 5 8 6 7 5 7 5 7 5 7 4 
7 5 7 4 8 4 7 4 7 4 7 3 7 3 7 3 
8 3 7 3 7 2 7 2 7 2 7 2 7 1 8 2 
7 1 7 1 7 1 7 0 7 0 7 0 6474 424 151 MP stroke
SO
c10
8 20 7 21 7 21 7 20 7 21 7 20 8 21 7 20 
7 21 7 20 7 21 7 20 7 21 8 20 7 20 7 20 
7 21 7 20 7 20 8 20 7 20 7 20 7 19 7 20 
7 20 7 20 8 19 7 20 7 19 7 20 7 19 7 19 
8 19 7 19 7 19 7 19 7 19 7 19 7 18 8 19 
7 18 7 19 7 18 7 18 7 18 8 18 7 18 7 18 
7 17 7 18 7 17 7 17 8 18 7 17 7 17 7 16 
7 17 7 17 8 16 7 16 7 17 7 16 7 16 7 15 
7 16 8 16 7 15 7 15 7 15 7 15 7 15 8 15 
7 14 7 15 7 14 7 14 7 14 7 14 8 13 7 14 
7 13 7 13 7 13 7 13 8 12 7 13 7 12 7 12 
7 12 7 12 7 12 8 11 7 11 7 12 7 11 7 10 
7 11 8 10 7 10 7 11 7 9 7 10 7 10 7 9 
8 9 7 9 7 9 7 8 7 9 7 8 8 8 7 7 
7 8 7 8 7 7 7 7 7 7 8 6 7 7 7 6 
7 6 7 6 7 5 8 6 7 5 7 5 7 5 7 4 
7 5 7 4 8 4 7 4 7 4 7 3 7 3 7 3 
8 3 7 3 7 2 7 2 7 2 7 2 7 1 8 2 
7 1 7 1 7 1 7 0 7 0 7 0 6474 424 151 MP stroke
gr

c10
0 sg
6992 2640 mt 
(t) s
6183 1434 mt  -90 rotate
(x) s
90 rotate
%%IncludeResource: font Symbol
/Symbol /ISOLatin1Encoding 120 FMSR

6183 1374 mt  -90 rotate
(\242) s
90 rotate
1 sg
0 1929 1072 0 0 -1929 8130 2352 4 MP
PP
-1072 0 0 1929 1072 0 0 -1929 8130 2352 5 MP stroke
4 w
DO
SO
6 w
0 sg
8130 2352 mt 9202 2352 L
8130  423 mt 9202  423 L
8130 2352 mt 8130  423 L
9202 2352 mt 9202  423 L
8130 2352 mt 9202 2352 L
8130 2352 mt 8130  423 L
8130 2352 mt 8130 2332 L
8130  424 mt 8130  443 L
%%IncludeResource: font Helvetica
/Helvetica /ISOLatin1Encoding 120 FMSR

8097 2497 mt 
(0) s
8844 2352 mt 8844 2332 L
8844  424 mt 8844  443 L
8811 2497 mt 
(1) s
8130 1970 mt 8149 1970 L
9202 1970 mt 9182 1970 L
7859 2014 mt 
(-0.8) s
8130 1583 mt 8149 1583 L
9202 1583 mt 9182 1583 L
7859 1627 mt 
(-0.6) s
8130 1197 mt 8149 1197 L
9202 1197 mt 9182 1197 L
7859 1241 mt 
(-0.4) s
8130  810 mt 8149  810 L
9202  810 mt 9182  810 L
7859  854 mt 
(-0.2) s
8130  424 mt 8149  424 L
9202  424 mt 9182  424 L
8029  468 mt 
(0) s
8130 2352 mt 9202 2352 L
8130  423 mt 9202  423 L
8130 2352 mt 8130  423 L
9202 2352 mt 9202  423 L
gs 8130 424 1073 1929 rc
c8
8 2 7 2 7 1 7 3 7 2 7 2 8 3 7 3 
7 3 7 3 7 3 7 4 7 3 8 4 7 5 7 4 
7 4 7 5 7 5 7 5 8 5 7 6 7 5 7 6 
7 6 7 6 7 7 8 6 7 7 7 7 7 7 7 7 
7 8 7 7 8 8 7 8 7 8 7 9 7 8 7 9 
8 9 7 9 7 9 7 9 7 10 7 10 7 9 8 11 
7 10 7 10 7 11 7 10 7 11 7 11 8 11 7 12 
7 11 7 12 7 12 7 11 7 13 8 12 7 12 7 13 
7 12 7 13 7 13 7 13 8 14 7 13 7 13 7 14 
7 14 7 14 7 14 8 14 7 15 7 14 7 15 7 14 
7 15 8 15 7 15 7 15 7 16 7 15 7 16 7 15 
8 16 7 16 7 16 7 16 7 16 7 17 7 16 8 17 
7 16 7 17 7 17 7 17 7 17 7 17 8 17 7 17 
7 18 7 17 7 18 7 17 7 18 8 18 7 18 7 18 
7 18 7 18 7 18 8 18 7 18 7 18 7 19 7 18 
7 19 7 18 8 19 7 19 7 18 7 19 7 19 7 19 
7 19 8 19 7 18 7 19 7 19 7 20 7 19 7 19 
8 19 7 19 7 19 7 20 7 19 7 19 7 19 8 20 
7 19 7 19 7 20 7 19 7 19 7 19 8130 424 151 MP stroke
DA
c9
8 1 7 2 7 1 7 3 7 2 7 2 8 3 7 3 
7 3 7 3 7 3 7 4 7 3 8 4 7 5 7 4 
7 4 7 5 7 5 7 5 8 5 7 6 7 5 7 6 
7 6 7 6 7 7 8 6 7 7 7 7 7 7 7 7 
7 8 7 7 8 8 7 8 7 8 7 9 7 8 7 9 
8 9 7 9 7 9 7 9 7 10 7 10 7 9 8 11 
7 10 7 10 7 11 7 10 7 11 7 11 8 11 7 12 
7 11 7 12 7 12 7 11 7 13 8 12 7 12 7 13 
7 12 7 13 7 13 7 13 8 14 7 13 7 13 7 14 
7 14 7 14 7 14 8 14 7 15 7 14 7 15 7 14 
7 15 8 15 7 15 7 15 7 16 7 15 7 16 7 15 
8 16 7 16 7 16 7 16 7 16 7 17 7 16 8 17 
7 16 7 17 7 17 7 17 7 17 7 17 8 17 7 17 
7 18 7 17 7 18 7 17 7 18 8 18 7 18 7 18 
7 18 7 18 7 18 8 18 7 18 7 18 7 19 7 18 
7 19 7 18 8 19 7 19 7 18 7 19 7 19 7 19 
7 19 8 19 7 18 7 19 7 19 7 20 7 19 7 19 
8 19 7 19 7 19 7 20 7 19 7 19 7 19 8 20 
7 19 7 19 7 20 7 19 7 19 7 19 8130 424 151 MP stroke
SO
c10
8 1 7 2 7 1 7 3 7 2 7 2 8 3 7 3 
7 3 7 3 7 3 7 4 7 3 8 4 7 5 7 4 
7 4 7 5 7 5 7 5 8 5 7 6 7 5 7 6 
7 6 7 6 7 7 8 6 7 7 7 7 7 7 7 7 
7 8 7 7 8 8 7 8 7 8 7 9 7 8 7 9 
8 9 7 9 7 9 7 9 7 10 7 10 7 9 8 11 
7 10 7 10 7 11 7 10 7 11 7 11 8 11 7 12 
7 11 7 12 7 12 7 11 7 13 8 12 7 12 7 13 
7 12 7 13 7 13 7 13 8 14 7 13 7 13 7 14 
7 14 7 14 7 14 8 14 7 15 7 14 7 15 7 14 
7 15 8 15 7 15 7 15 7 16 7 15 7 16 7 15 
8 16 7 16 7 16 7 16 7 16 7 17 7 16 8 17 
7 16 7 17 7 17 7 17 7 17 7 17 8 17 7 17 
7 18 7 17 7 18 7 17 7 18 8 18 7 18 7 18 
7 18 7 18 7 18 8 18 7 18 7 18 7 19 7 18 
7 19 7 18 8 19 7 19 7 18 7 19 7 19 7 19 
7 19 8 19 7 18 7 19 7 19 7 20 7 19 7 19 
8 19 7 19 7 19 7 20 7 19 7 19 7 19 8 20 
7 19 7 19 7 20 7 19 7 19 7 19 8130 424 151 MP stroke
gr

c10
0 sg
8648 2640 mt 
(t) s
7769 1434 mt  -90 rotate
(y) s
90 rotate
%%IncludeResource: font Symbol
/Symbol /ISOLatin1Encoding 120 FMSR

7769 1374 mt  -90 rotate
(\242) s
90 rotate
1 sg
0 1928 1072 0 0 -1928 1508 5029 4 MP
PP
-1072 0 0 1928 1072 0 0 -1928 1508 5029 5 MP stroke
4 w
DO
SO
6 w
0 sg
1508 5029 mt 2580 5029 L
1508 3101 mt 2580 3101 L
1508 5029 mt 1508 3101 L
2580 5029 mt 2580 3101 L
1508 5029 mt 2580 5029 L
1508 5029 mt 1508 3101 L
1508 5029 mt 1508 5009 L
1508 3101 mt 1508 3120 L
%%IncludeResource: font Helvetica
/Helvetica /ISOLatin1Encoding 120 FMSR

1475 5174 mt 
(0) s
2222 5029 mt 2222 5009 L
2222 3101 mt 2222 3120 L
2189 5174 mt 
(1) s
1508 4601 mt 1517 4601 L
2580 4601 mt 2570 4601 L
1508 4623 mt 1517 4623 L
2580 4623 mt 2570 4623 L
1508 4648 mt 1517 4648 L
2580 4648 mt 2570 4648 L
1508 4676 mt 1517 4676 L
2580 4676 mt 2570 4676 L
1508 4708 mt 1517 4708 L
2580 4708 mt 2570 4708 L
1508 4746 mt 1517 4746 L
2580 4746 mt 2570 4746 L
1508 4793 mt 1517 4793 L
2580 4793 mt 2570 4793 L
1508 4854 mt 1517 4854 L
2580 4854 mt 2570 4854 L
1508 4939 mt 1517 4939 L
2580 4939 mt 2570 4939 L
1508 4601 mt 1527 4601 L
2580 4601 mt 2560 4601 L
1205 4645 mt 
(10) s
%%IncludeResource: font Helvetica
/Helvetica /ISOLatin1Encoding 80 FMSR

1338 4571 mt 
(-11) s
1508 4455 mt 1517 4455 L
2580 4455 mt 2570 4455 L
1508 4370 mt 1517 4370 L
2580 4370 mt 2570 4370 L
1508 4309 mt 1517 4309 L
2580 4309 mt 2570 4309 L
1508 4262 mt 1517 4262 L
2580 4262 mt 2570 4262 L
1508 4224 mt 1517 4224 L
2580 4224 mt 2570 4224 L
1508 4192 mt 1517 4192 L
2580 4192 mt 2570 4192 L
1508 4164 mt 1517 4164 L
2580 4164 mt 2570 4164 L
1508 4139 mt 1517 4139 L
2580 4139 mt 2570 4139 L
1508 4117 mt 1517 4117 L
2580 4117 mt 2570 4117 L
1508 4117 mt 1527 4117 L
2580 4117 mt 2560 4117 L
%%IncludeResource: font Helvetica
/Helvetica /ISOLatin1Encoding 120 FMSR

1205 4161 mt 
(10) s
%%IncludeResource: font Helvetica
/Helvetica /ISOLatin1Encoding 80 FMSR

1338 4087 mt 
(-10) s
1508 3971 mt 1517 3971 L
2580 3971 mt 2570 3971 L
1508 3886 mt 1517 3886 L
2580 3886 mt 2570 3886 L
1508 3825 mt 1517 3825 L
2580 3825 mt 2570 3825 L
1508 3778 mt 1517 3778 L
2580 3778 mt 2570 3778 L
1508 3740 mt 1517 3740 L
2580 3740 mt 2570 3740 L
1508 3708 mt 1517 3708 L
2580 3708 mt 2570 3708 L
1508 3680 mt 1517 3680 L
2580 3680 mt 2570 3680 L
1508 3655 mt 1517 3655 L
2580 3655 mt 2570 3655 L
1508 3633 mt 1517 3633 L
2580 3633 mt 2570 3633 L
1508 3633 mt 1527 3633 L
2580 3633 mt 2560 3633 L
%%IncludeResource: font Helvetica
/Helvetica /ISOLatin1Encoding 120 FMSR

1205 3677 mt 
(10) s
%%IncludeResource: font Helvetica
/Helvetica /ISOLatin1Encoding 80 FMSR

1338 3603 mt 
(-9) s
1508 3487 mt 1517 3487 L
2580 3487 mt 2570 3487 L
1508 3402 mt 1517 3402 L
2580 3402 mt 2570 3402 L
1508 3341 mt 1517 3341 L
2580 3341 mt 2570 3341 L
1508 3295 mt 1517 3295 L
2580 3295 mt 2570 3295 L
1508 3256 mt 1517 3256 L
2580 3256 mt 2570 3256 L
1508 3224 mt 1517 3224 L
2580 3224 mt 2570 3224 L
1508 3196 mt 1517 3196 L
2580 3196 mt 2570 3196 L
1508 3171 mt 1517 3171 L
2580 3171 mt 2570 3171 L
1508 3149 mt 1517 3149 L
2580 3149 mt 2570 3149 L
1508 3149 mt 1527 3149 L
2580 3149 mt 2560 3149 L
%%IncludeResource: font Helvetica
/Helvetica /ISOLatin1Encoding 120 FMSR

1205 3193 mt 
(10) s
%%IncludeResource: font Helvetica
/Helvetica /ISOLatin1Encoding 80 FMSR

1338 3119 mt 
(-8) s
1508 5029 mt 2580 5029 L
1508 3101 mt 2580 3101 L
1508 5029 mt 1508 3101 L
2580 5029 mt 2580 3101 L
gs 1508 3101 1073 1929 rc
DA
c9
8 25 7 21 7 19 7 17 7 15 7 13 8 12 7 11 
7 10 7 9 7 9 7 8 7 7 8 6 7 6 7 6 
7 5 7 5 7 4 7 4 8 3 7 4 7 3 7 2 
7 3 7 2 7 2 8 1 7 2 7 1 7 1 7 1 
7 1 7 0 8 0 7 0 7 0 7 0 7 0 7 -1 
8 0 7 -1 7 -1 7 -1 7 -2 7 -1 7 -2 8 -1 
7 -2 7 -2 7 -2 7 -2 7 -3 7 -2 8 -3 7 -2 
7 -3 7 -3 7 -3 7 -3 7 -3 8 -4 7 -3 7 -4 
7 -3 7 -4 7 -4 7 -4 8 -4 7 -4 7 -4 7 -5 
7 -4 7 -5 7 -5 8 -5 7 -5 7 -5 7 -5 7 -5 
7 -6 8 -5 7 -6 7 -6 7 -6 7 -6 7 -6 7 -6 
8 -7 7 -6 7 -7 7 -7 7 -7 7 -7 7 -7 8 -8 
7 -8 7 -8 7 -8 7 -8 7 -8 7 -9 8 -9 7 -9 
7 -9 7 -9 7 -10 7 -10 7 -10 8 -11 7 -10 7 -11 
7 -12 7 -11 7 -12 8 -13 7 -13 7 -13 7 -14 7 -14 
7 -14 7 -15 8 -16 7 -16 7 -17 7 -18 7 -18 7 -20 
7 -20 8 -21 7 -22 7 -24 7 -25 7 -26 7 -28 7 -30 
8 -33 7 -35 7 -38 7 -42 7 -46 7 -52 7 -59 8 -68 
7 -81 7 -100 7 -128 7 -179 7 -260 1515 5029 150 MP stroke
SO
c10
8 25 7 21 7 19 7 17 7 15 7 13 8 12 7 11 
7 10 7 9 7 9 7 8 7 7 8 6 7 6 7 6 
7 5 7 5 7 4 7 4 8 3 7 4 7 3 7 2 
7 3 7 2 7 2 8 1 7 2 7 1 7 1 7 1 
7 1 7 0 8 0 7 0 7 0 7 0 7 0 7 -1 
8 0 7 -1 7 -1 7 -1 7 -2 7 -1 7 -2 8 -1 
7 -2 7 -2 7 -2 7 -2 7 -3 7 -2 8 -3 7 -2 
7 -3 7 -3 7 -3 7 -3 7 -3 8 -4 7 -3 7 -4 
7 -3 7 -4 7 -4 7 -4 8 -4 7 -4 7 -4 7 -5 
7 -4 7 -5 7 -5 8 -5 7 -5 7 -5 7 -5 7 -5 
7 -6 8 -5 7 -6 7 -6 7 -6 7 -6 7 -6 7 -6 
8 -7 7 -6 7 -7 7 -7 7 -7 7 -7 7 -7 8 -8 
7 -8 7 -8 7 -8 7 -8 7 -8 7 -9 8 -9 7 -9 
7 -9 7 -9 7 -10 7 -10 7 -10 8 -11 7 -10 7 -11 
7 -12 7 -11 7 -12 8 -13 7 -13 7 -13 7 -14 7 -14 
7 -14 7 -15 8 -16 7 -16 7 -17 7 -18 7 -18 7 -20 
7 -20 8 -21 7 -22 7 -24 7 -25 7 -26 7 -28 7 -30 
8 -33 7 -35 7 -38 7 -42 7 -46 7 -52 7 -59 8 -68 
7 -81 7 -100 7 -128 7 -179 7 -260 1515 5029 150 MP stroke
gr

c10
0 sg
%%IncludeResource: font Helvetica
/Helvetica /ISOLatin1Encoding 120 FMSR

2026 5317 mt 
(t) s
1123 4237 mt  -90 rotate
(error x) s
90 rotate
1 sg
0 1928 1073 0 0 -1928 3163 5029 4 MP
PP
-1073 0 0 1928 1073 0 0 -1928 3163 5029 5 MP stroke
4 w
DO
SO
6 w
0 sg
3163 5029 mt 4236 5029 L
3163 3101 mt 4236 3101 L
3163 5029 mt 3163 3101 L
4236 5029 mt 4236 3101 L
3163 5029 mt 4236 5029 L
3163 5029 mt 3163 3101 L
3163 5029 mt 3163 5009 L
3163 3101 mt 3163 3120 L
3130 5174 mt 
(0) s
3878 5029 mt 3878 5009 L
3878 3101 mt 3878 3120 L
3845 5174 mt 
(1) s
3163 5029 mt 3163 5029 L
3163 5029 mt 3163 5029 L
3163 5029 mt 3163 5029 L
3163 5029 mt 3163 5029 L
3163 5029 mt 3163 5029 L
3163 5029 mt 3163 5029 L
3163 5029 mt 3163 5029 L
3163 5029 mt 3163 5029 L
3163 5029 mt 3163 5029 L
3163 5029 mt 3163 5029 L
3163 5029 mt 3163 5029 L
3163 5029 mt 3163 5029 L
3163 5029 mt 3163 5029 L
3163 5029 mt 3163 5029 L
3163 5029 mt 3163 5029 L
3163 5029 mt 3163 5029 L
3163 5029 mt 3163 5029 L
3163 5029 mt 3163 5029 L
3163 4482 mt 3182 4482 L
4236 4482 mt 4216 4482 L
2860 4526 mt 
(10) s
%%IncludeResource: font Helvetica
/Helvetica /ISOLatin1Encoding 80 FMSR

2993 4452 mt 
(-12) s
3163 5029 mt 3163 5029 L
3163 5029 mt 3163 5029 L
3163 5029 mt 3163 5029 L
3163 5029 mt 3163 5029 L
3163 5029 mt 3163 5029 L
3163 5029 mt 3163 5029 L
3163 5029 mt 3163 5029 L
3163 5029 mt 3163 5029 L
3163 5029 mt 3163 5029 L
3163 5029 mt 3163 5029 L
3163 5029 mt 3163 5029 L
3163 5029 mt 3163 5029 L
3163 5029 mt 3163 5029 L
3163 5029 mt 3163 5029 L
3163 5029 mt 3163 5029 L
3163 5029 mt 3163 5029 L
3163 5029 mt 3163 5029 L
3163 5029 mt 3163 5029 L
3163 3901 mt 3182 3901 L
4236 3901 mt 4216 3901 L
%%IncludeResource: font Helvetica
/Helvetica /ISOLatin1Encoding 120 FMSR

2860 3945 mt 
(10) s
%%IncludeResource: font Helvetica
/Helvetica /ISOLatin1Encoding 80 FMSR

2993 3871 mt 
(-10) s
3163 5029 mt 3163 5029 L
3163 5029 mt 3163 5029 L
3163 5029 mt 3163 5029 L
3163 5029 mt 3163 5029 L
3163 5029 mt 3163 5029 L
3163 5029 mt 3163 5029 L
3163 5029 mt 3163 5029 L
3163 5029 mt 3163 5029 L
3163 5029 mt 3163 5029 L
3163 5029 mt 3163 5029 L
3163 5029 mt 3163 5029 L
3163 5029 mt 3163 5029 L
3163 5029 mt 3163 5029 L
3163 5029 mt 3163 5029 L
3163 5029 mt 3163 5029 L
3163 5029 mt 3163 5029 L
3163 5029 mt 3163 5029 L
3163 5029 mt 3163 5029 L
3163 3320 mt 3182 3320 L
4236 3320 mt 4216 3320 L
%%IncludeResource: font Helvetica
/Helvetica /ISOLatin1Encoding 120 FMSR

2860 3364 mt 
(10) s
%%IncludeResource: font Helvetica
/Helvetica /ISOLatin1Encoding 80 FMSR

2993 3290 mt 
(-8) s
3163 5029 mt 3163 5029 L
3163 5029 mt 3163 5029 L
3163 5029 mt 3163 5029 L
3163 5029 mt 3163 5029 L
3163 5029 mt 3163 5029 L
3163 5029 mt 3163 5029 L
3163 5029 mt 3163 5029 L
3163 5029 mt 3163 5029 L
3163 5029 mt 3163 5029 L
3163 5029 mt 3163 5029 L
3163 5029 mt 3163 5029 L
3163 5029 mt 3163 5029 L
3163 5029 mt 3163 5029 L
3163 5029 mt 3163 5029 L
3163 5029 mt 3163 5029 L
3163 5029 mt 3163 5029 L
3163 5029 mt 3163 5029 L
3163 5029 mt 3163 5029 L
3163 5029 mt 4236 5029 L
3163 3101 mt 4236 3101 L
3163 5029 mt 3163 3101 L
4236 5029 mt 4236 3101 L
gs 3163 3101 1074 1929 rc
DA
c9
8 -1 7 -2 7 -2 7 -2 7 -2 7 -2 8 -3 7 -2 
7 -2 7 -2 7 -2 7 -3 7 -2 8 -2 7 -3 7 -2 
7 -3 7 -2 7 -3 8 -3 7 -2 7 -3 7 -3 7 -2 
7 -3 7 -3 8 -3 7 -3 7 -3 7 -3 7 -3 7 -3 
8 -3 7 -4 7 -3 7 -3 7 -3 7 -4 7 -3 8 -4 
7 -3 7 -4 7 -3 7 -4 7 -4 8 -4 7 -3 7 -4 
7 -4 7 -4 7 -4 7 -4 8 -4 7 -4 7 -4 7 -5 
7 -4 7 -4 8 -5 7 -4 7 -5 7 -4 7 -5 7 -5 
7 -4 8 -5 7 -5 7 -5 7 -5 7 -5 7 -5 8 -5 
7 -6 7 -5 7 -5 7 -6 7 -5 7 -6 8 -5 7 -6 
7 -6 7 -6 7 -6 7 -6 8 -6 7 -6 7 -7 7 -6 
7 -7 7 -6 7 -7 8 -7 7 -7 7 -7 7 -7 7 -8 
7 -7 8 -8 7 -8 7 -8 7 -8 7 -8 7 -8 7 -9 
8 -8 7 -9 7 -10 7 -9 7 -9 7 -10 8 -10 7 -10 
7 -11 7 -11 7 -11 7 -11 7 -12 8 -12 7 -13 7 -12 
7 -14 7 -14 7 -14 8 -15 7 -15 7 -16 7 -16 7 -18 
7 -18 7 -19 8 -20 7 -21 7 -22 7 -24 7 -25 7 -27 
8 -29 7 -31 7 -34 7 -37 7 -41 7 -46 7 -53 8 -60 
7 -72 7 -88 7 -113 7 -159 7 -243 3170 5029 150 MP stroke
SO
c10
8 -1 7 -2 7 -2 7 -2 7 -2 7 -2 8 -3 7 -2 
7 -2 7 -2 7 -2 7 -3 7 -2 8 -2 7 -3 7 -2 
7 -3 7 -2 7 -3 8 -3 7 -2 7 -3 7 -3 7 -2 
7 -3 7 -3 8 -3 7 -3 7 -3 7 -3 7 -3 7 -3 
8 -3 7 -4 7 -3 7 -3 7 -3 7 -4 7 -3 8 -4 
7 -3 7 -4 7 -3 7 -4 7 -4 8 -4 7 -3 7 -4 
7 -4 7 -4 7 -4 7 -4 8 -4 7 -4 7 -4 7 -5 
7 -4 7 -4 8 -5 7 -4 7 -5 7 -4 7 -5 7 -5 
7 -4 8 -5 7 -5 7 -5 7 -5 7 -5 7 -5 8 -5 
7 -6 7 -5 7 -5 7 -6 7 -5 7 -6 8 -5 7 -6 
7 -6 7 -6 7 -6 7 -6 8 -6 7 -6 7 -7 7 -6 
7 -7 7 -6 7 -7 8 -7 7 -7 7 -7 7 -7 7 -8 
7 -7 8 -8 7 -8 7 -8 7 -8 7 -8 7 -8 7 -9 
8 -8 7 -9 7 -10 7 -9 7 -9 7 -10 8 -10 7 -10 
7 -11 7 -11 7 -11 7 -11 7 -12 8 -12 7 -13 7 -12 
7 -14 7 -14 7 -14 8 -15 7 -15 7 -16 7 -16 7 -18 
7 -18 7 -19 8 -20 7 -21 7 -22 7 -24 7 -25 7 -27 
8 -29 7 -31 7 -34 7 -37 7 -41 7 -46 7 -53 8 -60 
7 -72 7 -88 7 -113 7 -159 7 -243 3170 5029 150 MP stroke
gr

c10
0 sg
%%IncludeResource: font Helvetica
/Helvetica /ISOLatin1Encoding 120 FMSR

3681 5317 mt 
(t) s
2778 4237 mt  -90 rotate
(error y) s
90 rotate
1 sg
0 1928 1072 0 0 -1928 4819 5029 4 MP
PP
-1072 0 0 1928 1072 0 0 -1928 4819 5029 5 MP stroke
4 w
DO
SO
6 w
0 sg
4819 5029 mt 5891 5029 L
4819 3101 mt 5891 3101 L
4819 5029 mt 4819 3101 L
5891 5029 mt 5891 3101 L
4819 5029 mt 5891 5029 L
4819 5029 mt 4819 3101 L
4819 5029 mt 4819 5009 L
4819 3101 mt 4819 3120 L
4786 5174 mt 
(0) s
5533 5029 mt 5533 5009 L
5533 3101 mt 5533 3120 L
5500 5174 mt 
(1) s
4819 4813 mt 4828 4813 L
5891 4813 mt 5881 4813 L
4819 4813 mt 4838 4813 L
5891 4813 mt 5871 4813 L
4560 4857 mt 
(10) s
%%IncludeResource: font Helvetica
/Helvetica /ISOLatin1Encoding 80 FMSR

4693 4783 mt 
(-5) s
4819 5029 mt 5891 5029 L
4819 3101 mt 5891 3101 L
4819 5029 mt 4819 3101 L
5891 5029 mt 5891 3101 L
gs 4819 3101 1073 1929 rc
DA
c9
8 -1 7 -1 7 -2 7 -1 7 -1 7 -1 8 -1 7 -1 
7 -1 7 -1 7 -1 7 -1 7 0 8 -1 7 -1 7 -1 
7 0 7 -1 7 0 7 -1 8 0 7 0 7 -1 7 0 
7 0 7 0 7 0 8 0 7 0 7 0 7 0 7 1 
7 0 7 0 8 0 7 1 7 0 7 1 7 0 7 1 
8 1 7 0 7 1 7 1 7 1 7 0 7 1 8 1 
7 1 7 1 7 1 7 1 7 1 7 1 8 1 7 1 
7 1 7 1 7 1 7 1 7 1 8 1 7 1 7 1 
7 1 7 1 7 1 7 1 8 1 7 1 7 1 7 1 
7 1 7 1 7 1 8 1 7 1 7 0 7 1 7 1 
7 1 8 1 7 0 7 1 7 1 7 0 7 1 7 1 
8 0 7 1 7 0 7 1 7 1 7 0 7 0 8 1 
7 0 7 1 7 0 7 1 7 0 7 0 8 1 7 0 
7 0 7 0 7 1 7 0 7 0 8 0 7 1 7 0 
7 0 7 0 7 0 8 0 7 1 7 0 7 0 7 0 
7 0 7 0 8 0 7 0 7 0 7 0 7 0 7 0 
7 0 8 0 7 0 7 0 7 0 7 0 7 0 7 0 
8 0 7 0 7 0 7 0 7 0 7 0 7 0 8 0 
7 0 7 0 7 0 7 0 7 -1928 4826 5029 150 MP stroke
SO
c10
8 -1 7 -1 7 -2 7 -1 7 -1 7 -1 8 -1 7 -1 
7 -1 7 -1 7 -1 7 -1 7 0 8 -1 7 -1 7 -1 
7 0 7 -1 7 0 7 -1 8 0 7 0 7 -1 7 0 
7 0 7 0 7 0 8 0 7 0 7 0 7 0 7 0 
7 1 7 0 8 0 7 1 7 0 7 1 7 0 7 1 
8 1 7 0 7 1 7 1 7 1 7 0 7 1 8 1 
7 1 7 1 7 1 7 1 7 1 7 1 8 1 7 1 
7 1 7 1 7 1 7 1 7 1 8 1 7 1 7 1 
7 1 7 1 7 1 7 1 8 1 7 1 7 1 7 1 
7 1 7 1 7 1 8 1 7 1 7 0 7 1 7 1 
7 1 8 1 7 0 7 1 7 1 7 0 7 1 7 1 
8 0 7 1 7 0 7 1 7 1 7 0 7 0 8 1 
7 0 7 1 7 0 7 1 7 0 7 0 8 1 7 0 
7 0 7 0 7 1 7 0 7 0 8 0 7 1 7 0 
7 0 7 0 7 0 8 0 7 1 7 0 7 0 7 0 
7 0 7 0 8 0 7 0 7 0 7 0 7 0 7 0 
7 0 8 0 7 0 7 0 7 0 7 0 7 0 7 0 
8 0 7 0 7 0 7 0 7 0 7 0 7 0 8 0 
7 0 7 0 7 0 7 0 7 -1927 4826 5028 150 MP stroke
gr

c10
0 sg
%%IncludeResource: font Helvetica
/Helvetica /ISOLatin1Encoding 120 FMSR

5337 5317 mt 
(t) s
4470 4240 mt  -90 rotate
(error ) s
90 rotate
%%IncludeResource: font Symbol
/Symbol /ISOLatin1Encoding 120 FMSR

4470 3954 mt  -90 rotate
(l) s
90 rotate
1 sg
0 1928 1073 0 0 -1928 6474 5029 4 MP
PP
-1073 0 0 1928 1073 0 0 -1928 6474 5029 5 MP stroke
4 w
DO
SO
6 w
0 sg
6474 5029 mt 7547 5029 L
6474 3101 mt 7547 3101 L
6474 5029 mt 6474 3101 L
7547 5029 mt 7547 3101 L
6474 5029 mt 7547 5029 L
6474 5029 mt 6474 3101 L
6474 5029 mt 6474 5009 L
6474 3101 mt 6474 3120 L
%%IncludeResource: font Helvetica
/Helvetica /ISOLatin1Encoding 120 FMSR

6441 5174 mt 
(0) s
7189 5029 mt 7189 5009 L
7189 3101 mt 7189 3120 L
7156 5174 mt 
(1) s
6474 4934 mt 6483 4934 L
7547 4934 mt 7537 4934 L
6474 4967 mt 6483 4967 L
7547 4967 mt 7537 4967 L
6474 5003 mt 6483 5003 L
7547 5003 mt 7537 5003 L
6474 4934 mt 6493 4934 L
7547 4934 mt 7527 4934 L
6171 4978 mt 
(10) s
%%IncludeResource: font Helvetica
/Helvetica /ISOLatin1Encoding 80 FMSR

6304 4904 mt 
(-10) s
6474 4720 mt 6483 4720 L
7547 4720 mt 7537 4720 L
6474 4595 mt 6483 4595 L
7547 4595 mt 7537 4595 L
6474 4506 mt 6483 4506 L
7547 4506 mt 7537 4506 L
6474 4437 mt 6483 4437 L
7547 4437 mt 7537 4437 L
6474 4381 mt 6483 4381 L
7547 4381 mt 7537 4381 L
6474 4333 mt 6483 4333 L
7547 4333 mt 7537 4333 L
6474 4292 mt 6483 4292 L
7547 4292 mt 7537 4292 L
6474 4255 mt 6483 4255 L
7547 4255 mt 7537 4255 L
6474 4223 mt 6483 4223 L
7547 4223 mt 7537 4223 L
6474 4223 mt 6493 4223 L
7547 4223 mt 7527 4223 L
%%IncludeResource: font Helvetica
/Helvetica /ISOLatin1Encoding 120 FMSR

6171 4267 mt 
(10) s
%%IncludeResource: font Helvetica
/Helvetica /ISOLatin1Encoding 80 FMSR

6304 4193 mt 
(-9) s
6474 4009 mt 6483 4009 L
7547 4009 mt 7537 4009 L
6474 3884 mt 6483 3884 L
7547 3884 mt 7537 3884 L
6474 3795 mt 6483 3795 L
7547 3795 mt 7537 3795 L
6474 3726 mt 6483 3726 L
7547 3726 mt 7537 3726 L
6474 3670 mt 6483 3670 L
7547 3670 mt 7537 3670 L
6474 3622 mt 6483 3622 L
7547 3622 mt 7537 3622 L
6474 3581 mt 6483 3581 L
7547 3581 mt 7537 3581 L
6474 3544 mt 6483 3544 L
7547 3544 mt 7537 3544 L
6474 3512 mt 6483 3512 L
7547 3512 mt 7537 3512 L
6474 3512 mt 6493 3512 L
7547 3512 mt 7527 3512 L
%%IncludeResource: font Helvetica
/Helvetica /ISOLatin1Encoding 120 FMSR

6171 3556 mt 
(10) s
%%IncludeResource: font Helvetica
/Helvetica /ISOLatin1Encoding 80 FMSR

6304 3482 mt 
(-8) s
6474 3298 mt 6483 3298 L
7547 3298 mt 7537 3298 L
6474 3172 mt 6483 3172 L
7547 3172 mt 7537 3172 L
6474 5029 mt 7547 5029 L
6474 3101 mt 7547 3101 L
6474 5029 mt 6474 3101 L
7547 5029 mt 7547 3101 L
gs 6474 3101 1074 1929 rc
DA
c9
8 -22 7 -24 7 -26 7 -28 7 -30 7 -34 8 -37 7 -43 
7 -48 7 -58 7 -69 7 -90 7 -124 8 -209 7 -939 7 904 
7 220 7 126 7 88 8 67 7 55 7 45 7 39 7 34 
7 30 7 27 8 24 7 22 7 20 7 18 7 17 7 15 
8 14 7 14 7 12 7 11 7 11 7 10 7 9 8 9 
7 8 7 7 7 7 7 7 7 6 8 5 7 5 7 5 
7 5 7 4 7 3 7 4 8 3 7 3 7 2 7 3 
7 2 7 2 8 1 7 1 7 1 7 1 7 1 7 0 
7 0 8 0 7 0 7 0 7 -1 7 0 7 -1 8 -1 
7 -1 7 -2 7 -1 7 -2 7 -2 7 -2 8 -2 7 -3 
7 -2 7 -3 7 -2 7 -3 8 -3 7 -4 7 -3 7 -3 
7 -4 7 -4 7 -4 8 -4 7 -4 7 -4 7 -5 7 -5 
7 -4 8 -5 7 -6 7 -5 7 -5 7 -6 7 -6 7 -6 
8 -6 7 -6 7 -7 7 -7 7 -7 7 -7 8 -7 7 -8 
7 -8 7 -8 7 -8 7 -9 7 -9 8 -9 7 -10 7 -10 
7 -10 7 -11 7 -11 8 -12 7 -12 7 -13 7 -13 7 -14 
7 -14 7 -16 8 -16 7 -17 7 -17 7 -19 7 -21 7 -21 
8 -24 7 -25 7 -27 7 -30 7 -33 7 -37 7 -42 8 -48 
7 -57 7 -69 7 -90 7 -126 7 -214 6481 4404 150 MP stroke
SO
c10
8 -22 7 -24 7 -26 7 -28 7 -30 7 -34 8 -37 7 -43 
7 -48 7 -58 7 -69 7 -90 7 -124 8 -209 7 -940 7 905 
7 220 7 126 7 88 8 67 7 55 7 45 7 39 7 34 
7 30 7 27 8 24 7 22 7 20 7 18 7 17 7 15 
8 14 7 14 7 12 7 11 7 11 7 10 7 9 8 9 
7 8 7 7 7 7 7 7 7 6 8 5 7 5 7 5 
7 5 7 4 7 3 7 4 8 3 7 3 7 2 7 3 
7 2 7 2 8 1 7 1 7 1 7 1 7 1 7 0 
7 0 8 0 7 0 7 0 7 -1 7 0 7 -1 8 -1 
7 -1 7 -2 7 -1 7 -2 7 -2 7 -2 8 -2 7 -3 
7 -2 7 -3 7 -2 7 -3 8 -3 7 -4 7 -3 7 -3 
7 -4 7 -4 7 -4 8 -4 7 -4 7 -4 7 -5 7 -5 
7 -4 8 -5 7 -6 7 -5 7 -5 7 -6 7 -6 7 -6 
8 -6 7 -6 7 -7 7 -7 7 -7 7 -7 8 -7 7 -8 
7 -8 7 -8 7 -8 7 -9 7 -9 8 -9 7 -10 7 -10 
7 -10 7 -11 7 -11 8 -12 7 -12 7 -13 7 -13 7 -14 
7 -14 7 -16 8 -16 7 -17 7 -17 7 -19 7 -21 7 -21 
8 -24 7 -25 7 -27 7 -30 7 -33 7 -37 7 -42 8 -48 
7 -57 7 -69 7 -90 7 -126 7 -214 6481 4404 150 MP stroke
gr

c10
0 sg
%%IncludeResource: font Helvetica
/Helvetica /ISOLatin1Encoding 120 FMSR

6992 5317 mt 
(t) s
6081 4252 mt  -90 rotate
(error x) s
90 rotate
%%IncludeResource: font Symbol
/Symbol /ISOLatin1Encoding 120 FMSR

6081 3906 mt  -90 rotate
(\242) s
90 rotate
1 sg
0 1928 1013 0 0 -1928 8189 5029 4 MP
PP
-1013 0 0 1928 1013 0 0 -1928 8189 5029 5 MP stroke
4 w
DO
SO
6 w
0 sg
8189 5029 mt 9202 5029 L
8189 3101 mt 9202 3101 L
8189 5029 mt 8189 3101 L
9202 5029 mt 9202 3101 L
8189 5029 mt 9202 5029 L
8189 5029 mt 8189 3101 L
8189 5029 mt 8189 5009 L
8189 3101 mt 8189 3120 L
%%IncludeResource: font Helvetica
/Helvetica /ISOLatin1Encoding 120 FMSR

8156 5174 mt 
(0) s
8864 5029 mt 8864 5009 L
8864 3101 mt 8864 3120 L
8831 5174 mt 
(1) s
8189 4649 mt 8198 4649 L
9202 4649 mt 9192 4649 L
8189 4686 mt 8198 4686 L
9202 4686 mt 9192 4686 L
8189 4727 mt 8198 4727 L
9202 4727 mt 9192 4727 L
8189 4773 mt 8198 4773 L
9202 4773 mt 9192 4773 L
8189 4827 mt 8198 4827 L
9202 4827 mt 9192 4827 L
8189 4891 mt 8198 4891 L
9202 4891 mt 9192 4891 L
8189 4969 mt 8198 4969 L
9202 4969 mt 9192 4969 L
8189 4649 mt 8208 4649 L
9202 4649 mt 9182 4649 L
7886 4693 mt 
(10) s
%%IncludeResource: font Helvetica
/Helvetica /ISOLatin1Encoding 80 FMSR

8019 4619 mt 
(-9) s
8189 4406 mt 8198 4406 L
9202 4406 mt 9192 4406 L
8189 4265 mt 8198 4265 L
9202 4265 mt 9192 4265 L
8189 4164 mt 8198 4164 L
9202 4164 mt 9192 4164 L
8189 4086 mt 8198 4086 L
9202 4086 mt 9192 4086 L
8189 4022 mt 8198 4022 L
9202 4022 mt 9192 4022 L
8189 3968 mt 8198 3968 L
9202 3968 mt 9192 3968 L
8189 3922 mt 8198 3922 L
9202 3922 mt 9192 3922 L
8189 3880 mt 8198 3880 L
9202 3880 mt 9192 3880 L
8189 3844 mt 8198 3844 L
9202 3844 mt 9192 3844 L
8189 3844 mt 8208 3844 L
9202 3844 mt 9182 3844 L
%%IncludeResource: font Helvetica
/Helvetica /ISOLatin1Encoding 120 FMSR

7886 3888 mt 
(10) s
%%IncludeResource: font Helvetica
/Helvetica /ISOLatin1Encoding 80 FMSR

8019 3814 mt 
(-8) s
8189 3601 mt 8198 3601 L
9202 3601 mt 9192 3601 L
8189 3459 mt 8198 3459 L
9202 3459 mt 9192 3459 L
8189 3359 mt 8198 3359 L
9202 3359 mt 9192 3359 L
8189 3281 mt 8198 3281 L
9202 3281 mt 9192 3281 L
8189 3217 mt 8198 3217 L
9202 3217 mt 9192 3217 L
8189 3163 mt 8198 3163 L
9202 3163 mt 9192 3163 L
8189 3116 mt 8198 3116 L
9202 3116 mt 9192 3116 L
8189 5029 mt 9202 5029 L
8189 3101 mt 9202 3101 L
8189 5029 mt 8189 3101 L
9202 5029 mt 9202 3101 L
gs 8189 3101 1014 1929 rc
DA
c9
7 0 7 0 7 0 7 -1 6 -1 7 -1 7 -1 7 -1 
6 -1 7 -2 7 -1 7 -2 6 -2 7 -2 7 -3 7 -2 
6 -3 7 -3 7 -3 7 -3 6 -4 7 -3 7 -4 7 -4 
6 -4 7 -5 7 -5 7 -4 6 -6 7 -5 7 -5 7 -6 
6 -6 7 -6 7 -7 7 -6 6 -7 7 -8 7 -7 7 -8 
6 -8 7 -8 7 -8 7 -9 6 -9 7 -10 7 -9 7 -11 
6 -10 7 -11 7 -11 7 -11 6 -12 7 -13 7 -12 7 -13 
6 -14 7 -14 7 -15 7 -15 6 -16 7 -17 7 -17 7 -18 
6 -19 7 -19 7 -21 7 -22 6 -22 7 -25 7 -25 7 -28 
6 -29 7 -32 7 -34 7 -37 7 -41 6 -46 7 -52 7 -60 
7 -72 6 -88 7 -115 7 -170 7 -332 6 -205 7 462 7 189 
7 120 6 88 7 69 7 56 7 48 6 41 7 36 7 32 
7 28 6 26 7 24 7 21 7 20 6 18 7 17 7 16 
7 15 6 13 7 13 7 12 7 12 6 10 7 11 7 9 
7 9 6 9 7 8 7 7 7 7 6 7 7 7 7 6 
7 5 6 6 7 5 7 5 7 5 6 4 7 4 7 4 
7 4 6 3 7 3 7 3 7 3 6 3 7 2 7 2 
7 2 6 2 7 2 7 2 7 1 6 1 7 1 7 1 
7 1 6 1 7 0 7 1 7 0 8195 3486 150 MP stroke
SO
c10
7 0 7 0 7 0 7 -1 6 -1 7 -1 7 -1 7 -1 
6 -1 7 -2 7 -1 7 -2 6 -2 7 -2 7 -3 7 -2 
6 -3 7 -3 7 -3 7 -3 6 -4 7 -3 7 -4 7 -4 
6 -4 7 -5 7 -5 7 -4 6 -6 7 -5 7 -5 7 -6 
6 -6 7 -6 7 -7 7 -6 6 -7 7 -8 7 -7 7 -8 
6 -8 7 -8 7 -8 7 -9 6 -9 7 -10 7 -9 7 -11 
6 -10 7 -11 7 -11 7 -11 6 -12 7 -13 7 -12 7 -13 
6 -14 7 -14 7 -15 7 -15 6 -16 7 -17 7 -17 7 -18 
6 -19 7 -19 7 -21 7 -22 6 -22 7 -25 7 -25 7 -28 
6 -29 7 -32 7 -34 7 -37 7 -41 6 -46 7 -52 7 -60 
7 -72 6 -88 7 -115 7 -170 7 -332 6 -206 7 463 7 189 
7 120 6 88 7 69 7 56 7 48 6 41 7 36 7 32 
7 28 6 26 7 24 7 21 7 20 6 18 7 17 7 16 
7 15 6 13 7 13 7 12 7 12 6 10 7 11 7 9 
7 9 6 9 7 8 7 7 7 7 6 7 7 7 7 6 
7 5 6 6 7 5 7 5 7 5 6 4 7 4 7 4 
7 4 6 3 7 3 7 3 7 3 6 3 7 2 7 2 
7 2 6 2 7 2 7 2 7 1 6 1 7 1 7 1 
7 1 6 1 7 0 7 1 7 0 8195 3486 150 MP stroke
gr

c10
0 sg
%%IncludeResource: font Helvetica
/Helvetica /ISOLatin1Encoding 120 FMSR

8677 5317 mt 
(t) s
7796 4252 mt  -90 rotate
(error y) s
90 rotate
%%IncludeResource: font Symbol
/Symbol /ISOLatin1Encoding 120 FMSR

7796 3906 mt  -90 rotate
(\242) s
90 rotate
1 sg
0 400 1230 0 0 -400 8915 469 4 MP
PP
-1230 0 0 400 1230 0 0 -400 8915 469 5 MP stroke
4 w
DO
SO
6 w
0 sg
8915  469 mt 10145  469 L
8915   69 mt 10145   69 L
8915  469 mt 8915   69 L
10145  469 mt 10145   69 L
8915  469 mt 10145  469 L
8915  469 mt 8915   69 L
8915  469 mt 10145  469 L
8915   69 mt 10145   69 L
8915  469 mt 8915   69 L
10145  469 mt 10145   69 L
%%IncludeResource: font Helvetica
/Helvetica /ISOLatin1Encoding 120 FMSR

9383  222 mt 
(second order) s
gs 8915 69 1231 401 rc
DA
c9
360 0 8986 179 2 MP stroke
SO
gr

c9
0 sg
9383  401 mt 
(first order) s
gs 8915 69 1231 401 rc
c10
360 0 8986 358 2 MP stroke
gr

c10

end %%Color Dict

eplot
%%EndObject

epage
end

showpage

%%Trailer
%%EOF
