%!PS-Adobe-3.0 EPSF-3.0
%%Creator: MATLAB, The Mathworks, Inc.
%%Title: /homes/numerik/wunder/program/sources/Exp1_RK12_var.eps
%%CreationDate: 08/18/2005  13:22:26
%%DocumentNeededFonts: Helvetica
%%DocumentProcessColors: Cyan Magenta Yellow Black
%%LanguageLevel: 2
%%Pages: 1
%%BoundingBox:     2   188   608   602
%%EndComments

%%BeginProlog
% MathWorks dictionary
/MathWorks 160 dict begin
% definition operators
/bdef {bind def} bind def
/ldef {load def} bind def
/xdef {exch def} bdef
/xstore {exch store} bdef
% operator abbreviations
/c  /clip ldef
/cc /concat ldef
/cp /closepath ldef
/gr /grestore ldef
/gs /gsave ldef
/mt /moveto ldef
/np /newpath ldef
/cm /currentmatrix ldef
/sm /setmatrix ldef
/rm /rmoveto ldef
/rl /rlineto ldef
/s {show newpath} bdef
/sc {setcmykcolor} bdef
/sr /setrgbcolor ldef
/sg /setgray ldef
/w /setlinewidth ldef
/j /setlinejoin ldef
/cap /setlinecap ldef
/rc {rectclip} bdef
/rf {rectfill} bdef
% page state control
/pgsv () def
/bpage {/pgsv save def} bdef
/epage {pgsv restore} bdef
/bplot /gsave ldef
/eplot {stroke grestore} bdef
% orientation switch
/portraitMode 0 def /landscapeMode 1 def /rotateMode 2 def
% coordinate system mappings
/dpi2point 0 def
% font control
/FontSize 0 def
/FMS {/FontSize xstore findfont [FontSize 0 0 FontSize neg 0 0]
  makefont setfont} bdef
/reencode {exch dup where {pop load} {pop StandardEncoding} ifelse
  exch dup 3 1 roll findfont dup length dict begin
  { 1 index /FID ne {def}{pop pop} ifelse } forall
  /Encoding exch def currentdict end definefont pop} bdef
/isroman {findfont /CharStrings get /Agrave known} bdef
/FMSR {3 1 roll 1 index dup isroman {reencode} {pop pop} ifelse
  exch FMS} bdef
/csm {1 dpi2point div -1 dpi2point div scale neg translate
 dup landscapeMode eq {pop -90 rotate}
  {rotateMode eq {90 rotate} if} ifelse} bdef
% line types: solid, dotted, dashed, dotdash
/SO { [] 0 setdash } bdef
/DO { [.5 dpi2point mul 4 dpi2point mul] 0 setdash } bdef
/DA { [6 dpi2point mul] 0 setdash } bdef
/DD { [.5 dpi2point mul 4 dpi2point mul 6 dpi2point mul 4
  dpi2point mul] 0 setdash } bdef
% macros for lines and objects
/L {lineto stroke} bdef
/MP {3 1 roll moveto 1 sub {rlineto} repeat} bdef
/AP {{rlineto} repeat} bdef
/PDlw -1 def
/W {/PDlw currentlinewidth def setlinewidth} def
/PP {closepath eofill} bdef
/DP {closepath stroke} bdef
/MR {4 -2 roll moveto dup  0 exch rlineto exch 0 rlineto
  neg 0 exch rlineto closepath} bdef
/FR {MR stroke} bdef
/PR {MR fill} bdef
/L1i {{currentfile picstr readhexstring pop} image} bdef
/tMatrix matrix def
/MakeOval {newpath tMatrix currentmatrix pop translate scale
0 0 1 0 360 arc tMatrix setmatrix} bdef
/FO {MakeOval stroke} bdef
/PO {MakeOval fill} bdef
/PD {currentlinewidth 2 div 0 360 arc fill
   PDlw -1 eq not {PDlw w /PDlw -1 def} if} def
/FA {newpath tMatrix currentmatrix pop translate scale
  0 0 1 5 -2 roll arc tMatrix setmatrix stroke} bdef
/PA {newpath tMatrix currentmatrix pop	translate 0 0 moveto scale
  0 0 1 5 -2 roll arc closepath tMatrix setmatrix fill} bdef
/FAn {newpath tMatrix currentmatrix pop translate scale
  0 0 1 5 -2 roll arcn tMatrix setmatrix stroke} bdef
/PAn {newpath tMatrix currentmatrix pop translate 0 0 moveto scale
  0 0 1 5 -2 roll arcn closepath tMatrix setmatrix fill} bdef
/vradius 0 def /hradius 0 def /lry 0 def
/lrx 0 def /uly 0 def /ulx 0 def /rad 0 def
/MRR {/vradius xdef /hradius xdef /lry xdef /lrx xdef /uly xdef
  /ulx xdef newpath tMatrix currentmatrix pop ulx hradius add uly
  vradius add translate hradius vradius scale 0 0 1 180 270 arc 
  tMatrix setmatrix lrx hradius sub uly vradius add translate
  hradius vradius scale 0 0 1 270 360 arc tMatrix setmatrix
  lrx hradius sub lry vradius sub translate hradius vradius scale
  0 0 1 0 90 arc tMatrix setmatrix ulx hradius add lry vradius sub
  translate hradius vradius scale 0 0 1 90 180 arc tMatrix setmatrix
  closepath} bdef
/FRR {MRR stroke } bdef
/PRR {MRR fill } bdef
/MlrRR {/lry xdef /lrx xdef /uly xdef /ulx xdef /rad lry uly sub 2 div def
  newpath tMatrix currentmatrix pop ulx rad add uly rad add translate
  rad rad scale 0 0 1 90 270 arc tMatrix setmatrix lrx rad sub lry rad
  sub translate rad rad scale 0 0 1 270 90 arc tMatrix setmatrix
  closepath} bdef
/FlrRR {MlrRR stroke } bdef
/PlrRR {MlrRR fill } bdef
/MtbRR {/lry xdef /lrx xdef /uly xdef /ulx xdef /rad lrx ulx sub 2 div def
  newpath tMatrix currentmatrix pop ulx rad add uly rad add translate
  rad rad scale 0 0 1 180 360 arc tMatrix setmatrix lrx rad sub lry rad
  sub translate rad rad scale 0 0 1 0 180 arc tMatrix setmatrix
  closepath} bdef
/FtbRR {MtbRR stroke } bdef
/PtbRR {MtbRR fill } bdef
/stri 6 array def /dtri 6 array def
/smat 6 array def /dmat 6 array def
/tmat1 6 array def /tmat2 6 array def /dif 3 array def
/asub {/ind2 exch def /ind1 exch def dup dup
  ind1 get exch ind2 get sub exch } bdef
/tri_to_matrix {
  2 0 asub 3 1 asub 4 0 asub 5 1 asub
  dup 0 get exch 1 get 7 -1 roll astore } bdef
/compute_transform {
  dmat dtri tri_to_matrix tmat1 invertmatrix 
  smat stri tri_to_matrix tmat2 concatmatrix } bdef
/ds {stri astore pop} bdef
/dt {dtri astore pop} bdef
/db {2 copy /cols xdef /rows xdef mul dup 3 mul string
  currentfile 
  3 index 0 eq {/ASCIIHexDecode filter}
  {/ASCII85Decode filter 3 index 2 eq {/RunLengthDecode filter} if }
  ifelse exch readstring pop
  dup 0 3 index getinterval /rbmap xdef
  dup 2 index dup getinterval /gbmap xdef
  1 index dup 2 mul exch getinterval /bbmap xdef pop pop}bdef
/it {gs np dtri aload pop moveto lineto lineto cp c
  cols rows 8 compute_transform 
  rbmap gbmap bbmap true 3 colorimage gr}bdef
/il {newpath moveto lineto stroke}bdef
currentdict end def
%%EndProlog

%%BeginSetup
MathWorks begin

0 cap

end
%%EndSetup

%%Page: 1 1
%%BeginPageSetup
%%PageBoundingBox:     2   188   608   602
MathWorks begin
bpage
%%EndPageSetup

%%BeginObject: obj1
bplot

/dpi2point 12 def
portraitMode 0024 7224 csm

    0     0  7275  4959 rc
85 dict begin %Colortable dictionary
/c0 { 0.000000 0.000000 0.000000 sr} bdef
/c1 { 1.000000 1.000000 1.000000 sr} bdef
/c2 { 0.900000 0.000000 0.000000 sr} bdef
/c3 { 0.000000 0.820000 0.000000 sr} bdef
/c4 { 0.000000 0.000000 0.800000 sr} bdef
/c5 { 0.910000 0.820000 0.320000 sr} bdef
/c6 { 1.000000 0.260000 0.820000 sr} bdef
/c7 { 0.000000 0.820000 0.820000 sr} bdef
c0
1 j
1 sg
   0    0 7276 4960 rf
6 w
0 1693 1430 0 0 -1693 1068 2064 4 MP
PP
-1430 0 0 1693 1430 0 0 -1693 1068 2064 5 MP stroke
4 w
DO
SO
6 w
0 sg
1068 2064 mt 2498 2064 L
1068  371 mt 2498  371 L
1068 2064 mt 1068  371 L
2498 2064 mt 2498  371 L
1068 2064 mt 2498 2064 L
1068 2064 mt 1068  371 L
1068 2064 mt 1068 2047 L
1068  372 mt 1068  388 L
%%IncludeResource: font Helvetica
/Helvetica /ISOLatin1Encoding 120 FMSR

1035 2209 mt 
(0) s
1609 2064 mt 1609 2047 L
1609  372 mt 1609  388 L
1493 2209 mt 
(0.05) s
2151 2064 mt 2151 2047 L
2151  372 mt 2151  388 L
2068 2209 mt 
(0.1) s
1068 2064 mt 1084 2064 L
2498 2064 mt 2481 2064 L
 967 2108 mt 
(0) s
1068 1806 mt 1084 1806 L
2498 1806 mt 2481 1806 L
 800 1850 mt 
(0.02) s
1068 1549 mt 1084 1549 L
2498 1549 mt 2481 1549 L
 800 1593 mt 
(0.04) s
1068 1292 mt 1084 1292 L
2498 1292 mt 2481 1292 L
 800 1336 mt 
(0.06) s
1068 1035 mt 1084 1035 L
2498 1035 mt 2481 1035 L
 800 1079 mt 
(0.08) s
1068  778 mt 1084  778 L
2498  778 mt 2481  778 L
 867  822 mt 
(0.1) s
1068  521 mt 1084  521 L
2498  521 mt 2481  521 L
 800  565 mt 
(0.12) s
1068 2064 mt 2498 2064 L
1068  371 mt 2498  371 L
1068 2064 mt 1068  371 L
2498 2064 mt 2498  371 L
gs 1068 372 1431 1693 rc
DA
/c8 { 0.000000 0.000000 1.000000 sr} bdef
c8
694 -818 346 -411 174 -205 86 -103 44 -52 21 -25 11 -13 11 -13 
11 -13 11 -13 11 -13 10 -13 1068 2064 13 MP stroke
SO
694 -818 346 -411 174 -205 86 -103 44 -52 21 -25 11 -13 11 -13 
11 -13 11 -13 11 -13 10 -13 1068 2064 13 MP stroke
gr

c8
0 sg
1765 2352 mt 
(t) s
 718 1249 mt  -90 rotate
(x) s
90 rotate
1 sg
0 1692 1430 0 0 -1692 3111 2063 4 MP
PP
-1430 0 0 1692 1430 0 0 -1692 3111 2063 5 MP stroke
4 w
DO
SO
6 w
0 sg
3111 2063 mt 4541 2063 L
3111  371 mt 4541  371 L
3111 2063 mt 3111  371 L
4541 2063 mt 4541  371 L
3111 2063 mt 4541 2063 L
3111 2063 mt 3111  371 L
3111 2063 mt 3111 2047 L
3111  371 mt 3111  388 L
3078 2209 mt 
(0) s
3652 2063 mt 3652 2047 L
3652  371 mt 3652  388 L
3536 2209 mt 
(0.05) s
4194 2063 mt 4194 2047 L
4194  371 mt 4194  388 L
4111 2209 mt 
(0.1) s
3111 1927 mt 3127 1927 L
4541 1927 mt 4524 1927 L
2776 1971 mt 
(0.992) s
3111 1538 mt 3127 1538 L
4541 1538 mt 4524 1538 L
2776 1582 mt 
(0.994) s
3111 1149 mt 3127 1149 L
4541 1149 mt 4524 1149 L
2776 1193 mt 
(0.996) s
3111  760 mt 3127  760 L
4541  760 mt 4524  760 L
2776  804 mt 
(0.998) s
3111  371 mt 3127  371 L
4541  371 mt 4524  371 L
3010  415 mt 
(1) s
3111 2063 mt 4541 2063 L
3111  371 mt 4541  371 L
3111 2063 mt 3111  371 L
4541 2063 mt 4541  371 L
gs 3111 371 1431 1693 rc
DA
c8
694 1242 346 323 174 88 86 24 44 8 21 3 11 1 11 1 
11 1 11 0 11 0 10 1 3111 371 13 MP stroke
SO
694 1242 346 323 174 88 86 24 44 8 21 3 11 1 11 1 
11 1 11 0 11 0 10 1 3111 371 13 MP stroke
gr

c8
0 sg
3808 2352 mt 
(t) s
2694 1248 mt  -90 rotate
(y) s
90 rotate
1 sg
0 1693 1430 0 0 -1693 5154 2064 4 MP
PP
-1430 0 0 1693 1430 0 0 -1693 5154 2064 5 MP stroke
4 w
DO
SO
6 w
0 sg
5154 2064 mt 6584 2064 L
5154  371 mt 6584  371 L
5154 2064 mt 5154  371 L
6584 2064 mt 6584  371 L
5154 2064 mt 6584 2064 L
5154 2064 mt 5154  371 L
5154 2064 mt 5154 2047 L
5154  372 mt 5154  388 L
5121 2209 mt 
(0) s
5695 2064 mt 5695 2047 L
5695  372 mt 5695  388 L
5579 2209 mt 
(0.05) s
6237 2064 mt 6237 2047 L
6237  372 mt 6237  388 L
6154 2209 mt 
(0.1) s
5154 2064 mt 5170 2064 L
6584 2064 mt 6567 2064 L
5053 2108 mt 
(0) s
5154 1805 mt 5170 1805 L
6584 1805 mt 6567 1805 L
4886 1849 mt 
(0.02) s
5154 1546 mt 5170 1546 L
6584 1546 mt 6567 1546 L
4886 1590 mt 
(0.04) s
5154 1288 mt 5170 1288 L
6584 1288 mt 6567 1288 L
4886 1332 mt 
(0.06) s
5154 1029 mt 5170 1029 L
6584 1029 mt 6567 1029 L
4886 1073 mt 
(0.08) s
5154  771 mt 5170  771 L
6584  771 mt 6567  771 L
4953  815 mt 
(0.1) s
5154  512 mt 5170  512 L
6584  512 mt 6567  512 L
4886  556 mt 
(0.12) s
5154 2064 mt 6584 2064 L
5154  371 mt 6584  371 L
5154 2064 mt 5154  371 L
6584 2064 mt 6584  371 L
gs 5154 372 1431 1693 rc
DA
c8
694 -814 346 -412 174 -207 86 -103 44 -52 21 -26 11 -13 11 -13 
11 -13 11 -13 11 -13 10 -13 5154 2064 13 MP stroke
SO
694 -814 346 -412 174 -207 86 -103 44 -52 21 -26 11 -13 11 -13 
11 -13 11 -13 11 -13 10 -13 5154 2064 13 MP stroke
gr

c8
0 sg
5851 2352 mt 
(t) s
%%IncludeResource: font Symbol
/Symbol /ISOLatin1Encoding 120 FMSR

4796 1252 mt  -90 rotate
(l) s
90 rotate
1 sg
0 1692 1430 0 0 -1692 1068 4414 4 MP
PP
-1430 0 0 1692 1430 0 0 -1692 1068 4414 5 MP stroke
4 w
DO
SO
6 w
0 sg
1068 4414 mt 2498 4414 L
1068 2722 mt 2498 2722 L
1068 4414 mt 1068 2722 L
2498 4414 mt 2498 2722 L
1068 4414 mt 2498 4414 L
1068 4414 mt 1068 2722 L
1068 4414 mt 1068 4397 L
1068 2722 mt 1068 2738 L
%%IncludeResource: font Helvetica
/Helvetica /ISOLatin1Encoding 120 FMSR

1035 4559 mt 
(0) s
1609 4414 mt 1609 4397 L
1609 2722 mt 1609 2738 L
1493 4559 mt 
(0.05) s
2151 4414 mt 2151 4397 L
2151 2722 mt 2151 2738 L
2068 4559 mt 
(0.1) s
1068 4414 mt 1068 4414 L
1068 4414 mt 1068 4414 L
1068 4414 mt 1068 4414 L
1068 4414 mt 1068 4414 L
1068 4414 mt 1068 4414 L
1068 4414 mt 1068 4414 L
1068 4414 mt 1068 4414 L
1068 4414 mt 1068 4414 L
1068 4414 mt 1068 4414 L
1068 4414 mt 1068 4414 L
1068 4414 mt 1068 4414 L
1068 4414 mt 1068 4414 L
1068 4414 mt 1068 4414 L
1068 4414 mt 1068 4414 L
1068 4414 mt 1068 4414 L
1068 4414 mt 1068 4414 L
1068 4414 mt 1068 4414 L
1068 4414 mt 1068 4414 L
1068 4065 mt 1084 4065 L
2498 4065 mt 2481 4065 L
 765 4109 mt 
(10) s
%%IncludeResource: font Helvetica
/Helvetica /ISOLatin1Encoding 80 FMSR

 898 4035 mt 
(-15) s
1068 4414 mt 1068 4414 L
1068 4414 mt 1068 4414 L
1068 4414 mt 1068 4414 L
1068 4414 mt 1068 4414 L
1068 4414 mt 1068 4414 L
1068 4414 mt 1068 4414 L
1068 4414 mt 1068 4414 L
1068 4414 mt 1068 4414 L
1068 4414 mt 1068 4414 L
1068 4414 mt 1068 4414 L
1068 4414 mt 1068 4414 L
1068 4414 mt 1068 4414 L
1068 4414 mt 1068 4414 L
1068 4414 mt 1068 4414 L
1068 4414 mt 1068 4414 L
1068 4414 mt 1068 4414 L
1068 4414 mt 1068 4414 L
1068 4414 mt 1068 4414 L
1068 3152 mt 1084 3152 L
2498 3152 mt 2481 3152 L
%%IncludeResource: font Helvetica
/Helvetica /ISOLatin1Encoding 120 FMSR

 765 3196 mt 
(10) s
%%IncludeResource: font Helvetica
/Helvetica /ISOLatin1Encoding 80 FMSR

 898 3122 mt 
(-10) s
1068 4414 mt 1068 4414 L
1068 4414 mt 1068 4414 L
1068 4414 mt 1068 4414 L
1068 4414 mt 1068 4414 L
1068 4414 mt 1068 4414 L
1068 4414 mt 1068 4414 L
1068 4414 mt 1068 4414 L
1068 4414 mt 1068 4414 L
1068 4414 mt 1068 4414 L
1068 4414 mt 1068 4414 L
1068 4414 mt 1068 4414 L
1068 4414 mt 1068 4414 L
1068 4414 mt 1068 4414 L
1068 4414 mt 1068 4414 L
1068 4414 mt 1068 4414 L
1068 4414 mt 1068 4414 L
1068 4414 mt 1068 4414 L
1068 4414 mt 1068 4414 L
1068 4414 mt 2498 4414 L
1068 2722 mt 2498 2722 L
1068 4414 mt 1068 2722 L
2498 4414 mt 2498 2722 L
gs 1068 2722 1431 1693 rc
DA
c8
694 -288 346 -283 174 -279 86 -272 44 -208 21 -76 11 -30 11 -37 
11 -49 11 -68 11 -97 1078 4409 12 MP stroke
SO
694 -430 346 -264 174 -104 86 -112 44 -264 21 -123 11 -21 11 -27 
11 -39 11 -73 11 -187 1078 4414 12 MP stroke
gr

c8
0 sg
%%IncludeResource: font Helvetica
/Helvetica /ISOLatin1Encoding 120 FMSR

1765 4702 mt 
(t) s
 683 3740 mt  -90 rotate
(error x) s
90 rotate
1 sg
0 1692 1430 0 0 -1692 3111 4414 4 MP
PP
-1430 0 0 1692 1430 0 0 -1692 3111 4414 5 MP stroke
4 w
DO
SO
6 w
0 sg
3111 4414 mt 4541 4414 L
3111 2722 mt 4541 2722 L
3111 4414 mt 3111 2722 L
4541 4414 mt 4541 2722 L
3111 4414 mt 4541 4414 L
3111 4414 mt 3111 2722 L
3111 4414 mt 3111 4397 L
3111 2722 mt 3111 2738 L
3078 4559 mt 
(0) s
3652 4414 mt 3652 4397 L
3652 2722 mt 3652 2738 L
3536 4559 mt 
(0.05) s
4194 4414 mt 4194 4397 L
4194 2722 mt 4194 2738 L
4111 4559 mt 
(0.1) s
3111 4414 mt 3111 4414 L
3111 4414 mt 3111 4414 L
3111 4414 mt 3111 4414 L
3111 4414 mt 3111 4414 L
3111 4414 mt 3111 4414 L
3111 4414 mt 3111 4414 L
3111 4414 mt 3111 4414 L
3111 4414 mt 3111 4414 L
3111 4414 mt 3111 4414 L
3111 4414 mt 3111 4414 L
3111 4414 mt 3111 4414 L
3111 4414 mt 3111 4414 L
3111 4414 mt 3111 4414 L
3111 4414 mt 3111 4414 L
3111 4414 mt 3111 4414 L
3111 4414 mt 3111 4414 L
3111 4414 mt 3111 4414 L
3111 4414 mt 3111 4414 L
3111 3956 mt 3127 3956 L
4541 3956 mt 4524 3956 L
2808 4000 mt 
(10) s
%%IncludeResource: font Helvetica
/Helvetica /ISOLatin1Encoding 80 FMSR

2941 3926 mt 
(-14) s
3111 4414 mt 3111 4414 L
3111 4414 mt 3111 4414 L
3111 4414 mt 3111 4414 L
3111 4414 mt 3111 4414 L
3111 4414 mt 3111 4414 L
3111 4414 mt 3111 4414 L
3111 4414 mt 3111 4414 L
3111 4414 mt 3111 4414 L
3111 4414 mt 3111 4414 L
3111 4414 mt 3111 4414 L
3111 4414 mt 3111 4414 L
3111 4414 mt 3111 4414 L
3111 4414 mt 3111 4414 L
3111 4414 mt 3111 4414 L
3111 4414 mt 3111 4414 L
3111 4414 mt 3111 4414 L
3111 4414 mt 3111 4414 L
3111 4414 mt 3111 4414 L
3111 3487 mt 3127 3487 L
4541 3487 mt 4524 3487 L
%%IncludeResource: font Helvetica
/Helvetica /ISOLatin1Encoding 120 FMSR

2808 3531 mt 
(10) s
%%IncludeResource: font Helvetica
/Helvetica /ISOLatin1Encoding 80 FMSR

2941 3457 mt 
(-12) s
3111 4414 mt 3111 4414 L
3111 4414 mt 3111 4414 L
3111 4414 mt 3111 4414 L
3111 4414 mt 3111 4414 L
3111 4414 mt 3111 4414 L
3111 4414 mt 3111 4414 L
3111 4414 mt 3111 4414 L
3111 4414 mt 3111 4414 L
3111 4414 mt 3111 4414 L
3111 4414 mt 3111 4414 L
3111 4414 mt 3111 4414 L
3111 4414 mt 3111 4414 L
3111 4414 mt 3111 4414 L
3111 4414 mt 3111 4414 L
3111 4414 mt 3111 4414 L
3111 4414 mt 3111 4414 L
3111 4414 mt 3111 4414 L
3111 4414 mt 3111 4414 L
3111 3019 mt 3127 3019 L
4541 3019 mt 4524 3019 L
%%IncludeResource: font Helvetica
/Helvetica /ISOLatin1Encoding 120 FMSR

2808 3063 mt 
(10) s
%%IncludeResource: font Helvetica
/Helvetica /ISOLatin1Encoding 80 FMSR

2941 2989 mt 
(-10) s
3111 4414 mt 3111 4414 L
3111 4414 mt 3111 4414 L
3111 4414 mt 3111 4414 L
3111 4414 mt 3111 4414 L
3111 4414 mt 3111 4414 L
3111 4414 mt 3111 4414 L
3111 4414 mt 3111 4414 L
3111 4414 mt 3111 4414 L
3111 4414 mt 3111 4414 L
3111 4414 mt 3111 4414 L
3111 4414 mt 3111 4414 L
3111 4414 mt 3111 4414 L
3111 4414 mt 3111 4414 L
3111 4414 mt 3111 4414 L
3111 4414 mt 3111 4414 L
3111 4414 mt 3111 4414 L
3111 4414 mt 3111 4414 L
3111 4414 mt 3111 4414 L
3111 4414 mt 4541 4414 L
3111 2722 mt 4541 2722 L
3111 4414 mt 3111 2722 L
4541 4414 mt 4541 2722 L
gs 3111 2722 1431 1693 rc
DA
c8
694 -469 346 -433 174 -387 86 -244 44 -71 3197 4414 6 MP stroke
SO
694 -621 346 -388 174 -195 86 724 44 -282 21 -282 11 0 11 0 
11 0 11 0 11 0 3121 3766 12 MP stroke
gr

c8
0 sg
%%IncludeResource: font Helvetica
/Helvetica /ISOLatin1Encoding 120 FMSR

3808 4702 mt 
(t) s
2726 3740 mt  -90 rotate
(error y) s
90 rotate
1 sg
0 1692 1362 0 0 -1692 5222 4414 4 MP
PP
-1362 0 0 1692 1362 0 0 -1692 5222 4414 5 MP stroke
4 w
DO
SO
6 w
0 sg
5222 4414 mt 6584 4414 L
5222 2722 mt 6584 2722 L
5222 4414 mt 5222 2722 L
6584 4414 mt 6584 2722 L
5222 4414 mt 6584 4414 L
5222 4414 mt 5222 2722 L
5222 4414 mt 5222 4397 L
5222 2722 mt 5222 2738 L
5189 4559 mt 
(0) s
5737 4414 mt 5737 4397 L
5737 2722 mt 5737 2738 L
5621 4559 mt 
(0.05) s
6253 4414 mt 6253 4397 L
6253 2722 mt 6253 2738 L
6170 4559 mt 
(0.1) s
5222 4414 mt 5222 4414 L
5222 4414 mt 5222 4414 L
5222 4414 mt 5222 4414 L
5222 4414 mt 5222 4414 L
5222 4414 mt 5222 4414 L
5222 4414 mt 5222 4414 L
5222 4414 mt 5222 4414 L
5222 4414 mt 5222 4414 L
5222 4414 mt 5222 4414 L
5222 4414 mt 5222 4414 L
5222 4414 mt 5222 4414 L
5222 4414 mt 5222 4414 L
5222 4414 mt 5222 4414 L
5222 4414 mt 5222 4414 L
5222 4414 mt 5222 4414 L
5222 4414 mt 5222 4414 L
5222 4414 mt 5222 4414 L
5222 4414 mt 5222 4414 L
5222 3942 mt 5238 3942 L
6584 3942 mt 6567 3942 L
4963 3986 mt 
(10) s
%%IncludeResource: font Helvetica
/Helvetica /ISOLatin1Encoding 80 FMSR

5096 3912 mt 
(-6) s
5222 4414 mt 5222 4414 L
5222 4414 mt 5222 4414 L
5222 4414 mt 5222 4414 L
5222 4414 mt 5222 4414 L
5222 4414 mt 5222 4414 L
5222 4414 mt 5222 4414 L
5222 4414 mt 5222 4414 L
5222 4414 mt 5222 4414 L
5222 4414 mt 5222 4414 L
5222 4414 mt 5222 4414 L
5222 4414 mt 5222 4414 L
5222 4414 mt 5222 4414 L
5222 4414 mt 5222 4414 L
5222 4414 mt 5222 4414 L
5222 4414 mt 5222 4414 L
5222 4414 mt 5222 4414 L
5222 4414 mt 5222 4414 L
5222 4414 mt 5222 4414 L
5222 3009 mt 5238 3009 L
6584 3009 mt 6567 3009 L
%%IncludeResource: font Helvetica
/Helvetica /ISOLatin1Encoding 120 FMSR

4963 3053 mt 
(10) s
%%IncludeResource: font Helvetica
/Helvetica /ISOLatin1Encoding 80 FMSR

5096 2979 mt 
(-4) s
5222 4414 mt 5222 4414 L
5222 4414 mt 5222 4414 L
5222 4414 mt 5222 4414 L
5222 4414 mt 5222 4414 L
5222 4414 mt 5222 4414 L
5222 4414 mt 5222 4414 L
5222 4414 mt 5222 4414 L
5222 4414 mt 5222 4414 L
5222 4414 mt 5222 4414 L
5222 4414 mt 5222 4414 L
5222 4414 mt 5222 4414 L
5222 4414 mt 5222 4414 L
5222 4414 mt 5222 4414 L
5222 4414 mt 5222 4414 L
5222 4414 mt 5222 4414 L
5222 4414 mt 5222 4414 L
5222 4414 mt 5222 4414 L
5222 4414 mt 5222 4414 L
5222 4414 mt 6584 4414 L
5222 2722 mt 6584 2722 L
5222 4414 mt 5222 2722 L
6584 4414 mt 6584 2722 L
gs 5222 2722 1363 1693 rc
DA
c8
661 -281 330 -280 165 -281 83 -281 41 -281 21 -238 10 2 10 -1 
11 -2 10 2 10 -51 5232 4414 12 MP stroke
SO
661 -280 330 -283 165 -438 83 -21 41 -262 21 37 10 0 10 0 
11 0 10 -32 10 -379 5232 4380 12 MP stroke
gr

c8
0 sg
%%IncludeResource: font Helvetica
/Helvetica /ISOLatin1Encoding 120 FMSR

5885 4702 mt 
(t) s
4873 3743 mt  -90 rotate
(error ) s
90 rotate
%%IncludeResource: font Symbol
/Symbol /ISOLatin1Encoding 120 FMSR

4873 3457 mt  -90 rotate
(l) s
90 rotate
1 sg
0 400 1230 0 0 -400 6049 2660 4 MP
PP
-1230 0 0 400 1230 0 0 -400 6049 2660 5 MP stroke
4 w
DO
SO
6 w
0 sg
6049 2660 mt 7279 2660 L
6049 2260 mt 7279 2260 L
6049 2660 mt 6049 2260 L
7279 2660 mt 7279 2260 L
6049 2660 mt 7279 2660 L
6049 2660 mt 6049 2260 L
6049 2660 mt 7279 2660 L
6049 2260 mt 7279 2260 L
6049 2660 mt 6049 2260 L
7279 2660 mt 7279 2260 L
%%IncludeResource: font Helvetica
/Helvetica /ISOLatin1Encoding 120 FMSR

6517 2413 mt 
(second order) s
gs 6049 2260 1226 401 rc
DA
c8
360 0 6120 2370 2 MP stroke
SO
gr

c8
0 sg
6517 2592 mt 
(first order) s
gs 6049 2260 1226 401 rc
c8
360 0 6120 2549 2 MP stroke
gr

c8

end %%Color Dict

eplot
%%EndObject

epage
end

showpage

%%Trailer
%%EOF
