%!PS-Adobe-3.0 EPSF-3.0
%%Creator: MATLAB, The Mathworks, Inc.
%%Title: /homes/numerik/wunder/program/sources/Exp1_GLM12_const.eps
%%CreationDate: 08/18/2005  13:17:18
%%DocumentNeededFonts: Helvetica
%%DocumentProcessColors: Cyan Magenta Yellow Black
%%LanguageLevel: 2
%%Pages: 1
%%BoundingBox:    10   196   599   595
%%EndComments

%%BeginProlog
% MathWorks dictionary
/MathWorks 160 dict begin
% definition operators
/bdef {bind def} bind def
/ldef {load def} bind def
/xdef {exch def} bdef
/xstore {exch store} bdef
% operator abbreviations
/c  /clip ldef
/cc /concat ldef
/cp /closepath ldef
/gr /grestore ldef
/gs /gsave ldef
/mt /moveto ldef
/np /newpath ldef
/cm /currentmatrix ldef
/sm /setmatrix ldef
/rm /rmoveto ldef
/rl /rlineto ldef
/s {show newpath} bdef
/sc {setcmykcolor} bdef
/sr /setrgbcolor ldef
/sg /setgray ldef
/w /setlinewidth ldef
/j /setlinejoin ldef
/cap /setlinecap ldef
/rc {rectclip} bdef
/rf {rectfill} bdef
% page state control
/pgsv () def
/bpage {/pgsv save def} bdef
/epage {pgsv restore} bdef
/bplot /gsave ldef
/eplot {stroke grestore} bdef
% orientation switch
/portraitMode 0 def /landscapeMode 1 def /rotateMode 2 def
% coordinate system mappings
/dpi2point 0 def
% font control
/FontSize 0 def
/FMS {/FontSize xstore findfont [FontSize 0 0 FontSize neg 0 0]
  makefont setfont} bdef
/reencode {exch dup where {pop load} {pop StandardEncoding} ifelse
  exch dup 3 1 roll findfont dup length dict begin
  { 1 index /FID ne {def}{pop pop} ifelse } forall
  /Encoding exch def currentdict end definefont pop} bdef
/isroman {findfont /CharStrings get /Agrave known} bdef
/FMSR {3 1 roll 1 index dup isroman {reencode} {pop pop} ifelse
  exch FMS} bdef
/csm {1 dpi2point div -1 dpi2point div scale neg translate
 dup landscapeMode eq {pop -90 rotate}
  {rotateMode eq {90 rotate} if} ifelse} bdef
% line types: solid, dotted, dashed, dotdash
/SO { [] 0 setdash } bdef
/DO { [.5 dpi2point mul 4 dpi2point mul] 0 setdash } bdef
/DA { [6 dpi2point mul] 0 setdash } bdef
/DD { [.5 dpi2point mul 4 dpi2point mul 6 dpi2point mul 4
  dpi2point mul] 0 setdash } bdef
% macros for lines and objects
/L {lineto stroke} bdef
/MP {3 1 roll moveto 1 sub {rlineto} repeat} bdef
/AP {{rlineto} repeat} bdef
/PDlw -1 def
/W {/PDlw currentlinewidth def setlinewidth} def
/PP {closepath eofill} bdef
/DP {closepath stroke} bdef
/MR {4 -2 roll moveto dup  0 exch rlineto exch 0 rlineto
  neg 0 exch rlineto closepath} bdef
/FR {MR stroke} bdef
/PR {MR fill} bdef
/L1i {{currentfile picstr readhexstring pop} image} bdef
/tMatrix matrix def
/MakeOval {newpath tMatrix currentmatrix pop translate scale
0 0 1 0 360 arc tMatrix setmatrix} bdef
/FO {MakeOval stroke} bdef
/PO {MakeOval fill} bdef
/PD {currentlinewidth 2 div 0 360 arc fill
   PDlw -1 eq not {PDlw w /PDlw -1 def} if} def
/FA {newpath tMatrix currentmatrix pop translate scale
  0 0 1 5 -2 roll arc tMatrix setmatrix stroke} bdef
/PA {newpath tMatrix currentmatrix pop	translate 0 0 moveto scale
  0 0 1 5 -2 roll arc closepath tMatrix setmatrix fill} bdef
/FAn {newpath tMatrix currentmatrix pop translate scale
  0 0 1 5 -2 roll arcn tMatrix setmatrix stroke} bdef
/PAn {newpath tMatrix currentmatrix pop translate 0 0 moveto scale
  0 0 1 5 -2 roll arcn closepath tMatrix setmatrix fill} bdef
/vradius 0 def /hradius 0 def /lry 0 def
/lrx 0 def /uly 0 def /ulx 0 def /rad 0 def
/MRR {/vradius xdef /hradius xdef /lry xdef /lrx xdef /uly xdef
  /ulx xdef newpath tMatrix currentmatrix pop ulx hradius add uly
  vradius add translate hradius vradius scale 0 0 1 180 270 arc 
  tMatrix setmatrix lrx hradius sub uly vradius add translate
  hradius vradius scale 0 0 1 270 360 arc tMatrix setmatrix
  lrx hradius sub lry vradius sub translate hradius vradius scale
  0 0 1 0 90 arc tMatrix setmatrix ulx hradius add lry vradius sub
  translate hradius vradius scale 0 0 1 90 180 arc tMatrix setmatrix
  closepath} bdef
/FRR {MRR stroke } bdef
/PRR {MRR fill } bdef
/MlrRR {/lry xdef /lrx xdef /uly xdef /ulx xdef /rad lry uly sub 2 div def
  newpath tMatrix currentmatrix pop ulx rad add uly rad add translate
  rad rad scale 0 0 1 90 270 arc tMatrix setmatrix lrx rad sub lry rad
  sub translate rad rad scale 0 0 1 270 90 arc tMatrix setmatrix
  closepath} bdef
/FlrRR {MlrRR stroke } bdef
/PlrRR {MlrRR fill } bdef
/MtbRR {/lry xdef /lrx xdef /uly xdef /ulx xdef /rad lrx ulx sub 2 div def
  newpath tMatrix currentmatrix pop ulx rad add uly rad add translate
  rad rad scale 0 0 1 180 360 arc tMatrix setmatrix lrx rad sub lry rad
  sub translate rad rad scale 0 0 1 0 180 arc tMatrix setmatrix
  closepath} bdef
/FtbRR {MtbRR stroke } bdef
/PtbRR {MtbRR fill } bdef
/stri 6 array def /dtri 6 array def
/smat 6 array def /dmat 6 array def
/tmat1 6 array def /tmat2 6 array def /dif 3 array def
/asub {/ind2 exch def /ind1 exch def dup dup
  ind1 get exch ind2 get sub exch } bdef
/tri_to_matrix {
  2 0 asub 3 1 asub 4 0 asub 5 1 asub
  dup 0 get exch 1 get 7 -1 roll astore } bdef
/compute_transform {
  dmat dtri tri_to_matrix tmat1 invertmatrix 
  smat stri tri_to_matrix tmat2 concatmatrix } bdef
/ds {stri astore pop} bdef
/dt {dtri astore pop} bdef
/db {2 copy /cols xdef /rows xdef mul dup 3 mul string
  currentfile 
  3 index 0 eq {/ASCIIHexDecode filter}
  {/ASCII85Decode filter 3 index 2 eq {/RunLengthDecode filter} if }
  ifelse exch readstring pop
  dup 0 3 index getinterval /rbmap xdef
  dup 2 index dup getinterval /gbmap xdef
  1 index dup 2 mul exch getinterval /bbmap xdef pop pop}bdef
/it {gs np dtri aload pop moveto lineto lineto cp c
  cols rows 8 compute_transform 
  rbmap gbmap bbmap true 3 colorimage gr}bdef
/il {newpath moveto lineto stroke}bdef
currentdict end def
%%EndProlog

%%BeginSetup
MathWorks begin

0 cap

end
%%EndSetup

%%Page: 1 1
%%BeginPageSetup
%%PageBoundingBox:    10   196   599   595
MathWorks begin
bpage
%%EndPageSetup

%%BeginObject: obj1
bplot

/dpi2point 12 def
portraitMode 0120 7140 csm

    0     0  7079  4787 rc
86 dict begin %Colortable dictionary
/c0 { 0.000000 0.000000 0.000000 sr} bdef
/c1 { 1.000000 1.000000 1.000000 sr} bdef
/c2 { 0.900000 0.000000 0.000000 sr} bdef
/c3 { 0.000000 0.820000 0.000000 sr} bdef
/c4 { 0.000000 0.000000 0.800000 sr} bdef
/c5 { 0.910000 0.820000 0.320000 sr} bdef
/c6 { 1.000000 0.260000 0.820000 sr} bdef
/c7 { 0.000000 0.820000 0.820000 sr} bdef
c0
1 j
1 sg
   0    0 7080 4788 rf
6 w
0 1633 1373 0 0 -1633 1054 1992 4 MP
PP
-1373 0 0 1633 1373 0 0 -1633 1054 1992 5 MP stroke
4 w
DO
SO
6 w
0 sg
1054 1992 mt 2427 1992 L
1054  359 mt 2427  359 L
1054 1992 mt 1054  359 L
2427 1992 mt 2427  359 L
1054 1992 mt 2427 1992 L
1054 1992 mt 1054  359 L
1054 1992 mt 1054 1975 L
1054  359 mt 1054  375 L
%%IncludeResource: font Helvetica
/Helvetica /ISOLatin1Encoding 120 FMSR

1021 2137 mt 
(0) s
1740 1992 mt 1740 1975 L
1740  359 mt 1740  375 L
1624 2137 mt 
(0.05) s
2426 1992 mt 2426 1975 L
2426  359 mt 2426  375 L
2343 2137 mt 
(0.1) s
1054 1992 mt 1070 1992 L
2427 1992 mt 2410 1992 L
 953 2036 mt 
(0) s
1054 1664 mt 1070 1664 L
2427 1664 mt 2410 1664 L
 786 1708 mt 
(0.02) s
1054 1337 mt 1070 1337 L
2427 1337 mt 2410 1337 L
 786 1381 mt 
(0.04) s
1054 1010 mt 1070 1010 L
2427 1010 mt 2410 1010 L
 786 1054 mt 
(0.06) s
1054  683 mt 1070  683 L
2427  683 mt 2410  683 L
 786  727 mt 
(0.08) s
1054 1992 mt 2427 1992 L
1054  359 mt 2427  359 L
1054 1992 mt 1054  359 L
2427 1992 mt 2427  359 L
gs 1054 359 1374 1634 rc
DA
/c8 { 0.000000 0.000000 1.000000 sr} bdef
c8
14 -16 14 -16 14 -16 13 -17 14 -16 14 -16 14 -17 13 -16 
14 -16 14 -16 14 -17 13 -16 14 -16 14 -17 13 -16 14 -16 
14 -16 14 -17 13 -16 14 -16 14 -17 14 -16 13 -16 14 -17 
14 -16 13 -16 14 -17 14 -16 14 -16 13 -16 14 -17 14 -16 
14 -16 13 -17 14 -16 14 -16 14 -17 13 -16 14 -16 14 -17 
13 -16 14 -16 14 -17 14 -16 13 -16 14 -17 14 -16 14 -16 
13 -17 14 -16 14 -16 13 -17 14 -16 14 -16 14 -17 13 -16 
14 -16 14 -17 14 -16 13 -16 14 -17 14 -16 13 -16 14 -17 
14 -16 14 -16 13 -17 14 -16 14 -17 14 -16 13 -16 14 -17 
14 -16 14 -16 13 -17 14 -16 14 -16 13 -17 14 -16 14 -16 
14 -17 13 -16 14 -16 14 -17 14 -16 13 -17 14 -16 14 -16 
13 -17 14 -16 14 -16 14 -17 13 -16 14 -16 14 -17 14 -16 
13 -16 14 -17 14 -16 13 -17 1054 1992 101 MP stroke
SO
14 -16 14 -16 14 -16 13 -17 14 -16 14 -16 14 -16 13 -17 
14 -16 14 -16 14 -17 13 -16 14 -16 14 -17 13 -16 14 -16 
14 -16 14 -17 13 -16 14 -16 14 -17 14 -16 13 -16 14 -17 
14 -16 13 -16 14 -16 14 -17 14 -16 13 -16 14 -17 14 -16 
14 -16 13 -17 14 -16 14 -16 14 -17 13 -16 14 -16 14 -17 
13 -16 14 -16 14 -17 14 -16 13 -16 14 -17 14 -16 14 -16 
13 -17 14 -16 14 -16 13 -17 14 -16 14 -16 14 -17 13 -16 
14 -16 14 -17 14 -16 13 -16 14 -17 14 -16 13 -16 14 -17 
14 -16 14 -16 13 -17 14 -16 14 -17 14 -16 13 -16 14 -17 
14 -16 14 -16 13 -17 14 -16 14 -16 13 -17 14 -16 14 -16 
14 -17 13 -16 14 -16 14 -17 14 -16 13 -17 14 -16 14 -16 
13 -17 14 -16 14 -16 14 -17 13 -16 14 -16 14 -17 14 -16 
13 -16 14 -17 14 -16 13 -17 1054 1992 101 MP stroke
gr

c8
0 sg
1722 2280 mt 
(t) s
 704 1206 mt  -90 rotate
(x) s
90 rotate
1 sg
0 1633 1374 0 0 -1633 3041 1992 4 MP
PP
-1374 0 0 1633 1374 0 0 -1633 3041 1992 5 MP stroke
4 w
DO
SO
6 w
0 sg
3041 1992 mt 4415 1992 L
3041  359 mt 4415  359 L
3041 1992 mt 3041  359 L
4415 1992 mt 4415  359 L
3041 1992 mt 4415 1992 L
3041 1992 mt 3041  359 L
3041 1992 mt 3041 1975 L
3041  359 mt 3041  375 L
3008 2137 mt 
(0) s
3727 1992 mt 3727 1975 L
3727  359 mt 3727  375 L
3611 2137 mt 
(0.05) s
4414 1992 mt 4414 1975 L
4414  359 mt 4414  375 L
4331 2137 mt 
(0.1) s
3041 1666 mt 3057 1666 L
4415 1666 mt 4398 1666 L
2706 1710 mt 
(0.996) s
3041 1339 mt 3057 1339 L
4415 1339 mt 4398 1339 L
2706 1383 mt 
(0.997) s
3041 1012 mt 3057 1012 L
4415 1012 mt 4398 1012 L
2706 1056 mt 
(0.998) s
3041  685 mt 3057  685 L
4415  685 mt 4398  685 L
2706  729 mt 
(0.999) s
3041  359 mt 3057  359 L
4415  359 mt 4398  359 L
2940  403 mt 
(1) s
3041 1992 mt 4415 1992 L
3041  359 mt 4415  359 L
3041 1992 mt 3041  359 L
4415 1992 mt 4415  359 L
gs 3041 359 1375 1634 rc
DA
c8
14 32 14 32 14 32 13 32 14 31 14 31 14 30 13 30 
14 30 14 30 14 29 13 29 14 28 14 29 14 27 13 28 
14 27 14 27 14 27 13 26 14 26 14 26 14 25 13 25 
14 25 14 24 13 24 14 24 14 23 14 23 13 23 14 22 
14 22 14 22 13 21 14 21 14 21 14 20 13 21 14 19 
14 20 14 19 13 19 14 18 14 18 14 18 13 18 14 17 
14 17 13 16 14 16 14 16 14 16 13 15 14 15 14 14 
14 14 13 14 14 14 14 13 14 13 13 13 14 12 14 12 
14 11 13 12 14 11 14 10 14 10 13 10 14 10 14 9 
14 9 13 9 14 8 14 8 13 8 14 7 14 7 14 7 
13 7 14 6 14 5 14 6 13 5 14 4 14 5 14 4 
13 4 14 3 14 3 14 3 13 2 14 3 14 1 14 2 
13 1 14 1 14 0 13 0 3041 359 101 MP stroke
SO
14 33 14 32 14 32 13 31 14 32 14 30 14 31 13 30 
14 30 14 30 14 29 13 29 14 28 14 28 14 28 13 28 
14 27 14 27 14 27 13 26 14 26 14 26 14 25 13 25 
14 25 14 24 13 24 14 24 14 23 14 23 13 23 14 22 
14 22 14 22 13 21 14 21 14 21 14 20 13 21 14 19 
14 20 14 19 13 19 14 18 14 18 14 18 13 18 14 17 
14 16 13 17 14 16 14 16 14 16 13 15 14 15 14 14 
14 14 13 14 14 14 14 13 14 13 13 13 14 12 14 12 
14 11 13 12 14 11 14 10 14 10 13 10 14 10 14 9 
14 9 13 9 14 8 14 8 13 8 14 7 14 7 14 7 
13 7 14 6 14 5 14 6 13 5 14 4 14 5 14 4 
13 4 14 3 14 3 14 3 13 2 14 3 14 1 14 2 
13 1 14 1 14 0 13 0 3041 359 101 MP stroke
gr

c8
0 sg
3710 2280 mt 
(t) s
2624 1206 mt  -90 rotate
(y) s
90 rotate
1 sg
0 1634 1374 0 0 -1634 5029 1992 4 MP
PP
-1374 0 0 1634 1374 0 0 -1634 5029 1992 5 MP stroke
4 w
DO
SO
6 w
0 sg
5029 1992 mt 6403 1992 L
5029  358 mt 6403  358 L
5029 1992 mt 5029  358 L
6403 1992 mt 6403  358 L
5029 1992 mt 6403 1992 L
5029 1992 mt 5029  358 L
5029 1992 mt 5029 1975 L
5029  359 mt 5029  375 L
4996 2137 mt 
(0) s
5716 1992 mt 5716 1975 L
5716  359 mt 5716  375 L
5600 2137 mt 
(0.05) s
6402 1992 mt 6402 1975 L
6402  359 mt 6402  375 L
6319 2137 mt 
(0.1) s
5029 1992 mt 5045 1992 L
6403 1992 mt 6386 1992 L
4928 2036 mt 
(0) s
5029 1663 mt 5045 1663 L
6403 1663 mt 6386 1663 L
4761 1707 mt 
(0.02) s
5029 1334 mt 5045 1334 L
6403 1334 mt 6386 1334 L
4761 1378 mt 
(0.04) s
5029 1005 mt 5045 1005 L
6403 1005 mt 6386 1005 L
4761 1049 mt 
(0.06) s
5029  676 mt 5045  676 L
6403  676 mt 6386  676 L
4761  720 mt 
(0.08) s
5029 1992 mt 6403 1992 L
5029  358 mt 6403  358 L
5029 1992 mt 5029  358 L
6403 1992 mt 6403  358 L
gs 5029 359 1375 1634 rc
DA
c8
14 -16 14 -17 14 -16 13 -16 14 -16 14 -16 14 -16 13 -16 
14 -16 14 -17 14 -16 13 -16 14 -16 14 -16 14 -17 13 -16 
14 -16 14 -16 14 -16 13 -17 14 -16 14 -16 14 -16 13 -17 
14 -16 14 -16 13 -16 14 -17 14 -16 14 -16 13 -16 14 -17 
14 -16 14 -16 13 -16 14 -17 14 -16 14 -16 13 -17 14 -16 
14 -16 14 -17 13 -16 14 -16 14 -17 14 -16 13 -16 14 -17 
14 -16 13 -16 14 -17 14 -16 14 -16 13 -17 14 -16 14 -16 
14 -17 13 -16 14 -17 14 -16 14 -16 13 -17 14 -16 14 -16 
14 -17 13 -16 14 -17 14 -16 14 -16 13 -17 14 -16 14 -17 
14 -16 13 -16 14 -17 14 -16 13 -17 14 -16 14 -17 14 -16 
13 -16 14 -17 14 -16 14 -17 13 -16 14 -16 14 -17 14 -16 
13 -17 14 -16 14 -17 14 -16 13 -16 14 -17 14 -16 14 -17 
13 -16 14 -17 14 -16 13 -17 5029 1992 101 MP stroke
SO
14 -16 14 -16 14 -16 13 -16 14 -16 14 -16 14 -16 13 -17 
14 -16 14 -16 14 -16 13 -16 14 -16 14 -17 14 -16 13 -16 
14 -16 14 -17 14 -16 13 -16 14 -16 14 -16 14 -17 13 -16 
14 -16 14 -16 13 -17 14 -16 14 -16 14 -16 13 -17 14 -16 
14 -16 14 -17 13 -16 14 -16 14 -17 14 -16 13 -16 14 -17 
14 -16 14 -16 13 -16 14 -17 14 -16 14 -16 13 -17 14 -16 
14 -17 13 -16 14 -16 14 -17 14 -16 13 -16 14 -17 14 -16 
14 -16 13 -17 14 -16 14 -17 14 -16 13 -16 14 -17 14 -16 
14 -17 13 -16 14 -16 14 -17 14 -16 13 -17 14 -16 14 -16 
14 -17 13 -16 14 -17 14 -16 13 -17 14 -16 14 -16 14 -17 
13 -16 14 -17 14 -16 14 -17 13 -16 14 -16 14 -17 14 -16 
13 -17 14 -16 14 -17 14 -16 13 -16 14 -17 14 -16 14 -17 
13 -16 14 672 14 672 13 -1394 5029 1992 101 MP stroke
gr

c8
0 sg
5698 2280 mt 
(t) s
%%IncludeResource: font Symbol
/Symbol /ISOLatin1Encoding 120 FMSR

4671 1209 mt  -90 rotate
(l) s
90 rotate
1 sg
0 1633 1373 0 0 -1633 1054 4260 4 MP
PP
-1373 0 0 1633 1373 0 0 -1633 1054 4260 5 MP stroke
4 w
DO
SO
6 w
0 sg
1054 4260 mt 2427 4260 L
1054 2627 mt 2427 2627 L
1054 4260 mt 1054 2627 L
2427 4260 mt 2427 2627 L
1054 4260 mt 2427 4260 L
1054 4260 mt 1054 2627 L
1054 4260 mt 1054 4243 L
1054 2627 mt 1054 2643 L
%%IncludeResource: font Helvetica
/Helvetica /ISOLatin1Encoding 120 FMSR

1021 4405 mt 
(0) s
1740 4260 mt 1740 4243 L
1740 2627 mt 1740 2643 L
1624 4405 mt 
(0.05) s
2426 4260 mt 2426 4243 L
2426 2627 mt 2426 2643 L
2343 4405 mt 
(0.1) s
1054 4260 mt 1054 4260 L
1054 4260 mt 1054 4260 L
1054 4260 mt 1054 4260 L
1054 4260 mt 1054 4260 L
1054 4260 mt 1054 4260 L
1054 4260 mt 1054 4260 L
1054 4260 mt 1054 4260 L
1054 4260 mt 1054 4260 L
1054 4260 mt 1054 4260 L
1054 4260 mt 1054 4260 L
1054 4260 mt 1054 4260 L
1054 4260 mt 1054 4260 L
1054 4260 mt 1054 4260 L
1054 4260 mt 1054 4260 L
1054 4260 mt 1054 4260 L
1054 4260 mt 1054 4260 L
1054 4260 mt 1054 4260 L
1054 4260 mt 1054 4260 L
1054 3843 mt 1070 3843 L
2427 3843 mt 2410 3843 L
 751 3887 mt 
(10) s
%%IncludeResource: font Helvetica
/Helvetica /ISOLatin1Encoding 80 FMSR

 884 3813 mt 
(-10) s
1054 4260 mt 1054 4260 L
1054 4260 mt 1054 4260 L
1054 4260 mt 1054 4260 L
1054 4260 mt 1054 4260 L
1054 4260 mt 1054 4260 L
1054 4260 mt 1054 4260 L
1054 4260 mt 1054 4260 L
1054 4260 mt 1054 4260 L
1054 4260 mt 1054 4260 L
1054 4260 mt 1054 4260 L
1054 4260 mt 1054 4260 L
1054 4260 mt 1054 4260 L
1054 4260 mt 1054 4260 L
1054 4260 mt 1054 4260 L
1054 4260 mt 1054 4260 L
1054 4260 mt 1054 4260 L
1054 4260 mt 1054 4260 L
1054 4260 mt 1054 4260 L
1054 3321 mt 1070 3321 L
2427 3321 mt 2410 3321 L
%%IncludeResource: font Helvetica
/Helvetica /ISOLatin1Encoding 120 FMSR

 751 3365 mt 
(10) s
%%IncludeResource: font Helvetica
/Helvetica /ISOLatin1Encoding 80 FMSR

 884 3291 mt 
(-8) s
1054 4260 mt 1054 4260 L
1054 4260 mt 1054 4260 L
1054 4260 mt 1054 4260 L
1054 4260 mt 1054 4260 L
1054 4260 mt 1054 4260 L
1054 4260 mt 1054 4260 L
1054 4260 mt 1054 4260 L
1054 4260 mt 1054 4260 L
1054 4260 mt 1054 4260 L
1054 4260 mt 1054 4260 L
1054 4260 mt 1054 4260 L
1054 4260 mt 1054 4260 L
1054 4260 mt 1054 4260 L
1054 4260 mt 1054 4260 L
1054 4260 mt 1054 4260 L
1054 4260 mt 1054 4260 L
1054 4260 mt 1054 4260 L
1054 4260 mt 1054 4260 L
1054 2799 mt 1070 2799 L
2427 2799 mt 2410 2799 L
%%IncludeResource: font Helvetica
/Helvetica /ISOLatin1Encoding 120 FMSR

 751 2843 mt 
(10) s
%%IncludeResource: font Helvetica
/Helvetica /ISOLatin1Encoding 80 FMSR

 884 2769 mt 
(-6) s
1054 4260 mt 1054 4260 L
1054 4260 mt 1054 4260 L
1054 4260 mt 1054 4260 L
1054 4260 mt 1054 4260 L
1054 4260 mt 1054 4260 L
1054 4260 mt 1054 4260 L
1054 4260 mt 1054 4260 L
1054 4260 mt 1054 4260 L
1054 4260 mt 1054 4260 L
1054 4260 mt 1054 4260 L
1054 4260 mt 1054 4260 L
1054 4260 mt 1054 4260 L
1054 4260 mt 1054 4260 L
1054 4260 mt 1054 4260 L
1054 4260 mt 1054 4260 L
1054 4260 mt 1054 4260 L
1054 4260 mt 1054 4260 L
1054 4260 mt 1054 4260 L
1054 4260 mt 2427 4260 L
1054 2627 mt 2427 2627 L
1054 4260 mt 1054 2627 L
2427 4260 mt 2427 2627 L
gs 1054 2627 1374 1634 rc
DA
c8
14 -2 14 -2 14 -2 13 -3 14 -2 14 -2 14 -3 13 -2 
14 -3 14 -2 14 -3 13 -2 14 -3 14 -3 13 -2 14 -3 
14 -3 14 -2 13 -3 14 -3 14 -3 14 -3 13 -3 14 -3 
14 -3 13 -3 14 -3 14 -3 14 -3 13 -3 14 -4 14 -3 
14 -3 13 -4 14 -3 14 -4 14 -3 13 -4 14 -3 14 -4 
13 -4 14 -4 14 -4 14 -4 13 -4 14 -4 14 -4 14 -5 
13 -4 14 -5 14 -4 13 -5 14 -5 14 -5 14 -5 13 -5 
14 -5 14 -5 14 -6 13 -5 14 -6 14 -6 13 -6 14 -6 
14 -7 14 -6 13 -7 14 -7 14 -7 14 -8 13 -7 14 -8 
14 -9 14 -8 13 -9 14 -10 14 -9 13 -10 14 -11 14 -11 
14 -12 13 -12 14 -13 14 -14 14 -15 13 -15 14 -17 14 -19 
13 -20 14 -21 14 -24 14 -28 13 -30 14 -36 14 -42 14 -51 
13 -68 14 -95 14 -170 1067 3694 100 MP stroke
SO
14 -1 14 -1 14 -1 13 -1 14 -2 14 -1 14 -1 13 -1 
14 -2 14 -1 14 -1 13 -1 14 -2 14 -1 13 -1 14 -2 
14 -1 14 -2 13 -1 14 -1 14 -2 14 -1 13 -2 14 -1 
14 -2 13 -1 14 -2 14 -2 14 -1 13 -2 14 -1 14 -2 
14 -2 13 -2 14 -1 14 -2 14 -2 13 -2 14 -2 14 -2 
13 -2 14 -2 14 -2 14 -2 13 -2 14 -2 14 -2 14 -2 
13 -3 14 -2 14 -2 13 -3 14 -2 14 -3 14 -2 13 -3 
14 -3 14 -3 14 -2 13 -3 14 -3 14 -4 13 -3 14 -3 
14 -3 14 -4 13 -3 14 -4 14 -4 14 -4 13 -4 14 -4 
14 -5 14 -4 13 -5 14 -5 14 -5 13 -6 14 -6 14 -6 
14 -6 13 -7 14 -7 14 -8 14 -8 13 -10 14 -9 14 -11 
13 -12 14 -13 14 -15 14 -17 13 -21 14 -24 14 -32 14 -45 
13 -74 14 -209 14 -7 1067 4260 100 MP stroke
gr

c8
0 sg
%%IncludeResource: font Helvetica
/Helvetica /ISOLatin1Encoding 120 FMSR

1722 4548 mt 
(t) s
 669 3615 mt  -90 rotate
(error x) s
90 rotate
1 sg
0 1633 1374 0 0 -1633 3041 4260 4 MP
PP
-1374 0 0 1633 1374 0 0 -1633 3041 4260 5 MP stroke
4 w
DO
SO
6 w
0 sg
3041 4260 mt 4415 4260 L
3041 2627 mt 4415 2627 L
3041 4260 mt 3041 2627 L
4415 4260 mt 4415 2627 L
3041 4260 mt 4415 4260 L
3041 4260 mt 3041 2627 L
3041 4260 mt 3041 4243 L
3041 2627 mt 3041 2643 L
3008 4405 mt 
(0) s
3727 4260 mt 3727 4243 L
3727 2627 mt 3727 2643 L
3611 4405 mt 
(0.05) s
4414 4260 mt 4414 4243 L
4414 2627 mt 4414 2643 L
4331 4405 mt 
(0.1) s
3041 4260 mt 3041 4260 L
3041 4260 mt 3041 4260 L
3041 4260 mt 3041 4260 L
3041 4260 mt 3041 4260 L
3041 4260 mt 3041 4260 L
3041 4260 mt 3041 4260 L
3041 4260 mt 3041 4260 L
3041 4260 mt 3041 4260 L
3041 4260 mt 3041 4260 L
3041 4260 mt 3041 4260 L
3041 4260 mt 3041 4260 L
3041 4260 mt 3041 4260 L
3041 4260 mt 3041 4260 L
3041 4260 mt 3041 4260 L
3041 4260 mt 3041 4260 L
3041 4260 mt 3041 4260 L
3041 4260 mt 3041 4260 L
3041 4260 mt 3041 4260 L
3041 3327 mt 3057 3327 L
4415 3327 mt 4398 3327 L
2738 3371 mt 
(10) s
%%IncludeResource: font Helvetica
/Helvetica /ISOLatin1Encoding 80 FMSR

2871 3297 mt 
(-10) s
3041 4260 mt 3041 4260 L
3041 4260 mt 3041 4260 L
3041 4260 mt 3041 4260 L
3041 4260 mt 3041 4260 L
3041 4260 mt 3041 4260 L
3041 4260 mt 3041 4260 L
3041 4260 mt 3041 4260 L
3041 4260 mt 3041 4260 L
3041 4260 mt 3041 4260 L
3041 4260 mt 3041 4260 L
3041 4260 mt 3041 4260 L
3041 4260 mt 3041 4260 L
3041 4260 mt 3041 4260 L
3041 4260 mt 3041 4260 L
3041 4260 mt 3041 4260 L
3041 4260 mt 3041 4260 L
3041 4260 mt 3041 4260 L
3041 4260 mt 3041 4260 L
3041 4260 mt 4415 4260 L
3041 2627 mt 4415 2627 L
3041 4260 mt 3041 2627 L
4415 4260 mt 4415 2627 L
gs 3041 2627 1375 1634 rc
DA
c8
14 -2 14 -3 14 -2 13 -3 14 -2 14 -3 14 -3 13 -2 
14 -3 14 -3 14 -3 13 -2 14 -3 14 -3 14 -3 13 -3 
14 -3 14 -3 14 -3 13 -3 14 -3 14 -3 14 -4 13 -3 
14 -3 14 -4 13 -3 14 -3 14 -4 14 -3 13 -4 14 -4 
14 -3 14 -4 13 -4 14 -4 14 -4 14 -4 13 -4 14 -4 
14 -4 14 -4 13 -5 14 -4 14 -5 14 -4 13 -5 14 -5 
14 -4 13 -5 14 -5 14 -6 14 -5 13 -5 14 -6 14 -5 
14 -6 13 -6 14 -6 14 -6 14 -6 13 -7 14 -7 14 -6 
14 -7 13 -8 14 -7 14 -8 14 -8 13 -8 14 -8 14 -9 
14 -9 13 -10 14 -9 14 -11 13 -10 14 -11 14 -12 14 -12 
13 -13 14 -14 14 -14 14 -15 13 -16 14 -17 14 -19 14 -20 
13 -22 14 -24 14 -26 14 -30 13 -33 14 -39 14 -46 14 -56 
13 -74 14 -103 14 -182 3054 3791 100 MP stroke
SO
14 -2 14 -1 14 -2 13 -2 14 -2 14 -1 14 -2 13 -2 
14 -2 14 -2 14 -1 13 -2 14 -2 14 -2 14 -2 13 -2 
14 -2 14 -2 14 -2 13 -2 14 -2 14 -3 14 -2 13 -2 
14 -2 14 -2 13 -3 14 -2 14 -2 14 -3 13 -2 14 -3 
14 -2 14 -3 13 -2 14 -3 14 -3 14 -2 13 -3 14 -3 
14 -3 14 -2 13 -3 14 -3 14 -3 14 -4 13 -3 14 -3 
14 -3 13 -4 14 -3 14 -3 14 -4 13 -4 14 -3 14 -4 
14 -4 13 -4 14 -4 14 -4 14 -5 13 -4 14 -5 14 -4 
14 -5 13 -5 14 -5 14 -6 14 -5 13 -6 14 -5 14 -6 
14 -7 13 -6 14 -7 14 -7 13 -7 14 -8 14 -8 14 -9 
13 -9 14 -9 14 -10 14 -11 13 -12 14 -12 14 -13 14 -15 
13 -16 14 -17 14 -20 14 -22 13 -26 14 -31 14 -39 14 -51 
13 -82 14 -178 14 -122 3054 4260 100 MP stroke
gr

c8
0 sg
%%IncludeResource: font Helvetica
/Helvetica /ISOLatin1Encoding 120 FMSR

3710 4548 mt 
(t) s
2656 3615 mt  -90 rotate
(error y) s
90 rotate
1 sg
0 1623 1267 0 0 -1623 5098 4260 4 MP
PP
-1267 0 0 1623 1267 0 0 -1623 5098 4260 5 MP stroke
4 w
DO
SO
6 w
0 sg
5098 4260 mt 6365 4260 L
5098 2637 mt 6365 2637 L
5098 4260 mt 5098 2637 L
6365 4260 mt 6365 2637 L
5098 4260 mt 6365 4260 L
5098 4260 mt 5098 2637 L
5098 4260 mt 5098 4243 L
5098 2637 mt 5098 2653 L
5065 4405 mt 
(0) s
5731 4260 mt 5731 4243 L
5731 2637 mt 5731 2653 L
5615 4405 mt 
(0.05) s
6364 4260 mt 6364 4243 L
6364 2637 mt 6364 2653 L
6281 4405 mt 
(0.1) s
5098 4260 mt 5098 4260 L
5098 4260 mt 5098 4260 L
5098 4260 mt 5098 4260 L
5098 4260 mt 5098 4260 L
5098 4260 mt 5098 4260 L
5098 4260 mt 5098 4260 L
5098 4260 mt 5098 4260 L
5098 4260 mt 5098 4260 L
5098 4260 mt 5098 4260 L
5098 4260 mt 5098 4260 L
5098 4260 mt 5098 4260 L
5098 4260 mt 5098 4260 L
5098 4260 mt 5098 4260 L
5098 4260 mt 5098 4260 L
5098 4260 mt 5098 4260 L
5098 4260 mt 5098 4260 L
5098 4260 mt 5098 4260 L
5098 4260 mt 5098 4260 L
5098 4260 mt 5114 4260 L
6365 4260 mt 6348 4260 L
4839 4304 mt 
(10) s
%%IncludeResource: font Helvetica
/Helvetica /ISOLatin1Encoding 80 FMSR

4972 4230 mt 
(-8) s
5098 4260 mt 5098 4260 L
5098 4260 mt 5098 4260 L
5098 4260 mt 5098 4260 L
5098 4260 mt 5098 4260 L
5098 4260 mt 5098 4260 L
5098 4260 mt 5098 4260 L
5098 4260 mt 5098 4260 L
5098 4260 mt 5098 4260 L
5098 4260 mt 5098 4260 L
5098 4260 mt 5098 4260 L
5098 4260 mt 5098 4260 L
5098 4260 mt 5098 4260 L
5098 4260 mt 5098 4260 L
5098 4260 mt 5098 4260 L
5098 4260 mt 5098 4260 L
5098 4260 mt 5098 4260 L
5098 4260 mt 5098 4260 L
5098 4260 mt 5098 4260 L
5098 3854 mt 5114 3854 L
6365 3854 mt 6348 3854 L
%%IncludeResource: font Helvetica
/Helvetica /ISOLatin1Encoding 120 FMSR

4839 3898 mt 
(10) s
%%IncludeResource: font Helvetica
/Helvetica /ISOLatin1Encoding 80 FMSR

4972 3824 mt 
(-6) s
5098 4260 mt 5098 4260 L
5098 4260 mt 5098 4260 L
5098 4260 mt 5098 4260 L
5098 4260 mt 5098 4260 L
5098 4260 mt 5098 4260 L
5098 4260 mt 5098 4260 L
5098 4260 mt 5098 4260 L
5098 4260 mt 5098 4260 L
5098 4260 mt 5098 4260 L
5098 4260 mt 5098 4260 L
5098 4260 mt 5098 4260 L
5098 4260 mt 5098 4260 L
5098 4260 mt 5098 4260 L
5098 4260 mt 5098 4260 L
5098 4260 mt 5098 4260 L
5098 4260 mt 5098 4260 L
5098 4260 mt 5098 4260 L
5098 4260 mt 5098 4260 L
5098 3448 mt 5114 3448 L
6365 3448 mt 6348 3448 L
%%IncludeResource: font Helvetica
/Helvetica /ISOLatin1Encoding 120 FMSR

4839 3492 mt 
(10) s
%%IncludeResource: font Helvetica
/Helvetica /ISOLatin1Encoding 80 FMSR

4972 3418 mt 
(-4) s
5098 4260 mt 5098 4260 L
5098 4260 mt 5098 4260 L
5098 4260 mt 5098 4260 L
5098 4260 mt 5098 4260 L
5098 4260 mt 5098 4260 L
5098 4260 mt 5098 4260 L
5098 4260 mt 5098 4260 L
5098 4260 mt 5098 4260 L
5098 4260 mt 5098 4260 L
5098 4260 mt 5098 4260 L
5098 4260 mt 5098 4260 L
5098 4260 mt 5098 4260 L
5098 4260 mt 5098 4260 L
5098 4260 mt 5098 4260 L
5098 4260 mt 5098 4260 L
5098 4260 mt 5098 4260 L
5098 4260 mt 5098 4260 L
5098 4260 mt 5098 4260 L
5098 3042 mt 5114 3042 L
6365 3042 mt 6348 3042 L
%%IncludeResource: font Helvetica
/Helvetica /ISOLatin1Encoding 120 FMSR

4839 3086 mt 
(10) s
%%IncludeResource: font Helvetica
/Helvetica /ISOLatin1Encoding 80 FMSR

4972 3012 mt 
(-2) s
5098 4260 mt 5098 4260 L
5098 4260 mt 5098 4260 L
5098 4260 mt 5098 4260 L
5098 4260 mt 5098 4260 L
5098 4260 mt 5098 4260 L
5098 4260 mt 5098 4260 L
5098 4260 mt 5098 4260 L
5098 4260 mt 5098 4260 L
5098 4260 mt 5098 4260 L
5098 4260 mt 5098 4260 L
5098 4260 mt 5098 4260 L
5098 4260 mt 5098 4260 L
5098 4260 mt 5098 4260 L
5098 4260 mt 5098 4260 L
5098 4260 mt 5098 4260 L
5098 4260 mt 5098 4260 L
5098 4260 mt 5098 4260 L
5098 4260 mt 5098 4260 L
5098 2637 mt 5114 2637 L
6365 2637 mt 6348 2637 L
%%IncludeResource: font Helvetica
/Helvetica /ISOLatin1Encoding 120 FMSR

4839 2681 mt 
(10) s
%%IncludeResource: font Helvetica
/Helvetica /ISOLatin1Encoding 80 FMSR

4972 2607 mt 
(0) s
5098 4260 mt 5098 4260 L
5098 4260 mt 5098 4260 L
5098 4260 mt 5098 4260 L
5098 4260 mt 5098 4260 L
5098 4260 mt 5098 4260 L
5098 4260 mt 5098 4260 L
5098 4260 mt 5098 4260 L
5098 4260 mt 5098 4260 L
5098 4260 mt 5098 4260 L
5098 4260 mt 5098 4260 L
5098 4260 mt 5098 4260 L
5098 4260 mt 5098 4260 L
5098 4260 mt 5098 4260 L
5098 4260 mt 5098 4260 L
5098 4260 mt 5098 4260 L
5098 4260 mt 5098 4260 L
5098 4260 mt 5098 4260 L
5098 4260 mt 5098 4260 L
5098 4260 mt 6365 4260 L
5098 2637 mt 6365 2637 L
5098 4260 mt 5098 2637 L
6365 4260 mt 6365 2637 L
gs 5098 2637 1268 1624 rc
DA
c8
13 -1 13 -1 13 -1 12 -1 13 -1 13 -1 12 -1 13 -1 
13 -1 12 -1 13 -1 13 -2 12 -1 13 -1 13 -1 12 -1 
13 -1 13 -1 12 -2 13 -1 13 -1 12 -1 13 -1 13 -2 
12 -1 13 -1 13 -1 12 -2 13 -1 13 -1 12 -2 13 -1 
13 -2 12 -1 13 -1 13 -2 12 -1 13 -2 13 -1 12 -2 
13 -1 13 -2 12 -2 13 -1 13 -2 12 -2 13 -1 13 -2 
12 -2 13 -2 13 -2 12 -2 13 -2 13 -2 12 -2 13 -2 
13 -2 12 -2 13 -2 13 -2 12 -3 13 -2 13 -2 12 -3 
13 -2 13 -3 12 -3 13 -3 13 -2 12 -3 13 -3 13 -4 
12 -3 13 -3 13 -4 12 -3 13 -4 13 -4 12 -4 13 -5 
13 -4 12 -5 13 -5 13 -5 12 -6 13 -6 13 -7 12 -7 
13 -7 13 -9 12 -9 13 -10 13 -11 12 -14 13 -15 13 -19 
12 -25 13 -39 13 -103 5110 3966 100 MP stroke
SO
13 0 13 -1 13 -1 12 1 13 -1 13 0 12 2 13 -1 
13 0 12 -2 13 -2 13 1 12 6 13 -1 13 -3 12 1 
13 -1 13 2 12 -2 13 -1 13 -1 12 1 13 1 13 4 
12 -2 13 0 13 1 12 1 13 -1 13 -2 12 1 13 3 
13 -5 12 1 13 1 13 -1 12 -1 13 -1 13 3 12 -2 
13 1 13 3 12 -2 13 1 13 -3 12 4 13 3 13 -2 
12 2 13 -5 13 -4 12 2 13 2 13 2 12 1 13 -1 
13 -2 12 -4 13 6 13 -2 12 -1 13 3 13 -5 12 2 
13 4 13 -2 12 -5 13 1 13 2 12 3 13 -1 13 -3 
12 0 13 -2 13 2 12 4 13 3 13 -3 12 1 13 -2 
13 -4 12 4 13 -1 13 0 12 -1 13 0 13 -3 12 3 
13 1 13 2 12 1 13 -1 13 1 12 -5 13 2 13 17 
12 -5 13 1132 13 61 5110 2855 100 MP stroke
gr

c8
0 sg
%%IncludeResource: font Helvetica
/Helvetica /ISOLatin1Encoding 120 FMSR

5713 4548 mt 
(t) s
4749 3623 mt  -90 rotate
(error ) s
90 rotate
%%IncludeResource: font Symbol
/Symbol /ISOLatin1Encoding 120 FMSR

4749 3337 mt  -90 rotate
(l) s
90 rotate
1 sg
0 400 1230 0 0 -400 5808 2574 4 MP
PP
-1230 0 0 400 1230 0 0 -400 5808 2574 5 MP stroke
4 w
DO
SO
6 w
0 sg
5808 2574 mt 7038 2574 L
5808 2174 mt 7038 2174 L
5808 2574 mt 5808 2174 L
7038 2574 mt 7038 2174 L
5808 2574 mt 7038 2574 L
5808 2574 mt 5808 2174 L
5808 2574 mt 7038 2574 L
5808 2174 mt 7038 2174 L
5808 2574 mt 5808 2174 L
7038 2574 mt 7038 2174 L
%%IncludeResource: font Helvetica
/Helvetica /ISOLatin1Encoding 120 FMSR

6276 2327 mt 
(second order) s
gs 5808 2174 1231 401 rc
DA
c8
360 0 5879 2284 2 MP stroke
SO
gr

c8
0 sg
6276 2506 mt 
(first order) s
gs 5808 2174 1231 401 rc
c8
360 0 5879 2463 2 MP stroke
gr

c8

end %%Color Dict

eplot
%%EndObject

epage
end

showpage

%%Trailer
%%EOF
