%!PS-Adobe-3.0 EPSF-3.0
%%Creator: MATLAB, The Mathworks, Inc.
%%Title: /homes/numerik/wunder/program/sources/Exp1_BDF12_var.eps
%%CreationDate: 08/18/2005  13:28:57
%%DocumentNeededFonts: Helvetica
%%DocumentProcessColors: Cyan Magenta Yellow Black
%%LanguageLevel: 2
%%Pages: 1
%%BoundingBox:    -4   186   617   606
%%EndComments

%%BeginProlog
% MathWorks dictionary
/MathWorks 160 dict begin
% definition operators
/bdef {bind def} bind def
/ldef {load def} bind def
/xdef {exch def} bdef
/xstore {exch store} bdef
% operator abbreviations
/c  /clip ldef
/cc /concat ldef
/cp /closepath ldef
/gr /grestore ldef
/gs /gsave ldef
/mt /moveto ldef
/np /newpath ldef
/cm /currentmatrix ldef
/sm /setmatrix ldef
/rm /rmoveto ldef
/rl /rlineto ldef
/s {show newpath} bdef
/sc {setcmykcolor} bdef
/sr /setrgbcolor ldef
/sg /setgray ldef
/w /setlinewidth ldef
/j /setlinejoin ldef
/cap /setlinecap ldef
/rc {rectclip} bdef
/rf {rectfill} bdef
% page state control
/pgsv () def
/bpage {/pgsv save def} bdef
/epage {pgsv restore} bdef
/bplot /gsave ldef
/eplot {stroke grestore} bdef
% orientation switch
/portraitMode 0 def /landscapeMode 1 def /rotateMode 2 def
% coordinate system mappings
/dpi2point 0 def
% font control
/FontSize 0 def
/FMS {/FontSize xstore findfont [FontSize 0 0 FontSize neg 0 0]
  makefont setfont} bdef
/reencode {exch dup where {pop load} {pop StandardEncoding} ifelse
  exch dup 3 1 roll findfont dup length dict begin
  { 1 index /FID ne {def}{pop pop} ifelse } forall
  /Encoding exch def currentdict end definefont pop} bdef
/isroman {findfont /CharStrings get /Agrave known} bdef
/FMSR {3 1 roll 1 index dup isroman {reencode} {pop pop} ifelse
  exch FMS} bdef
/csm {1 dpi2point div -1 dpi2point div scale neg translate
 dup landscapeMode eq {pop -90 rotate}
  {rotateMode eq {90 rotate} if} ifelse} bdef
% line types: solid, dotted, dashed, dotdash
/SO { [] 0 setdash } bdef
/DO { [.5 dpi2point mul 4 dpi2point mul] 0 setdash } bdef
/DA { [6 dpi2point mul] 0 setdash } bdef
/DD { [.5 dpi2point mul 4 dpi2point mul 6 dpi2point mul 4
  dpi2point mul] 0 setdash } bdef
% macros for lines and objects
/L {lineto stroke} bdef
/MP {3 1 roll moveto 1 sub {rlineto} repeat} bdef
/AP {{rlineto} repeat} bdef
/PDlw -1 def
/W {/PDlw currentlinewidth def setlinewidth} def
/PP {closepath eofill} bdef
/DP {closepath stroke} bdef
/MR {4 -2 roll moveto dup  0 exch rlineto exch 0 rlineto
  neg 0 exch rlineto closepath} bdef
/FR {MR stroke} bdef
/PR {MR fill} bdef
/L1i {{currentfile picstr readhexstring pop} image} bdef
/tMatrix matrix def
/MakeOval {newpath tMatrix currentmatrix pop translate scale
0 0 1 0 360 arc tMatrix setmatrix} bdef
/FO {MakeOval stroke} bdef
/PO {MakeOval fill} bdef
/PD {currentlinewidth 2 div 0 360 arc fill
   PDlw -1 eq not {PDlw w /PDlw -1 def} if} def
/FA {newpath tMatrix currentmatrix pop translate scale
  0 0 1 5 -2 roll arc tMatrix setmatrix stroke} bdef
/PA {newpath tMatrix currentmatrix pop	translate 0 0 moveto scale
  0 0 1 5 -2 roll arc closepath tMatrix setmatrix fill} bdef
/FAn {newpath tMatrix currentmatrix pop translate scale
  0 0 1 5 -2 roll arcn tMatrix setmatrix stroke} bdef
/PAn {newpath tMatrix currentmatrix pop translate 0 0 moveto scale
  0 0 1 5 -2 roll arcn closepath tMatrix setmatrix fill} bdef
/vradius 0 def /hradius 0 def /lry 0 def
/lrx 0 def /uly 0 def /ulx 0 def /rad 0 def
/MRR {/vradius xdef /hradius xdef /lry xdef /lrx xdef /uly xdef
  /ulx xdef newpath tMatrix currentmatrix pop ulx hradius add uly
  vradius add translate hradius vradius scale 0 0 1 180 270 arc 
  tMatrix setmatrix lrx hradius sub uly vradius add translate
  hradius vradius scale 0 0 1 270 360 arc tMatrix setmatrix
  lrx hradius sub lry vradius sub translate hradius vradius scale
  0 0 1 0 90 arc tMatrix setmatrix ulx hradius add lry vradius sub
  translate hradius vradius scale 0 0 1 90 180 arc tMatrix setmatrix
  closepath} bdef
/FRR {MRR stroke } bdef
/PRR {MRR fill } bdef
/MlrRR {/lry xdef /lrx xdef /uly xdef /ulx xdef /rad lry uly sub 2 div def
  newpath tMatrix currentmatrix pop ulx rad add uly rad add translate
  rad rad scale 0 0 1 90 270 arc tMatrix setmatrix lrx rad sub lry rad
  sub translate rad rad scale 0 0 1 270 90 arc tMatrix setmatrix
  closepath} bdef
/FlrRR {MlrRR stroke } bdef
/PlrRR {MlrRR fill } bdef
/MtbRR {/lry xdef /lrx xdef /uly xdef /ulx xdef /rad lrx ulx sub 2 div def
  newpath tMatrix currentmatrix pop ulx rad add uly rad add translate
  rad rad scale 0 0 1 180 360 arc tMatrix setmatrix lrx rad sub lry rad
  sub translate rad rad scale 0 0 1 0 180 arc tMatrix setmatrix
  closepath} bdef
/FtbRR {MtbRR stroke } bdef
/PtbRR {MtbRR fill } bdef
/stri 6 array def /dtri 6 array def
/smat 6 array def /dmat 6 array def
/tmat1 6 array def /tmat2 6 array def /dif 3 array def
/asub {/ind2 exch def /ind1 exch def dup dup
  ind1 get exch ind2 get sub exch } bdef
/tri_to_matrix {
  2 0 asub 3 1 asub 4 0 asub 5 1 asub
  dup 0 get exch 1 get 7 -1 roll astore } bdef
/compute_transform {
  dmat dtri tri_to_matrix tmat1 invertmatrix 
  smat stri tri_to_matrix tmat2 concatmatrix } bdef
/ds {stri astore pop} bdef
/dt {dtri astore pop} bdef
/db {2 copy /cols xdef /rows xdef mul dup 3 mul string
  currentfile 
  3 index 0 eq {/ASCIIHexDecode filter}
  {/ASCII85Decode filter 3 index 2 eq {/RunLengthDecode filter} if }
  ifelse exch readstring pop
  dup 0 3 index getinterval /rbmap xdef
  dup 2 index dup getinterval /gbmap xdef
  1 index dup 2 mul exch getinterval /bbmap xdef pop pop}bdef
/it {gs np dtri aload pop moveto lineto lineto cp c
  cols rows 8 compute_transform 
  rbmap gbmap bbmap true 3 colorimage gr}bdef
/il {newpath moveto lineto stroke}bdef
currentdict end def
%%EndProlog

%%BeginSetup
MathWorks begin

0 cap

end
%%EndSetup

%%Page: 1 1
%%BeginPageSetup
%%PageBoundingBox:    -4   186   617   606
MathWorks begin
bpage
%%EndPageSetup

%%BeginObject: obj1
bplot

/dpi2point 12 def
portraitMode -0048 7272 csm

    0     0  7458  5040 rc
85 dict begin %Colortable dictionary
/c0 { 0.000000 0.000000 0.000000 sr} bdef
/c1 { 1.000000 1.000000 1.000000 sr} bdef
/c2 { 0.900000 0.000000 0.000000 sr} bdef
/c3 { 0.000000 0.820000 0.000000 sr} bdef
/c4 { 0.000000 0.000000 0.800000 sr} bdef
/c5 { 0.910000 0.820000 0.320000 sr} bdef
/c6 { 1.000000 0.260000 0.820000 sr} bdef
/c7 { 0.000000 0.820000 0.820000 sr} bdef
c0
1 j
1 sg
   0    0 7459 5041 rf
6 w
0 1719 1479 0 0 -1719 1082 2097 4 MP
PP
-1479 0 0 1719 1479 0 0 -1719 1082 2097 5 MP stroke
4 w
DO
SO
6 w
0 sg
1082 2097 mt 2561 2097 L
1082  378 mt 2561  378 L
1082 2097 mt 1082  378 L
2561 2097 mt 2561  378 L
1082 2097 mt 2561 2097 L
1082 2097 mt 1082  378 L
1082 2097 mt 1082 2079 L
1082  378 mt 1082  395 L
%%IncludeResource: font Helvetica
/Helvetica /ISOLatin1Encoding 120 FMSR

1049 2242 mt 
(0) s
1642 2097 mt 1642 2079 L
1642  378 mt 1642  395 L
1526 2242 mt 
(0.05) s
2202 2097 mt 2202 2079 L
2202  378 mt 2202  395 L
2119 2242 mt 
(0.1) s
1082 2097 mt 1099 2097 L
2561 2097 mt 2543 2097 L
 981 2141 mt 
(0) s
1082 1835 mt 1099 1835 L
2561 1835 mt 2543 1835 L
 814 1879 mt 
(0.02) s
1082 1574 mt 1099 1574 L
2561 1574 mt 2543 1574 L
 814 1618 mt 
(0.04) s
1082 1312 mt 1099 1312 L
2561 1312 mt 2543 1312 L
 814 1356 mt 
(0.06) s
1082 1051 mt 1099 1051 L
2561 1051 mt 2543 1051 L
 814 1095 mt 
(0.08) s
1082  790 mt 1099  790 L
2561  790 mt 2543  790 L
 881  834 mt 
(0.1) s
1082  528 mt 1099  528 L
2561  528 mt 2543  528 L
 814  572 mt 
(0.12) s
1082 2097 mt 2561 2097 L
1082  378 mt 2561  378 L
1082 2097 mt 1082  378 L
2561 2097 mt 2561  378 L
gs 1082 378 1480 1720 rc
DA
/c8 { 0.000000 0.000000 1.000000 sr} bdef
c8
718 -831 358 -417 179 -209 90 -105 45 -52 22 -26 11 -13 12 -13 
11 -13 11 -13 11 -13 11 -14 1082 2097 13 MP stroke
SO
717 -832 359 -417 179 -209 89 -105 45 -52 23 -26 11 -13 11 -13 
11 -13 11 -14 1082 2097 11 MP stroke
gr

c8
0 sg
1803 2385 mt 
(t) s
 732 1268 mt  -90 rotate
(x) s
90 rotate
1 sg
0 1719 1479 0 0 -1719 3176 2096 4 MP
PP
-1479 0 0 1719 1479 0 0 -1719 3176 2096 5 MP stroke
4 w
DO
SO
6 w
0 sg
3176 2096 mt 4655 2096 L
3176  377 mt 4655  377 L
3176 2096 mt 3176  377 L
4655 2096 mt 4655  377 L
3176 2096 mt 4655 2096 L
3176 2096 mt 3176  377 L
3176 2096 mt 3176 2079 L
3176  377 mt 3176  395 L
3143 2242 mt 
(0) s
3736 2096 mt 3736 2079 L
3736  377 mt 3736  395 L
3620 2242 mt 
(0.05) s
4296 2096 mt 4296 2079 L
4296  377 mt 4296  395 L
4213 2242 mt 
(0.1) s
3176 1962 mt 3193 1962 L
4655 1962 mt 4637 1962 L
2841 2006 mt 
(0.992) s
3176 1566 mt 3193 1566 L
4655 1566 mt 4637 1566 L
2841 1610 mt 
(0.994) s
3176 1170 mt 3193 1170 L
4655 1170 mt 4637 1170 L
2841 1214 mt 
(0.996) s
3176  774 mt 3193  774 L
4655  774 mt 4637  774 L
2841  818 mt 
(0.998) s
3176  377 mt 3193  377 L
4655  377 mt 4637  377 L
3075  421 mt 
(1) s
3176 2096 mt 4655 2096 L
3176  377 mt 4655  377 L
3176 2096 mt 3176  377 L
4655 2096 mt 4655  377 L
gs 3176 377 1480 1720 rc
DA
c8
718 1261 358 329 179 89 90 25 45 8 22 3 11 1 12 1 
11 1 11 0 11 0 11 1 3176 377 13 MP stroke
SO
717 1238 359 316 179 82 89 23 45 6 23 2 11 1 11 0 
11 0 11 1 3176 377 11 MP stroke
gr

c8
0 sg
3897 2385 mt 
(t) s
2759 1268 mt  -90 rotate
(y) s
90 rotate
1 sg
0 1720 1479 0 0 -1720 5270 2097 4 MP
PP
-1479 0 0 1720 1479 0 0 -1720 5270 2097 5 MP stroke
4 w
DO
SO
6 w
0 sg
5270 2097 mt 6749 2097 L
5270  377 mt 6749  377 L
5270 2097 mt 5270  377 L
6749 2097 mt 6749  377 L
5270 2097 mt 6749 2097 L
5270 2097 mt 5270  377 L
5270 2097 mt 5270 2079 L
5270  378 mt 5270  395 L
5237 2242 mt 
(0) s
5830 2097 mt 5830 2079 L
5830  378 mt 5830  395 L
5714 2242 mt 
(0.05) s
6390 2097 mt 6390 2079 L
6390  378 mt 6390  395 L
6307 2242 mt 
(0.1) s
5270 1915 mt 5287 1915 L
6749 1915 mt 6731 1915 L
4999 1959 mt 
(-0.2) s
5270 1544 mt 5287 1544 L
6749 1544 mt 6731 1544 L
4999 1588 mt 
(-0.1) s
5270 1173 mt 5287 1173 L
6749 1173 mt 6731 1173 L
5169 1217 mt 
(0) s
5270  802 mt 5287  802 L
6749  802 mt 6731  802 L
5069  846 mt 
(0.1) s
5270  431 mt 5287  431 L
6749  431 mt 6731  431 L
5069  475 mt 
(0.2) s
5270 2097 mt 6749 2097 L
5270  377 mt 6749  377 L
5270 2097 mt 5270  377 L
6749 2097 mt 6749  377 L
gs 5270 378 1480 1720 rc
DA
c8
718 -179 358 -106 179 -56 90 -28 45 -15 22 -7 11 -4 12 -4 
11 -4 11 -3 11 -4 11 -4 5270 1173 13 MP stroke
SO
23 -780 11 -4 11 -3 11 -932 11 924 5270 1173 6 MP stroke
717 -214 359 -113 179 -58 89 -339 45 1067 5337 378 6 MP stroke
gr

c8
0 sg
5991 2385 mt 
(t) s
%%IncludeResource: font Symbol
/Symbol /ISOLatin1Encoding 120 FMSR

4909 1271 mt  -90 rotate
(l) s
90 rotate
1 sg
0 1720 1479 0 0 -1720 1082 4486 4 MP
PP
-1479 0 0 1720 1479 0 0 -1720 1082 4486 5 MP stroke
4 w
DO
SO
6 w
0 sg
1082 4486 mt 2561 4486 L
1082 2766 mt 2561 2766 L
1082 4486 mt 1082 2766 L
2561 4486 mt 2561 2766 L
1082 4486 mt 2561 4486 L
1082 4486 mt 1082 2766 L
1082 4486 mt 1082 4468 L
1082 2766 mt 1082 2783 L
%%IncludeResource: font Helvetica
/Helvetica /ISOLatin1Encoding 120 FMSR

1049 4631 mt 
(0) s
1642 4486 mt 1642 4468 L
1642 2766 mt 1642 2783 L
1526 4631 mt 
(0.05) s
2202 4486 mt 2202 4468 L
2202 2766 mt 2202 2783 L
2119 4631 mt 
(0.1) s
1082 4486 mt 1082 4486 L
1082 4486 mt 1082 4486 L
1082 4486 mt 1082 4486 L
1082 4486 mt 1082 4486 L
1082 4486 mt 1082 4486 L
1082 4486 mt 1082 4486 L
1082 4486 mt 1082 4486 L
1082 4486 mt 1082 4486 L
1082 4486 mt 1082 4486 L
1082 4486 mt 1082 4486 L
1082 4486 mt 1082 4486 L
1082 4486 mt 1082 4486 L
1082 4486 mt 1082 4486 L
1082 4486 mt 1082 4486 L
1082 4486 mt 1082 4486 L
1082 4486 mt 1082 4486 L
1082 4486 mt 1082 4486 L
1082 4486 mt 1082 4486 L
1082 4017 mt 1099 4017 L
2561 4017 mt 2543 4017 L
 779 4061 mt 
(10) s
%%IncludeResource: font Helvetica
/Helvetica /ISOLatin1Encoding 80 FMSR

 912 3987 mt 
(-8) s
1082 4486 mt 1082 4486 L
1082 4486 mt 1082 4486 L
1082 4486 mt 1082 4486 L
1082 4486 mt 1082 4486 L
1082 4486 mt 1082 4486 L
1082 4486 mt 1082 4486 L
1082 4486 mt 1082 4486 L
1082 4486 mt 1082 4486 L
1082 4486 mt 1082 4486 L
1082 4486 mt 1082 4486 L
1082 4486 mt 1082 4486 L
1082 4486 mt 1082 4486 L
1082 4486 mt 1082 4486 L
1082 4486 mt 1082 4486 L
1082 4486 mt 1082 4486 L
1082 4486 mt 1082 4486 L
1082 4486 mt 1082 4486 L
1082 4486 mt 1082 4486 L
1082 3382 mt 1099 3382 L
2561 3382 mt 2543 3382 L
%%IncludeResource: font Helvetica
/Helvetica /ISOLatin1Encoding 120 FMSR

 779 3426 mt 
(10) s
%%IncludeResource: font Helvetica
/Helvetica /ISOLatin1Encoding 80 FMSR

 912 3352 mt 
(-6) s
1082 4486 mt 1082 4486 L
1082 4486 mt 1082 4486 L
1082 4486 mt 1082 4486 L
1082 4486 mt 1082 4486 L
1082 4486 mt 1082 4486 L
1082 4486 mt 1082 4486 L
1082 4486 mt 1082 4486 L
1082 4486 mt 1082 4486 L
1082 4486 mt 1082 4486 L
1082 4486 mt 1082 4486 L
1082 4486 mt 1082 4486 L
1082 4486 mt 1082 4486 L
1082 4486 mt 1082 4486 L
1082 4486 mt 1082 4486 L
1082 4486 mt 1082 4486 L
1082 4486 mt 1082 4486 L
1082 4486 mt 1082 4486 L
1082 4486 mt 1082 4486 L
1082 4486 mt 2561 4486 L
1082 2766 mt 2561 2766 L
1082 4486 mt 1082 2766 L
2561 4486 mt 2561 2766 L
gs 1082 2766 1480 1721 rc
DA
c8
718 -363 358 -355 179 -301 90 -176 45 -88 22 -53 11 -34 12 -42 
11 -58 11 -88 11 -161 1093 4485 12 MP stroke
SO
717 -281 359 -273 179 -240 89 -174 45 -128 23 -116 11 -84 11 -121 
11 -222 1093 4486 10 MP stroke
gr

c8
0 sg
%%IncludeResource: font Helvetica
/Helvetica /ISOLatin1Encoding 120 FMSR

1803 4774 mt 
(t) s
 697 3798 mt  -90 rotate
(error x) s
90 rotate
1 sg
0 1720 1479 0 0 -1720 3176 4486 4 MP
PP
-1479 0 0 1720 1479 0 0 -1720 3176 4486 5 MP stroke
4 w
DO
SO
6 w
0 sg
3176 4486 mt 4655 4486 L
3176 2766 mt 4655 2766 L
3176 4486 mt 3176 2766 L
4655 4486 mt 4655 2766 L
3176 4486 mt 4655 4486 L
3176 4486 mt 3176 2766 L
3176 4486 mt 3176 4468 L
3176 2766 mt 3176 2783 L
3143 4631 mt 
(0) s
3736 4486 mt 3736 4468 L
3736 2766 mt 3736 2783 L
3620 4631 mt 
(0.05) s
4296 4486 mt 4296 4468 L
4296 2766 mt 4296 2783 L
4213 4631 mt 
(0.1) s
3176 4486 mt 3176 4486 L
3176 4486 mt 3176 4486 L
3176 4486 mt 3176 4486 L
3176 4486 mt 3176 4486 L
3176 4486 mt 3176 4486 L
3176 4486 mt 3176 4486 L
3176 4486 mt 3176 4486 L
3176 4486 mt 3176 4486 L
3176 4486 mt 3176 4486 L
3176 4486 mt 3176 4486 L
3176 4486 mt 3176 4486 L
3176 4486 mt 3176 4486 L
3176 4486 mt 3176 4486 L
3176 4486 mt 3176 4486 L
3176 4486 mt 3176 4486 L
3176 4486 mt 3176 4486 L
3176 4486 mt 3176 4486 L
3176 4486 mt 3176 4486 L
3176 3936 mt 3193 3936 L
4655 3936 mt 4637 3936 L
2873 3980 mt 
(10) s
%%IncludeResource: font Helvetica
/Helvetica /ISOLatin1Encoding 80 FMSR

3006 3906 mt 
(-10) s
3176 4486 mt 3176 4486 L
3176 4486 mt 3176 4486 L
3176 4486 mt 3176 4486 L
3176 4486 mt 3176 4486 L
3176 4486 mt 3176 4486 L
3176 4486 mt 3176 4486 L
3176 4486 mt 3176 4486 L
3176 4486 mt 3176 4486 L
3176 4486 mt 3176 4486 L
3176 4486 mt 3176 4486 L
3176 4486 mt 3176 4486 L
3176 4486 mt 3176 4486 L
3176 4486 mt 3176 4486 L
3176 4486 mt 3176 4486 L
3176 4486 mt 3176 4486 L
3176 4486 mt 3176 4486 L
3176 4486 mt 3176 4486 L
3176 4486 mt 3176 4486 L
3176 2826 mt 3193 2826 L
4655 2826 mt 4637 2826 L
%%IncludeResource: font Helvetica
/Helvetica /ISOLatin1Encoding 120 FMSR

2873 2870 mt 
(10) s
%%IncludeResource: font Helvetica
/Helvetica /ISOLatin1Encoding 80 FMSR

3006 2796 mt 
(-5) s
3176 4486 mt 3176 4486 L
3176 4486 mt 3176 4486 L
3176 4486 mt 3176 4486 L
3176 4486 mt 3176 4486 L
3176 4486 mt 3176 4486 L
3176 4486 mt 3176 4486 L
3176 4486 mt 3176 4486 L
3176 4486 mt 3176 4486 L
3176 4486 mt 3176 4486 L
3176 4486 mt 3176 4486 L
3176 4486 mt 3176 4486 L
3176 4486 mt 3176 4486 L
3176 4486 mt 3176 4486 L
3176 4486 mt 3176 4486 L
3176 4486 mt 3176 4486 L
3176 4486 mt 3176 4486 L
3176 4486 mt 3176 4486 L
3176 4486 mt 3176 4486 L
3176 4486 mt 4655 4486 L
3176 2766 mt 4655 2766 L
3176 4486 mt 3176 2766 L
4655 4486 mt 4655 2766 L
gs 3176 2766 1480 1721 rc
DA
c8
718 -291 358 -282 179 -266 90 -223 45 -140 22 -75 11 -41 12 -49 
11 -65 11 -88 11 -111 3187 4397 12 MP stroke
SO
717 -261 359 -260 179 -245 89 -207 45 -156 23 -128 11 -86 11 -124 
11 -222 3187 4486 10 MP stroke
gr

c8
0 sg
%%IncludeResource: font Helvetica
/Helvetica /ISOLatin1Encoding 120 FMSR

3897 4774 mt 
(t) s
2791 3798 mt  -90 rotate
(error y) s
90 rotate
1 sg
0 1720 1411 0 0 -1720 5338 4486 4 MP
PP
-1411 0 0 1720 1411 0 0 -1720 5338 4486 5 MP stroke
4 w
DO
SO
6 w
0 sg
5338 4486 mt 6749 4486 L
5338 2766 mt 6749 2766 L
5338 4486 mt 5338 2766 L
6749 4486 mt 6749 2766 L
5338 4486 mt 6749 4486 L
5338 4486 mt 5338 2766 L
5338 4486 mt 5338 4468 L
5338 2766 mt 5338 2783 L
5305 4631 mt 
(0) s
5872 4486 mt 5872 4468 L
5872 2766 mt 5872 2783 L
5756 4631 mt 
(0.05) s
6406 4486 mt 6406 4468 L
6406 2766 mt 6406 2783 L
6323 4631 mt 
(0.1) s
5338 4486 mt 5338 4486 L
5338 4486 mt 5338 4486 L
5338 4486 mt 5338 4486 L
5338 4486 mt 5338 4486 L
5338 4486 mt 5338 4486 L
5338 4486 mt 5338 4486 L
5338 4486 mt 5338 4486 L
5338 4486 mt 5338 4486 L
5338 4486 mt 5338 4486 L
5338 4486 mt 5338 4486 L
5338 4486 mt 5338 4486 L
5338 4486 mt 5338 4486 L
5338 4486 mt 5338 4486 L
5338 4486 mt 5338 4486 L
5338 4486 mt 5338 4486 L
5338 4486 mt 5338 4486 L
5338 4486 mt 5338 4486 L
5338 4486 mt 5338 4486 L
5338 4361 mt 5355 4361 L
6749 4361 mt 6731 4361 L
5079 4405 mt 
(10) s
%%IncludeResource: font Helvetica
/Helvetica /ISOLatin1Encoding 80 FMSR

5212 4331 mt 
(-6) s
5338 4486 mt 5338 4486 L
5338 4486 mt 5338 4486 L
5338 4486 mt 5338 4486 L
5338 4486 mt 5338 4486 L
5338 4486 mt 5338 4486 L
5338 4486 mt 5338 4486 L
5338 4486 mt 5338 4486 L
5338 4486 mt 5338 4486 L
5338 4486 mt 5338 4486 L
5338 4486 mt 5338 4486 L
5338 4486 mt 5338 4486 L
5338 4486 mt 5338 4486 L
5338 4486 mt 5338 4486 L
5338 4486 mt 5338 4486 L
5338 4486 mt 5338 4486 L
5338 4486 mt 5338 4486 L
5338 4486 mt 5338 4486 L
5338 4486 mt 5338 4486 L
5338 3770 mt 5355 3770 L
6749 3770 mt 6731 3770 L
%%IncludeResource: font Helvetica
/Helvetica /ISOLatin1Encoding 120 FMSR

5079 3814 mt 
(10) s
%%IncludeResource: font Helvetica
/Helvetica /ISOLatin1Encoding 80 FMSR

5212 3740 mt 
(-4) s
5338 4486 mt 5338 4486 L
5338 4486 mt 5338 4486 L
5338 4486 mt 5338 4486 L
5338 4486 mt 5338 4486 L
5338 4486 mt 5338 4486 L
5338 4486 mt 5338 4486 L
5338 4486 mt 5338 4486 L
5338 4486 mt 5338 4486 L
5338 4486 mt 5338 4486 L
5338 4486 mt 5338 4486 L
5338 4486 mt 5338 4486 L
5338 4486 mt 5338 4486 L
5338 4486 mt 5338 4486 L
5338 4486 mt 5338 4486 L
5338 4486 mt 5338 4486 L
5338 4486 mt 5338 4486 L
5338 4486 mt 5338 4486 L
5338 4486 mt 5338 4486 L
5338 3179 mt 5355 3179 L
6749 3179 mt 6731 3179 L
%%IncludeResource: font Helvetica
/Helvetica /ISOLatin1Encoding 120 FMSR

5079 3223 mt 
(10) s
%%IncludeResource: font Helvetica
/Helvetica /ISOLatin1Encoding 80 FMSR

5212 3149 mt 
(-2) s
5338 4486 mt 5338 4486 L
5338 4486 mt 5338 4486 L
5338 4486 mt 5338 4486 L
5338 4486 mt 5338 4486 L
5338 4486 mt 5338 4486 L
5338 4486 mt 5338 4486 L
5338 4486 mt 5338 4486 L
5338 4486 mt 5338 4486 L
5338 4486 mt 5338 4486 L
5338 4486 mt 5338 4486 L
5338 4486 mt 5338 4486 L
5338 4486 mt 5338 4486 L
5338 4486 mt 5338 4486 L
5338 4486 mt 5338 4486 L
5338 4486 mt 5338 4486 L
5338 4486 mt 5338 4486 L
5338 4486 mt 5338 4486 L
5338 4486 mt 5338 4486 L
5338 4486 mt 6749 4486 L
5338 2766 mt 6749 2766 L
5338 4486 mt 5338 2766 L
6749 4486 mt 6749 2766 L
gs 5338 2766 1412 1721 rc
DA
c8
685 -183 342 -176 171 -169 85 -158 43 -136 21 -158 11 -23 11 -30 
10 -30 11 -107 11 -32 5348 4298 12 MP stroke
SO
684 -172 342 -172 171 -173 86 841 42 117 22 -1490 10 -66 11 -141 
11 1720 5348 2766 10 MP stroke
gr

c8
0 sg
%%IncludeResource: font Helvetica
/Helvetica /ISOLatin1Encoding 120 FMSR

6025 4774 mt 
(t) s
4989 3801 mt  -90 rotate
(error ) s
90 rotate
%%IncludeResource: font Symbol
/Symbol /ISOLatin1Encoding 120 FMSR

4989 3515 mt  -90 rotate
(l) s
90 rotate
1 sg
0 400 1230 0 0 -400 6201 2688 4 MP
PP
-1230 0 0 400 1230 0 0 -400 6201 2688 5 MP stroke
4 w
DO
SO
6 w
0 sg
6201 2688 mt 7431 2688 L
6201 2288 mt 7431 2288 L
6201 2688 mt 6201 2288 L
7431 2688 mt 7431 2288 L
6201 2688 mt 7431 2688 L
6201 2688 mt 6201 2288 L
6201 2688 mt 7431 2688 L
6201 2288 mt 7431 2288 L
6201 2688 mt 6201 2288 L
7431 2688 mt 7431 2288 L
%%IncludeResource: font Helvetica
/Helvetica /ISOLatin1Encoding 120 FMSR

6669 2441 mt 
(second order) s
gs 6201 2288 1231 401 rc
DA
c8
360 0 6272 2398 2 MP stroke
SO
gr

c8
0 sg
6669 2620 mt 
(first order) s
gs 6201 2288 1231 401 rc
c8
360 0 6272 2577 2 MP stroke
gr

c8

end %%Color Dict

eplot
%%EndObject

epage
end

showpage

%%Trailer
%%EOF
