%!PS-Adobe-3.0 EPSF-3.0
%%Creator: MATLAB, The Mathworks, Inc.
%%Title: /homes/numerik/wunder/program/sources/Exp1_GLM12_var.eps
%%CreationDate: 08/18/2005  13:20:19
%%DocumentNeededFonts: Helvetica
%%DocumentProcessColors: Cyan Magenta Yellow Black
%%LanguageLevel: 2
%%Pages: 1
%%BoundingBox:     8   194   602   596
%%EndComments

%%BeginProlog
% MathWorks dictionary
/MathWorks 160 dict begin
% definition operators
/bdef {bind def} bind def
/ldef {load def} bind def
/xdef {exch def} bdef
/xstore {exch store} bdef
% operator abbreviations
/c  /clip ldef
/cc /concat ldef
/cp /closepath ldef
/gr /grestore ldef
/gs /gsave ldef
/mt /moveto ldef
/np /newpath ldef
/cm /currentmatrix ldef
/sm /setmatrix ldef
/rm /rmoveto ldef
/rl /rlineto ldef
/s {show newpath} bdef
/sc {setcmykcolor} bdef
/sr /setrgbcolor ldef
/sg /setgray ldef
/w /setlinewidth ldef
/j /setlinejoin ldef
/cap /setlinecap ldef
/rc {rectclip} bdef
/rf {rectfill} bdef
% page state control
/pgsv () def
/bpage {/pgsv save def} bdef
/epage {pgsv restore} bdef
/bplot /gsave ldef
/eplot {stroke grestore} bdef
% orientation switch
/portraitMode 0 def /landscapeMode 1 def /rotateMode 2 def
% coordinate system mappings
/dpi2point 0 def
% font control
/FontSize 0 def
/FMS {/FontSize xstore findfont [FontSize 0 0 FontSize neg 0 0]
  makefont setfont} bdef
/reencode {exch dup where {pop load} {pop StandardEncoding} ifelse
  exch dup 3 1 roll findfont dup length dict begin
  { 1 index /FID ne {def}{pop pop} ifelse } forall
  /Encoding exch def currentdict end definefont pop} bdef
/isroman {findfont /CharStrings get /Agrave known} bdef
/FMSR {3 1 roll 1 index dup isroman {reencode} {pop pop} ifelse
  exch FMS} bdef
/csm {1 dpi2point div -1 dpi2point div scale neg translate
 dup landscapeMode eq {pop -90 rotate}
  {rotateMode eq {90 rotate} if} ifelse} bdef
% line types: solid, dotted, dashed, dotdash
/SO { [] 0 setdash } bdef
/DO { [.5 dpi2point mul 4 dpi2point mul] 0 setdash } bdef
/DA { [6 dpi2point mul] 0 setdash } bdef
/DD { [.5 dpi2point mul 4 dpi2point mul 6 dpi2point mul 4
  dpi2point mul] 0 setdash } bdef
% macros for lines and objects
/L {lineto stroke} bdef
/MP {3 1 roll moveto 1 sub {rlineto} repeat} bdef
/AP {{rlineto} repeat} bdef
/PDlw -1 def
/W {/PDlw currentlinewidth def setlinewidth} def
/PP {closepath eofill} bdef
/DP {closepath stroke} bdef
/MR {4 -2 roll moveto dup  0 exch rlineto exch 0 rlineto
  neg 0 exch rlineto closepath} bdef
/FR {MR stroke} bdef
/PR {MR fill} bdef
/L1i {{currentfile picstr readhexstring pop} image} bdef
/tMatrix matrix def
/MakeOval {newpath tMatrix currentmatrix pop translate scale
0 0 1 0 360 arc tMatrix setmatrix} bdef
/FO {MakeOval stroke} bdef
/PO {MakeOval fill} bdef
/PD {currentlinewidth 2 div 0 360 arc fill
   PDlw -1 eq not {PDlw w /PDlw -1 def} if} def
/FA {newpath tMatrix currentmatrix pop translate scale
  0 0 1 5 -2 roll arc tMatrix setmatrix stroke} bdef
/PA {newpath tMatrix currentmatrix pop	translate 0 0 moveto scale
  0 0 1 5 -2 roll arc closepath tMatrix setmatrix fill} bdef
/FAn {newpath tMatrix currentmatrix pop translate scale
  0 0 1 5 -2 roll arcn tMatrix setmatrix stroke} bdef
/PAn {newpath tMatrix currentmatrix pop translate 0 0 moveto scale
  0 0 1 5 -2 roll arcn closepath tMatrix setmatrix fill} bdef
/vradius 0 def /hradius 0 def /lry 0 def
/lrx 0 def /uly 0 def /ulx 0 def /rad 0 def
/MRR {/vradius xdef /hradius xdef /lry xdef /lrx xdef /uly xdef
  /ulx xdef newpath tMatrix currentmatrix pop ulx hradius add uly
  vradius add translate hradius vradius scale 0 0 1 180 270 arc 
  tMatrix setmatrix lrx hradius sub uly vradius add translate
  hradius vradius scale 0 0 1 270 360 arc tMatrix setmatrix
  lrx hradius sub lry vradius sub translate hradius vradius scale
  0 0 1 0 90 arc tMatrix setmatrix ulx hradius add lry vradius sub
  translate hradius vradius scale 0 0 1 90 180 arc tMatrix setmatrix
  closepath} bdef
/FRR {MRR stroke } bdef
/PRR {MRR fill } bdef
/MlrRR {/lry xdef /lrx xdef /uly xdef /ulx xdef /rad lry uly sub 2 div def
  newpath tMatrix currentmatrix pop ulx rad add uly rad add translate
  rad rad scale 0 0 1 90 270 arc tMatrix setmatrix lrx rad sub lry rad
  sub translate rad rad scale 0 0 1 270 90 arc tMatrix setmatrix
  closepath} bdef
/FlrRR {MlrRR stroke } bdef
/PlrRR {MlrRR fill } bdef
/MtbRR {/lry xdef /lrx xdef /uly xdef /ulx xdef /rad lrx ulx sub 2 div def
  newpath tMatrix currentmatrix pop ulx rad add uly rad add translate
  rad rad scale 0 0 1 180 360 arc tMatrix setmatrix lrx rad sub lry rad
  sub translate rad rad scale 0 0 1 0 180 arc tMatrix setmatrix
  closepath} bdef
/FtbRR {MtbRR stroke } bdef
/PtbRR {MtbRR fill } bdef
/stri 6 array def /dtri 6 array def
/smat 6 array def /dmat 6 array def
/tmat1 6 array def /tmat2 6 array def /dif 3 array def
/asub {/ind2 exch def /ind1 exch def dup dup
  ind1 get exch ind2 get sub exch } bdef
/tri_to_matrix {
  2 0 asub 3 1 asub 4 0 asub 5 1 asub
  dup 0 get exch 1 get 7 -1 roll astore } bdef
/compute_transform {
  dmat dtri tri_to_matrix tmat1 invertmatrix 
  smat stri tri_to_matrix tmat2 concatmatrix } bdef
/ds {stri astore pop} bdef
/dt {dtri astore pop} bdef
/db {2 copy /cols xdef /rows xdef mul dup 3 mul string
  currentfile 
  3 index 0 eq {/ASCIIHexDecode filter}
  {/ASCII85Decode filter 3 index 2 eq {/RunLengthDecode filter} if }
  ifelse exch readstring pop
  dup 0 3 index getinterval /rbmap xdef
  dup 2 index dup getinterval /gbmap xdef
  1 index dup 2 mul exch getinterval /bbmap xdef pop pop}bdef
/it {gs np dtri aload pop moveto lineto lineto cp c
  cols rows 8 compute_transform 
  rbmap gbmap bbmap true 3 colorimage gr}bdef
/il {newpath moveto lineto stroke}bdef
currentdict end def
%%EndProlog

%%BeginSetup
MathWorks begin

0 cap

end
%%EndSetup

%%Page: 1 1
%%BeginPageSetup
%%PageBoundingBox:     8   194   602   596
MathWorks begin
bpage
%%EndPageSetup

%%BeginObject: obj1
bplot

/dpi2point 12 def
portraitMode 0096 7152 csm

    0     0  7137  4821 rc
85 dict begin %Colortable dictionary
/c0 { 0.000000 0.000000 0.000000 sr} bdef
/c1 { 1.000000 1.000000 1.000000 sr} bdef
/c2 { 0.900000 0.000000 0.000000 sr} bdef
/c3 { 0.000000 0.820000 0.000000 sr} bdef
/c4 { 0.000000 0.000000 0.800000 sr} bdef
/c5 { 0.910000 0.820000 0.320000 sr} bdef
/c6 { 1.000000 0.260000 0.820000 sr} bdef
/c7 { 0.000000 0.820000 0.820000 sr} bdef
c0
1 j
1 sg
   0    0 7138 4822 rf
6 w
0 1644 1393 0 0 -1644 1058 2006 4 MP
PP
-1393 0 0 1644 1393 0 0 -1644 1058 2006 5 MP stroke
4 w
DO
SO
6 w
0 sg
1058 2006 mt 2451 2006 L
1058  362 mt 2451  362 L
1058 2006 mt 1058  362 L
2451 2006 mt 2451  362 L
1058 2006 mt 2451 2006 L
1058 2006 mt 1058  362 L
1058 2006 mt 1058 1989 L
1058  362 mt 1058  378 L
%%IncludeResource: font Helvetica
/Helvetica /ISOLatin1Encoding 120 FMSR

1025 2151 mt 
(0) s
1585 2006 mt 1585 1989 L
1585  362 mt 1585  378 L
1469 2151 mt 
(0.05) s
2113 2006 mt 2113 1989 L
2113  362 mt 2113  378 L
2030 2151 mt 
(0.1) s
1058 2006 mt 1074 2006 L
2451 2006 mt 2434 2006 L
 957 2050 mt 
(0) s
1058 1756 mt 1074 1756 L
2451 1756 mt 2434 1756 L
 790 1800 mt 
(0.02) s
1058 1506 mt 1074 1506 L
2451 1506 mt 2434 1506 L
 790 1550 mt 
(0.04) s
1058 1256 mt 1074 1256 L
2451 1256 mt 2434 1256 L
 790 1300 mt 
(0.06) s
1058 1006 mt 1074 1006 L
2451 1006 mt 2434 1006 L
 790 1050 mt 
(0.08) s
1058  756 mt 1074  756 L
2451  756 mt 2434  756 L
 857  800 mt 
(0.1) s
1058  506 mt 1074  506 L
2451  506 mt 2434  506 L
 790  550 mt 
(0.12) s
1058 2006 mt 2451 2006 L
1058  362 mt 2451  362 L
1058 2006 mt 1058  362 L
2451 2006 mt 2451  362 L
gs 1058 362 1394 1645 rc
DA
/c8 { 0.000000 0.000000 1.000000 sr} bdef
c8
676 -792 338 -399 168 -200 85 -100 42 -50 21 -25 11 -12 10 -13 
11 -12 10 -13 11 -12 10 -13 1058 2006 13 MP stroke
SO
676 -795 338 -399 168 -200 85 -100 42 -50 21 -25 11 -12 10 -13 
11 -12 10 -13 11 -12 10 -13 1058 2006 13 MP stroke
gr

c8
0 sg
1736 2294 mt 
(t) s
 708 1215 mt  -90 rotate
(x) s
90 rotate
1 sg
0 1644 1393 0 0 -1644 3062 2005 4 MP
PP
-1393 0 0 1644 1393 0 0 -1644 3062 2005 5 MP stroke
4 w
DO
SO
6 w
0 sg
3062 2005 mt 4455 2005 L
3062  361 mt 4455  361 L
3062 2005 mt 3062  361 L
4455 2005 mt 4455  361 L
3062 2005 mt 4455 2005 L
3062 2005 mt 3062  361 L
3062 2005 mt 3062 1989 L
3062  361 mt 3062  378 L
3029 2151 mt 
(0) s
3589 2005 mt 3589 1989 L
3589  361 mt 3589  378 L
3473 2151 mt 
(0.05) s
4117 2005 mt 4117 1989 L
4117  361 mt 4117  378 L
4034 2151 mt 
(0.1) s
3062 1874 mt 3078 1874 L
4455 1874 mt 4438 1874 L
2727 1918 mt 
(0.992) s
3062 1496 mt 3078 1496 L
4455 1496 mt 4438 1496 L
2727 1540 mt 
(0.994) s
3062 1118 mt 3078 1118 L
4455 1118 mt 4438 1118 L
2727 1162 mt 
(0.996) s
3062  740 mt 3078  740 L
4455  740 mt 4438  740 L
2727  784 mt 
(0.998) s
3062  361 mt 3078  361 L
4455  361 mt 4438  361 L
2961  405 mt 
(1) s
3062 2005 mt 4455 2005 L
3062  361 mt 4455  361 L
3062 2005 mt 3062  361 L
4455 2005 mt 4455  361 L
gs 3062 361 1394 1645 rc
DA
c8
676 1200 338 314 168 85 85 24 42 7 21 3 11 1 10 1 
11 1 10 0 11 0 10 1 3062 361 13 MP stroke
SO
676 1207 338 314 168 85 85 24 42 7 21 3 11 1 10 1 
11 1 10 0 11 0 10 1 3062 361 13 MP stroke
gr

c8
0 sg
3740 2294 mt 
(t) s
2645 1214 mt  -90 rotate
(y) s
90 rotate
1 sg
0 1644 1393 0 0 -1644 5066 2006 4 MP
PP
-1393 0 0 1644 1393 0 0 -1644 5066 2006 5 MP stroke
4 w
DO
SO
6 w
0 sg
5066 2006 mt 6459 2006 L
5066  362 mt 6459  362 L
5066 2006 mt 5066  362 L
6459 2006 mt 6459  362 L
5066 2006 mt 6459 2006 L
5066 2006 mt 5066  362 L
5066 2006 mt 5066 1989 L
5066  362 mt 5066  378 L
5033 2151 mt 
(0) s
5593 2006 mt 5593 1989 L
5593  362 mt 5593  378 L
5477 2151 mt 
(0.05) s
6121 2006 mt 6121 1989 L
6121  362 mt 6121  378 L
6038 2151 mt 
(0.1) s
5066 2006 mt 5082 2006 L
6459 2006 mt 6442 2006 L
4965 2050 mt 
(0) s
5066 1754 mt 5082 1754 L
6459 1754 mt 6442 1754 L
4798 1798 mt 
(0.02) s
5066 1502 mt 5082 1502 L
6459 1502 mt 6442 1502 L
4798 1546 mt 
(0.04) s
5066 1250 mt 5082 1250 L
6459 1250 mt 6442 1250 L
4798 1294 mt 
(0.06) s
5066  998 mt 5082  998 L
6459  998 mt 6442  998 L
4798 1042 mt 
(0.08) s
5066  747 mt 5082  747 L
6459  747 mt 6442  747 L
4865  791 mt 
(0.1) s
5066  495 mt 5082  495 L
6459  495 mt 6442  495 L
4798  539 mt 
(0.12) s
5066 2006 mt 6459 2006 L
5066  362 mt 6459  362 L
5066 2006 mt 5066  362 L
6459 2006 mt 6459  362 L
gs 5066 362 1394 1645 rc
DA
c8
676 -758 338 -393 168 -200 85 -100 42 -50 21 -25 11 -13 10 -12 
11 -13 10 -12 11 -13 10 -13 5066 2006 13 MP stroke
SO
676 -790 338 -401 168 -201 85 -100 42 -51 21 -25 11 -13 10 -12 
11 -13 10 515 11 515 10 -1068 5066 2006 13 MP stroke
gr

c8
0 sg
5744 2294 mt 
(t) s
%%IncludeResource: font Symbol
/Symbol /ISOLatin1Encoding 120 FMSR

4708 1218 mt  -90 rotate
(l) s
90 rotate
1 sg
0 1645 1393 0 0 -1645 1058 4291 4 MP
PP
-1393 0 0 1645 1393 0 0 -1645 1058 4291 5 MP stroke
4 w
DO
SO
6 w
0 sg
1058 4291 mt 2451 4291 L
1058 2646 mt 2451 2646 L
1058 4291 mt 1058 2646 L
2451 4291 mt 2451 2646 L
1058 4291 mt 2451 4291 L
1058 4291 mt 1058 2646 L
1058 4291 mt 1058 4274 L
1058 2646 mt 1058 2662 L
%%IncludeResource: font Helvetica
/Helvetica /ISOLatin1Encoding 120 FMSR

1025 4436 mt 
(0) s
1585 4291 mt 1585 4274 L
1585 2646 mt 1585 2662 L
1469 4436 mt 
(0.05) s
2113 4291 mt 2113 4274 L
2113 2646 mt 2113 2662 L
2030 4436 mt 
(0.1) s
1058 4291 mt 1058 4291 L
1058 4291 mt 1058 4291 L
1058 4291 mt 1058 4291 L
1058 4291 mt 1058 4291 L
1058 4291 mt 1058 4291 L
1058 4291 mt 1058 4291 L
1058 4291 mt 1058 4291 L
1058 4291 mt 1058 4291 L
1058 4291 mt 1058 4291 L
1058 4291 mt 1058 4291 L
1058 4291 mt 1058 4291 L
1058 4291 mt 1058 4291 L
1058 4291 mt 1058 4291 L
1058 4291 mt 1058 4291 L
1058 4291 mt 1058 4291 L
1058 4291 mt 1058 4291 L
1058 4291 mt 1058 4291 L
1058 4291 mt 1058 4291 L
1058 3965 mt 1074 3965 L
2451 3965 mt 2434 3965 L
 755 4009 mt 
(10) s
%%IncludeResource: font Helvetica
/Helvetica /ISOLatin1Encoding 80 FMSR

 888 3935 mt 
(-10) s
1058 4291 mt 1058 4291 L
1058 4291 mt 1058 4291 L
1058 4291 mt 1058 4291 L
1058 4291 mt 1058 4291 L
1058 4291 mt 1058 4291 L
1058 4291 mt 1058 4291 L
1058 4291 mt 1058 4291 L
1058 4291 mt 1058 4291 L
1058 4291 mt 1058 4291 L
1058 4291 mt 1058 4291 L
1058 4291 mt 1058 4291 L
1058 4291 mt 1058 4291 L
1058 4291 mt 1058 4291 L
1058 4291 mt 1058 4291 L
1058 4291 mt 1058 4291 L
1058 4291 mt 1058 4291 L
1058 4291 mt 1058 4291 L
1058 4291 mt 1058 4291 L
1058 2945 mt 1074 2945 L
2451 2945 mt 2434 2945 L
%%IncludeResource: font Helvetica
/Helvetica /ISOLatin1Encoding 120 FMSR

 755 2989 mt 
(10) s
%%IncludeResource: font Helvetica
/Helvetica /ISOLatin1Encoding 80 FMSR

 888 2915 mt 
(-5) s
1058 4291 mt 1058 4291 L
1058 4291 mt 1058 4291 L
1058 4291 mt 1058 4291 L
1058 4291 mt 1058 4291 L
1058 4291 mt 1058 4291 L
1058 4291 mt 1058 4291 L
1058 4291 mt 1058 4291 L
1058 4291 mt 1058 4291 L
1058 4291 mt 1058 4291 L
1058 4291 mt 1058 4291 L
1058 4291 mt 1058 4291 L
1058 4291 mt 1058 4291 L
1058 4291 mt 1058 4291 L
1058 4291 mt 1058 4291 L
1058 4291 mt 1058 4291 L
1058 4291 mt 1058 4291 L
1058 4291 mt 1058 4291 L
1058 4291 mt 1058 4291 L
1058 4291 mt 2451 4291 L
1058 2646 mt 2451 2646 L
1058 4291 mt 1058 2646 L
2451 4291 mt 2451 2646 L
gs 1058 2646 1394 1646 rc
DA
c8
676 -180 338 -178 168 -171 85 -153 42 -118 21 -70 11 -32 10 -41 
11 -52 10 -75 11 -132 1068 3848 12 MP stroke
SO
676 -183 338 -185 168 -185 85 -187 42 -184 21 -129 11 -24 10 -35 
11 -58 10 -163 11 -6 1068 4291 12 MP stroke
gr

c8
0 sg
%%IncludeResource: font Helvetica
/Helvetica /ISOLatin1Encoding 120 FMSR

1736 4579 mt 
(t) s
 673 3640 mt  -90 rotate
(error x) s
90 rotate
1 sg
0 1645 1393 0 0 -1645 3062 4291 4 MP
PP
-1393 0 0 1645 1393 0 0 -1645 3062 4291 5 MP stroke
4 w
DO
SO
6 w
0 sg
3062 4291 mt 4455 4291 L
3062 2646 mt 4455 2646 L
3062 4291 mt 3062 2646 L
4455 4291 mt 4455 2646 L
3062 4291 mt 4455 4291 L
3062 4291 mt 3062 2646 L
3062 4291 mt 3062 4274 L
3062 2646 mt 3062 2662 L
3029 4436 mt 
(0) s
3589 4291 mt 3589 4274 L
3589 2646 mt 3589 2662 L
3473 4436 mt 
(0.05) s
4117 4291 mt 4117 4274 L
4117 2646 mt 4117 2662 L
4034 4436 mt 
(0.1) s
3062 4291 mt 3062 4291 L
3062 4291 mt 3062 4291 L
3062 4291 mt 3062 4291 L
3062 4291 mt 3062 4291 L
3062 4291 mt 3062 4291 L
3062 4291 mt 3062 4291 L
3062 4291 mt 3062 4291 L
3062 4291 mt 3062 4291 L
3062 4291 mt 3062 4291 L
3062 4291 mt 3062 4291 L
3062 4291 mt 3062 4291 L
3062 4291 mt 3062 4291 L
3062 4291 mt 3062 4291 L
3062 4291 mt 3062 4291 L
3062 4291 mt 3062 4291 L
3062 4291 mt 3062 4291 L
3062 4291 mt 3062 4291 L
3062 4291 mt 3062 4291 L
3062 3524 mt 3078 3524 L
4455 3524 mt 4438 3524 L
2759 3568 mt 
(10) s
%%IncludeResource: font Helvetica
/Helvetica /ISOLatin1Encoding 80 FMSR

2892 3494 mt 
(-10) s
3062 4291 mt 3062 4291 L
3062 4291 mt 3062 4291 L
3062 4291 mt 3062 4291 L
3062 4291 mt 3062 4291 L
3062 4291 mt 3062 4291 L
3062 4291 mt 3062 4291 L
3062 4291 mt 3062 4291 L
3062 4291 mt 3062 4291 L
3062 4291 mt 3062 4291 L
3062 4291 mt 3062 4291 L
3062 4291 mt 3062 4291 L
3062 4291 mt 3062 4291 L
3062 4291 mt 3062 4291 L
3062 4291 mt 3062 4291 L
3062 4291 mt 3062 4291 L
3062 4291 mt 3062 4291 L
3062 4291 mt 3062 4291 L
3062 4291 mt 3062 4291 L
3062 2738 mt 3078 2738 L
4455 2738 mt 4438 2738 L
%%IncludeResource: font Helvetica
/Helvetica /ISOLatin1Encoding 120 FMSR

2759 2782 mt 
(10) s
%%IncludeResource: font Helvetica
/Helvetica /ISOLatin1Encoding 80 FMSR

2892 2708 mt 
(-5) s
3062 4291 mt 3062 4291 L
3062 4291 mt 3062 4291 L
3062 4291 mt 3062 4291 L
3062 4291 mt 3062 4291 L
3062 4291 mt 3062 4291 L
3062 4291 mt 3062 4291 L
3062 4291 mt 3062 4291 L
3062 4291 mt 3062 4291 L
3062 4291 mt 3062 4291 L
3062 4291 mt 3062 4291 L
3062 4291 mt 3062 4291 L
3062 4291 mt 3062 4291 L
3062 4291 mt 3062 4291 L
3062 4291 mt 3062 4291 L
3062 4291 mt 3062 4291 L
3062 4291 mt 3062 4291 L
3062 4291 mt 3062 4291 L
3062 4291 mt 3062 4291 L
3062 4291 mt 4455 4291 L
3062 2646 mt 4455 2646 L
3062 4291 mt 3062 2646 L
4455 4291 mt 4455 2646 L
gs 3062 2646 1394 1646 rc
DA
c8
676 -184 338 -181 168 -171 85 -153 42 -119 21 -73 11 -38 10 -46 
11 -60 10 -85 11 -149 3072 3905 12 MP stroke
SO
676 -187 338 -186 168 -183 85 -178 42 -170 21 -118 11 -32 10 -42 
11 -68 10 -145 11 -101 3072 4291 12 MP stroke
gr

c8
0 sg
%%IncludeResource: font Helvetica
/Helvetica /ISOLatin1Encoding 120 FMSR

3740 4579 mt 
(t) s
2677 3640 mt  -90 rotate
(error y) s
90 rotate
1 sg
0 1645 1261 0 0 -1645 5198 4291 4 MP
PP
-1261 0 0 1645 1261 0 0 -1645 5198 4291 5 MP stroke
4 w
DO
SO
6 w
0 sg
5198 4291 mt 6459 4291 L
5198 2646 mt 6459 2646 L
5198 4291 mt 5198 2646 L
6459 4291 mt 6459 2646 L
5198 4291 mt 6459 4291 L
5198 4291 mt 5198 2646 L
5198 4291 mt 5198 4274 L
5198 2646 mt 5198 2662 L
5165 4436 mt 
(0) s
5675 4291 mt 5675 4274 L
5675 2646 mt 5675 2662 L
5559 4436 mt 
(0.05) s
6153 4291 mt 6153 4274 L
6153 2646 mt 6153 2662 L
6070 4436 mt 
(0.1) s
5198 4291 mt 5198 4291 L
5198 4291 mt 5198 4291 L
5198 4291 mt 5198 4291 L
5198 4291 mt 5198 4291 L
5198 4291 mt 5198 4291 L
5198 4291 mt 5198 4291 L
5198 4291 mt 5198 4291 L
5198 4291 mt 5198 4291 L
5198 4291 mt 5198 4291 L
5198 4291 mt 5198 4291 L
5198 4291 mt 5198 4291 L
5198 4291 mt 5198 4291 L
5198 4291 mt 5198 4291 L
5198 4291 mt 5198 4291 L
5198 4291 mt 5198 4291 L
5198 4291 mt 5198 4291 L
5198 4291 mt 5198 4291 L
5198 4291 mt 5198 4291 L
5198 4007 mt 5214 4007 L
6459 4007 mt 6442 4007 L
4939 4051 mt 
(10) s
%%IncludeResource: font Helvetica
/Helvetica /ISOLatin1Encoding 80 FMSR

5072 3977 mt 
(-6) s
5198 4291 mt 5198 4291 L
5198 4291 mt 5198 4291 L
5198 4291 mt 5198 4291 L
5198 4291 mt 5198 4291 L
5198 4291 mt 5198 4291 L
5198 4291 mt 5198 4291 L
5198 4291 mt 5198 4291 L
5198 4291 mt 5198 4291 L
5198 4291 mt 5198 4291 L
5198 4291 mt 5198 4291 L
5198 4291 mt 5198 4291 L
5198 4291 mt 5198 4291 L
5198 4291 mt 5198 4291 L
5198 4291 mt 5198 4291 L
5198 4291 mt 5198 4291 L
5198 4291 mt 5198 4291 L
5198 4291 mt 5198 4291 L
5198 4291 mt 5198 4291 L
5198 3454 mt 5214 3454 L
6459 3454 mt 6442 3454 L
%%IncludeResource: font Helvetica
/Helvetica /ISOLatin1Encoding 120 FMSR

4939 3498 mt 
(10) s
%%IncludeResource: font Helvetica
/Helvetica /ISOLatin1Encoding 80 FMSR

5072 3424 mt 
(-4) s
5198 4291 mt 5198 4291 L
5198 4291 mt 5198 4291 L
5198 4291 mt 5198 4291 L
5198 4291 mt 5198 4291 L
5198 4291 mt 5198 4291 L
5198 4291 mt 5198 4291 L
5198 4291 mt 5198 4291 L
5198 4291 mt 5198 4291 L
5198 4291 mt 5198 4291 L
5198 4291 mt 5198 4291 L
5198 4291 mt 5198 4291 L
5198 4291 mt 5198 4291 L
5198 4291 mt 5198 4291 L
5198 4291 mt 5198 4291 L
5198 4291 mt 5198 4291 L
5198 4291 mt 5198 4291 L
5198 4291 mt 5198 4291 L
5198 4291 mt 5198 4291 L
5198 2901 mt 5214 2901 L
6459 2901 mt 6442 2901 L
%%IncludeResource: font Helvetica
/Helvetica /ISOLatin1Encoding 120 FMSR

4939 2945 mt 
(10) s
%%IncludeResource: font Helvetica
/Helvetica /ISOLatin1Encoding 80 FMSR

5072 2871 mt 
(-2) s
5198 4291 mt 5198 4291 L
5198 4291 mt 5198 4291 L
5198 4291 mt 5198 4291 L
5198 4291 mt 5198 4291 L
5198 4291 mt 5198 4291 L
5198 4291 mt 5198 4291 L
5198 4291 mt 5198 4291 L
5198 4291 mt 5198 4291 L
5198 4291 mt 5198 4291 L
5198 4291 mt 5198 4291 L
5198 4291 mt 5198 4291 L
5198 4291 mt 5198 4291 L
5198 4291 mt 5198 4291 L
5198 4291 mt 5198 4291 L
5198 4291 mt 5198 4291 L
5198 4291 mt 5198 4291 L
5198 4291 mt 5198 4291 L
5198 4291 mt 5198 4291 L
5198 4291 mt 6459 4291 L
5198 2646 mt 6459 2646 L
5198 4291 mt 5198 2646 L
6459 4291 mt 6459 2646 L
gs 5198 2646 1262 1646 rc
DA
c8
612 -168 306 -163 152 -155 77 -142 38 -121 19 -101 10 -22 9 -25 
10 -35 9 -53 10 -139 5207 4159 12 MP stroke
SO
612 -162 306 -165 152 -164 77 -164 38 -168 19 -32 10 4 9 22 
10 -6 9 1542 10 83 5207 2646 12 MP stroke
gr

c8
0 sg
%%IncludeResource: font Helvetica
/Helvetica /ISOLatin1Encoding 120 FMSR

5810 4579 mt 
(t) s
4849 3643 mt  -90 rotate
(error ) s
90 rotate
%%IncludeResource: font Symbol
/Symbol /ISOLatin1Encoding 120 FMSR

4849 3357 mt  -90 rotate
(l) s
90 rotate
1 sg
0 400 1230 0 0 -400 5906 2606 4 MP
PP
-1230 0 0 400 1230 0 0 -400 5906 2606 5 MP stroke
4 w
DO
SO
6 w
0 sg
5906 2606 mt 7136 2606 L
5906 2206 mt 7136 2206 L
5906 2606 mt 5906 2206 L
7136 2606 mt 7136 2206 L
5906 2606 mt 7136 2606 L
5906 2606 mt 5906 2206 L
5906 2606 mt 7136 2606 L
5906 2206 mt 7136 2206 L
5906 2606 mt 5906 2206 L
7136 2606 mt 7136 2206 L
%%IncludeResource: font Helvetica
/Helvetica /ISOLatin1Encoding 120 FMSR

6374 2359 mt 
(second order) s
gs 5906 2206 1231 401 rc
DA
c8
360 0 5977 2316 2 MP stroke
SO
gr

c8
0 sg
6374 2538 mt 
(first order) s
gs 5906 2206 1231 401 rc
c8
360 0 5977 2495 2 MP stroke
gr

c8

end %%Color Dict

eplot
%%EndObject

epage
end

showpage

%%Trailer
%%EOF
