%!PS-Adobe-3.0 EPSF-3.0
%%Creator: MATLAB, The Mathworks, Inc.
%%Title: /homes/numerik/wunder/program/rk_const.eps
%%CreationDate: 07/07/2005  13:14:29
%%DocumentNeededFonts: Helvetica
%%DocumentProcessColors: Cyan Magenta Yellow Black
%%LanguageLevel: 2
%%Pages: 1
%%BoundingBox:    -6   193   620   597
%%EndComments

%%BeginProlog
% MathWorks dictionary
/MathWorks 160 dict begin
% definition operators
/bdef {bind def} bind def
/ldef {load def} bind def
/xdef {exch def} bdef
/xstore {exch store} bdef
% operator abbreviations
/c  /clip ldef
/cc /concat ldef
/cp /closepath ldef
/gr /grestore ldef
/gs /gsave ldef
/mt /moveto ldef
/np /newpath ldef
/cm /currentmatrix ldef
/sm /setmatrix ldef
/rm /rmoveto ldef
/rl /rlineto ldef
/s {show newpath} bdef
/sc {setcmykcolor} bdef
/sr /setrgbcolor ldef
/sg /setgray ldef
/w /setlinewidth ldef
/j /setlinejoin ldef
/cap /setlinecap ldef
/rc {rectclip} bdef
/rf {rectfill} bdef
% page state control
/pgsv () def
/bpage {/pgsv save def} bdef
/epage {pgsv restore} bdef
/bplot /gsave ldef
/eplot {stroke grestore} bdef
% orientation switch
/portraitMode 0 def /landscapeMode 1 def /rotateMode 2 def
% coordinate system mappings
/dpi2point 0 def
% font control
/FontSize 0 def
/FMS {/FontSize xstore findfont [FontSize 0 0 FontSize neg 0 0]
  makefont setfont} bdef
/reencode {exch dup where {pop load} {pop StandardEncoding} ifelse
  exch dup 3 1 roll findfont dup length dict begin
  { 1 index /FID ne {def}{pop pop} ifelse } forall
  /Encoding exch def currentdict end definefont pop} bdef
/isroman {findfont /CharStrings get /Agrave known} bdef
/FMSR {3 1 roll 1 index dup isroman {reencode} {pop pop} ifelse
  exch FMS} bdef
/csm {1 dpi2point div -1 dpi2point div scale neg translate
 dup landscapeMode eq {pop -90 rotate}
  {rotateMode eq {90 rotate} if} ifelse} bdef
% line types: solid, dotted, dashed, dotdash
/SO { [] 0 setdash } bdef
/DO { [.5 dpi2point mul 4 dpi2point mul] 0 setdash } bdef
/DA { [6 dpi2point mul] 0 setdash } bdef
/DD { [.5 dpi2point mul 4 dpi2point mul 6 dpi2point mul 4
  dpi2point mul] 0 setdash } bdef
% macros for lines and objects
/L {lineto stroke} bdef
/MP {3 1 roll moveto 1 sub {rlineto} repeat} bdef
/AP {{rlineto} repeat} bdef
/PDlw -1 def
/W {/PDlw currentlinewidth def setlinewidth} def
/PP {closepath eofill} bdef
/DP {closepath stroke} bdef
/MR {4 -2 roll moveto dup  0 exch rlineto exch 0 rlineto
  neg 0 exch rlineto closepath} bdef
/FR {MR stroke} bdef
/PR {MR fill} bdef
/L1i {{currentfile picstr readhexstring pop} image} bdef
/tMatrix matrix def
/MakeOval {newpath tMatrix currentmatrix pop translate scale
0 0 1 0 360 arc tMatrix setmatrix} bdef
/FO {MakeOval stroke} bdef
/PO {MakeOval fill} bdef
/PD {currentlinewidth 2 div 0 360 arc fill
   PDlw -1 eq not {PDlw w /PDlw -1 def} if} def
/FA {newpath tMatrix currentmatrix pop translate scale
  0 0 1 5 -2 roll arc tMatrix setmatrix stroke} bdef
/PA {newpath tMatrix currentmatrix pop	translate 0 0 moveto scale
  0 0 1 5 -2 roll arc closepath tMatrix setmatrix fill} bdef
/FAn {newpath tMatrix currentmatrix pop translate scale
  0 0 1 5 -2 roll arcn tMatrix setmatrix stroke} bdef
/PAn {newpath tMatrix currentmatrix pop translate 0 0 moveto scale
  0 0 1 5 -2 roll arcn closepath tMatrix setmatrix fill} bdef
/vradius 0 def /hradius 0 def /lry 0 def
/lrx 0 def /uly 0 def /ulx 0 def /rad 0 def
/MRR {/vradius xdef /hradius xdef /lry xdef /lrx xdef /uly xdef
  /ulx xdef newpath tMatrix currentmatrix pop ulx hradius add uly
  vradius add translate hradius vradius scale 0 0 1 180 270 arc 
  tMatrix setmatrix lrx hradius sub uly vradius add translate
  hradius vradius scale 0 0 1 270 360 arc tMatrix setmatrix
  lrx hradius sub lry vradius sub translate hradius vradius scale
  0 0 1 0 90 arc tMatrix setmatrix ulx hradius add lry vradius sub
  translate hradius vradius scale 0 0 1 90 180 arc tMatrix setmatrix
  closepath} bdef
/FRR {MRR stroke } bdef
/PRR {MRR fill } bdef
/MlrRR {/lry xdef /lrx xdef /uly xdef /ulx xdef /rad lry uly sub 2 div def
  newpath tMatrix currentmatrix pop ulx rad add uly rad add translate
  rad rad scale 0 0 1 90 270 arc tMatrix setmatrix lrx rad sub lry rad
  sub translate rad rad scale 0 0 1 270 90 arc tMatrix setmatrix
  closepath} bdef
/FlrRR {MlrRR stroke } bdef
/PlrRR {MlrRR fill } bdef
/MtbRR {/lry xdef /lrx xdef /uly xdef /ulx xdef /rad lrx ulx sub 2 div def
  newpath tMatrix currentmatrix pop ulx rad add uly rad add translate
  rad rad scale 0 0 1 180 360 arc tMatrix setmatrix lrx rad sub lry rad
  sub translate rad rad scale 0 0 1 0 180 arc tMatrix setmatrix
  closepath} bdef
/FtbRR {MtbRR stroke } bdef
/PtbRR {MtbRR fill } bdef
/stri 6 array def /dtri 6 array def
/smat 6 array def /dmat 6 array def
/tmat1 6 array def /tmat2 6 array def /dif 3 array def
/asub {/ind2 exch def /ind1 exch def dup dup
  ind1 get exch ind2 get sub exch } bdef
/tri_to_matrix {
  2 0 asub 3 1 asub 4 0 asub 5 1 asub
  dup 0 get exch 1 get 7 -1 roll astore } bdef
/compute_transform {
  dmat dtri tri_to_matrix tmat1 invertmatrix 
  smat stri tri_to_matrix tmat2 concatmatrix } bdef
/ds {stri astore pop} bdef
/dt {dtri astore pop} bdef
/db {2 copy /cols xdef /rows xdef mul dup 3 mul string
  currentfile 
  3 index 0 eq {/ASCIIHexDecode filter}
  {/ASCII85Decode filter 3 index 2 eq {/RunLengthDecode filter} if }
  ifelse exch readstring pop
  dup 0 3 index getinterval /rbmap xdef
  dup 2 index dup getinterval /gbmap xdef
  1 index dup 2 mul exch getinterval /bbmap xdef pop pop}bdef
/it {gs np dtri aload pop moveto lineto lineto cp c
  cols rows 8 compute_transform 
  rbmap gbmap bbmap true 3 colorimage gr}bdef
/il {newpath moveto lineto stroke}bdef
currentdict end def
%%EndProlog

%%BeginSetup
MathWorks begin

0 cap

end
%%EndSetup

%%Page: 1 1
%%BeginPageSetup
%%PageBoundingBox:    -6   193   620   597
MathWorks begin
bpage
%%EndPageSetup

%%BeginObject: obj1
bplot

/dpi2point 12 def
portraitMode -0072 7164 csm

    0     0  7516  4845 rc
86 dict begin %Colortable dictionary
/c0 { 0.000000 0.000000 0.000000 sr} bdef
/c1 { 1.000000 1.000000 1.000000 sr} bdef
/c2 { 0.900000 0.000000 0.000000 sr} bdef
/c3 { 0.000000 0.820000 0.000000 sr} bdef
/c4 { 0.000000 0.000000 0.800000 sr} bdef
/c5 { 0.910000 0.820000 0.320000 sr} bdef
/c6 { 1.000000 0.260000 0.820000 sr} bdef
/c7 { 0.000000 0.820000 0.820000 sr} bdef
c0
1 j
1 sg
   0    0 7517 4846 rf
6 w
0 1654 1442 0 0 -1654 1131 2016 4 MP
PP
-1442 0 0 1654 1442 0 0 -1654 1131 2016 5 MP stroke
4 w
DO
SO
6 w
0 sg
1131 2016 mt 2573 2016 L
1131  362 mt 2573  362 L
1131 2016 mt 1131  362 L
2573 2016 mt 2573  362 L
1131 2016 mt 2573 2016 L
1131 2016 mt 1131  362 L
1131 2016 mt 1131 1999 L
1131  363 mt 1131  379 L
%%IncludeResource: font Helvetica
/Helvetica /ISOLatin1Encoding 120 FMSR

1098 2161 mt 
(0) s
1611 2016 mt 1611 1999 L
1611  363 mt 1611  379 L
1528 2161 mt 
(0.5) s
2092 2016 mt 2092 1999 L
2092  363 mt 2092  379 L
2059 2161 mt 
(1) s
2572 2016 mt 2572 1999 L
2572  363 mt 2572  379 L
2489 2161 mt 
(1.5) s
1131 2016 mt 1147 2016 L
2573 2016 mt 2556 2016 L
1030 2060 mt 
(0) s
1131 1684 mt 1147 1684 L
2573 1684 mt 2556 1684 L
 930 1728 mt 
(0.2) s
1131 1353 mt 1147 1353 L
2573 1353 mt 2556 1353 L
 930 1397 mt 
(0.4) s
1131 1021 mt 1147 1021 L
2573 1021 mt 2556 1021 L
 930 1065 mt 
(0.6) s
1131  690 mt 1147  690 L
2573  690 mt 2556  690 L
 930  734 mt 
(0.8) s
1131 2016 mt 2573 2016 L
1131  362 mt 2573  362 L
1131 2016 mt 1131  362 L
2573 2016 mt 2573  362 L
gs 1131 363 1443 1654 rc
/c8 { 1.000000 0.000000 0.000000 sr} bdef
c8
9 -1 10 -1 9 -2 10 -2 10 -1 9 -3 10 -2 9 -2 
10 -3 10 -2 9 -3 10 -3 9 -4 10 -3 10 -4 9 -3 
10 -4 10 -4 9 -4 10 -5 9 -4 10 -5 10 -5 9 -5 
10 -5 9 -5 10 -6 10 -5 9 -6 10 -6 10 -6 9 -6 
10 -7 9 -6 10 -7 10 -7 9 -7 10 -7 9 -7 10 -8 
10 -7 9 -8 10 -8 9 -8 10 -8 10 -8 9 -9 10 -8 
10 -9 9 -9 10 -9 9 -9 10 -10 10 -9 9 -10 10 -9 
9 -10 10 -10 10 -10 9 -10 10 -11 10 -10 9 -11 10 -11 
9 -11 10 -11 10 -11 9 -11 10 -11 9 -12 10 -11 10 -12 
9 -12 10 -12 9 -12 10 -12 10 -12 9 -13 10 -12 10 -13 
9 -13 10 -12 9 -13 10 -13 10 -14 9 -13 10 -13 9 -14 
10 -13 10 -14 9 -14 10 -13 10 -14 9 -14 10 -14 9 -14 
10 -15 10 -14 9 -15 10 -14 9 -15 10 -14 10 -15 9 -15 
10 -15 10 -15 9 -15 10 -15 9 -15 10 -15 10 -15 9 -16 
10 -15 9 -16 10 -15 10 -16 9 -16 10 -15 9 -16 10 -16 
10 -16 9 -16 10 -15 10 -16 9 -17 10 -16 9 -16 10 -16 
10 -16 9 -16 10 -17 9 -16 10 -16 10 -16 9 -17 10 -16 
10 -17 9 -16 10 -17 9 -16 10 -17 10 -16 9 -17 10 -16 
9 -17 10 -16 10 -17 9 -16 10 -17 9 -17 1131 2016 151 MP stroke
DA
/c9 { 0.000000 0.000000 1.000000 sr} bdef
c9
10 -1 10 -1 9 -2 10 -2 10 -1 9 -3 10 -2 9 -2 
10 -3 10 -2 9 -3 10 -3 9 -4 10 -3 10 -4 9 -3 
10 -4 10 -4 9 -4 10 -5 9 -4 10 -5 10 -5 9 -5 
10 -5 9 -5 10 -6 10 -5 9 -6 10 -6 10 -6 9 -6 
10 -7 9 -6 10 -7 10 -7 9 -7 10 -7 9 -7 10 -8 
10 -7 9 -8 10 -8 9 -8 10 -8 10 -8 9 -9 10 -8 
10 -9 9 -9 10 -9 9 -9 10 -10 10 -9 9 -10 10 -9 
9 -10 10 -10 10 -10 9 -10 10 -11 10 -10 9 -11 10 -11 
9 -11 10 -11 10 -11 9 -11 10 -11 9 -12 10 -11 10 -12 
9 -12 10 -12 9 -12 10 -12 10 -12 9 -13 10 -12 10 -13 
9 -13 10 -12 9 -13 10 -13 10 -14 9 -13 10 -13 9 -14 
10 -13 10 -14 9 -14 10 -13 10 -14 9 -14 10 -14 9 -14 
10 -15 10 -14 9 -15 10 -14 9 -15 10 -14 10 -15 9 -15 
10 -15 10 -15 9 -15 10 -15 9 -15 10 -15 10 -15 9 -16 
10 -15 9 -16 10 -15 10 -16 9 -16 10 -15 9 -16 10 -16 
10 -16 9 -16 10 -15 10 -16 9 -17 10 -16 9 -16 10 -16 
10 -16 9 -16 10 -17 9 -16 10 -16 10 -16 9 -17 10 -16 
10 -17 9 -16 10 -17 9 -16 10 -17 10 -16 9 -17 10 -16 
9 -17 10 -16 10 -17 9 -16 10 -17 9 -17 1131 2016 151 MP stroke
SO
10 -1 10 -1 9 -2 10 -2 10 -1 9 -3 10 -2 9 -2 
10 -3 10 -2 9 -3 10 -3 9 -4 10 -3 10 -4 9 -3 
10 -4 10 -4 9 -4 10 -5 9 -4 10 -5 10 -5 9 -5 
10 -5 9 -5 10 -6 10 -5 9 -6 10 -6 10 -6 9 -6 
10 -7 9 -6 10 -7 10 -7 9 -7 10 -7 9 -7 10 -8 
10 -7 9 -8 10 -8 9 -8 10 -8 10 -8 9 -9 10 -8 
10 -9 9 -9 10 -9 9 -9 10 -10 10 -9 9 -10 10 -9 
9 -10 10 -10 10 -10 9 -10 10 -11 10 -10 9 -11 10 -11 
9 -11 10 -11 10 -11 9 -11 10 -11 9 -12 10 -11 10 -12 
9 -12 10 -12 9 -12 10 -12 10 -12 9 -13 10 -12 10 -13 
9 -13 10 -12 9 -13 10 -13 10 -14 9 -13 10 -13 9 -14 
10 -13 10 -14 9 -14 10 -13 10 -14 9 -14 10 -14 9 -14 
10 -15 10 -14 9 -15 10 -14 9 -15 10 -14 10 -15 9 -15 
10 -15 10 -15 9 -15 10 -15 9 -15 10 -15 10 -15 9 -16 
10 -15 9 -16 10 -15 10 -16 9 -16 10 -15 9 -16 10 -16 
10 -16 9 -16 10 -15 10 -16 9 -17 10 -16 9 -16 10 -16 
10 -16 9 -16 10 -17 9 -16 10 -16 10 -16 9 -17 10 -16 
10 -17 9 -16 10 -17 9 -16 10 -17 10 -16 9 -17 10 -16 
9 -17 10 -16 10 -17 9 -16 10 -17 9 -17 1131 2016 151 MP stroke
gr

c9
0 sg
1834 2304 mt 
(t) s
 848 1220 mt  -90 rotate
(x) s
90 rotate
1 sg
0 1653 1442 0 0 -1653 3242 2016 4 MP
PP
-1442 0 0 1653 1442 0 0 -1653 3242 2016 5 MP stroke
4 w
DO
SO
6 w
0 sg
3242 2016 mt 4684 2016 L
3242  363 mt 4684  363 L
3242 2016 mt 3242  363 L
4684 2016 mt 4684  363 L
3242 2016 mt 4684 2016 L
3242 2016 mt 3242  363 L
3242 2016 mt 3242 1999 L
3242  363 mt 3242  379 L
3209 2161 mt 
(0) s
3722 2016 mt 3722 1999 L
3722  363 mt 3722  379 L
3639 2161 mt 
(0.5) s
4203 2016 mt 4203 1999 L
4203  363 mt 4203  379 L
4170 2161 mt 
(1) s
4683 2016 mt 4683 1999 L
4683  363 mt 4683  379 L
4600 2161 mt 
(1.5) s
3242 1786 mt 3258 1786 L
4684 1786 mt 4667 1786 L
3041 1830 mt 
(0.2) s
3242 1430 mt 3258 1430 L
4684 1430 mt 4667 1430 L
3041 1474 mt 
(0.4) s
3242 1074 mt 3258 1074 L
4684 1074 mt 4667 1074 L
3041 1118 mt 
(0.6) s
3242  718 mt 3258  718 L
4684  718 mt 4667  718 L
3041  762 mt 
(0.8) s
3242  363 mt 3258  363 L
4684  363 mt 4667  363 L
3141  407 mt 
(1) s
3242 2016 mt 4684 2016 L
3242  363 mt 4684  363 L
3242 2016 mt 3242  363 L
4684 2016 mt 4684  363 L
gs 3242 362 1443 1654 rc
c8
10 18 10 18 9 18 10 17 10 18 9 18 10 17 9 18 
10 17 10 18 9 18 10 17 9 17 10 18 10 17 9 18 
10 17 10 17 9 17 10 18 9 17 10 17 10 17 9 17 
10 17 9 16 10 17 10 17 9 17 10 16 10 17 9 16 
10 17 9 16 10 16 10 16 9 17 10 16 9 16 10 16 
10 15 9 16 10 16 9 15 10 16 10 15 9 15 10 16 
10 15 9 15 10 15 9 15 10 14 10 15 9 14 10 15 
9 14 10 14 10 14 9 14 10 14 10 14 9 14 10 13 
9 14 10 13 10 13 9 13 10 13 9 13 10 13 10 12 
9 13 10 12 9 12 10 12 10 12 9 12 10 12 10 11 
9 12 10 11 9 11 10 11 10 11 9 10 10 11 9 10 
10 11 10 10 9 10 10 10 10 9 9 10 10 9 9 9 
10 9 10 9 9 9 10 9 9 8 10 8 10 9 9 8 
10 7 10 8 9 8 10 7 9 7 10 7 10 7 9 7 
10 6 9 6 10 7 10 6 9 6 10 5 9 6 10 5 
10 5 9 5 10 5 10 5 9 4 10 5 9 4 10 4 
10 3 9 4 10 3 9 4 10 3 10 3 9 3 10 2 
10 2 9 3 10 2 9 2 10 1 10 2 9 1 10 1 
9 1 10 1 10 1 9 0 10 0 9 0 3242 363 151 MP stroke
DA
c9
10 17 10 18 9 18 10 17 10 18 9 18 10 17 9 18 
10 17 10 18 9 18 10 17 9 17 10 18 10 17 9 18 
10 17 10 17 9 17 10 18 9 17 10 17 10 17 9 17 
10 17 9 16 10 17 10 17 9 17 10 16 10 17 9 16 
10 17 9 16 10 16 10 17 9 16 10 16 9 16 10 16 
10 15 9 16 10 16 9 15 10 16 10 15 9 15 10 16 
10 15 9 15 10 15 9 15 10 14 10 15 9 14 10 15 
9 14 10 14 10 14 9 14 10 14 10 14 9 14 10 13 
9 14 10 13 10 13 9 13 10 13 9 13 10 13 10 12 
9 13 10 12 9 12 10 12 10 12 9 12 10 12 10 11 
9 12 10 11 9 11 10 11 10 11 9 10 10 11 9 10 
10 11 10 10 9 10 10 10 10 9 9 10 10 9 9 9 
10 9 10 9 9 9 10 9 9 8 10 8 10 9 9 8 
10 7 10 8 9 8 10 7 9 7 10 7 10 7 9 7 
10 6 9 6 10 7 10 6 9 6 10 5 9 6 10 5 
10 5 9 5 10 5 10 5 9 4 10 5 9 4 10 4 
10 3 9 4 10 3 9 4 10 3 10 3 9 3 10 2 
10 2 9 3 10 2 9 2 10 1 10 2 9 1 10 1 
9 1 10 1 10 1 9 0 10 0 9 0 3242 363 151 MP stroke
SO
10 17 10 18 9 18 10 17 10 18 9 18 10 17 9 18 
10 17 10 18 9 18 10 17 9 17 10 18 10 17 9 18 
10 17 10 17 9 17 10 18 9 17 10 17 10 17 9 17 
10 17 9 16 10 17 10 17 9 17 10 16 10 17 9 16 
10 17 9 16 10 16 10 17 9 16 10 16 9 16 10 16 
10 15 9 16 10 16 9 15 10 16 10 15 9 15 10 16 
10 15 9 15 10 15 9 15 10 14 10 15 9 14 10 15 
9 14 10 14 10 14 9 14 10 14 10 14 9 14 10 13 
9 14 10 13 10 13 9 13 10 13 9 13 10 13 10 12 
9 13 10 12 9 12 10 12 10 12 9 12 10 12 10 11 
9 12 10 11 9 11 10 11 10 11 9 10 10 11 9 10 
10 11 10 10 9 10 10 10 10 9 9 10 10 9 9 9 
10 9 10 9 9 9 10 9 9 8 10 8 10 9 9 8 
10 7 10 8 9 8 10 7 9 7 10 7 10 7 9 7 
10 6 9 6 10 7 10 6 9 6 10 5 9 6 10 5 
10 5 9 5 10 5 10 5 9 4 10 5 9 4 10 4 
10 3 9 4 10 3 9 4 10 3 10 3 9 3 10 2 
10 2 9 3 10 2 9 2 10 1 10 2 9 1 10 1 
9 1 10 1 10 1 9 0 10 0 9 0 3242 363 151 MP stroke
gr

c9
0 sg
3945 2304 mt 
(t) s
2959 1220 mt  -90 rotate
(y) s
90 rotate
1 sg
0 1653 1442 0 0 -1653 5352 2016 4 MP
PP
-1442 0 0 1653 1442 0 0 -1653 5352 2016 5 MP stroke
4 w
DO
SO
6 w
0 sg
5352 2016 mt 6794 2016 L
5352  363 mt 6794  363 L
5352 2016 mt 5352  363 L
6794 2016 mt 6794  363 L
5352 2016 mt 6794 2016 L
5352 2016 mt 5352  363 L
5352 2016 mt 5352 1999 L
5352  363 mt 5352  379 L
5319 2161 mt 
(0) s
5832 2016 mt 5832 1999 L
5832  363 mt 5832  379 L
5749 2161 mt 
(0.5) s
6313 2016 mt 6313 1999 L
6313  363 mt 6313  379 L
6280 2161 mt 
(1) s
6793 2016 mt 6793 1999 L
6793  363 mt 6793  379 L
6710 2161 mt 
(1.5) s
5352 2016 mt 5368 2016 L
6794 2016 mt 6777 2016 L
5251 2060 mt 
(0) s
5352 1685 mt 5368 1685 L
6794 1685 mt 6777 1685 L
5151 1729 mt 
(0.1) s
5352 1354 mt 5368 1354 L
6794 1354 mt 6777 1354 L
5151 1398 mt 
(0.2) s
5352 1024 mt 5368 1024 L
6794 1024 mt 6777 1024 L
5151 1068 mt 
(0.3) s
5352  693 mt 5368  693 L
6794  693 mt 6777  693 L
5151  737 mt 
(0.4) s
5352 2016 mt 6794 2016 L
5352  363 mt 6794  363 L
5352 2016 mt 5352  363 L
6794 2016 mt 6794  363 L
gs 5352 363 1443 1654 rc
c8
10 32 10 33 9 32 10 33 10 32 9 32 10 32 9 32 
10 31 10 31 9 31 10 31 9 31 10 30 10 30 9 30 
10 29 10 29 9 29 10 29 9 28 10 28 10 27 9 27 
10 27 9 26 10 26 10 25 9 25 10 25 10 24 9 24 
10 23 9 23 10 22 10 22 9 21 10 21 9 20 10 20 
10 19 9 19 10 18 9 17 10 17 10 17 9 16 10 15 
10 15 9 14 10 13 9 13 10 12 10 12 9 11 10 10 
9 10 10 9 10 8 9 8 10 7 10 7 9 6 10 5 
9 5 10 4 10 3 9 3 10 2 9 1 10 0 10 0 
9 0 10 -2 9 -2 10 -2 10 -4 9 -4 10 -4 10 -6 
9 -5 10 -7 9 -7 10 -8 10 -9 9 -9 10 -10 9 -10 
10 -11 10 -12 9 -12 10 -13 10 -14 9 -14 10 -14 9 -16 
10 -15 10 -17 9 -17 10 -18 9 -18 10 -18 10 -20 9 -19 
10 -21 10 -20 9 -22 10 -22 9 -22 10 -23 10 -23 9 -24 
10 -24 9 -25 10 -25 10 -25 9 -26 10 -26 9 -27 10 -27 
10 -28 9 -27 10 -29 10 -28 9 -29 10 -29 9 -30 10 -29 
10 -30 9 -31 10 -30 9 -31 10 -31 10 -32 9 -31 10 -32 
10 -32 9 -32 10 -32 9 -32 10 -33 10 -32 9 -33 10 -33 
9 -32 10 -33 10 -33 9 -33 10 -33 9 -34 5352 2016 151 MP stroke
DA
c9
10 32 10 33 9 33 10 32 10 32 9 32 10 32 9 32 
10 31 10 31 9 31 10 31 9 31 10 30 10 30 9 30 
10 29 10 29 9 29 10 29 9 28 10 28 10 27 9 27 
10 27 9 26 10 26 10 25 9 26 10 24 10 24 9 24 
10 23 9 23 10 22 10 22 9 21 10 21 9 20 10 20 
10 19 9 19 10 18 9 17 10 17 10 17 9 16 10 15 
10 15 9 14 10 13 9 13 10 12 10 12 9 11 10 10 
9 10 10 9 10 9 9 7 10 8 10 6 9 6 10 5 
9 5 10 4 10 3 9 3 10 2 9 1 10 0 10 0 
9 0 10 -2 9 -2 10 -2 10 -4 9 -4 10 -4 10 -5 
9 -6 10 -7 9 -7 10 -8 10 -9 9 -9 10 -10 9 -10 
10 -11 10 -12 9 -12 10 -13 10 -13 9 -15 10 -14 9 -16 
10 -15 10 -17 9 -17 10 -17 9 -19 10 -18 10 -20 9 -19 
10 -21 10 -20 9 -22 10 -22 9 -22 10 -23 10 -23 9 -24 
10 -24 9 -24 10 -26 10 -25 9 -26 10 -26 9 -27 10 -27 
10 -28 9 -27 10 -29 10 -28 9 -29 10 -29 9 -30 10 -29 
10 -30 9 -31 10 -30 9 -31 10 -31 10 -31 9 -32 10 -32 
10 -31 9 -33 10 -32 9 -32 10 -33 10 -32 9 -33 10 -33 
9 -32 10 -33 10 -33 9 -33 10 -33 9 -34 5352 2016 151 MP stroke
SO
10 32 10 33 9 33 10 32 10 32 9 32 10 32 9 32 
10 31 10 31 9 31 10 31 9 31 10 30 10 30 9 30 
10 29 10 29 9 29 10 29 9 28 10 28 10 27 9 27 
10 27 9 26 10 26 10 25 9 26 10 24 10 24 9 24 
10 23 9 23 10 22 10 22 9 21 10 21 9 20 10 20 
10 19 9 19 10 18 9 17 10 17 10 17 9 16 10 15 
10 15 9 14 10 13 9 13 10 12 10 12 9 11 10 10 
9 10 10 9 10 9 9 7 10 8 10 6 9 6 10 5 
9 5 10 4 10 3 9 3 10 2 9 1 10 0 10 0 
9 0 10 -2 9 -2 10 -2 10 -4 9 -4 10 -4 10 -5 
9 -6 10 -7 9 -7 10 -8 10 -9 9 -9 10 -10 9 -10 
10 -11 10 -12 9 -12 10 -13 10 -13 9 -15 10 -14 9 -16 
10 -15 10 -17 9 -17 10 -17 9 -19 10 -18 10 -20 9 -19 
10 -21 10 -20 9 -22 10 -22 9 -22 10 -23 10 -23 9 -24 
10 -24 9 -24 10 -26 10 -25 9 -26 10 -26 9 -27 10 -27 
10 -28 9 -27 10 -29 10 -28 9 -29 10 -29 9 -30 10 -29 
10 -30 9 -31 10 -30 9 -31 10 -31 10 -31 9 -32 10 -32 
10 -31 9 -33 10 -32 9 -32 10 -33 10 -32 9 -33 10 -33 
9 -32 10 -33 10 -33 9 -33 10 -33 9 -34 5352 2016 151 MP stroke
gr

c9
0 sg
6055 2304 mt 
(t) s
%%IncludeResource: font Symbol
/Symbol /ISOLatin1Encoding 120 FMSR

5061 1223 mt  -90 rotate
(l) s
90 rotate
1 sg
0 1653 1442 0 0 -1653 1131 4312 4 MP
PP
-1442 0 0 1653 1442 0 0 -1653 1131 4312 5 MP stroke
4 w
DO
SO
6 w
0 sg
1131 4312 mt 2573 4312 L
1131 2659 mt 2573 2659 L
1131 4312 mt 1131 2659 L
2573 4312 mt 2573 2659 L
1131 4312 mt 2573 4312 L
1131 4312 mt 1131 2659 L
1131 4312 mt 1131 4295 L
1131 2659 mt 1131 2675 L
%%IncludeResource: font Helvetica
/Helvetica /ISOLatin1Encoding 120 FMSR

1098 4457 mt 
(0) s
1611 4312 mt 1611 4295 L
1611 2659 mt 1611 2675 L
1528 4457 mt 
(0.5) s
2092 4312 mt 2092 4295 L
2092 2659 mt 2092 2675 L
2059 4457 mt 
(1) s
2572 4312 mt 2572 4295 L
2572 2659 mt 2572 2675 L
2489 4457 mt 
(1.5) s
1131 4312 mt 1131 4312 L
1131 4312 mt 1131 4312 L
1131 4312 mt 1131 4312 L
1131 4312 mt 1131 4312 L
1131 4312 mt 1131 4312 L
1131 4312 mt 1131 4312 L
1131 4312 mt 1131 4312 L
1131 4312 mt 1131 4312 L
1131 4312 mt 1131 4312 L
1131 4312 mt 1131 4312 L
1131 4312 mt 1131 4312 L
1131 4312 mt 1131 4312 L
1131 4312 mt 1131 4312 L
1131 4312 mt 1131 4312 L
1131 4312 mt 1131 4312 L
1131 4312 mt 1131 4312 L
1131 4312 mt 1131 4312 L
1131 4312 mt 1131 4312 L
1131 3530 mt 1147 3530 L
2573 3530 mt 2556 3530 L
 828 3574 mt 
(10) s
%%IncludeResource: font Helvetica
/Helvetica /ISOLatin1Encoding 80 FMSR

 961 3500 mt 
(-10) s
1131 4312 mt 1131 4312 L
1131 4312 mt 1131 4312 L
1131 4312 mt 1131 4312 L
1131 4312 mt 1131 4312 L
1131 4312 mt 1131 4312 L
1131 4312 mt 1131 4312 L
1131 4312 mt 1131 4312 L
1131 4312 mt 1131 4312 L
1131 4312 mt 1131 4312 L
1131 4312 mt 1131 4312 L
1131 4312 mt 1131 4312 L
1131 4312 mt 1131 4312 L
1131 4312 mt 1131 4312 L
1131 4312 mt 1131 4312 L
1131 4312 mt 1131 4312 L
1131 4312 mt 1131 4312 L
1131 4312 mt 1131 4312 L
1131 4312 mt 1131 4312 L
1131 2700 mt 1147 2700 L
2573 2700 mt 2556 2700 L
%%IncludeResource: font Helvetica
/Helvetica /ISOLatin1Encoding 120 FMSR

 828 2744 mt 
(10) s
%%IncludeResource: font Helvetica
/Helvetica /ISOLatin1Encoding 80 FMSR

 961 2670 mt 
(-8) s
1131 4312 mt 1131 4312 L
1131 4312 mt 1131 4312 L
1131 4312 mt 1131 4312 L
1131 4312 mt 1131 4312 L
1131 4312 mt 1131 4312 L
1131 4312 mt 1131 4312 L
1131 4312 mt 1131 4312 L
1131 4312 mt 1131 4312 L
1131 4312 mt 1131 4312 L
1131 4312 mt 1131 4312 L
1131 4312 mt 1131 4312 L
1131 4312 mt 1131 4312 L
1131 4312 mt 1131 4312 L
1131 4312 mt 1131 4312 L
1131 4312 mt 1131 4312 L
1131 4312 mt 1131 4312 L
1131 4312 mt 1131 4312 L
1131 4312 mt 1131 4312 L
1131 4312 mt 2573 4312 L
1131 2659 mt 2573 2659 L
1131 4312 mt 1131 2659 L
2573 4312 mt 2573 2659 L
gs 1131 2659 1443 1654 rc
DA
c9
10 21 10 19 9 16 10 14 10 13 9 11 10 11 9 9 
10 9 10 8 9 7 10 7 9 6 10 5 10 5 9 5 
10 5 10 4 9 3 10 4 9 3 10 2 10 3 9 2 
10 2 9 2 10 2 10 1 9 2 10 1 10 1 9 0 
10 1 9 0 10 0 10 0 9 0 10 0 9 0 10 -1 
10 0 9 -1 10 -1 9 -1 10 -1 10 -1 9 -1 10 -2 
10 -1 9 -2 10 -2 9 -2 10 -2 10 -2 9 -2 10 -2 
9 -3 10 -2 10 -3 9 -2 10 -3 10 -3 9 -3 10 -3 
9 -3 10 -3 10 -3 9 -4 10 -3 9 -4 10 -4 10 -3 
9 -4 10 -4 9 -4 10 -5 10 -4 9 -4 10 -5 10 -4 
9 -5 10 -5 9 -5 10 -5 10 -5 9 -5 10 -5 9 -6 
10 -5 10 -6 9 -6 10 -5 10 -6 9 -7 10 -6 9 -6 
10 -7 10 -7 9 -7 10 -7 9 -7 10 -7 10 -8 9 -7 
10 -8 10 -8 9 -9 10 -8 9 -9 10 -9 10 -9 9 -10 
10 -10 9 -10 10 -10 10 -11 9 -10 10 -12 9 -11 10 -13 
10 -12 9 -13 10 -14 10 -14 9 -14 10 -15 9 -16 10 -17 
10 -17 9 -18 10 -19 9 -20 10 -22 10 -22 9 -24 10 -26 
10 -28 9 -30 10 -33 9 -35 10 -40 10 -45 9 -50 10 -59 
9 -69 10 -85 10 -111 9 -153 10 -223 1140 4312 150 MP stroke
SO
10 21 10 19 9 16 10 14 10 13 9 11 10 11 9 9 
10 9 10 8 9 7 10 7 9 6 10 5 10 5 9 5 
10 5 10 4 9 3 10 4 9 3 10 2 10 3 9 2 
10 2 9 2 10 2 10 1 9 2 10 1 10 1 9 0 
10 1 9 0 10 0 10 0 9 0 10 0 9 0 10 -1 
10 0 9 -1 10 -1 9 -1 10 -1 10 -1 9 -1 10 -2 
10 -1 9 -2 10 -2 9 -2 10 -2 10 -2 9 -2 10 -2 
9 -3 10 -2 10 -3 9 -2 10 -3 10 -3 9 -3 10 -3 
9 -3 10 -3 10 -3 9 -4 10 -3 9 -4 10 -4 10 -3 
9 -4 10 -4 9 -4 10 -5 10 -4 9 -4 10 -5 10 -4 
9 -5 10 -5 9 -5 10 -5 10 -5 9 -5 10 -5 9 -6 
10 -5 10 -6 9 -6 10 -5 10 -6 9 -7 10 -6 9 -6 
10 -7 10 -7 9 -7 10 -7 9 -7 10 -7 10 -8 9 -7 
10 -8 10 -8 9 -9 10 -8 9 -9 10 -9 10 -9 9 -10 
10 -10 9 -10 10 -10 10 -11 9 -10 10 -12 9 -11 10 -13 
10 -12 9 -13 10 -14 10 -14 9 -14 10 -15 9 -16 10 -17 
10 -17 9 -18 10 -19 9 -20 10 -22 10 -22 9 -24 10 -26 
10 -28 9 -30 10 -33 9 -35 10 -40 10 -45 9 -50 10 -59 
9 -69 10 -85 10 -111 9 -153 10 -223 1140 4312 150 MP stroke
gr

c9
0 sg
%%IncludeResource: font Helvetica
/Helvetica /ISOLatin1Encoding 120 FMSR

1834 4600 mt 
(t) s
 746 3657 mt  -90 rotate
(error x) s
90 rotate
1 sg
0 1653 1442 0 0 -1653 3242 4312 4 MP
PP
-1442 0 0 1653 1442 0 0 -1653 3242 4312 5 MP stroke
4 w
DO
SO
6 w
0 sg
3242 4312 mt 4684 4312 L
3242 2659 mt 4684 2659 L
3242 4312 mt 3242 2659 L
4684 4312 mt 4684 2659 L
3242 4312 mt 4684 4312 L
3242 4312 mt 3242 2659 L
3242 4312 mt 3242 4295 L
3242 2659 mt 3242 2675 L
3209 4457 mt 
(0) s
3722 4312 mt 3722 4295 L
3722 2659 mt 3722 2675 L
3639 4457 mt 
(0.5) s
4203 4312 mt 4203 4295 L
4203 2659 mt 4203 2675 L
4170 4457 mt 
(1) s
4683 4312 mt 4683 4295 L
4683 2659 mt 4683 2675 L
4600 4457 mt 
(1.5) s
3242 4312 mt 3242 4312 L
3242 4312 mt 3242 4312 L
3242 4312 mt 3242 4312 L
3242 4312 mt 3242 4312 L
3242 4312 mt 3242 4312 L
3242 4312 mt 3242 4312 L
3242 4312 mt 3242 4312 L
3242 4312 mt 3242 4312 L
3242 4312 mt 3242 4312 L
3242 4312 mt 3242 4312 L
3242 4312 mt 3242 4312 L
3242 4312 mt 3242 4312 L
3242 4312 mt 3242 4312 L
3242 4312 mt 3242 4312 L
3242 4312 mt 3242 4312 L
3242 4312 mt 3242 4312 L
3242 4312 mt 3242 4312 L
3242 4312 mt 3242 4312 L
3242 3843 mt 3258 3843 L
4684 3843 mt 4667 3843 L
2939 3887 mt 
(10) s
%%IncludeResource: font Helvetica
/Helvetica /ISOLatin1Encoding 80 FMSR

3072 3813 mt 
(-12) s
3242 4312 mt 3242 4312 L
3242 4312 mt 3242 4312 L
3242 4312 mt 3242 4312 L
3242 4312 mt 3242 4312 L
3242 4312 mt 3242 4312 L
3242 4312 mt 3242 4312 L
3242 4312 mt 3242 4312 L
3242 4312 mt 3242 4312 L
3242 4312 mt 3242 4312 L
3242 4312 mt 3242 4312 L
3242 4312 mt 3242 4312 L
3242 4312 mt 3242 4312 L
3242 4312 mt 3242 4312 L
3242 4312 mt 3242 4312 L
3242 4312 mt 3242 4312 L
3242 4312 mt 3242 4312 L
3242 4312 mt 3242 4312 L
3242 4312 mt 3242 4312 L
3242 3345 mt 3258 3345 L
4684 3345 mt 4667 3345 L
%%IncludeResource: font Helvetica
/Helvetica /ISOLatin1Encoding 120 FMSR

2939 3389 mt 
(10) s
%%IncludeResource: font Helvetica
/Helvetica /ISOLatin1Encoding 80 FMSR

3072 3315 mt 
(-10) s
3242 4312 mt 3242 4312 L
3242 4312 mt 3242 4312 L
3242 4312 mt 3242 4312 L
3242 4312 mt 3242 4312 L
3242 4312 mt 3242 4312 L
3242 4312 mt 3242 4312 L
3242 4312 mt 3242 4312 L
3242 4312 mt 3242 4312 L
3242 4312 mt 3242 4312 L
3242 4312 mt 3242 4312 L
3242 4312 mt 3242 4312 L
3242 4312 mt 3242 4312 L
3242 4312 mt 3242 4312 L
3242 4312 mt 3242 4312 L
3242 4312 mt 3242 4312 L
3242 4312 mt 3242 4312 L
3242 4312 mt 3242 4312 L
3242 4312 mt 3242 4312 L
3242 2847 mt 3258 2847 L
4684 2847 mt 4667 2847 L
%%IncludeResource: font Helvetica
/Helvetica /ISOLatin1Encoding 120 FMSR

2939 2891 mt 
(10) s
%%IncludeResource: font Helvetica
/Helvetica /ISOLatin1Encoding 80 FMSR

3072 2817 mt 
(-8) s
3242 4312 mt 3242 4312 L
3242 4312 mt 3242 4312 L
3242 4312 mt 3242 4312 L
3242 4312 mt 3242 4312 L
3242 4312 mt 3242 4312 L
3242 4312 mt 3242 4312 L
3242 4312 mt 3242 4312 L
3242 4312 mt 3242 4312 L
3242 4312 mt 3242 4312 L
3242 4312 mt 3242 4312 L
3242 4312 mt 3242 4312 L
3242 4312 mt 3242 4312 L
3242 4312 mt 3242 4312 L
3242 4312 mt 3242 4312 L
3242 4312 mt 3242 4312 L
3242 4312 mt 3242 4312 L
3242 4312 mt 3242 4312 L
3242 4312 mt 3242 4312 L
3242 4312 mt 4684 4312 L
3242 2659 mt 4684 2659 L
3242 4312 mt 3242 2659 L
4684 4312 mt 4684 2659 L
gs 3242 2659 1443 1654 rc
DA
c9
10 -1 10 -2 9 -1 10 -2 10 -2 9 -2 10 -2 9 -1 
10 -2 10 -2 9 -2 10 -2 9 -2 10 -2 10 -2 9 -2 
10 -2 10 -3 9 -2 10 -2 9 -2 10 -3 10 -2 9 -2 
10 -3 9 -2 10 -3 10 -2 9 -3 10 -2 10 -3 9 -3 
10 -3 9 -2 10 -3 10 -3 9 -3 10 -3 9 -3 10 -3 
10 -3 9 -3 10 -3 9 -3 10 -3 10 -3 9 -4 10 -3 
10 -3 9 -4 10 -3 9 -3 10 -4 10 -3 9 -4 10 -4 
9 -3 10 -4 10 -4 9 -4 10 -4 10 -4 9 -4 10 -4 
9 -4 10 -4 10 -4 9 -4 10 -4 9 -5 10 -4 10 -5 
9 -4 10 -5 9 -4 10 -5 10 -5 9 -4 10 -5 10 -5 
9 -5 10 -5 9 -5 10 -6 10 -5 9 -5 10 -6 9 -5 
10 -6 10 -6 9 -5 10 -6 10 -6 9 -6 10 -7 9 -6 
10 -6 10 -7 9 -6 10 -7 9 -7 10 -7 10 -7 9 -8 
10 -7 10 -8 9 -8 10 -8 9 -8 10 -8 10 -9 9 -9 
10 -9 9 -9 10 -9 10 -10 9 -10 10 -11 9 -10 10 -11 
10 -12 9 -12 10 -12 10 -12 9 -14 10 -13 9 -14 10 -15 
10 -16 9 -16 10 -17 9 -18 10 -20 10 -20 9 -21 10 -23 
10 -25 9 -27 10 -29 9 -32 10 -35 10 -40 9 -45 10 -51 
9 -62 10 -75 10 -98 9 -135 10 -209 3251 4312 150 MP stroke
SO
10 -1 10 -2 9 -1 10 -2 10 -2 9 -2 10 -2 9 -1 
10 -2 10 -2 9 -2 10 -2 9 -2 10 -2 10 -2 9 -2 
10 -2 10 -3 9 -2 10 -2 9 -2 10 -3 10 -2 9 -2 
10 -3 9 -2 10 -3 10 -2 9 -3 10 -2 10 -3 9 -3 
10 -3 9 -2 10 -3 10 -3 9 -3 10 -3 9 -3 10 -3 
10 -3 9 -3 10 -3 9 -3 10 -3 10 -3 9 -4 10 -3 
10 -3 9 -4 10 -3 9 -3 10 -4 10 -3 9 -4 10 -4 
9 -3 10 -4 10 -4 9 -4 10 -4 10 -4 9 -4 10 -4 
9 -4 10 -4 10 -4 9 -4 10 -4 9 -5 10 -4 10 -5 
9 -4 10 -5 9 -4 10 -5 10 -5 9 -4 10 -5 10 -5 
9 -5 10 -5 9 -5 10 -6 10 -5 9 -5 10 -6 9 -5 
10 -6 10 -6 9 -5 10 -6 10 -6 9 -6 10 -7 9 -6 
10 -6 10 -7 9 -6 10 -7 9 -7 10 -7 10 -7 9 -8 
10 -7 10 -8 9 -8 10 -8 9 -8 10 -8 10 -9 9 -9 
10 -9 9 -9 10 -9 10 -10 9 -10 10 -11 9 -10 10 -11 
10 -12 9 -12 10 -12 10 -12 9 -14 10 -13 9 -14 10 -15 
10 -16 9 -16 10 -17 9 -18 10 -20 10 -20 9 -21 10 -23 
10 -25 9 -27 10 -29 9 -32 10 -35 10 -40 9 -45 10 -51 
9 -62 10 -75 10 -98 9 -135 10 -209 3251 4312 150 MP stroke
gr

c9
0 sg
%%IncludeResource: font Helvetica
/Helvetica /ISOLatin1Encoding 120 FMSR

3945 4600 mt 
(t) s
2857 3657 mt  -90 rotate
(error y) s
90 rotate
1 sg
0 1653 1332 0 0 -1653 5447 4312 4 MP
PP
-1332 0 0 1653 1332 0 0 -1653 5447 4312 5 MP stroke
4 w
DO
SO
6 w
0 sg
5447 4312 mt 6779 4312 L
5447 2659 mt 6779 2659 L
5447 4312 mt 5447 2659 L
6779 4312 mt 6779 2659 L
5447 4312 mt 6779 4312 L
5447 4312 mt 5447 2659 L
5447 4312 mt 5447 4295 L
5447 2659 mt 5447 2675 L
5414 4457 mt 
(0) s
5891 4312 mt 5891 4295 L
5891 2659 mt 5891 2675 L
5808 4457 mt 
(0.5) s
6335 4312 mt 6335 4295 L
6335 2659 mt 6335 2675 L
6302 4457 mt 
(1) s
6779 4312 mt 6779 4295 L
6779 2659 mt 6779 2675 L
6696 4457 mt 
(1.5) s
5447 4312 mt 5455 4312 L
6779 4312 mt 6770 4312 L
5447 4312 mt 5463 4312 L
6779 4312 mt 6762 4312 L
5188 4356 mt 
(10) s
%%IncludeResource: font Helvetica
/Helvetica /ISOLatin1Encoding 80 FMSR

5321 4282 mt 
(-6) s
5447 4063 mt 5455 4063 L
6779 4063 mt 6770 4063 L
5447 3917 mt 5455 3917 L
6779 3917 mt 6770 3917 L
5447 3814 mt 5455 3814 L
6779 3814 mt 6770 3814 L
5447 3734 mt 5455 3734 L
6779 3734 mt 6770 3734 L
5447 3668 mt 5455 3668 L
6779 3668 mt 6770 3668 L
5447 3613 mt 5455 3613 L
6779 3613 mt 6770 3613 L
5447 3565 mt 5455 3565 L
6779 3565 mt 6770 3565 L
5447 3523 mt 5455 3523 L
6779 3523 mt 6770 3523 L
5447 3485 mt 5455 3485 L
6779 3485 mt 6770 3485 L
5447 3485 mt 5463 3485 L
6779 3485 mt 6762 3485 L
%%IncludeResource: font Helvetica
/Helvetica /ISOLatin1Encoding 120 FMSR

5188 3529 mt 
(10) s
%%IncludeResource: font Helvetica
/Helvetica /ISOLatin1Encoding 80 FMSR

5321 3455 mt 
(-5) s
5447 3236 mt 5455 3236 L
6779 3236 mt 6770 3236 L
5447 3091 mt 5455 3091 L
6779 3091 mt 6770 3091 L
5447 2987 mt 5455 2987 L
6779 2987 mt 6770 2987 L
5447 2907 mt 5455 2907 L
6779 2907 mt 6770 2907 L
5447 2842 mt 5455 2842 L
6779 2842 mt 6770 2842 L
5447 2787 mt 5455 2787 L
6779 2787 mt 6770 2787 L
5447 2739 mt 5455 2739 L
6779 2739 mt 6770 2739 L
5447 2696 mt 5455 2696 L
6779 2696 mt 6770 2696 L
5447 2659 mt 5455 2659 L
6779 2659 mt 6770 2659 L
5447 2659 mt 5463 2659 L
6779 2659 mt 6762 2659 L
%%IncludeResource: font Helvetica
/Helvetica /ISOLatin1Encoding 120 FMSR

5188 2703 mt 
(10) s
%%IncludeResource: font Helvetica
/Helvetica /ISOLatin1Encoding 80 FMSR

5321 2629 mt 
(-4) s
5447 4312 mt 6779 4312 L
5447 2659 mt 6779 2659 L
5447 4312 mt 5447 2659 L
6779 4312 mt 6779 2659 L
gs 5447 2659 1333 1654 rc
DA
c9
9 0 9 0 9 0 9 0 9 0 9 0 9 0 9 0 
8 0 9 0 9 0 9 0 9 0 9 0 9 0 9 0 
8 0 9 0 9 0 9 -1 9 0 9 0 9 0 9 0 
8 0 9 0 9 0 9 0 9 0 9 0 9 0 9 0 
9 0 8 0 9 0 9 1 9 0 9 0 9 0 9 0 
9 0 8 0 9 0 9 0 9 0 9 0 9 0 9 0 
9 0 8 0 9 0 9 0 9 0 9 0 9 0 9 0 
9 0 9 0 8 0 9 0 9 1 9 0 9 0 9 0 
9 0 9 0 8 0 9 0 9 0 9 0 9 0 9 0 
9 0 9 0 8 0 9 0 9 0 9 0 9 0 9 0 
9 0 9 0 9 0 8 0 9 1 9 0 9 0 9 0 
9 0 9 0 9 0 8 0 9 0 9 0 9 0 9 0 
9 0 9 0 9 0 8 0 9 0 9 0 9 0 9 0 
9 0 9 0 9 0 9 0 8 0 9 0 9 0 9 0 
9 0 9 0 9 0 9 0 8 0 9 0 9 0 9 0 
9 0 9 0 9 0 9 0 8 0 9 0 9 0 9 0 
9 0 9 0 9 0 9 0 9 0 8 0 9 0 9 0 
9 0 9 0 9 0 9 0 9 0 8 0 9 0 9 0 
9 0 9 0 9 0 9 0 9 -90 5455 3495 150 MP stroke
SO
9 0 9 0 9 0 9 0 9 0 9 0 9 0 9 0 
8 0 9 0 9 0 9 0 9 0 9 0 9 0 9 0 
8 0 9 0 9 0 9 -1 9 0 9 0 9 0 9 0 
8 0 9 0 9 0 9 0 9 0 9 0 9 0 9 0 
9 0 8 0 9 0 9 1 9 0 9 0 9 0 9 0 
9 0 8 0 9 0 9 0 9 0 9 0 9 0 9 0 
9 0 8 0 9 0 9 0 9 0 9 0 9 0 9 0 
9 0 9 0 8 0 9 0 9 1 9 0 9 0 9 0 
9 0 9 0 8 0 9 0 9 0 9 0 9 0 9 0 
9 0 9 0 8 0 9 0 9 0 9 0 9 0 9 0 
9 0 9 0 9 0 8 0 9 1 9 0 9 0 9 0 
9 0 9 0 9 0 8 0 9 0 9 0 9 0 9 0 
9 0 9 0 9 0 8 0 9 0 9 0 9 0 9 0 
9 0 9 0 9 0 9 0 8 0 9 0 9 0 9 0 
9 0 9 0 9 0 9 0 8 0 9 0 9 0 9 0 
9 0 9 0 9 0 9 0 8 0 9 0 9 0 9 0 
9 0 9 0 9 0 9 0 9 0 8 0 9 0 9 0 
9 0 9 0 9 0 9 0 9 0 8 0 9 0 9 0 
9 0 9 0 9 0 9 0 9 -90 5455 3495 150 MP stroke
gr

c9
0 sg
%%IncludeResource: font Helvetica
/Helvetica /ISOLatin1Encoding 120 FMSR

6095 4600 mt 
(t) s
5098 3660 mt  -90 rotate
(error ) s
90 rotate
%%IncludeResource: font Symbol
/Symbol /ISOLatin1Encoding 120 FMSR

5098 3374 mt  -90 rotate
(l) s
90 rotate
1 sg
0 401 1230 0 0 -401 6247 433 4 MP
PP
-1230 0 0 401 1230 0 0 -401 6247 433 5 MP stroke
4 w
DO
SO
6 w
0 sg
6247  433 mt 7477  433 L
6247   32 mt 7477   32 L
6247  433 mt 6247   32 L
7477  433 mt 7477   32 L
6247  433 mt 7477  433 L
6247  433 mt 6247   32 L
6247  433 mt 7477  433 L
6247   32 mt 7477   32 L
6247  433 mt 6247   32 L
7477  433 mt 7477   32 L
%%IncludeResource: font Helvetica
/Helvetica /ISOLatin1Encoding 120 FMSR

6715  185 mt 
(second order) s
gs 6247 32 1231 402 rc
DA
c9
360 0 6318 142 2 MP stroke
SO
gr

c9
0 sg
6715  365 mt 
(first order) s
gs 6247 32 1231 402 rc
c9
360 0 6318 322 2 MP stroke
gr

c9

end %%Color Dict

eplot
%%EndObject

epage
end

showpage

%%Trailer
%%EOF
